%!PS-Adobe-2.0 EPSF-2.0
%%Creator: dvips(k) 2023.1 (TeX Live 2023)  Copyright 2023 Radical Eye Software
%%Title: mp-tex-limfonc-56.dvi
%%CreationDate: Sat Jan  6 11:52:38 2024
%%BoundingBox: 91 597 274 721
%%EndComments
%DVIPSWebPage: (www.radicaleye.com)
%DVIPSCommandLine: dvips -R0 -E mp-tex-limfonc-56.dvi -o
%+ mp-tex-limfonc-56.eps
%DVIPSParameters: dpi=600, compressed
%DVIPSSource:  TeX output 2024.01.06:1252
%%BeginProcSet: texc.pro 0 0
%!
/TeXDict 300 dict def TeXDict begin/N{def}def/B{bind def}N/S{exch}N/X{S
N}B/A{dup}B/TR{translate}N/isls false N/vsize 11 72 mul N/hsize 8.5 72
mul N/landplus90{false}def/@rigin{isls{[0 landplus90{1 -1}{-1 1}ifelse 0
0 0]concat}if 72 Resolution div 72 VResolution div neg scale isls{
landplus90{VResolution 72 div vsize mul 0 exch}{Resolution -72 div hsize
mul 0}ifelse TR}if Resolution VResolution vsize -72 div 1 add mul TR[
matrix currentmatrix{A A round sub abs 0.00001 lt{round}if}forall round
exch round exch]setmatrix}N/@landscape{/isls true N}B/@manualfeed{
statusdict/manualfeed true put}B/@copies{/#copies X}B/FMat[1 0 0 -1 0 0]
N/FBB[0 0 0 0]N/nn 0 N/IEn 0 N/ctr 0 N/df-tail{/nn 8 dict N nn begin
/FontType 3 N/FontMatrix fntrx N/FontBBox FBB N string/base X array
/BitMaps X/BuildChar{CharBuilder}N/Encoding IEn N end A{/foo setfont}2
array copy cvx N load 0 nn put/ctr 0 N[}B/sf 0 N/df{/sf 1 N/fntrx FMat N
df-tail}B/dfs{div/sf X/fntrx[sf 0 0 sf neg 0 0]N df-tail}B/E{pop nn A
definefont setfont}B/Cw{Cd A length 5 sub get}B/Ch{Cd A length 4 sub get
}B/Cx{128 Cd A length 3 sub get sub}B/Cy{Cd A length 2 sub get 127 sub}
B/Cdx{Cd A length 1 sub get}B/Ci{Cd A type/stringtype ne{ctr get/ctr ctr
1 add N}if}B/id 0 N/rw 0 N/rc 0 N/gp 0 N/cp 0 N/G 0 N/CharBuilder{save 3
1 roll S A/base get 2 index get S/BitMaps get S get/Cd X pop/ctr 0 N Cdx
0 Cx Cy Ch sub Cx Cw add Cy setcachedevice Cw Ch true[1 0 0 -1 -.1 Cx
sub Cy .1 sub]/id Ci N/rw Cw 7 add 8 idiv string N/rc 0 N/gp 0 N/cp 0 N{
rc 0 ne{rc 1 sub/rc X rw}{G}ifelse}imagemask restore}B/G{{id gp get/gp
gp 1 add N A 18 mod S 18 idiv pl S get exec}loop}B/adv{cp add/cp X}B
/chg{rw cp id gp 4 index getinterval putinterval A gp add/gp X adv}B/nd{
/cp 0 N rw exit}B/lsh{rw cp 2 copy get A 0 eq{pop 1}{A 255 eq{pop 254}{
A A add 255 and S 1 and or}ifelse}ifelse put 1 adv}B/rsh{rw cp 2 copy
get A 0 eq{pop 128}{A 255 eq{pop 127}{A 2 idiv S 128 and or}ifelse}
ifelse put 1 adv}B/clr{rw cp 2 index string putinterval adv}B/set{rw cp
fillstr 0 4 index getinterval putinterval adv}B/fillstr 18 string 0 1 17
{2 copy 255 put pop}for N/pl[{adv 1 chg}{adv 1 chg nd}{1 add chg}{1 add
chg nd}{adv lsh}{adv lsh nd}{adv rsh}{adv rsh nd}{1 add adv}{/rc X nd}{
1 add set}{1 add clr}{adv 2 chg}{adv 2 chg nd}{pop nd}]A{bind pop}
forall N/D{/cc X A type/stringtype ne{]}if nn/base get cc ctr put nn
/BitMaps get S ctr S sf 1 ne{A A length 1 sub A 2 index S get sf div put
}if put/ctr ctr 1 add N}B/I{cc 1 add D}B/bop{userdict/bop-hook known{
bop-hook}if/SI save N @rigin 0 0 moveto/V matrix currentmatrix A 1 get A
mul exch 0 get A mul add .99 lt{/QV}{/RV}ifelse load def pop pop}N/eop{
SI restore userdict/eop-hook known{eop-hook}if showpage}N/@start{
userdict/start-hook known{start-hook}if pop/VResolution X/Resolution X
1000 div/DVImag X/IEn 256 array N 2 string 0 1 255{IEn S A 360 add 36 4
index cvrs cvn put}for pop 65781.76 div/vsize X 65781.76 div/hsize X}N
/dir 0 def/dyy{/dir 0 def}B/dyt{/dir 1 def}B/dty{/dir 2 def}B/dtt{/dir 3
def}B/p{dir 2 eq{-90 rotate show 90 rotate}{dir 3 eq{-90 rotate show 90
rotate}{show}ifelse}ifelse}N/RMat[1 0 0 -1 0 0]N/BDot 260 string N/Rx 0
N/Ry 0 N/V{}B/RV/v{/Ry X/Rx X V}B statusdict begin/product where{pop
false[(Display)(NeXT)(LaserWriter 16/600)]{A length product length le{A
length product exch 0 exch getinterval eq{pop true exit}if}{pop}ifelse}
forall}{false}ifelse end{{gsave TR -.1 .1 TR 1 1 scale Rx Ry false RMat{
BDot}imagemask grestore}}{{gsave TR -.1 .1 TR Rx Ry scale 1 1 false RMat
{BDot}imagemask grestore}}ifelse B/QV{gsave newpath transform round exch
round exch itransform moveto Rx 0 rlineto 0 Ry neg rlineto Rx neg 0
rlineto fill grestore}B/a{moveto}B/delta 0 N/tail{A/delta X 0 rmoveto}B
/M{S p delta add tail}B/b{S p tail}B/c{-4 M}B/d{-3 M}B/e{-2 M}B/f{-1 M}
B/g{0 M}B/h{1 M}B/i{2 M}B/j{3 M}B/k{4 M}B/w{0 rmoveto}B/l{p -4 w}B/m{p
-3 w}B/n{p -2 w}B/o{p -1 w}B/q{p 1 w}B/r{p 2 w}B/s{p 3 w}B/t{p 4 w}B/x{
0 S rmoveto}B/y{3 2 roll p a}B/bos{/SS save N}B/eos{SS restore}B end

%%EndProcSet
%%BeginProcSet: l3backend-dvips.pro 0 0
%%
%% This is file `l3backend-dvips.pro',
%% generated with the docstrip utility.
%%
%% The original source files were:
%%
%% l3backend-header.dtx  (with options: `header,dvips')
%% 
%% Copyright (C) 2019-2023 The LaTeX Project
%% 
%% It may be distributed and/or modified under the conditions of
%% the LaTeX Project Public License (LPPL), either version 1.3c of
%% this license or (at your option) any later version.  The latest
%% version of this license is in the file:
%% 
%%    https://www.latex-project.org/lppl.txt
%% 
%% This file is part of the "l3backend bundle" (The Work in LPPL)
%% and all files in that bundle must be distributed together.
%% 
%% File: l3backend-header.dtx
/color.sc { } def
TeXDict begin
/TeXcolorseparation { setcolor } def
end
true setglobal
/pdf.globaldict 4 dict def
false setglobal
/pdf.cvs { 65534 string cvs } def
/pdf.dvi.pt { 72.27 mul Resolution div } def
/pdf.pt.dvi { 72.27 div Resolution mul } def
/pdf.rect.ht { dup 1 get neg exch 3 get add } def
/pdf.linkmargin { 1 pdf.pt.dvi } def
/pdf.linkdp.pad { 0 } def
/pdf.linkht.pad { 0 } def
/pdf.rect
  { /Rect [ pdf.llx pdf.lly pdf.urx pdf.ury ] } def
/pdf.save.ll
  {
    currentpoint
    /pdf.lly exch def
    /pdf.llx exch def
  }
    def
/pdf.save.ur
  {
    currentpoint
    /pdf.ury exch def
    /pdf.urx exch def
  }
    def
/pdf.save.linkll
  {
    currentpoint
    pdf.linkmargin add
    pdf.linkdp.pad add
    /pdf.lly exch def
    pdf.linkmargin sub
    /pdf.llx exch def
  }
    def
/pdf.save.linkur
  {
    currentpoint
    pdf.linkmargin sub
    pdf.linkht.pad sub
    /pdf.ury exch def
    pdf.linkmargin add
    /pdf.urx exch def
  }
    def
/pdf.dest.anchor
  {
    currentpoint exch
    pdf.dvi.pt 72 add
    /pdf.dest.x exch def
    pdf.dvi.pt
    vsize 72 sub exch sub
    /pdf.dest.y exch def
  }
    def
/pdf.dest.point
  { pdf.dest.x pdf.dest.y } def
/pdf.dest2device
  {
    /pdf.dest.y exch def
    /pdf.dest.x exch def
    matrix currentmatrix
    matrix defaultmatrix
    matrix invertmatrix
    matrix concatmatrix
    cvx exec
    /pdf.dev.y exch def
    /pdf.dev.x exch def
    /pdf.tmpd exch def
    /pdf.tmpc exch def
    /pdf.tmpb exch def
    /pdf.tmpa exch def
    pdf.dest.x pdf.tmpa mul
      pdf.dest.y pdf.tmpc mul add
      pdf.dev.x add
    pdf.dest.x pdf.tmpb mul
     pdf.dest.y pdf.tmpd mul add
     pdf.dev.y add
  }
    def
/pdf.bordertracking false def
/pdf.bordertracking.begin
  {
    SDict /pdf.bordertracking true put
    SDict /pdf.leftboundary undef
    SDict /pdf.rightboundary undef
    /a where
      {
        /a
          {
            currentpoint pop
            SDict /pdf.rightboundary known dup
              {
                SDict /pdf.rightboundary get 2 index lt
                  { not }
                if
              }
            if
              { pop }
              { SDict exch /pdf.rightboundary exch put }
            ifelse
            moveto
            currentpoint pop
            SDict /pdf.leftboundary known dup
              {
                SDict /pdf.leftboundary get 2 index gt
                  { not }
                if
              }
            if
              { pop }
              { SDict exch /pdf.leftboundary exch put }
            ifelse
          }
        put
      }
    if
  }
    def
/pdf.bordertracking.end
  {
    /a where { /a { moveto } put } if
    /x where { /x { 0 exch rmoveto } put } if
    SDict /pdf.leftboundary known
      { pdf.outerbox 0 pdf.leftboundary put }
    if
    SDict /pdf.rightboundary known
      { pdf.outerbox 2 pdf.rightboundary put }
    if
    SDict /pdf.bordertracking false put
  }
    def
  /pdf.bordertracking.endpage
{
  pdf.bordertracking
    {
      pdf.bordertracking.end
      true setglobal
      pdf.globaldict
        /pdf.brokenlink.rect [ pdf.outerbox aload pop ] put
      pdf.globaldict
        /pdf.brokenlink.skip pdf.baselineskip put
      pdf.globaldict
        /pdf.brokenlink.dict
          pdf.link.dict pdf.cvs put
      false setglobal
      mark pdf.link.dict cvx exec /Rect
        [
          pdf.llx
          pdf.lly
          pdf.outerbox 2 get pdf.linkmargin add
          currentpoint exch pop
          pdf.outerbox pdf.rect.ht sub pdf.linkmargin sub
        ]
      /ANN pdf.pdfmark
    }
  if
}
  def
/pdf.bordertracking.continue
  {
    /pdf.link.dict pdf.globaldict
      /pdf.brokenlink.dict get def
    /pdf.outerbox pdf.globaldict
      /pdf.brokenlink.rect get def
    /pdf.baselineskip pdf.globaldict
      /pdf.brokenlink.skip get def
    pdf.globaldict dup dup
    /pdf.brokenlink.dict undef
    /pdf.brokenlink.skip undef
    /pdf.brokenlink.rect undef
    currentpoint
    /pdf.originy exch def
    /pdf.originx exch def
    /a where
      {
        /a
          {
            moveto
            SDict
            begin
            currentpoint pdf.originy ne exch
              pdf.originx ne or
              {
                pdf.save.linkll
                /pdf.lly
                  pdf.lly pdf.outerbox 1 get sub def
                pdf.bordertracking.begin
              }
            if
            end
          }
        put
      }
    if
    /x where
      {
        /x
          {
            0 exch rmoveto
            SDict
            begin
            currentpoint
            pdf.originy ne exch pdf.originx ne or
              {
                pdf.save.linkll
                /pdf.lly
                  pdf.lly pdf.outerbox 1 get sub def
                pdf.bordertracking.begin
              }
            if
            end
          }
        put
      }
    if
  }
    def
/pdf.breaklink
  {
    pop
    counttomark 2 mod 0 eq
      {
        counttomark /pdf.count exch def
          {
           pdf.count 0 eq { exit } if
           counttomark 2 roll
           1 index /Rect eq
             {
               dup 4 array copy
               dup dup
                 1 get
                 pdf.outerbox pdf.rect.ht
                 pdf.linkmargin 2 mul add sub
                 3 exch put
               dup
                 pdf.outerbox 2 get
                 pdf.linkmargin add
                 2 exch put
               dup dup
                 3 get
                 pdf.outerbox pdf.rect.ht
                 pdf.linkmargin 2 mul add add
                 1 exch put
               /pdf.currentrect exch  def
               pdf.breaklink.write
                 {
                   pdf.currentrect
                   dup
                     pdf.outerbox 0 get
                     pdf.linkmargin sub
                     0 exch put
                   dup
                     pdf.outerbox 2 get
                     pdf.linkmargin add
                     2 exch put
                   dup dup
                     1 get
                     pdf.baselineskip add
                     1 exch put
                   dup dup
                     3 get
                     pdf.baselineskip add
                     3 exch put
                   /pdf.currentrect exch def
                   pdf.breaklink.write
                  }
                1 index 3 get
                pdf.linkmargin 2 mul add
                pdf.outerbox pdf.rect.ht add
                2 index 1 get sub
                pdf.baselineskip div round cvi 1 sub
                exch
              repeat
              pdf.currentrect
              dup
                pdf.outerbox 0 get
                pdf.linkmargin sub
                0 exch put
              dup dup
                1 get
                pdf.baselineskip add
                1 exch put
              dup dup
                3 get
                pdf.baselineskip add
                3 exch put
              dup 2 index 2 get  2 exch put
              /pdf.currentrect exch def
              pdf.breaklink.write
              SDict /pdf.pdfmark.good false put
              exit
            }
            { pdf.count 2 sub /pdf.count exch def }
          ifelse
        }
      loop
    }
  if
  /ANN
}
  def
/pdf.breaklink.write
  {
    counttomark 1 sub
    index /_objdef eq
      {
        counttomark -2 roll
        dup wcheck
          {
            readonly
            counttomark 2 roll
          }
          { pop pop }
        ifelse
      }
    if
    counttomark 1 add copy
    pop pdf.currentrect
    /ANN pdfmark
  }
    def
/pdf.pdfmark
  {
    SDict /pdf.pdfmark.good true put
    dup /ANN eq
      {
        pdf.pdfmark.store
        pdf.pdfmark.dict
          begin
            Subtype /Link eq
            currentdict /Rect known and
            SDict /pdf.outerbox known and
            SDict /pdf.baselineskip known and
              {
                Rect 3 get
                pdf.linkmargin 2 mul add
                pdf.outerbox pdf.rect.ht add
                Rect 1 get sub
                pdf.baselineskip div round cvi 0 gt
                  { pdf.breaklink }
                if
              }
            if
          end
        SDict /pdf.outerbox undef
        SDict /pdf.baselineskip undef
        currentdict /pdf.pdfmark.dict undef
      }
    if
    pdf.pdfmark.good
      { pdfmark }
      { cleartomark }
    ifelse
  }
    def
/pdf.pdfmark.store
  {
    /pdf.pdfmark.dict 65534 dict def
    counttomark 1 add copy
    pop
      {
        dup mark eq
          {
            pop
            exit
          }
          {
            pdf.pdfmark.dict
            begin def end
          }
        ifelse
      }
    loop
}
  def
%% 
%%
%% End of file `l3backend-dvips.pro'.

%%EndProcSet
%%BeginProcSet: special.pro 0 0
%!
TeXDict begin/SDict 200 dict N SDict begin/@SpecialDefaults{/hs 612 N
/vs 792 N/ho 0 N/vo 0 N/hsc 1 N/vsc 1 N/ang 0 N/CLIP 0 N/rwiSeen false N
/rhiSeen false N/letter{}N/note{}N/a4{}N/legal{}N}B/@scaleunit 100 N
/@hscale{@scaleunit div/hsc X}B/@vscale{@scaleunit div/vsc X}B/@hsize{
/hs X/CLIP 1 N}B/@vsize{/vs X/CLIP 1 N}B/@clip{/CLIP 2 N}B/@hoffset{/ho
X}B/@voffset{/vo X}B/@angle{/ang X}B/@rwi{10 div/rwi X/rwiSeen true N}B
/@rhi{10 div/rhi X/rhiSeen true N}B/@llx{/llx X}B/@lly{/lly X}B/@urx{
/urx X}B/@ury{/ury X}B/magscale true def end/@MacSetUp{userdict/md known
{userdict/md get type/dicttype eq{userdict begin md length 10 add md
maxlength ge{/md md dup length 20 add dict copy def}if end md begin
/letter{}N/note{}N/legal{}N/od{txpose 1 0 mtx defaultmatrix dtransform S
atan/pa X newpath clippath mark{transform{itransform moveto}}{transform{
itransform lineto}}{6 -2 roll transform 6 -2 roll transform 6 -2 roll
transform{itransform 6 2 roll itransform 6 2 roll itransform 6 2 roll
curveto}}{{closepath}}pathforall newpath counttomark array astore/gc xdf
pop ct 39 0 put 10 fz 0 fs 2 F/|______Courier fnt invertflag{PaintBlack}
if}N/txpose{pxs pys scale ppr aload pop por{noflips{pop S neg S TR pop 1
-1 scale}if xflip yflip and{pop S neg S TR 180 rotate 1 -1 scale ppr 3
get ppr 1 get neg sub neg ppr 2 get ppr 0 get neg sub neg TR}if xflip
yflip not and{pop S neg S TR pop 180 rotate ppr 3 get ppr 1 get neg sub
neg 0 TR}if yflip xflip not and{ppr 1 get neg ppr 0 get neg TR}if}{
noflips{TR pop pop 270 rotate 1 -1 scale}if xflip yflip and{TR pop pop
90 rotate 1 -1 scale ppr 3 get ppr 1 get neg sub neg ppr 2 get ppr 0 get
neg sub neg TR}if xflip yflip not and{TR pop pop 90 rotate ppr 3 get ppr
1 get neg sub neg 0 TR}if yflip xflip not and{TR pop pop 270 rotate ppr
2 get ppr 0 get neg sub neg 0 S TR}if}ifelse scaleby96{ppr aload pop 4
-1 roll add 2 div 3 1 roll add 2 div 2 copy TR .96 dup scale neg S neg S
TR}if}N/cp{pop pop showpage pm restore}N end}if}if}N/normalscale{
Resolution 72 div VResolution 72 div neg scale magscale{DVImag dup scale
}if 0 setgray}N/@beginspecial{SDict begin/SpecialSave save N gsave
normalscale currentpoint TR @SpecialDefaults count/ocount X/dcount
countdictstack N}N/@setspecial{CLIP 1 eq{newpath 0 0 moveto hs 0 rlineto
0 vs rlineto hs neg 0 rlineto closepath clip}if ho vo TR hsc vsc scale
ang rotate rwiSeen{rwi urx llx sub div rhiSeen{rhi ury lly sub div}{dup}
ifelse scale llx neg lly neg TR}{rhiSeen{rhi ury lly sub div dup scale
llx neg lly neg TR}if}ifelse CLIP 2 eq{newpath llx lly moveto urx lly
lineto urx ury lineto llx ury lineto closepath clip}if/showpage{}N
/erasepage{}N/setpagedevice{pop}N/copypage{}N newpath}N/@endspecial{
count ocount sub{pop}repeat countdictstack dcount sub{end}repeat
grestore SpecialSave restore end}N/@defspecial{SDict begin}N
/@fedspecial{end}B/li{lineto}B/rl{rlineto}B/rc{rcurveto}B/np{/SaveX
currentpoint/SaveY X N 1 setlinecap newpath}N/st{stroke SaveX SaveY
moveto}N/fil{fill SaveX SaveY moveto}N/ellipse{/endangle X/startangle X
/yrad X/xrad X/savematrix matrix currentmatrix N TR xrad yrad scale 0 0
1 startangle endangle arc savematrix setmatrix}N end

%%EndProcSet
TeXDict begin 40258437 52099154 1000 600 600 (mp-tex-limfonc-56.dvi)
@start end
%%EndProlog
%%BeginSetup
%%Feature: *Resolution 600dpi
TeXDict begin
 end
%%EndSetup
TeXDict begin 1 0 bop 166 1017 a @beginspecial -10 @llx
-10 @lly 171 @urx 112 @ury 1810 @rwi @setspecial
%%BeginDocument: limfonc.56
%!PS
%%BoundingBox: -10 -10 171 112 
%%HiResBoundingBox: -9.05446 -9.05446 170.82591 111.10143 
%%Creator: MetaPost 2.00
%%CreationDate: 2020.11.29:1444
%%Pages: 1
%%BeginProlog
%%EndProlog
%%Page: 1 1
 0 0 0 setrgbcolor 0 1.1 dtransform truncate idtransform setlinewidth pop
 [] 0 setdash 1 setlinecap 1 setlinejoin 10 setmiterlimit
newpath -8.50446 0 moveto
170.0787 0 lineto stroke
newpath 166.38297 -1.53087 moveto
170.0787 0 lineto
166.38297 1.53087 lineto
 closepath
gsave fill grestore stroke
 1.1 0 dtransform exch truncate exch idtransform pop setlinewidth
newpath 0 -8.50446 moveto
0 110.55142 lineto stroke
 0 1.1 dtransform truncate idtransform setlinewidth pop
newpath 1.53087 106.85568 moveto
0 110.55142 lineto
-1.53087 106.85568 lineto
 closepath
gsave fill grestore stroke
 0.66667 0.66667 0.66667 setrgbcolor 0 0.49814
 dtransform truncate idtransform setlinewidth pop
newpath 0 16.89471 moveto
1.1341 16.89471 lineto
2.2682 16.89471 lineto
3.4023 16.89471 lineto
4.5364 16.89471 lineto
5.6705 16.89471 lineto
6.802 16.89471 lineto
7.93611 16.89471 lineto
9.0702 16.89471 lineto
10.2043 16.89471 lineto
11.33841 16.89471 lineto
12.4725 16.89471 lineto
13.60661 16.89471 lineto
14.7407 16.89471 lineto
15.8748 16.89471 lineto
17.00891 16.89471 lineto
18.143 16.89471 lineto
19.27452 16.89471 lineto
20.40862 16.89471 lineto
21.54271 16.89471 lineto
22.67682 16.89471 lineto
23.81091 16.89471 lineto
24.94502 16.89471 lineto
26.07912 16.89471 lineto
27.21321 16.89471 lineto
28.34732 16.89471 lineto
29.48141 16.89471 lineto
30.61292 16.89471 lineto
31.74702 16.89471 lineto
32.88112 16.89471 lineto
34.01523 16.89471 lineto
35.14932 16.89471 lineto
36.28342 16.89471 lineto
37.41753 16.89471 lineto
38.55162 16.89471 lineto
39.68573 16.89471 lineto
40.81982 16.89471 lineto
41.95392 16.89471 lineto
43.08543 16.89471 lineto
44.21953 16.89471 lineto
45.35362 16.89471 lineto
46.48773 16.89471 lineto
47.62183 16.89471 lineto
48.75594 16.89471 lineto
49.89003 16.89471 lineto
51.02412 16.89471 lineto
52.15823 16.89471 lineto
53.29233 16.89471 lineto
54.42644 16.89471 lineto
55.55794 16.89471 lineto
56.69203 16.89471 lineto
57.82614 16.89471 lineto
58.96024 16.89471 lineto
60.09433 16.89471 lineto
61.22844 16.89471 lineto
62.36253 16.89471 lineto
63.49664 16.89471 lineto
64.63074 16.89471 lineto
65.76483 16.89471 lineto
66.89635 16.89471 lineto
68.03044 16.89471 lineto
69.16455 16.89471 lineto
70.29865 16.89471 lineto
71.43274 16.89471 lineto
72.56685 16.89471 lineto
73.70094 16.89471 lineto
74.83505 16.89471 lineto
75.96915 16.89471 lineto
77.10324 16.89471 lineto
78.23735 16.89471 lineto
79.36885 16.89471 lineto
80.50294 16.89471 lineto
81.63705 16.89471 lineto
82.77115 16.89471 lineto
83.90526 16.89471 lineto
85.03935 16.89471 lineto
86.17345 16.89471 lineto
87.30756 16.89471 lineto
88.44165 16.89471 lineto
89.57576 16.89471 lineto
90.70985 16.89471 lineto
91.84135 16.89471 lineto
92.97546 16.89471 lineto
94.10956 16.89471 lineto
95.24365 16.89471 lineto
96.37776 16.89471 lineto
97.51186 16.89471 lineto
98.64597 16.89471 lineto
99.78006 16.89471 lineto
100.91415 16.89471 lineto
102.04826 16.89471 lineto
103.18236 16.89471 lineto
104.31387 16.89471 lineto
105.44797 16.89471 lineto
106.58206 16.89471 lineto
107.71617 16.89471 lineto
108.85027 16.89471 lineto
109.98438 16.89471 lineto
111.11847 16.89471 lineto
112.25256 16.89471 lineto
113.38667 16.89471 lineto
114.52077 16.89471 lineto
115.65227 16.89471 lineto
116.78638 16.89471 lineto
117.92047 16.89471 lineto
119.05458 16.89471 lineto
120.18867 16.89471 lineto
121.32277 16.89471 lineto
122.45688 16.89471 lineto
123.59097 16.89471 lineto
124.72508 16.89471 lineto
125.85918 16.89471 lineto
126.99327 16.89471 lineto
128.12479 16.89471 lineto
129.25888 16.89471 lineto
130.39297 16.89471 lineto
131.52708 16.89471 lineto
132.66118 16.89471 lineto
133.79529 16.89471 lineto
134.92938 16.89471 lineto
136.06348 16.89471 lineto
137.19759 16.89471 lineto
138.33168 16.89471 lineto
139.46579 16.89471 lineto
140.59729 16.89471 lineto
141.73138 16.89471 lineto
142.8655 16.89471 lineto
143.99959 16.89471 lineto
145.13368 16.89471 lineto
146.26779 16.89471 lineto
147.40189 16.89471 lineto
148.536 16.89471 lineto
149.67009 16.89471 lineto
150.80418 16.89471 lineto
151.9357 16.89471 lineto
153.0698 16.89471 lineto
154.2039 16.89471 lineto
155.338 16.89471 lineto
156.47209 16.89471 lineto
157.6062 16.89471 lineto
158.7403 16.89471 lineto
159.8744 16.89471 lineto
161.0085 16.89471 lineto
162.1426 16.89471 lineto
163.2767 16.89471 lineto
164.4082 16.89471 lineto
165.5423 16.89471 lineto
166.6764 16.89471 lineto
167.8105 16.89471 lineto
168.94461 16.89471 lineto
170.0787 16.89471 lineto stroke
 0.6 0.6 0.6 setrgbcolor
newpath 0 14.10878 moveto
1.1341 14.10878 lineto
2.2682 14.10878 lineto
3.4023 14.10878 lineto
4.5364 14.10878 lineto
5.6705 14.10878 lineto
6.802 14.10878 lineto
7.93611 14.10878 lineto
9.0702 14.10878 lineto
10.2043 14.10878 lineto
11.33841 14.10878 lineto
12.4725 14.10878 lineto
13.60661 14.10878 lineto
14.7407 14.10878 lineto
15.8748 14.10878 lineto
17.00891 14.10878 lineto
18.143 14.10878 lineto
19.27452 14.10878 lineto
20.40862 14.10878 lineto
21.54271 14.10878 lineto
22.67682 14.10878 lineto
23.81091 14.10878 lineto
24.94502 14.10878 lineto
26.07912 14.10878 lineto
27.21321 14.10878 lineto
28.34732 14.10878 lineto
29.48141 14.10878 lineto
30.61292 14.10878 lineto
31.74702 14.10878 lineto
32.88112 14.10878 lineto
34.01523 14.10878 lineto
35.14932 14.10878 lineto
36.28342 14.10878 lineto
37.41753 14.10878 lineto
38.55162 14.10878 lineto
39.68573 14.10878 lineto
40.81982 14.10878 lineto
41.95392 14.10878 lineto
43.08543 14.10878 lineto
44.21953 14.10878 lineto
45.35362 14.10878 lineto
46.48773 14.10878 lineto
47.62183 14.10878 lineto
48.75594 14.10878 lineto
49.89003 14.10878 lineto
51.02412 14.10878 lineto
52.15823 14.10878 lineto
53.29233 14.10878 lineto
54.42644 14.10878 lineto
55.55794 14.10878 lineto
56.69203 14.10878 lineto
57.82614 14.10878 lineto
58.96024 14.10878 lineto
60.09433 14.10878 lineto
61.22844 14.10878 lineto
62.36253 14.10878 lineto
63.49664 14.10878 lineto
64.63074 14.10878 lineto
65.76483 14.10878 lineto
66.89635 14.10878 lineto
68.03044 14.10878 lineto
69.16455 14.10878 lineto
70.29865 14.10878 lineto
71.43274 14.10878 lineto
72.56685 14.10878 lineto
73.70094 14.10878 lineto
74.83505 14.10878 lineto
75.96915 14.10878 lineto
77.10324 14.10878 lineto
78.23735 14.10878 lineto
79.36885 14.10878 lineto
80.50294 14.10878 lineto
81.63705 14.10878 lineto
82.77115 14.10878 lineto
83.90526 14.10878 lineto
85.03935 14.10878 lineto
86.17345 14.10878 lineto
87.30756 14.10878 lineto
88.44165 14.10878 lineto
89.57576 14.10878 lineto
90.70985 14.10878 lineto
91.84135 14.10878 lineto
92.97546 14.10878 lineto
94.10956 14.10878 lineto
95.24365 14.10878 lineto
96.37776 14.10878 lineto
97.51186 14.10878 lineto
98.64597 14.10878 lineto
99.78006 14.10878 lineto
100.91415 14.10878 lineto
102.04826 14.10878 lineto
103.18236 14.10878 lineto
104.31387 14.10878 lineto
105.44797 14.10878 lineto
106.58206 14.10878 lineto
107.71617 14.10878 lineto
108.85027 14.10878 lineto
109.98438 14.10878 lineto
111.11847 14.10878 lineto
112.25256 14.10878 lineto
113.38667 14.10878 lineto
114.52077 14.10878 lineto
115.65227 14.10878 lineto
116.78638 14.10878 lineto
117.92047 14.10878 lineto
119.05458 14.10878 lineto
120.18867 14.10878 lineto
121.32277 14.10878 lineto
122.45688 14.10878 lineto
123.59097 14.10878 lineto
124.72508 14.10878 lineto
125.85918 14.10878 lineto
126.99327 14.10878 lineto
128.12479 14.10878 lineto
129.25888 14.10878 lineto
130.39297 14.10878 lineto
131.52708 14.10878 lineto
132.66118 14.10878 lineto
133.79529 14.10878 lineto
134.92938 14.10878 lineto
136.06348 14.10878 lineto
137.19759 14.10878 lineto
138.33168 14.10878 lineto
139.46579 14.10878 lineto
140.59729 14.10878 lineto
141.73138 14.10878 lineto
142.8655 14.10878 lineto
143.99959 14.10878 lineto
145.13368 14.10878 lineto
146.26779 14.10878 lineto
147.40189 14.10878 lineto
148.536 14.10878 lineto
149.67009 14.10878 lineto
150.80418 14.10878 lineto
151.9357 14.10878 lineto
153.0698 14.10878 lineto
154.2039 14.10878 lineto
155.338 14.10878 lineto
156.47209 14.10878 lineto
157.6062 14.10878 lineto
158.7403 14.10878 lineto
159.8744 14.10878 lineto
161.0085 14.10878 lineto
162.1426 14.10878 lineto
163.2767 14.10878 lineto
164.4082 14.10878 lineto
165.5423 14.10878 lineto
166.6764 14.10878 lineto
167.8105 14.10878 lineto
168.94461 14.10878 lineto
170.0787 14.10878 lineto stroke
 0.53334 0.53334 0.53334 setrgbcolor
newpath 0 12.10658 moveto
1.1341 12.10658 lineto
2.2682 12.10658 lineto
3.4023 12.10658 lineto
4.5364 12.10658 lineto
5.6705 12.10658 lineto
6.802 12.10658 lineto
7.93611 12.10658 lineto
9.0702 12.10658 lineto
10.2043 12.10658 lineto
11.33841 12.10658 lineto
12.4725 12.10658 lineto
13.60661 12.10658 lineto
14.7407 12.10658 lineto
15.8748 12.10658 lineto
17.00891 12.10658 lineto
18.143 12.10658 lineto
19.27452 12.10658 lineto
20.40862 12.10658 lineto
21.54271 12.10658 lineto
22.67682 12.10658 lineto
23.81091 12.10658 lineto
24.94502 12.10658 lineto
26.07912 12.10658 lineto
27.21321 12.10658 lineto
28.34732 12.10658 lineto
29.48141 12.10658 lineto
30.61292 12.10658 lineto
31.74702 12.10658 lineto
32.88112 12.10658 lineto
34.01523 12.10658 lineto
35.14932 12.10658 lineto
36.28342 12.10658 lineto
37.41753 12.10658 lineto
38.55162 12.10658 lineto
39.68573 12.10658 lineto
40.81982 12.10658 lineto
41.95392 12.10658 lineto
43.08543 12.10658 lineto
44.21953 12.10658 lineto
45.35362 12.10658 lineto
46.48773 12.10658 lineto
47.62183 12.10658 lineto
48.75594 12.10658 lineto
49.89003 12.10658 lineto
51.02412 12.10658 lineto
52.15823 12.10658 lineto
53.29233 12.10658 lineto
54.42644 12.10658 lineto
55.55794 12.10658 lineto
56.69203 12.10658 lineto
57.82614 12.10658 lineto
58.96024 12.10658 lineto
60.09433 12.10658 lineto
61.22844 12.10658 lineto
62.36253 12.10658 lineto
63.49664 12.10658 lineto
64.63074 12.10658 lineto
65.76483 12.10658 lineto
66.89635 12.10658 lineto
68.03044 12.10658 lineto
69.16455 12.10658 lineto
70.29865 12.10658 lineto
71.43274 12.10658 lineto
72.56685 12.10658 lineto
73.70094 12.10658 lineto
74.83505 12.10658 lineto
75.96915 12.10658 lineto
77.10324 12.10658 lineto
78.23735 12.10658 lineto
79.36885 12.10658 lineto
80.50294 12.10658 lineto
81.63705 12.10658 lineto
82.77115 12.10658 lineto
83.90526 12.10658 lineto
85.03935 12.10658 lineto
86.17345 12.10658 lineto
87.30756 12.10658 lineto
88.44165 12.10658 lineto
89.57576 12.10658 lineto
90.70985 12.10658 lineto
91.84135 12.10658 lineto
92.97546 12.10658 lineto
94.10956 12.10658 lineto
95.24365 12.10658 lineto
96.37776 12.10658 lineto
97.51186 12.10658 lineto
98.64597 12.10658 lineto
99.78006 12.10658 lineto
100.91415 12.10658 lineto
102.04826 12.10658 lineto
103.18236 12.10658 lineto
104.31387 12.10658 lineto
105.44797 12.10658 lineto
106.58206 12.10658 lineto
107.71617 12.10658 lineto
108.85027 12.10658 lineto
109.98438 12.10658 lineto
111.11847 12.10658 lineto
112.25256 12.10658 lineto
113.38667 12.10658 lineto
114.52077 12.10658 lineto
115.65227 12.10658 lineto
116.78638 12.10658 lineto
117.92047 12.10658 lineto
119.05458 12.10658 lineto
120.18867 12.10658 lineto
121.32277 12.10658 lineto
122.45688 12.10658 lineto
123.59097 12.10658 lineto
124.72508 12.10658 lineto
125.85918 12.10658 lineto
126.99327 12.10658 lineto
128.12479 12.10658 lineto
129.25888 12.10658 lineto
130.39297 12.10658 lineto
131.52708 12.10658 lineto
132.66118 12.10658 lineto
133.79529 12.10658 lineto
134.92938 12.10658 lineto
136.06348 12.10658 lineto
137.19759 12.10658 lineto
138.33168 12.10658 lineto
139.46579 12.10658 lineto
140.59729 12.10658 lineto
141.73138 12.10658 lineto
142.8655 12.10658 lineto
143.99959 12.10658 lineto
145.13368 12.10658 lineto
146.26779 12.10658 lineto
147.40189 12.10658 lineto
148.536 12.10658 lineto
149.67009 12.10658 lineto
150.80418 12.10658 lineto
151.9357 12.10658 lineto
153.0698 12.10658 lineto
154.2039 12.10658 lineto
155.338 12.10658 lineto
156.47209 12.10658 lineto
157.6062 12.10658 lineto
158.7403 12.10658 lineto
159.8744 12.10658 lineto
161.0085 12.10658 lineto
162.1426 12.10658 lineto
163.2767 12.10658 lineto
164.4082 12.10658 lineto
165.5423 12.10658 lineto
166.6764 12.10658 lineto
167.8105 12.10658 lineto
168.94461 12.10658 lineto
170.0787 12.10658 lineto stroke
 0.46666 0.46666 0.46666 setrgbcolor
newpath 0 10.60397 moveto
1.1341 10.60397 lineto
2.2682 10.60397 lineto
3.4023 10.60397 lineto
4.5364 10.60397 lineto
5.6705 10.60397 lineto
6.802 10.60397 lineto
7.93611 10.60397 lineto
9.0702 10.60397 lineto
10.2043 10.60397 lineto
11.33841 10.60397 lineto
12.4725 10.60397 lineto
13.60661 10.60397 lineto
14.7407 10.60397 lineto
15.8748 10.60397 lineto
17.00891 10.60397 lineto
18.143 10.60397 lineto
19.27452 10.60397 lineto
20.40862 10.60397 lineto
21.54271 10.60397 lineto
22.67682 10.60397 lineto
23.81091 10.60397 lineto
24.94502 10.60397 lineto
26.07912 10.60397 lineto
27.21321 10.60397 lineto
28.34732 10.60397 lineto
29.48141 10.60397 lineto
30.61292 10.60397 lineto
31.74702 10.60397 lineto
32.88112 10.60397 lineto
34.01523 10.60397 lineto
35.14932 10.60397 lineto
36.28342 10.60397 lineto
37.41753 10.60397 lineto
38.55162 10.60397 lineto
39.68573 10.60397 lineto
40.81982 10.60397 lineto
41.95392 10.60397 lineto
43.08543 10.60397 lineto
44.21953 10.60397 lineto
45.35362 10.60397 lineto
46.48773 10.60397 lineto
47.62183 10.60397 lineto
48.75594 10.60397 lineto
49.89003 10.60397 lineto
51.02412 10.60397 lineto
52.15823 10.60397 lineto
53.29233 10.60397 lineto
54.42644 10.60397 lineto
55.55794 10.60397 lineto
56.69203 10.60397 lineto
57.82614 10.60397 lineto
58.96024 10.60397 lineto
60.09433 10.60397 lineto
61.22844 10.60397 lineto
62.36253 10.60397 lineto
63.49664 10.60397 lineto
64.63074 10.60397 lineto
65.76483 10.60397 lineto
66.89635 10.60397 lineto
68.03044 10.60397 lineto
69.16455 10.60397 lineto
70.29865 10.60397 lineto
71.43274 10.60397 lineto
72.56685 10.60397 lineto
73.70094 10.60397 lineto
74.83505 10.60397 lineto
75.96915 10.60397 lineto
77.10324 10.60397 lineto
78.23735 10.60397 lineto
79.36885 10.60397 lineto
80.50294 10.60397 lineto
81.63705 10.60397 lineto
82.77115 10.60397 lineto
83.90526 10.60397 lineto
85.03935 10.60397 lineto
86.17345 10.60397 lineto
87.30756 10.60397 lineto
88.44165 10.60397 lineto
89.57576 10.60397 lineto
90.70985 10.60397 lineto
91.84135 10.60397 lineto
92.97546 10.60397 lineto
94.10956 10.60397 lineto
95.24365 10.60397 lineto
96.37776 10.60397 lineto
97.51186 10.60397 lineto
98.64597 10.60397 lineto
99.78006 10.60397 lineto
100.91415 10.60397 lineto
102.04826 10.60397 lineto
103.18236 10.60397 lineto
104.31387 10.60397 lineto
105.44797 10.60397 lineto
106.58206 10.60397 lineto
107.71617 10.60397 lineto
108.85027 10.60397 lineto
109.98438 10.60397 lineto
111.11847 10.60397 lineto
112.25256 10.60397 lineto
113.38667 10.60397 lineto
114.52077 10.60397 lineto
115.65227 10.60397 lineto
116.78638 10.60397 lineto
117.92047 10.60397 lineto
119.05458 10.60397 lineto
120.18867 10.60397 lineto
121.32277 10.60397 lineto
122.45688 10.60397 lineto
123.59097 10.60397 lineto
124.72508 10.60397 lineto
125.85918 10.60397 lineto
126.99327 10.60397 lineto
128.12479 10.60397 lineto
129.25888 10.60397 lineto
130.39297 10.60397 lineto
131.52708 10.60397 lineto
132.66118 10.60397 lineto
133.79529 10.60397 lineto
134.92938 10.60397 lineto
136.06348 10.60397 lineto
137.19759 10.60397 lineto
138.33168 10.60397 lineto
139.46579 10.60397 lineto
140.59729 10.60397 lineto
141.73138 10.60397 lineto
142.8655 10.60397 lineto
143.99959 10.60397 lineto
145.13368 10.60397 lineto
146.26779 10.60397 lineto
147.40189 10.60397 lineto
148.536 10.60397 lineto
149.67009 10.60397 lineto
150.80418 10.60397 lineto
151.9357 10.60397 lineto
153.0698 10.60397 lineto
154.2039 10.60397 lineto
155.338 10.60397 lineto
156.47209 10.60397 lineto
157.6062 10.60397 lineto
158.7403 10.60397 lineto
159.8744 10.60397 lineto
161.0085 10.60397 lineto
162.1426 10.60397 lineto
163.2767 10.60397 lineto
164.4082 10.60397 lineto
165.5423 10.60397 lineto
166.6764 10.60397 lineto
167.8105 10.60397 lineto
168.94461 10.60397 lineto
170.0787 10.60397 lineto stroke
 0.4 0.4 0.4 setrgbcolor
newpath 0 9.42964 moveto
1.1341 9.42964 lineto
2.2682 9.42964 lineto
3.4023 9.42964 lineto
4.5364 9.42964 lineto
5.6705 9.42964 lineto
6.802 9.42964 lineto
7.93611 9.42964 lineto
9.0702 9.42964 lineto
10.2043 9.42964 lineto
11.33841 9.42964 lineto
12.4725 9.42964 lineto
13.60661 9.42964 lineto
14.7407 9.42964 lineto
15.8748 9.42964 lineto
17.00891 9.42964 lineto
18.143 9.42964 lineto
19.27452 9.42964 lineto
20.40862 9.42964 lineto
21.54271 9.42964 lineto
22.67682 9.42964 lineto
23.81091 9.42964 lineto
24.94502 9.42964 lineto
26.07912 9.42964 lineto
27.21321 9.42964 lineto
28.34732 9.42964 lineto
29.48141 9.42964 lineto
30.61292 9.42964 lineto
31.74702 9.42964 lineto
32.88112 9.42964 lineto
34.01523 9.42964 lineto
35.14932 9.42964 lineto
36.28342 9.42964 lineto
37.41753 9.42964 lineto
38.55162 9.42964 lineto
39.68573 9.42964 lineto
40.81982 9.42964 lineto
41.95392 9.42964 lineto
43.08543 9.42964 lineto
44.21953 9.42964 lineto
45.35362 9.42964 lineto
46.48773 9.42964 lineto
47.62183 9.42964 lineto
48.75594 9.42964 lineto
49.89003 9.42964 lineto
51.02412 9.42964 lineto
52.15823 9.42964 lineto
53.29233 9.42964 lineto
54.42644 9.42964 lineto
55.55794 9.42964 lineto
56.69203 9.42964 lineto
57.82614 9.42964 lineto
58.96024 9.42964 lineto
60.09433 9.42964 lineto
61.22844 9.42964 lineto
62.36253 9.42964 lineto
63.49664 9.42964 lineto
64.63074 9.42964 lineto
65.76483 9.42964 lineto
66.89635 9.42964 lineto
68.03044 9.42964 lineto
69.16455 9.42964 lineto
70.29865 9.42964 lineto
71.43274 9.42964 lineto
72.56685 9.42964 lineto
73.70094 9.42964 lineto
74.83505 9.42964 lineto
75.96915 9.42964 lineto
77.10324 9.42964 lineto
78.23735 9.42964 lineto
79.36885 9.42964 lineto
80.50294 9.42964 lineto
81.63705 9.42964 lineto
82.77115 9.42964 lineto
83.90526 9.42964 lineto
85.03935 9.42964 lineto
86.17345 9.42964 lineto
87.30756 9.42964 lineto
88.44165 9.42964 lineto
89.57576 9.42964 lineto
90.70985 9.42964 lineto
91.84135 9.42964 lineto
92.97546 9.42964 lineto
94.10956 9.42964 lineto
95.24365 9.42964 lineto
96.37776 9.42964 lineto
97.51186 9.42964 lineto
98.64597 9.42964 lineto
99.78006 9.42964 lineto
100.91415 9.42964 lineto
102.04826 9.42964 lineto
103.18236 9.42964 lineto
104.31387 9.42964 lineto
105.44797 9.42964 lineto
106.58206 9.42964 lineto
107.71617 9.42964 lineto
108.85027 9.42964 lineto
109.98438 9.42964 lineto
111.11847 9.42964 lineto
112.25256 9.42964 lineto
113.38667 9.42964 lineto
114.52077 9.42964 lineto
115.65227 9.42964 lineto
116.78638 9.42964 lineto
117.92047 9.42964 lineto
119.05458 9.42964 lineto
120.18867 9.42964 lineto
121.32277 9.42964 lineto
122.45688 9.42964 lineto
123.59097 9.42964 lineto
124.72508 9.42964 lineto
125.85918 9.42964 lineto
126.99327 9.42964 lineto
128.12479 9.42964 lineto
129.25888 9.42964 lineto
130.39297 9.42964 lineto
131.52708 9.42964 lineto
132.66118 9.42964 lineto
133.79529 9.42964 lineto
134.92938 9.42964 lineto
136.06348 9.42964 lineto
137.19759 9.42964 lineto
138.33168 9.42964 lineto
139.46579 9.42964 lineto
140.59729 9.42964 lineto
141.73138 9.42964 lineto
142.8655 9.42964 lineto
143.99959 9.42964 lineto
145.13368 9.42964 lineto
146.26779 9.42964 lineto
147.40189 9.42964 lineto
148.536 9.42964 lineto
149.67009 9.42964 lineto
150.80418 9.42964 lineto
151.9357 9.42964 lineto
153.0698 9.42964 lineto
154.2039 9.42964 lineto
155.338 9.42964 lineto
156.47209 9.42964 lineto
157.6062 9.42964 lineto
158.7403 9.42964 lineto
159.8744 9.42964 lineto
161.0085 9.42964 lineto
162.1426 9.42964 lineto
163.2767 9.42964 lineto
164.4082 9.42964 lineto
165.5423 9.42964 lineto
166.6764 9.42964 lineto
167.8105 9.42964 lineto
168.94461 9.42964 lineto
170.0787 9.42964 lineto stroke
 0.33333 0.33333 0.33333 setrgbcolor
newpath 0 8.48888 moveto
1.1341 8.48888 lineto
2.2682 8.48888 lineto
3.4023 8.48888 lineto
4.5364 8.48888 lineto
5.6705 8.48888 lineto
6.802 8.48888 lineto
7.93611 8.48888 lineto
9.0702 8.48888 lineto
10.2043 8.48888 lineto
11.33841 8.48888 lineto
12.4725 8.48888 lineto
13.60661 8.48888 lineto
14.7407 8.48888 lineto
15.8748 8.48888 lineto
17.00891 8.48888 lineto
18.143 8.48888 lineto
19.27452 8.48888 lineto
20.40862 8.48888 lineto
21.54271 8.48888 lineto
22.67682 8.48888 lineto
23.81091 8.48888 lineto
24.94502 8.48888 lineto
26.07912 8.48888 lineto
27.21321 8.48888 lineto
28.34732 8.48888 lineto
29.48141 8.48888 lineto
30.61292 8.48888 lineto
31.74702 8.48888 lineto
32.88112 8.48888 lineto
34.01523 8.48888 lineto
35.14932 8.48888 lineto
36.28342 8.48888 lineto
37.41753 8.48888 lineto
38.55162 8.48888 lineto
39.68573 8.48888 lineto
40.81982 8.48888 lineto
41.95392 8.48888 lineto
43.08543 8.48888 lineto
44.21953 8.48888 lineto
45.35362 8.48888 lineto
46.48773 8.48888 lineto
47.62183 8.48888 lineto
48.75594 8.48888 lineto
49.89003 8.48888 lineto
51.02412 8.48888 lineto
52.15823 8.48888 lineto
53.29233 8.48888 lineto
54.42644 8.48888 lineto
55.55794 8.48888 lineto
56.69203 8.48888 lineto
57.82614 8.48888 lineto
58.96024 8.48888 lineto
60.09433 8.48888 lineto
61.22844 8.48888 lineto
62.36253 8.48888 lineto
63.49664 8.48888 lineto
64.63074 8.48888 lineto
65.76483 8.48888 lineto
66.89635 8.48888 lineto
68.03044 8.48888 lineto
69.16455 8.48888 lineto
70.29865 8.48888 lineto
71.43274 8.48888 lineto
72.56685 8.48888 lineto
73.70094 8.48888 lineto
74.83505 8.48888 lineto
75.96915 8.48888 lineto
77.10324 8.48888 lineto
78.23735 8.48888 lineto
79.36885 8.48888 lineto
80.50294 8.48888 lineto
81.63705 8.48888 lineto
82.77115 8.48888 lineto
83.90526 8.48888 lineto
85.03935 8.48888 lineto
86.17345 8.48888 lineto
87.30756 8.48888 lineto
88.44165 8.48888 lineto
89.57576 8.48888 lineto
90.70985 8.48888 lineto
91.84135 8.48888 lineto
92.97546 8.48888 lineto
94.10956 8.48888 lineto
95.24365 8.48888 lineto
96.37776 8.48888 lineto
97.51186 8.48888 lineto
98.64597 8.48888 lineto
99.78006 8.48888 lineto
100.91415 8.48888 lineto
102.04826 8.48888 lineto
103.18236 8.48888 lineto
104.31387 8.48888 lineto
105.44797 8.48888 lineto
106.58206 8.48888 lineto
107.71617 8.48888 lineto
108.85027 8.48888 lineto
109.98438 8.48888 lineto
111.11847 8.48888 lineto
112.25256 8.48888 lineto
113.38667 8.48888 lineto
114.52077 8.48888 lineto
115.65227 8.48888 lineto
116.78638 8.48888 lineto
117.92047 8.48888 lineto
119.05458 8.48888 lineto
120.18867 8.48888 lineto
121.32277 8.48888 lineto
122.45688 8.48888 lineto
123.59097 8.48888 lineto
124.72508 8.48888 lineto
125.85918 8.48888 lineto
126.99327 8.48888 lineto
128.12479 8.48888 lineto
129.25888 8.48888 lineto
130.39297 8.48888 lineto
131.52708 8.48888 lineto
132.66118 8.48888 lineto
133.79529 8.48888 lineto
134.92938 8.48888 lineto
136.06348 8.48888 lineto
137.19759 8.48888 lineto
138.33168 8.48888 lineto
139.46579 8.48888 lineto
140.59729 8.48888 lineto
141.73138 8.48888 lineto
142.8655 8.48888 lineto
143.99959 8.48888 lineto
145.13368 8.48888 lineto
146.26779 8.48888 lineto
147.40189 8.48888 lineto
148.536 8.48888 lineto
149.67009 8.48888 lineto
150.80418 8.48888 lineto
151.9357 8.48888 lineto
153.0698 8.48888 lineto
154.2039 8.48888 lineto
155.338 8.48888 lineto
156.47209 8.48888 lineto
157.6062 8.48888 lineto
158.7403 8.48888 lineto
159.8744 8.48888 lineto
161.0085 8.48888 lineto
162.1426 8.48888 lineto
163.2767 8.48888 lineto
164.4082 8.48888 lineto
165.5423 8.48888 lineto
166.6764 8.48888 lineto
167.8105 8.48888 lineto
168.94461 8.48888 lineto
170.0787 8.48888 lineto stroke
 0.26666 0.26666 0.26666 setrgbcolor
newpath 0 7.71811 moveto
1.1341 7.71811 lineto
2.2682 7.71811 lineto
3.4023 7.71811 lineto
4.5364 7.71811 lineto
5.6705 7.71811 lineto
6.802 7.71811 lineto
7.93611 7.71811 lineto
9.0702 7.71811 lineto
10.2043 7.71811 lineto
11.33841 7.71811 lineto
12.4725 7.71811 lineto
13.60661 7.71811 lineto
14.7407 7.71811 lineto
15.8748 7.71811 lineto
17.00891 7.71811 lineto
18.143 7.71811 lineto
19.27452 7.71811 lineto
20.40862 7.71811 lineto
21.54271 7.71811 lineto
22.67682 7.71811 lineto
23.81091 7.71811 lineto
24.94502 7.71811 lineto
26.07912 7.71811 lineto
27.21321 7.71811 lineto
28.34732 7.71811 lineto
29.48141 7.71811 lineto
30.61292 7.71811 lineto
31.74702 7.71811 lineto
32.88112 7.71811 lineto
34.01523 7.71811 lineto
35.14932 7.71811 lineto
36.28342 7.71811 lineto
37.41753 7.71811 lineto
38.55162 7.71811 lineto
39.68573 7.71811 lineto
40.81982 7.71811 lineto
41.95392 7.71811 lineto
43.08543 7.71811 lineto
44.21953 7.71811 lineto
45.35362 7.71811 lineto
46.48773 7.71811 lineto
47.62183 7.71811 lineto
48.75594 7.71811 lineto
49.89003 7.71811 lineto
51.02412 7.71811 lineto
52.15823 7.71811 lineto
53.29233 7.71811 lineto
54.42644 7.71811 lineto
55.55794 7.71811 lineto
56.69203 7.71811 lineto
57.82614 7.71811 lineto
58.96024 7.71811 lineto
60.09433 7.71811 lineto
61.22844 7.71811 lineto
62.36253 7.71811 lineto
63.49664 7.71811 lineto
64.63074 7.71811 lineto
65.76483 7.71811 lineto
66.89635 7.71811 lineto
68.03044 7.71811 lineto
69.16455 7.71811 lineto
70.29865 7.71811 lineto
71.43274 7.71811 lineto
72.56685 7.71811 lineto
73.70094 7.71811 lineto
74.83505 7.71811 lineto
75.96915 7.71811 lineto
77.10324 7.71811 lineto
78.23735 7.71811 lineto
79.36885 7.71811 lineto
80.50294 7.71811 lineto
81.63705 7.71811 lineto
82.77115 7.71811 lineto
83.90526 7.71811 lineto
85.03935 7.71811 lineto
86.17345 7.71811 lineto
87.30756 7.71811 lineto
88.44165 7.71811 lineto
89.57576 7.71811 lineto
90.70985 7.71811 lineto
91.84135 7.71811 lineto
92.97546 7.71811 lineto
94.10956 7.71811 lineto
95.24365 7.71811 lineto
96.37776 7.71811 lineto
97.51186 7.71811 lineto
98.64597 7.71811 lineto
99.78006 7.71811 lineto
100.91415 7.71811 lineto
102.04826 7.71811 lineto
103.18236 7.71811 lineto
104.31387 7.71811 lineto
105.44797 7.71811 lineto
106.58206 7.71811 lineto
107.71617 7.71811 lineto
108.85027 7.71811 lineto
109.98438 7.71811 lineto
111.11847 7.71811 lineto
112.25256 7.71811 lineto
113.38667 7.71811 lineto
114.52077 7.71811 lineto
115.65227 7.71811 lineto
116.78638 7.71811 lineto
117.92047 7.71811 lineto
119.05458 7.71811 lineto
120.18867 7.71811 lineto
121.32277 7.71811 lineto
122.45688 7.71811 lineto
123.59097 7.71811 lineto
124.72508 7.71811 lineto
125.85918 7.71811 lineto
126.99327 7.71811 lineto
128.12479 7.71811 lineto
129.25888 7.71811 lineto
130.39297 7.71811 lineto
131.52708 7.71811 lineto
132.66118 7.71811 lineto
133.79529 7.71811 lineto
134.92938 7.71811 lineto
136.06348 7.71811 lineto
137.19759 7.71811 lineto
138.33168 7.71811 lineto
139.46579 7.71811 lineto
140.59729 7.71811 lineto
141.73138 7.71811 lineto
142.8655 7.71811 lineto
143.99959 7.71811 lineto
145.13368 7.71811 lineto
146.26779 7.71811 lineto
147.40189 7.71811 lineto
148.536 7.71811 lineto
149.67009 7.71811 lineto
150.80418 7.71811 lineto
151.9357 7.71811 lineto
153.0698 7.71811 lineto
154.2039 7.71811 lineto
155.338 7.71811 lineto
156.47209 7.71811 lineto
157.6062 7.71811 lineto
158.7403 7.71811 lineto
159.8744 7.71811 lineto
161.0085 7.71811 lineto
162.1426 7.71811 lineto
163.2767 7.71811 lineto
164.4082 7.71811 lineto
165.5423 7.71811 lineto
166.6764 7.71811 lineto
167.8105 7.71811 lineto
168.94461 7.71811 lineto
170.0787 7.71811 lineto stroke
 0.2 0.2 0.2 setrgbcolor
newpath 0 7.0771 moveto
1.1341 7.0771 lineto
2.2682 7.0771 lineto
3.4023 7.0771 lineto
4.5364 7.0771 lineto
5.6705 7.0771 lineto
6.802 7.0771 lineto
7.93611 7.0771 lineto
9.0702 7.0771 lineto
10.2043 7.0771 lineto
11.33841 7.0771 lineto
12.4725 7.0771 lineto
13.60661 7.0771 lineto
14.7407 7.0771 lineto
15.8748 7.0771 lineto
17.00891 7.0771 lineto
18.143 7.0771 lineto
19.27452 7.0771 lineto
20.40862 7.0771 lineto
21.54271 7.0771 lineto
22.67682 7.0771 lineto
23.81091 7.0771 lineto
24.94502 7.0771 lineto
26.07912 7.0771 lineto
27.21321 7.0771 lineto
28.34732 7.0771 lineto
29.48141 7.0771 lineto
30.61292 7.0771 lineto
31.74702 7.0771 lineto
32.88112 7.0771 lineto
34.01523 7.0771 lineto
35.14932 7.0771 lineto
36.28342 7.0771 lineto
37.41753 7.0771 lineto
38.55162 7.0771 lineto
39.68573 7.0771 lineto
40.81982 7.0771 lineto
41.95392 7.0771 lineto
43.08543 7.0771 lineto
44.21953 7.0771 lineto
45.35362 7.0771 lineto
46.48773 7.0771 lineto
47.62183 7.0771 lineto
48.75594 7.0771 lineto
49.89003 7.0771 lineto
51.02412 7.0771 lineto
52.15823 7.0771 lineto
53.29233 7.0771 lineto
54.42644 7.0771 lineto
55.55794 7.0771 lineto
56.69203 7.0771 lineto
57.82614 7.0771 lineto
58.96024 7.0771 lineto
60.09433 7.0771 lineto
61.22844 7.0771 lineto
62.36253 7.0771 lineto
63.49664 7.0771 lineto
64.63074 7.0771 lineto
65.76483 7.0771 lineto
66.89635 7.0771 lineto
68.03044 7.0771 lineto
69.16455 7.0771 lineto
70.29865 7.0771 lineto
71.43274 7.0771 lineto
72.56685 7.0771 lineto
73.70094 7.0771 lineto
74.83505 7.0771 lineto
75.96915 7.0771 lineto
77.10324 7.0771 lineto
78.23735 7.0771 lineto
79.36885 7.0771 lineto
80.50294 7.0771 lineto
81.63705 7.0771 lineto
82.77115 7.0771 lineto
83.90526 7.0771 lineto
85.03935 7.0771 lineto
86.17345 7.0771 lineto
87.30756 7.0771 lineto
88.44165 7.0771 lineto
89.57576 7.0771 lineto
90.70985 7.0771 lineto
91.84135 7.0771 lineto
92.97546 7.0771 lineto
94.10956 7.0771 lineto
95.24365 7.0771 lineto
96.37776 7.0771 lineto
97.51186 7.0771 lineto
98.64597 7.0771 lineto
99.78006 7.0771 lineto
100.91415 7.0771 lineto
102.04826 7.0771 lineto
103.18236 7.0771 lineto
104.31387 7.0771 lineto
105.44797 7.0771 lineto
106.58206 7.0771 lineto
107.71617 7.0771 lineto
108.85027 7.0771 lineto
109.98438 7.0771 lineto
111.11847 7.0771 lineto
112.25256 7.0771 lineto
113.38667 7.0771 lineto
114.52077 7.0771 lineto
115.65227 7.0771 lineto
116.78638 7.0771 lineto
117.92047 7.0771 lineto
119.05458 7.0771 lineto
120.18867 7.0771 lineto
121.32277 7.0771 lineto
122.45688 7.0771 lineto
123.59097 7.0771 lineto
124.72508 7.0771 lineto
125.85918 7.0771 lineto
126.99327 7.0771 lineto
128.12479 7.0771 lineto
129.25888 7.0771 lineto
130.39297 7.0771 lineto
131.52708 7.0771 lineto
132.66118 7.0771 lineto
133.79529 7.0771 lineto
134.92938 7.0771 lineto
136.06348 7.0771 lineto
137.19759 7.0771 lineto
138.33168 7.0771 lineto
139.46579 7.0771 lineto
140.59729 7.0771 lineto
141.73138 7.0771 lineto
142.8655 7.0771 lineto
143.99959 7.0771 lineto
145.13368 7.0771 lineto
146.26779 7.0771 lineto
147.40189 7.0771 lineto
148.536 7.0771 lineto
149.67009 7.0771 lineto
150.80418 7.0771 lineto
151.9357 7.0771 lineto
153.0698 7.0771 lineto
154.2039 7.0771 lineto
155.338 7.0771 lineto
156.47209 7.0771 lineto
157.6062 7.0771 lineto
158.7403 7.0771 lineto
159.8744 7.0771 lineto
161.0085 7.0771 lineto
162.1426 7.0771 lineto
163.2767 7.0771 lineto
164.4082 7.0771 lineto
165.5423 7.0771 lineto
166.6764 7.0771 lineto
167.8105 7.0771 lineto
168.94461 7.0771 lineto
170.0787 7.0771 lineto stroke
 0.13333 0.13333 0.13333 setrgbcolor
newpath 0 6.536 moveto
1.1341 6.536 lineto
2.2682 6.536 lineto
3.4023 6.536 lineto
4.5364 6.536 lineto
5.6705 6.536 lineto
6.802 6.536 lineto
7.93611 6.536 lineto
9.0702 6.536 lineto
10.2043 6.536 lineto
11.33841 6.536 lineto
12.4725 6.536 lineto
13.60661 6.536 lineto
14.7407 6.536 lineto
15.8748 6.536 lineto
17.00891 6.536 lineto
18.143 6.536 lineto
19.27452 6.536 lineto
20.40862 6.536 lineto
21.54271 6.536 lineto
22.67682 6.536 lineto
23.81091 6.536 lineto
24.94502 6.536 lineto
26.07912 6.536 lineto
27.21321 6.536 lineto
28.34732 6.536 lineto
29.48141 6.536 lineto
30.61292 6.536 lineto
31.74702 6.536 lineto
32.88112 6.536 lineto
34.01523 6.536 lineto
35.14932 6.536 lineto
36.28342 6.536 lineto
37.41753 6.536 lineto
38.55162 6.536 lineto
39.68573 6.536 lineto
40.81982 6.536 lineto
41.95392 6.536 lineto
43.08543 6.536 lineto
44.21953 6.536 lineto
45.35362 6.536 lineto
46.48773 6.536 lineto
47.62183 6.536 lineto
48.75594 6.536 lineto
49.89003 6.536 lineto
51.02412 6.536 lineto
52.15823 6.536 lineto
53.29233 6.536 lineto
54.42644 6.536 lineto
55.55794 6.536 lineto
56.69203 6.536 lineto
57.82614 6.536 lineto
58.96024 6.536 lineto
60.09433 6.536 lineto
61.22844 6.536 lineto
62.36253 6.536 lineto
63.49664 6.536 lineto
64.63074 6.536 lineto
65.76483 6.536 lineto
66.89635 6.536 lineto
68.03044 6.536 lineto
69.16455 6.536 lineto
70.29865 6.536 lineto
71.43274 6.536 lineto
72.56685 6.536 lineto
73.70094 6.536 lineto
74.83505 6.536 lineto
75.96915 6.536 lineto
77.10324 6.536 lineto
78.23735 6.536 lineto
79.36885 6.536 lineto
80.50294 6.536 lineto
81.63705 6.536 lineto
82.77115 6.536 lineto
83.90526 6.536 lineto
85.03935 6.536 lineto
86.17345 6.536 lineto
87.30756 6.536 lineto
88.44165 6.536 lineto
89.57576 6.536 lineto
90.70985 6.536 lineto
91.84135 6.536 lineto
92.97546 6.536 lineto
94.10956 6.536 lineto
95.24365 6.536 lineto
96.37776 6.536 lineto
97.51186 6.536 lineto
98.64597 6.536 lineto
99.78006 6.536 lineto
100.91415 6.536 lineto
102.04826 6.536 lineto
103.18236 6.536 lineto
104.31387 6.536 lineto
105.44797 6.536 lineto
106.58206 6.536 lineto
107.71617 6.536 lineto
108.85027 6.536 lineto
109.98438 6.536 lineto
111.11847 6.536 lineto
112.25256 6.536 lineto
113.38667 6.536 lineto
114.52077 6.536 lineto
115.65227 6.536 lineto
116.78638 6.536 lineto
117.92047 6.536 lineto
119.05458 6.536 lineto
120.18867 6.536 lineto
121.32277 6.536 lineto
122.45688 6.536 lineto
123.59097 6.536 lineto
124.72508 6.536 lineto
125.85918 6.536 lineto
126.99327 6.536 lineto
128.12479 6.536 lineto
129.25888 6.536 lineto
130.39297 6.536 lineto
131.52708 6.536 lineto
132.66118 6.536 lineto
133.79529 6.536 lineto
134.92938 6.536 lineto
136.06348 6.536 lineto
137.19759 6.536 lineto
138.33168 6.536 lineto
139.46579 6.536 lineto
140.59729 6.536 lineto
141.73138 6.536 lineto
142.8655 6.536 lineto
143.99959 6.536 lineto
145.13368 6.536 lineto
146.26779 6.536 lineto
147.40189 6.536 lineto
148.536 6.536 lineto
149.67009 6.536 lineto
150.80418 6.536 lineto
151.9357 6.536 lineto
153.0698 6.536 lineto
154.2039 6.536 lineto
155.338 6.536 lineto
156.47209 6.536 lineto
157.6062 6.536 lineto
158.7403 6.536 lineto
159.8744 6.536 lineto
161.0085 6.536 lineto
162.1426 6.536 lineto
163.2767 6.536 lineto
164.4082 6.536 lineto
165.5423 6.536 lineto
166.6764 6.536 lineto
167.8105 6.536 lineto
168.94461 6.536 lineto
170.0787 6.536 lineto stroke
 0.06667 0.06667 0.06667 setrgbcolor
newpath 0 6.06886 moveto
1.1341 6.06886 lineto
2.2682 6.06886 lineto
3.4023 6.06886 lineto
4.5364 6.06886 lineto
5.6705 6.06886 lineto
6.802 6.06886 lineto
7.93611 6.06886 lineto
9.0702 6.06886 lineto
10.2043 6.06886 lineto
11.33841 6.06886 lineto
12.4725 6.06886 lineto
13.60661 6.06886 lineto
14.7407 6.06886 lineto
15.8748 6.06886 lineto
17.00891 6.06886 lineto
18.143 6.06886 lineto
19.27452 6.06886 lineto
20.40862 6.06886 lineto
21.54271 6.06886 lineto
22.67682 6.06886 lineto
23.81091 6.06886 lineto
24.94502 6.06886 lineto
26.07912 6.06886 lineto
27.21321 6.06886 lineto
28.34732 6.06886 lineto
29.48141 6.06886 lineto
30.61292 6.06886 lineto
31.74702 6.06886 lineto
32.88112 6.06886 lineto
34.01523 6.06886 lineto
35.14932 6.06886 lineto
36.28342 6.06886 lineto
37.41753 6.06886 lineto
38.55162 6.06886 lineto
39.68573 6.06886 lineto
40.81982 6.06886 lineto
41.95392 6.06886 lineto
43.08543 6.06886 lineto
44.21953 6.06886 lineto
45.35362 6.06886 lineto
46.48773 6.06886 lineto
47.62183 6.06886 lineto
48.75594 6.06886 lineto
49.89003 6.06886 lineto
51.02412 6.06886 lineto
52.15823 6.06886 lineto
53.29233 6.06886 lineto
54.42644 6.06886 lineto
55.55794 6.06886 lineto
56.69203 6.06886 lineto
57.82614 6.06886 lineto
58.96024 6.06886 lineto
60.09433 6.06886 lineto
61.22844 6.06886 lineto
62.36253 6.06886 lineto
63.49664 6.06886 lineto
64.63074 6.06886 lineto
65.76483 6.06886 lineto
66.89635 6.06886 lineto
68.03044 6.06886 lineto
69.16455 6.06886 lineto
70.29865 6.06886 lineto
71.43274 6.06886 lineto
72.56685 6.06886 lineto
73.70094 6.06886 lineto
74.83505 6.06886 lineto
75.96915 6.06886 lineto
77.10324 6.06886 lineto
78.23735 6.06886 lineto
79.36885 6.06886 lineto
80.50294 6.06886 lineto
81.63705 6.06886 lineto
82.77115 6.06886 lineto
83.90526 6.06886 lineto
85.03935 6.06886 lineto
86.17345 6.06886 lineto
87.30756 6.06886 lineto
88.44165 6.06886 lineto
89.57576 6.06886 lineto
90.70985 6.06886 lineto
91.84135 6.06886 lineto
92.97546 6.06886 lineto
94.10956 6.06886 lineto
95.24365 6.06886 lineto
96.37776 6.06886 lineto
97.51186 6.06886 lineto
98.64597 6.06886 lineto
99.78006 6.06886 lineto
100.91415 6.06886 lineto
102.04826 6.06886 lineto
103.18236 6.06886 lineto
104.31387 6.06886 lineto
105.44797 6.06886 lineto
106.58206 6.06886 lineto
107.71617 6.06886 lineto
108.85027 6.06886 lineto
109.98438 6.06886 lineto
111.11847 6.06886 lineto
112.25256 6.06886 lineto
113.38667 6.06886 lineto
114.52077 6.06886 lineto
115.65227 6.06886 lineto
116.78638 6.06886 lineto
117.92047 6.06886 lineto
119.05458 6.06886 lineto
120.18867 6.06886 lineto
121.32277 6.06886 lineto
122.45688 6.06886 lineto
123.59097 6.06886 lineto
124.72508 6.06886 lineto
125.85918 6.06886 lineto
126.99327 6.06886 lineto
128.12479 6.06886 lineto
129.25888 6.06886 lineto
130.39297 6.06886 lineto
131.52708 6.06886 lineto
132.66118 6.06886 lineto
133.79529 6.06886 lineto
134.92938 6.06886 lineto
136.06348 6.06886 lineto
137.19759 6.06886 lineto
138.33168 6.06886 lineto
139.46579 6.06886 lineto
140.59729 6.06886 lineto
141.73138 6.06886 lineto
142.8655 6.06886 lineto
143.99959 6.06886 lineto
145.13368 6.06886 lineto
146.26779 6.06886 lineto
147.40189 6.06886 lineto
148.536 6.06886 lineto
149.67009 6.06886 lineto
150.80418 6.06886 lineto
151.9357 6.06886 lineto
153.0698 6.06886 lineto
154.2039 6.06886 lineto
155.338 6.06886 lineto
156.47209 6.06886 lineto
157.6062 6.06886 lineto
158.7403 6.06886 lineto
159.8744 6.06886 lineto
161.0085 6.06886 lineto
162.1426 6.06886 lineto
163.2767 6.06886 lineto
164.4082 6.06886 lineto
165.5423 6.06886 lineto
166.6764 6.06886 lineto
167.8105 6.06886 lineto
168.94461 6.06886 lineto
170.0787 6.06886 lineto stroke
 0 0 0 setrgbcolor
newpath 0 5.66661 moveto
1.1341 5.66661 lineto
2.2682 5.66661 lineto
3.4023 5.66661 lineto
4.5364 5.66661 lineto
5.6705 5.66661 lineto
6.802 5.66661 lineto
7.93611 5.66661 lineto
9.0702 5.66661 lineto
10.2043 5.66661 lineto
11.33841 5.66661 lineto
12.4725 5.66661 lineto
13.60661 5.66661 lineto
14.7407 5.66661 lineto
15.8748 5.66661 lineto
17.00891 5.66661 lineto
18.143 5.66661 lineto
19.27452 5.66661 lineto
20.40862 5.66661 lineto
21.54271 5.66661 lineto
22.67682 5.66661 lineto
23.81091 5.66661 lineto
24.94502 5.66661 lineto
26.07912 5.66661 lineto
27.21321 5.66661 lineto
28.34732 5.66661 lineto
29.48141 5.66661 lineto
30.61292 5.66661 lineto
31.74702 5.66661 lineto
32.88112 5.66661 lineto
34.01523 5.66661 lineto
35.14932 5.66661 lineto
36.28342 5.66661 lineto
37.41753 5.66661 lineto
38.55162 5.66661 lineto
39.68573 5.66661 lineto
40.81982 5.66661 lineto
41.95392 5.66661 lineto
43.08543 5.66661 lineto
44.21953 5.66661 lineto
45.35362 5.66661 lineto
46.48773 5.66661 lineto
47.62183 5.66661 lineto
48.75594 5.66661 lineto
49.89003 5.66661 lineto
51.02412 5.66661 lineto
52.15823 5.66661 lineto
53.29233 5.66661 lineto
54.42644 5.66661 lineto
55.55794 5.66661 lineto
56.69203 5.66661 lineto
57.82614 5.66661 lineto
58.96024 5.66661 lineto
60.09433 5.66661 lineto
61.22844 5.66661 lineto
62.36253 5.66661 lineto
63.49664 5.66661 lineto
64.63074 5.66661 lineto
65.76483 5.66661 lineto
66.89635 5.66661 lineto
68.03044 5.66661 lineto
69.16455 5.66661 lineto
70.29865 5.66661 lineto
71.43274 5.66661 lineto
72.56685 5.66661 lineto
73.70094 5.66661 lineto
74.83505 5.66661 lineto
75.96915 5.66661 lineto
77.10324 5.66661 lineto
78.23735 5.66661 lineto
79.36885 5.66661 lineto
80.50294 5.66661 lineto
81.63705 5.66661 lineto
82.77115 5.66661 lineto
83.90526 5.66661 lineto
85.03935 5.66661 lineto
86.17345 5.66661 lineto
87.30756 5.66661 lineto
88.44165 5.66661 lineto
89.57576 5.66661 lineto
90.70985 5.66661 lineto
91.84135 5.66661 lineto
92.97546 5.66661 lineto
94.10956 5.66661 lineto
95.24365 5.66661 lineto
96.37776 5.66661 lineto
97.51186 5.66661 lineto
98.64597 5.66661 lineto
99.78006 5.66661 lineto
100.91415 5.66661 lineto
102.04826 5.66661 lineto
103.18236 5.66661 lineto
104.31387 5.66661 lineto
105.44797 5.66661 lineto
106.58206 5.66661 lineto
107.71617 5.66661 lineto
108.85027 5.66661 lineto
109.98438 5.66661 lineto
111.11847 5.66661 lineto
112.25256 5.66661 lineto
113.38667 5.66661 lineto
114.52077 5.66661 lineto
115.65227 5.66661 lineto
116.78638 5.66661 lineto
117.92047 5.66661 lineto
119.05458 5.66661 lineto
120.18867 5.66661 lineto
121.32277 5.66661 lineto
122.45688 5.66661 lineto
123.59097 5.66661 lineto
124.72508 5.66661 lineto
125.85918 5.66661 lineto
126.99327 5.66661 lineto
128.12479 5.66661 lineto
129.25888 5.66661 lineto
130.39297 5.66661 lineto
131.52708 5.66661 lineto
132.66118 5.66661 lineto
133.79529 5.66661 lineto
134.92938 5.66661 lineto
136.06348 5.66661 lineto
137.19759 5.66661 lineto
138.33168 5.66661 lineto
139.46579 5.66661 lineto
140.59729 5.66661 lineto
141.73138 5.66661 lineto
142.8655 5.66661 lineto
143.99959 5.66661 lineto
145.13368 5.66661 lineto
146.26779 5.66661 lineto
147.40189 5.66661 lineto
148.536 5.66661 lineto
149.67009 5.66661 lineto
150.80418 5.66661 lineto
151.9357 5.66661 lineto
153.0698 5.66661 lineto
154.2039 5.66661 lineto
155.338 5.66661 lineto
156.47209 5.66661 lineto
157.6062 5.66661 lineto
158.7403 5.66661 lineto
159.8744 5.66661 lineto
161.0085 5.66661 lineto
162.1426 5.66661 lineto
163.2767 5.66661 lineto
164.4082 5.66661 lineto
165.5423 5.66661 lineto
166.6764 5.66661 lineto
167.8105 5.66661 lineto
168.94461 5.66661 lineto
170.0787 5.66661 lineto stroke
 0.37057 0.56546 0.7 setrgbcolor 0 1.4944
 dtransform truncate idtransform setlinewidth pop
newpath 0 0 moveto
1.1341 1.1328 lineto
2.2682 2.2669 lineto
3.4023 3.4036 lineto
3.70363 3.70502 4.15819 4.15811 4.5364 4.53511 curveto
5.6705 5.66661 lineto
6.04767 6.04335 6.77519 6.77007 6.802 6.79681 curveto
7.93611 7.92572 lineto
9.0702 9.05334 lineto
10.2043 10.17966 lineto
11.33841 11.30338 lineto
12.4725 12.42969 lineto
13.60661 13.54951 lineto
14.7407 14.66675 lineto
15.8748 15.78139 lineto
15.92795 15.83357 16.63087 16.5236 17.00891 16.89471 curveto
17.38673 17.26561 17.79114 17.6626 18.143 18.00676 curveto
19.27452 19.10973 lineto
20.40862 20.21138 lineto
21.54271 21.31433 lineto
22.67682 22.40952 lineto
23.81091 23.5008 lineto
24.94502 24.58818 lineto
26.07912 25.67038 lineto
26.45706 26.0312 27.07765 26.62369 27.21321 26.75256 curveto
28.34732 27.82568 lineto
29.48141 28.8949 lineto
30.61292 29.95764 lineto
31.74702 31.01518 lineto
32.88112 32.06754 lineto
34.01523 33.11469 lineto
35.14932 34.15536 lineto
35.52711 34.50208 36.05005 34.98196 36.28342 35.19473 curveto
37.41753 36.22244 lineto
38.55162 37.24495 lineto
39.68573 38.25966 lineto
40.81982 39.2692 lineto
41.95392 40.27353 lineto
43.08543 41.2649 lineto
44.21953 42.25237 lineto
45.35362 43.23595 lineto
46.48773 44.20786 lineto
47.62183 45.17197 lineto
48.75594 46.1283 lineto
49.05956 46.3829 49.51178 46.76007 49.89003 47.07555 curveto
50.26765 47.39049 50.68936 47.7422 51.02412 48.01889 curveto
52.15823 48.94926 lineto
53.29233 49.87186 lineto
54.42644 50.78537 lineto
55.55794 51.6898 lineto
56.69203 52.58514 lineto
57.82614 53.4714 lineto
58.1787 53.7451 58.58188 54.05574 58.96024 54.34727 curveto
59.33777 54.63815 59.73198 54.9419 60.09433 55.21797 curveto
60.47113 55.50507 60.84955 55.79004 61.22844 56.07439 curveto
62.36253 56.9217 lineto
63.49664 57.75867 lineto
64.63074 58.58524 lineto
65.76483 59.40402 lineto
66.89635 60.20723 lineto
68.03044 61.00136 lineto
68.40788 61.26477 68.78549 61.52792 69.16455 61.789 curveto
69.54138 62.04854 69.91963 62.30602 70.29865 62.56236 curveto
71.43274 63.32405 lineto
72.56685 64.07407 lineto
73.70094 64.8137 lineto
74.0782 65.05843 74.45598 65.30235 74.83505 65.54425 curveto
75.21196 65.78476 75.59018 66.02324 75.96915 66.26051 curveto
77.10324 66.96512 lineto
78.23735 67.65804 lineto
79.36885 68.33797 lineto
80.50294 69.00624 lineto
81.63705 69.66283 lineto
82.77115 70.30643 lineto
83.14844 70.51884 83.52626 70.7303 83.90526 70.93965 curveto
84.28224 71.14789 84.66037 71.35403 85.03935 71.55861 curveto
86.17345 72.1646 lineto
87.30756 72.7576 lineto
88.44165 73.33762 lineto
88.81895 73.52895 89.19678 73.71928 89.57576 73.90726 curveto
89.95268 74.09421 90.33076 74.27882 90.70985 74.46133 curveto
91.08621 74.64253 91.46356 74.82166 91.84135 74.99985 curveto
92.21869 75.17781 92.59648 75.35486 92.97546 75.52927 curveto
93.35248 75.70277 93.73068 75.8737 94.10956 76.0431 curveto
94.48682 76.21179 94.86476 76.37898 95.24365 76.54398 curveto
95.62082 76.7082 95.99892 76.87027 96.37776 77.03058 curveto
97.51186 77.5042 lineto
98.64597 77.96484 lineto
99.02315 78.11578 99.40112 78.26476 99.78006 78.41122 curveto
100.15726 78.55702 100.53539 78.70036 100.91415 78.84203 curveto
101.2915 78.98317 101.66946 79.12263 102.04826 79.25986 curveto
102.42554 79.39651 102.8036 79.53093 103.18236 79.6634 curveto
104.31387 80.05269 lineto
104.69118 80.18031 105.06914 80.30595 105.44797 80.42899 curveto
105.82527 80.55151 106.2034 80.67143 106.58206 80.78972 curveto
106.95949 80.90762 107.33742 81.0239 107.71617 81.13748 curveto
108.09349 81.25064 108.47159 81.36113 108.85027 81.46967 curveto
109.22768 81.57784 109.60565 81.68405 109.98438 81.78757 curveto
110.36177 81.89072 110.7399 81.99117 111.11847 82.08992 curveto
111.49599 82.1884 111.87392 82.2852 112.25256 82.37927 curveto
112.62999 82.47304 113.00809 82.56409 113.38667 82.65308 curveto
113.76419 82.74182 114.14218 82.82852 114.52077 82.9126 curveto
114.89743 82.99625 115.27466 83.0773 115.65227 83.15654 curveto
116.02985 83.23576 116.4078 83.31319 116.78638 83.38751 curveto
117.16388 83.46162 117.54199 83.53268 117.92047 83.60161 curveto
118.29813 83.67038 118.67615 83.73705 119.05458 83.80144 curveto
119.43222 83.86569 119.81024 83.92767 120.18867 83.987 curveto
120.56631 84.04619 120.94438 84.10274 121.32277 84.15698 curveto
121.7005 84.21114 122.07854 84.263 122.45688 84.3127 curveto
122.8346 84.36232 123.2126 84.40977 123.59097 84.45413 curveto
123.9687 84.49841 124.34679 84.53958 124.72508 84.5787 curveto
125.10289 84.61778 125.4809 84.6548 125.85918 84.689 curveto
126.23698 84.72314 126.61505 84.75447 126.99327 84.78372 curveto
127.37027 84.81287 127.74744 84.83995 128.12479 84.86418 curveto
128.50266 84.88844 128.88072 84.90984 129.25888 84.92906 curveto
129.63681 84.94827 130.01483 84.9653 130.39297 84.97966 curveto
130.77092 84.994 131.14897 85.00568 131.52708 85.0147 curveto
131.90506 85.02371 132.28311 85.03006 132.66118 85.03416 curveto
133.0392 85.03827 133.41725 85.04015 133.79529 85.03935 curveto
134.17334 85.03856 134.55138 85.03511 134.92938 85.02898 curveto
135.30746 85.02284 135.6855 85.01405 136.06348 85.00302 curveto
136.4416 84.99199 136.81964 84.97873 137.19759 84.9628 curveto
137.57574 84.94687 137.95378 84.92825 138.33168 84.907 curveto
138.70987 84.88573 139.0879 84.86182 139.46579 84.83563 curveto
139.84314 84.8095 140.22032 84.78108 140.59729 84.74998 curveto
140.97554 84.71878 141.35356 84.68488 141.73138 84.64877 curveto
142.10966 84.61263 142.48772 84.57428 142.8655 84.5333 curveto
143.24382 84.49225 143.62187 84.44856 143.99959 84.40224 curveto
144.37793 84.35583 144.75595 84.3068 145.13368 84.2556 curveto
145.51205 84.20432 145.89012 84.15088 146.26779 84.0947 curveto
146.64621 84.0384 147.02422 83.97937 147.40189 83.91823 curveto
147.7803 83.85696 148.15839 83.79356 148.536 83.72748 curveto
148.91447 83.66124 149.29248 83.59229 149.67009 83.52116 curveto
150.04855 83.44987 150.4266 83.37642 150.80418 83.30057 curveto
151.18185 83.22469 151.55904 83.14642 151.9357 83.0657 curveto
152.31425 82.98459 152.69226 82.901 153.0698 82.81528 curveto
153.44836 82.72932 153.82643 82.64124 154.2039 82.55057 curveto
154.58255 82.45963 154.96056 82.36609 155.338 82.27028 curveto
155.71657 82.17418 156.09456 82.07579 156.47209 81.97572 curveto
156.85071 81.87538 157.22888 81.77335 157.6062 81.6682 curveto
157.98497 81.56265 158.36285 81.45398 158.7403 81.3438 curveto
159.11891 81.23328 159.49707 81.12125 159.8744 81.00642 curveto
160.25317 80.89117 160.63109 80.77312 161.0085 80.65347 curveto
161.38716 80.53343 161.76529 80.4118 162.1426 80.28755 curveto
162.52144 80.1628 162.8994 80.0354 163.2767 79.90605 curveto
164.4082 79.51158 lineto
164.78696 79.37733 165.16501 79.24115 165.5423 79.10284 curveto
165.92113 78.96397 166.29918 78.82298 166.6764 78.67982 curveto
167.0552 78.53606 167.43317 78.3901 167.8105 78.24254 curveto
168.18932 78.09439 168.56747 77.94461 168.94461 77.79227 curveto
169.3237 77.63914 169.70174 77.48341 170.0787 77.32513 curveto stroke
showpage
%%EOF

%%EndDocument
 @endspecial eop end
%%Trailer

userdict /end-hook known{end-hook}if
%%EOF
