<?xml version="1.0" encoding="UTF-8" standalone="no"?>
<svg
   xmlns:dc="http://purl.org/dc/elements/1.1/"
   xmlns:cc="http://creativecommons.org/ns#"
   xmlns:rdf="http://www.w3.org/1999/02/22-rdf-syntax-ns#"
   xmlns:svg="http://www.w3.org/2000/svg"
   xmlns="http://www.w3.org/2000/svg"
   xmlns:xlink="http://www.w3.org/1999/xlink"
   xmlns:sodipodi="http://sodipodi.sourceforge.net/DTD/sodipodi-0.dtd"
   xmlns:inkscape="http://www.inkscape.org/namespaces/inkscape"
   width="209.4759pt"
   height="61.272pt"
   viewBox="0 0 209.4759 61.272"
   version="1.1"
   id="svg217"
   sodipodi:docname="TabCos_b.svg"
   inkscape:version="1.0.1 (3bc2e813f5, 2020-09-07)">
  <metadata
     id="metadata221">
    <rdf:RDF>
      <cc:Work
         rdf:about="">
        <dc:format>image/svg+xml</dc:format>
        <dc:type
           rdf:resource="http://purl.org/dc/dcmitype/StillImage" />
        <dc:title></dc:title>
      </cc:Work>
    </rdf:RDF>
  </metadata>
  <sodipodi:namedview
     pagecolor="#ffffff"
     bordercolor="#666666"
     borderopacity="1"
     objecttolerance="10"
     gridtolerance="10"
     guidetolerance="10"
     inkscape:pageopacity="0"
     inkscape:pageshadow="2"
     inkscape:window-width="1918"
     inkscape:window-height="1044"
     id="namedview219"
     showgrid="false"
     inkscape:zoom="4.2606332"
     inkscape:cx="44.359604"
     inkscape:cy="40.848"
     inkscape:window-x="0"
     inkscape:window-y="34"
     inkscape:window-maximized="0"
     inkscape:current-layer="svg217"
     inkscape:document-rotation="0" />
  <defs
     id="defs88">
    <g
       id="g68">
      <symbol
         overflow="visible"
         id="glyph0-0">
        <path
           style="stroke:none"
           d=""
           id="path2" />
      </symbol>
      <symbol
         overflow="visible"
         id="glyph0-1">
        <path
           style="stroke:none"
           d="M 4.65625 -1.265625 C 4.4375 -0.859375 4.1875 -0.359375 3.921875 -0.359375 C 3.75 -0.359375 3.671875 -0.578125 3.46875 -1.390625 L 3.1875 -2.59375 C 3.515625 -3.1875 3.984375 -3.921875 4.25 -3.921875 C 4.328125 -3.921875 4.40625 -3.890625 4.5 -3.84375 C 4.59375 -3.8125 4.6875 -3.765625 4.796875 -3.765625 C 5 -3.765625 5.1875 -3.96875 5.1875 -4.203125 C 5.1875 -4.5 4.984375 -4.609375 4.71875 -4.609375 C 4.234375 -4.609375 3.828125 -4.171875 3.5 -3.65625 L 3.09375 -3.03125 L 3.078125 -3.03125 L 2.71875 -4.5625 L 2.65625 -4.609375 L 1.140625 -4.140625 L 1.171875 -3.921875 L 1.859375 -3.96875 C 2.03125 -3.984375 2.09375 -3.9375 2.1875 -3.515625 L 2.515625 -2.1875 L 2.265625 -1.75 C 1.875 -1.078125 1.53125 -0.59375 1.3125 -0.59375 C 1.21875 -0.59375 1.125 -0.640625 1.046875 -0.671875 C 0.953125 -0.71875 0.828125 -0.8125 0.671875 -0.8125 C 0.4375 -0.8125 0.28125 -0.578125 0.28125 -0.359375 C 0.28125 -0.09375 0.5 0.109375 0.875 0.109375 C 1.5 0.109375 1.859375 -0.515625 2.234375 -1.125 L 2.59375 -1.734375 L 2.609375 -1.734375 L 2.78125 -1.015625 C 2.953125 -0.28125 3.125 0.109375 3.59375 0.109375 C 4.265625 0.109375 4.609375 -0.578125 4.890625 -1.140625 Z M 4.65625 -1.265625 "
           id="path5" />
      </symbol>
      <symbol
         overflow="visible"
         id="glyph0-2">
        <path
           style="stroke:none"
           d="M 3.921875 -1.40625 C 3.609375 -0.984375 3.078125 -0.34375 2.453125 -0.34375 C 1.78125 -0.34375 1.65625 -0.890625 1.65625 -1.546875 C 1.65625 -2.734375 2.34375 -4.28125 3.1875 -4.28125 C 3.46875 -4.28125 3.671875 -4.09375 3.734375 -3.546875 C 3.75 -3.390625 3.828125 -3.28125 4 -3.28125 C 4.21875 -3.28125 4.59375 -3.484375 4.59375 -3.78125 C 4.59375 -4.25 4.09375 -4.609375 3.40625 -4.609375 C 1.765625 -4.609375 0.75 -2.859375 0.75 -1.359375 C 0.75 -0.234375 1.40625 0.109375 2.046875 0.109375 C 2.734375 0.109375 3.515625 -0.1875 4.140625 -1.234375 Z M 3.921875 -1.40625 "
           id="path8" />
      </symbol>
      <symbol
         overflow="visible"
         id="glyph0-3">
        <path
           style="stroke:none"
           d="M 3.453125 -4.28125 C 4.015625 -4.28125 4.21875 -3.890625 4.21875 -3.3125 C 4.21875 -2.671875 3.734375 -0.21875 2.484375 -0.21875 C 1.953125 -0.21875 1.65625 -0.53125 1.65625 -1.1875 C 1.65625 -2.171875 2.25 -4.28125 3.453125 -4.28125 Z M 3.46875 -4.609375 C 1.296875 -4.609375 0.765625 -2.34375 0.765625 -1.546875 C 0.765625 -0.5625 1.296875 0.109375 2.453125 0.109375 C 3.453125 0.109375 4.09375 -0.390625 4.53125 -1.0625 C 4.953125 -1.71875 5.109375 -2.5 5.109375 -3 C 5.109375 -4.265625 4.203125 -4.609375 3.46875 -4.609375 Z M 3.46875 -4.609375 "
           id="path11" />
      </symbol>
      <symbol
         overflow="visible"
         id="glyph0-4">
        <path
           style="stroke:none"
           d="M 2.796875 -4.609375 C 1.859375 -4.609375 1.3125 -4 1.3125 -3.25 C 1.3125 -2.78125 1.640625 -2.359375 2.125 -1.96875 C 2.515625 -1.65625 2.75 -1.25 2.75 -0.90625 C 2.75 -0.46875 2.46875 -0.21875 2.09375 -0.21875 C 1.75 -0.21875 1.40625 -0.5 1.265625 -0.984375 C 1.203125 -1.15625 1.125 -1.25 0.96875 -1.25 C 0.703125 -1.25 0.5 -1.015625 0.5 -0.765625 C 0.5 -0.359375 1 0.109375 1.875 0.109375 C 2.859375 0.109375 3.453125 -0.515625 3.453125 -1.28125 C 3.453125 -1.78125 3.234375 -2.171875 2.609375 -2.671875 C 2.0625 -3.125 1.96875 -3.4375 1.96875 -3.6875 C 1.96875 -3.984375 2.1875 -4.28125 2.53125 -4.28125 C 2.828125 -4.28125 3.078125 -4.078125 3.265625 -3.65625 C 3.3125 -3.546875 3.390625 -3.46875 3.515625 -3.46875 C 3.703125 -3.46875 3.96875 -3.609375 3.96875 -3.890625 C 3.96875 -4.171875 3.609375 -4.609375 2.796875 -4.609375 Z M 2.796875 -4.609375 "
           id="path14" />
      </symbol>
      <symbol
         overflow="visible"
         id="glyph1-0">
        <path
           style="stroke:none"
           d=""
           id="path17" />
      </symbol>
      <symbol
         overflow="visible"
         id="glyph1-1">
        <path
           style="stroke:none"
           d="M 5.828125 -2.328125 L 5.828125 -2.859375 L 0.78125 -2.859375 L 0.78125 -2.328125 Z M 5.828125 -2.328125 "
           id="path20" />
      </symbol>
      <symbol
         overflow="visible"
         id="glyph2-0">
        <path
           style="stroke:none"
           d=""
           id="path23" />
      </symbol>
      <symbol
         overflow="visible"
         id="glyph2-1">
        <path
           style="stroke:none"
           d="M 1.59375 -4.5 C 1.09375 -4.5 0.5625 -4.234375 0.3125 -3.671875 L 0.5 -3.546875 C 0.8125 -3.78125 1.203125 -3.890625 1.765625 -3.890625 C 1.75 -2.390625 1.6875 -0.9375 1.328125 -0.765625 C 1.140625 -0.6875 0.78125 -0.59375 0.78125 -0.328125 C 0.78125 0.109375 1.078125 0.140625 1.234375 0.140625 C 1.75 0.140625 2.046875 -0.5 2.140625 -0.90625 C 2.234375 -1.4375 2.28125 -2.578125 2.28125 -3.890625 L 3.46875 -3.890625 L 3.46875 -1.125 C 3.46875 -0.328125 3.65625 0.125 4.296875 0.125 C 4.71875 0.125 5.078125 -0.125 5.15625 -0.234375 L 5.046875 -0.4375 C 4.96875 -0.390625 4.875 -0.375 4.765625 -0.375 C 4.390625 -0.375 4.34375 -0.75 4.34375 -1.703125 L 4.34375 -3.890625 L 5.1875 -3.890625 L 5.40625 -4.609375 C 5.15625 -4.546875 4.734375 -4.5 4.296875 -4.5 Z M 1.59375 -4.5 "
           id="path26" />
      </symbol>
      <symbol
         overflow="visible"
         id="glyph3-0">
        <path
           style="stroke:none"
           d=""
           id="path29" />
      </symbol>
      <symbol
         overflow="visible"
         id="glyph3-1">
        <path
           style="stroke:none"
           d="M 2.4375 -5.921875 C 3.296875 -5.921875 3.546875 -4.5625 3.546875 -3.0625 C 3.546875 -1.5625 3.296875 -0.21875 2.4375 -0.21875 C 1.5625 -0.21875 1.3125 -1.5625 1.3125 -3.0625 C 1.3125 -4.5625 1.5625 -5.921875 2.4375 -5.921875 Z M 2.4375 -6.234375 C 0.921875 -6.234375 0.375 -4.890625 0.375 -3.0625 C 0.375 -1.234375 0.921875 0.109375 2.4375 0.109375 C 3.9375 0.109375 4.484375 -1.234375 4.484375 -3.0625 C 4.484375 -4.890625 3.9375 -6.234375 2.4375 -6.234375 Z M 2.4375 -6.234375 "
           id="path32" />
      </symbol>
      <symbol
         overflow="visible"
         id="glyph3-2">
        <path
           style="stroke:none"
           d="M -0.171875 -6.34375 L -0.171875 -6.078125 C 0.34375 -6.0625 0.453125 -6.03125 0.640625 -5.546875 C 0.9375 -4.765625 1.28125 -3.859375 1.59375 -2.9375 L 2.625 0 L 3.28125 0 L 4.453125 -3.171875 C 4.828125 -4.1875 5.203125 -5.125 5.421875 -5.609375 C 5.609375 -6.03125 5.71875 -6.046875 6.21875 -6.078125 L 6.21875 -6.34375 L 4.1875 -6.34375 L 4.1875 -6.078125 L 4.703125 -6.03125 C 4.9375 -6.015625 4.9375 -5.921875 4.890625 -5.75 C 4.796875 -5.34375 4.515625 -4.546875 4.1875 -3.625 L 3.234375 -0.984375 L 3.203125 -1.015625 L 2.359375 -3.359375 C 2.078125 -4.171875 1.78125 -4.96875 1.546875 -5.703125 C 1.484375 -5.9375 1.5 -6.015625 1.71875 -6.03125 L 2.203125 -6.078125 L 2.203125 -6.34375 Z M -0.171875 -6.34375 "
           id="path35" />
      </symbol>
      <symbol
         overflow="visible"
         id="glyph3-3">
        <path
           style="stroke:none"
           d="M 3.140625 -1.3125 C 3.140625 -0.5625 2.578125 -0.375 2.21875 -0.375 C 1.65625 -0.375 1.375 -0.78125 1.375 -1.328125 C 1.375 -1.75 1.578125 -1.96875 2.09375 -2.171875 C 2.453125 -2.296875 2.9375 -2.46875 3.140625 -2.609375 Z M 3.96875 -3.390625 C 3.96875 -3.921875 3.859375 -4.609375 2.46875 -4.609375 C 1.4375 -4.609375 0.609375 -4.0625 0.609375 -3.5625 C 0.609375 -3.265625 0.953125 -3.125 1.125 -3.125 C 1.328125 -3.125 1.375 -3.234375 1.421875 -3.390625 C 1.625 -4.0625 2 -4.28125 2.359375 -4.28125 C 2.71875 -4.28125 3.140625 -4.09375 3.140625 -3.359375 L 3.140625 -2.984375 C 2.921875 -2.75 2.03125 -2.515625 1.296875 -2.28125 C 0.640625 -2.078125 0.453125 -1.625 0.453125 -1.1875 C 0.453125 -0.5 0.90625 0.109375 1.765625 0.109375 C 2.34375 0.09375 2.84375 -0.25 3.140625 -0.4375 C 3.265625 -0.09375 3.40625 0.109375 3.734375 0.109375 C 4.078125 0.109375 4.46875 0.015625 4.8125 -0.171875 L 4.765625 -0.390625 C 4.625 -0.359375 4.4375 -0.34375 4.296875 -0.375 C 4.125 -0.40625 3.96875 -0.59375 3.96875 -1.171875 Z M 3.96875 -3.390625 "
           id="path38" />
      </symbol>
      <symbol
         overflow="visible"
         id="glyph3-4">
        <path
           style="stroke:none"
           d="M 1.734375 -4.609375 L 0.34375 -4.375 L 0.34375 -4.140625 L 0.6875 -4.09375 C 0.921875 -4.0625 0.984375 -4.015625 0.984375 -3.6875 L 0.984375 -0.796875 C 0.984375 -0.328125 0.9375 -0.3125 0.296875 -0.265625 L 0.296875 0 L 2.71875 0 L 2.71875 -0.265625 C 1.90625 -0.3125 1.84375 -0.328125 1.84375 -0.796875 L 1.84375 -2.9375 C 1.84375 -3.65625 2.15625 -3.890625 2.359375 -3.890625 C 2.515625 -3.890625 2.671875 -3.828125 2.9375 -3.6875 C 3 -3.65625 3.078125 -3.640625 3.125 -3.640625 C 3.34375 -3.640625 3.546875 -3.875 3.546875 -4.15625 C 3.546875 -4.359375 3.40625 -4.609375 3.046875 -4.609375 C 2.71875 -4.609375 2.453125 -4.40625 1.84375 -3.875 Z M 1.734375 -4.609375 "
           id="path41" />
      </symbol>
      <symbol
         overflow="visible"
         id="glyph3-5">
        <path
           style="stroke:none"
           d="M 0.34375 -4.375 L 0.34375 -4.140625 L 0.6875 -4.09375 C 0.921875 -4.0625 0.984375 -4.015625 0.984375 -3.6875 L 0.984375 -0.796875 C 0.984375 -0.328125 0.953125 -0.3125 0.296875 -0.265625 L 0.296875 0 L 2.53125 0 L 2.53125 -0.265625 C 1.875 -0.3125 1.84375 -0.328125 1.84375 -0.796875 L 1.84375 -4.546875 L 1.78125 -4.609375 Z M 1.40625 -6.5625 C 1.078125 -6.5625 0.84375 -6.3125 0.84375 -5.984375 C 0.84375 -5.671875 1.078125 -5.4375 1.40625 -5.4375 C 1.75 -5.4375 1.953125 -5.671875 1.96875 -5.984375 C 1.96875 -6.3125 1.75 -6.5625 1.40625 -6.5625 Z M 1.40625 -6.5625 "
           id="path44" />
      </symbol>
      <symbol
         overflow="visible"
         id="glyph3-6">
        <path
           style="stroke:none"
           d="M 2.984375 -4.125 L 2.984375 -4.5 L 1.8125 -4.5 L 1.8125 -5.65625 L 1.546875 -5.65625 L 0.984375 -4.5 L 0.28125 -4.5 L 0.28125 -4.125 L 0.9375 -4.125 L 0.9375 -0.9375 C 0.9375 0 1.640625 0.109375 1.96875 0.109375 C 2.4375 0.109375 2.875 -0.125 3.140625 -0.296875 L 3.0625 -0.484375 C 2.84375 -0.390625 2.640625 -0.359375 2.40625 -0.359375 C 2.09375 -0.359375 1.8125 -0.59375 1.8125 -1.28125 L 1.8125 -4.125 Z M 2.984375 -4.125 "
           id="path47" />
      </symbol>
      <symbol
         overflow="visible"
         id="glyph3-7">
        <path
           style="stroke:none"
           d="M 2.640625 -4.609375 C 1.171875 -4.609375 0.453125 -3.734375 0.453125 -2.25 C 0.453125 -0.765625 1.171875 0.109375 2.640625 0.109375 C 4.125 0.109375 4.84375 -0.765625 4.84375 -2.25 C 4.84375 -3.734375 4.125 -4.609375 2.640625 -4.609375 Z M 1.40625 -2.25 C 1.40625 -3.515625 1.8125 -4.28125 2.640625 -4.28125 C 3.5 -4.28125 3.890625 -3.515625 3.890625 -2.25 C 3.890625 -0.984375 3.5 -0.21875 2.640625 -0.21875 C 1.8125 -0.21875 1.40625 -0.984375 1.40625 -2.25 Z M 1.40625 -2.25 "
           id="path50" />
      </symbol>
      <symbol
         overflow="visible"
         id="glyph3-8">
        <path
           style="stroke:none"
           d="M 4.859375 -3.140625 C 4.859375 -4.078125 4.34375 -4.609375 3.5 -4.609375 C 2.828125 -4.609375 2.40625 -4.28125 1.828125 -3.90625 L 1.703125 -4.609375 L 0.34375 -4.375 L 0.34375 -4.140625 L 0.6875 -4.09375 C 0.921875 -4.0625 0.984375 -4.015625 0.984375 -3.6875 L 0.984375 -0.796875 C 0.984375 -0.328125 0.953125 -0.3125 0.296875 -0.265625 L 0.296875 0 L 2.53125 0 L 2.53125 -0.265625 C 1.875 -0.3125 1.84375 -0.328125 1.84375 -0.796875 L 1.84375 -2.9375 C 1.84375 -3.171875 1.859375 -3.296875 1.9375 -3.453125 C 2.125 -3.8125 2.546875 -4.109375 3.03125 -4.109375 C 3.65625 -4.109375 3.984375 -3.765625 3.984375 -2.96875 L 3.984375 -0.796875 C 3.984375 -0.328125 3.96875 -0.3125 3.296875 -0.265625 L 3.296875 0 L 5.546875 0 L 5.546875 -0.265625 C 4.890625 -0.3125 4.859375 -0.328125 4.859375 -0.796875 Z M 4.859375 -3.140625 "
           id="path53" />
      </symbol>
      <symbol
         overflow="visible"
         id="glyph3-9">
        <path
           style="stroke:none"
           d="M 3.359375 -3.21875 L 3.359375 -4.296875 C 3.0625 -4.515625 2.59375 -4.609375 2.1875 -4.609375 C 1.1875 -4.609375 0.515625 -4.140625 0.515625 -3.265625 C 0.515625 -2.5 1.140625 -2.171875 1.90625 -1.9375 C 2.3125 -1.8125 2.890625 -1.59375 2.890625 -0.96875 C 2.890625 -0.5 2.515625 -0.21875 2.03125 -0.21875 C 1.296875 -0.21875 0.875 -0.75 0.703125 -1.53125 L 0.4375 -1.53125 L 0.515625 -0.328125 C 0.859375 -0.03125 1.40625 0.109375 1.953125 0.109375 C 3.046875 0.109375 3.671875 -0.46875 3.671875 -1.25 C 3.671875 -2.046875 3.171875 -2.421875 2.234375 -2.71875 C 1.859375 -2.828125 1.25 -3.03125 1.25 -3.546875 C 1.25 -4.015625 1.609375 -4.28125 2.078125 -4.28125 C 2.71875 -4.28125 3.03125 -3.78125 3.09375 -3.21875 Z M 3.359375 -3.21875 "
           id="path56" />
      </symbol>
      <symbol
         overflow="visible"
         id="glyph3-10">
        <path
           style="stroke:none"
           d="M 5.34375 0 L 5.34375 -0.265625 C 4.703125 -0.3125 4.65625 -0.328125 4.65625 -0.796875 L 4.65625 -6.75 L 4.59375 -6.8125 L 3.15625 -6.578125 L 3.15625 -6.34375 L 3.5 -6.3125 C 3.734375 -6.28125 3.796875 -6.234375 3.796875 -5.890625 L 3.796875 -4.390625 C 3.546875 -4.515625 3.203125 -4.609375 2.78125 -4.609375 C 2.03125 -4.609375 1.46875 -4.359375 1.078125 -3.96875 C 0.6875 -3.5625 0.453125 -2.953125 0.453125 -2.15625 C 0.453125 -0.796875 1.15625 0.109375 2.359375 0.109375 C 2.859375 0.109375 3.296875 -0.109375 3.78125 -0.515625 L 3.78125 -0.0625 L 3.859375 0 Z M 3.796875 -1.5625 C 3.796875 -1.359375 3.78125 -1.203125 3.734375 -1.046875 C 3.546875 -0.5625 3.140625 -0.390625 2.671875 -0.390625 C 1.828125 -0.390625 1.40625 -1.203125 1.40625 -2.265625 C 1.40625 -3.453125 1.828125 -4.28125 2.765625 -4.28125 C 3.203125 -4.28125 3.546875 -4.078125 3.71875 -3.703125 C 3.78125 -3.546875 3.796875 -3.421875 3.796875 -3.171875 Z M 3.796875 -1.5625 "
           id="path59" />
      </symbol>
      <symbol
         overflow="visible"
         id="glyph3-11">
        <path
           style="stroke:none"
           d="M 4.046875 -2.40625 C 4.234375 -2.40625 4.40625 -2.453125 4.40625 -2.765625 C 4.40625 -3.296875 4.234375 -4.609375 2.5625 -4.609375 C 1.125 -4.609375 0.453125 -3.59375 0.453125 -2.203125 C 0.453125 -0.765625 1.078125 0.125 2.5625 0.109375 C 3.59375 0.09375 4.109375 -0.453125 4.359375 -1.1875 L 4.078125 -1.328125 C 3.828125 -0.796875 3.46875 -0.359375 2.75 -0.359375 C 1.609375 -0.359375 1.390625 -1.453125 1.40625 -2.40625 Z M 1.40625 -2.765625 C 1.40625 -3.140625 1.546875 -4.28125 2.5 -4.28125 C 3.359375 -4.28125 3.453125 -3.40625 3.453125 -3.046875 C 3.453125 -2.875 3.40625 -2.765625 3.140625 -2.765625 Z M 1.40625 -2.765625 "
           id="path62" />
      </symbol>
      <symbol
         overflow="visible"
         id="glyph3-12">
        <path
           style="stroke:none"
           d="M 4.015625 0 L 4.015625 -0.265625 L 3.234375 -0.328125 C 3.046875 -0.34375 2.9375 -0.421875 2.9375 -0.78125 L 2.9375 -6.1875 L 2.890625 -6.234375 L 1 -5.921875 L 1 -5.6875 L 1.859375 -5.578125 C 2.015625 -5.5625 2.078125 -5.5 2.078125 -5.234375 L 2.078125 -0.78125 C 2.078125 -0.609375 2.046875 -0.5 1.984375 -0.4375 C 1.9375 -0.359375 1.875 -0.34375 1.765625 -0.328125 L 1 -0.265625 L 1 0 Z M 4.015625 0 "
           id="path65" />
      </symbol>
    </g>
    <clipPath
       id="clip1">
      <path
         d="M 70 15 L 72 15 L 72 61.273438 L 70 61.273438 Z M 70 15 "
         id="path70" />
    </clipPath>
    <clipPath
       id="clip2">
      <path
         d="M 0 15 L 209.476562 15 L 209.476562 17 L 0 17 Z M 0 15 "
         id="path73" />
    </clipPath>
    <clipPath
       id="clip3">
      <path
         d="M 0 0 L 209.476562 0 L 209.476562 1 L 0 1 Z M 0 0 "
         id="path76" />
    </clipPath>
    <clipPath
       id="clip4">
      <path
         d="M 0 60 L 209.476562 60 L 209.476562 61.273438 L 0 61.273438 Z M 0 60 "
         id="path79" />
    </clipPath>
    <clipPath
       id="clip5">
      <path
         d="M 0 0 L 1 0 L 1 61.273438 L 0 61.273438 Z M 0 0 "
         id="path82" />
    </clipPath>
    <clipPath
       id="clip6">
      <path
         d="M 208 0 L 209.476562 0 L 209.476562 61.273438 L 208 61.273438 Z M 208 0 "
         id="path85" />
    </clipPath>
  </defs>
  <g
     id="surface1">
    <g
       style="fill:#000000;fill-opacity:1"
       id="g92">
      <use
         xlink:href="#glyph0-1"
         x="32.9921"
         y="10.41933"
         id="use90" />
    </g>
    <path
       style="fill:none;stroke-width:0.5;stroke-linecap:round;stroke-linejoin:round;stroke:#000000;stroke-opacity:1;stroke-miterlimit:10"
       d="M 70.65625 0.00003 L 70.65625 -15.941376 "
       transform="matrix(1,0,0,-1,0.25,0.25003)"
       id="path94" />
    <g
       style="fill:#000000;fill-opacity:1"
       id="g98">
      <use
         xlink:href="#glyph1-1"
         x="75.8862"
         y="10.48913"
         id="use96" />
    </g>
    <g
       style="fill:#000000;fill-opacity:1"
       id="g102">
      <use
         xlink:href="#glyph2-1"
         x="82.4815"
         y="10.48913"
         id="use100" />
    </g>
    <g
       style="fill:#000000;fill-opacity:1"
       id="g106">
      <use
         xlink:href="#glyph3-1"
         x="138.1127"
         y="11.26373"
         id="use104" />
    </g>
    <g
       style="fill:#000000;fill-opacity:1"
       id="g110">
      <use
         xlink:href="#glyph2-1"
         x="195.607"
         y="10.48913"
         id="use108" />
    </g>
    <g
       style="fill:#000000;fill-opacity:1"
       id="g114">
      <use
         xlink:href="#glyph3-2"
         x="8.4891"
         y="38.02583"
         id="use112" />
    </g>
    <g
       style="fill:#000000;fill-opacity:1"
       id="g120">
      <use
         xlink:href="#glyph3-3"
         x="13.750154"
         y="38.02583"
         id="use116" />
      <use
         xlink:href="#glyph3-4"
         x="18.543763"
         y="38.02583"
         id="use118" />
    </g>
    <g
       style="fill:#000000;fill-opacity:1"
       id="g124">
      <use
         xlink:href="#glyph3-5"
         x="22.173341"
         y="38.02583"
         id="use122" />
    </g>
    <g
       style="fill:#000000;fill-opacity:1"
       id="g130">
      <use
         xlink:href="#glyph3-3"
         x="24.849696"
         y="38.02583"
         id="use126" />
      <use
         xlink:href="#glyph3-6"
         x="29.643305"
         y="38.02583"
         id="use128" />
    </g>
    <g
       style="fill:#000000;fill-opacity:1"
       id="g136">
      <use
         xlink:href="#glyph3-5"
         x="32.787106"
         y="38.02583"
         id="use132" />
      <use
         xlink:href="#glyph3-7"
         x="35.454295"
         y="38.02583"
         id="use134" />
    </g>
    <g
       style="fill:#000000;fill-opacity:1"
       id="g140">
      <use
         xlink:href="#glyph3-8"
         x="40.752012"
         y="38.02583"
         id="use138" />
    </g>
    <g
       style="fill:#000000;fill-opacity:1"
       id="g144">
      <use
         xlink:href="#glyph3-9"
         x="46.416353"
         y="38.02583"
         id="use142" />
    </g>
    <g
       style="fill:#000000;fill-opacity:1"
       id="g150">
      <use
         xlink:href="#glyph3-10"
         x="52.474814"
         y="38.02583"
         id="use146" />
      <use
         xlink:href="#glyph3-11"
         x="57.955843"
         y="38.02583"
         id="use148" />
    </g>
    <g
       style="fill:#000000;fill-opacity:1"
       id="g154">
      <use
         xlink:href="#glyph0-2"
         x="28.3197"
         y="45.88633"
         id="use152" />
    </g>
    <g
       style="fill:#000000;fill-opacity:1"
       id="g158">
      <use
         xlink:href="#glyph0-3"
         x="33.085812"
         y="45.88633"
         id="use156" />
    </g>
    <g
       style="fill:#000000;fill-opacity:1"
       id="g162">
      <use
         xlink:href="#glyph0-4"
         x="38.704325"
         y="45.88633"
         id="use160" />
    </g>
    <g
       clip-path="url(#clip1)"
       clip-rule="nonzero"
       id="g166">
      <path
         style="fill:none;stroke-width:0.5;stroke-linecap:round;stroke-linejoin:round;stroke:#000000;stroke-opacity:1;stroke-miterlimit:10"
         d="M 70.65625 -15.941376 L 70.65625 -60.773407 "
         transform="matrix(1,0,0,-1,0.25,0.25003)"
         id="path164" />
    </g>
    <g
       style="fill:#000000;fill-opacity:1"
       id="g170">
      <use
         xlink:href="#glyph1-1"
         x="76.3644"
         y="56.67573"
         id="use168" />
    </g>
    <g
       style="fill:#000000;fill-opacity:1"
       id="g174">
      <use
         xlink:href="#glyph3-12"
         x="82.9597"
         y="56.67573"
         id="use172" />
    </g>
    <path
       style="fill:none;stroke-width:0.5;stroke-linecap:round;stroke-linejoin:round;stroke:#000000;stroke-opacity:1;stroke-miterlimit:10"
       d="M 89.570312 -49.390595 L 135.863281 -25.628876 "
       transform="matrix(1,0,0,-1,0.25,0.25003)"
       id="path176" />
    <path
       style="fill-rule:nonzero;fill:#000000;fill-opacity:1;stroke-width:0.5;stroke-linecap:round;stroke-linejoin:round;stroke:#000000;stroke-opacity:1;stroke-miterlimit:10"
       d="M 133.273438 -28.679657 L 135.863281 -25.628876 L 131.875 -25.953095 Z M 133.273438 -28.679657 "
       transform="matrix(1,0,0,-1,0.25,0.25003)"
       id="path178" />
    <g
       style="fill:#000000;fill-opacity:1"
       id="g182">
      <use
         xlink:href="#glyph3-12"
         x="138.1127"
         y="26.67343"
         id="use180" />
    </g>
    <path
       style="fill:none;stroke-width:0.5;stroke-linecap:round;stroke-linejoin:round;stroke:#000000;stroke-opacity:1;stroke-miterlimit:10"
       d="M 144.722656 -25.648407 L 190.539062 -49.359345 "
       transform="matrix(1,0,0,-1,0.25,0.25003)"
       id="path184" />
    <path
       style="fill-rule:nonzero;fill:#000000;fill-opacity:1;stroke-width:0.5;stroke-linecap:round;stroke-linejoin:round;stroke:#000000;stroke-opacity:1;stroke-miterlimit:10"
       d="M 186.550781 -49.019501 L 190.539062 -49.359345 L 187.960938 -46.300751 Z M 186.550781 -49.019501 "
       transform="matrix(1,0,0,-1,0.25,0.25003)"
       id="path186" />
    <g
       style="fill:#000000;fill-opacity:1"
       id="g190">
      <use
         xlink:href="#glyph1-1"
         x="192.7876"
         y="56.67573"
         id="use188" />
    </g>
    <g
       style="fill:#000000;fill-opacity:1"
       id="g194">
      <use
         xlink:href="#glyph3-12"
         x="199.3829"
         y="56.67573"
         id="use192" />
    </g>
    <g
       clip-path="url(#clip2)"
       clip-rule="nonzero"
       id="g198">
      <path
         style="fill:none;stroke-width:0.5;stroke-linecap:round;stroke-linejoin:round;stroke:#000000;stroke-opacity:1;stroke-miterlimit:10"
         d="M 0 -15.941376 L 208.976562 -15.941376 "
         transform="matrix(1,0,0,-1,0.25,0.25003)"
         id="path196" />
    </g>
    <g
       clip-path="url(#clip3)"
       clip-rule="nonzero"
       id="g202">
      <path
         style="fill:none;stroke-width:0.5;stroke-linecap:round;stroke-linejoin:round;stroke:#000000;stroke-opacity:1;stroke-miterlimit:10"
         d="M 0 0.00003 L 208.976562 0.00003 "
         transform="matrix(1,0,0,-1,0.25,0.25003)"
         id="path200" />
    </g>
    <g
       clip-path="url(#clip4)"
       clip-rule="nonzero"
       id="g206">
      <path
         style="fill:none;stroke-width:0.5;stroke-linecap:round;stroke-linejoin:round;stroke:#000000;stroke-opacity:1;stroke-miterlimit:10"
         d="M 0 -60.773407 L 208.976562 -60.773407 "
         transform="matrix(1,0,0,-1,0.25,0.25003)"
         id="path204" />
    </g>
    <g
       clip-path="url(#clip5)"
       clip-rule="nonzero"
       id="g210">
      <path
         style="fill:none;stroke-width:0.5;stroke-linecap:round;stroke-linejoin:round;stroke:#000000;stroke-opacity:1;stroke-miterlimit:10"
         d="M 0 0.00003 L 0 -60.773407 "
         transform="matrix(1,0,0,-1,0.25,0.25003)"
         id="path208" />
    </g>
    <g
       clip-path="url(#clip6)"
       clip-rule="nonzero"
       id="g214">
      <path
         style="fill:none;stroke-width:0.5;stroke-linecap:round;stroke-linejoin:round;stroke:#000000;stroke-opacity:1;stroke-miterlimit:10"
         d="M 208.976562 0.00003 L 208.976562 -60.773407 "
         transform="matrix(1,0,0,-1,0.25,0.25003)"
         id="path212" />
    </g>
  </g>
</svg>
