<?xml version="1.0" encoding="UTF-8"?>
<svg xmlns="http://www.w3.org/2000/svg" xmlns:xlink="http://www.w3.org/1999/xlink" width="349.4118pt" height="238.1109pt" viewBox="0 0 349.4118 238.1109" version="1.1">
<defs>
<g>
<symbol overflow="visible" id="glyph0-0">
<path style="stroke:none;" d=""/>
</symbol>
<symbol overflow="visible" id="glyph0-1">
<path style="stroke:none;" d="M 7.375 -4.34375 C 7.375 -5.953125 6.3125 -7.03125 4.828125 -7.03125 C 2.6875 -7.03125 0.484375 -4.765625 0.484375 -2.4375 C 0.484375 -0.78125 1.609375 0.21875 3.046875 0.21875 C 5.15625 0.21875 7.375 -1.96875 7.375 -4.34375 Z M 3.09375 -0.046875 C 2.109375 -0.046875 1.421875 -0.84375 1.421875 -2.15625 C 1.421875 -2.609375 1.5625 -4.0625 2.328125 -5.21875 C 3.015625 -6.265625 3.984375 -6.78125 4.78125 -6.78125 C 5.59375 -6.78125 6.484375 -6.21875 6.484375 -4.734375 C 6.484375 -4.015625 6.21875 -2.46875 5.234375 -1.234375 C 4.75 -0.625 3.9375 -0.046875 3.09375 -0.046875 Z M 3.09375 -0.046875 "/>
</symbol>
<symbol overflow="visible" id="glyph0-2">
<path style="stroke:none;" d="M 3.328125 -3.015625 C 3.390625 -3.265625 3.625 -4.1875 4.3125 -4.1875 C 4.359375 -4.1875 4.609375 -4.1875 4.8125 -4.0625 C 4.53125 -4 4.34375 -3.765625 4.34375 -3.515625 C 4.34375 -3.359375 4.453125 -3.171875 4.71875 -3.171875 C 4.9375 -3.171875 5.25 -3.34375 5.25 -3.75 C 5.25 -4.265625 4.671875 -4.40625 4.328125 -4.40625 C 3.75 -4.40625 3.40625 -3.875 3.28125 -3.65625 C 3.03125 -4.3125 2.5 -4.40625 2.203125 -4.40625 C 1.171875 -4.40625 0.59375 -3.125 0.59375 -2.875 C 0.59375 -2.765625 0.703125 -2.765625 0.71875 -2.765625 C 0.796875 -2.765625 0.828125 -2.796875 0.84375 -2.875 C 1.1875 -3.9375 1.84375 -4.1875 2.1875 -4.1875 C 2.375 -4.1875 2.71875 -4.09375 2.71875 -3.515625 C 2.71875 -3.203125 2.546875 -2.546875 2.1875 -1.140625 C 2.03125 -0.53125 1.671875 -0.109375 1.234375 -0.109375 C 1.171875 -0.109375 0.953125 -0.109375 0.734375 -0.234375 C 0.984375 -0.296875 1.203125 -0.5 1.203125 -0.78125 C 1.203125 -1.046875 0.984375 -1.125 0.84375 -1.125 C 0.53125 -1.125 0.296875 -0.875 0.296875 -0.546875 C 0.296875 -0.09375 0.78125 0.109375 1.21875 0.109375 C 1.890625 0.109375 2.25 -0.59375 2.265625 -0.640625 C 2.390625 -0.28125 2.75 0.109375 3.34375 0.109375 C 4.375 0.109375 4.9375 -1.171875 4.9375 -1.421875 C 4.9375 -1.53125 4.859375 -1.53125 4.828125 -1.53125 C 4.734375 -1.53125 4.71875 -1.484375 4.6875 -1.421875 C 4.359375 -0.34375 3.6875 -0.109375 3.375 -0.109375 C 2.984375 -0.109375 2.828125 -0.421875 2.828125 -0.765625 C 2.828125 -0.984375 2.875 -1.203125 2.984375 -1.640625 Z M 3.328125 -3.015625 "/>
</symbol>
<symbol overflow="visible" id="glyph0-3">
<path style="stroke:none;" d="M 4.84375 -3.796875 C 4.890625 -3.9375 4.890625 -3.953125 4.890625 -4.03125 C 4.890625 -4.203125 4.75 -4.296875 4.59375 -4.296875 C 4.5 -4.296875 4.34375 -4.234375 4.25 -4.09375 C 4.234375 -4.03125 4.140625 -3.734375 4.109375 -3.546875 C 4.03125 -3.296875 3.96875 -3.015625 3.90625 -2.75 L 3.453125 -0.953125 C 3.421875 -0.8125 2.984375 -0.109375 2.328125 -0.109375 C 1.828125 -0.109375 1.71875 -0.546875 1.71875 -0.921875 C 1.71875 -1.375 1.890625 -2 2.21875 -2.875 C 2.375 -3.28125 2.421875 -3.390625 2.421875 -3.59375 C 2.421875 -4.03125 2.109375 -4.40625 1.609375 -4.40625 C 0.65625 -4.40625 0.296875 -2.953125 0.296875 -2.875 C 0.296875 -2.765625 0.390625 -2.765625 0.40625 -2.765625 C 0.515625 -2.765625 0.515625 -2.796875 0.5625 -2.953125 C 0.84375 -3.890625 1.234375 -4.1875 1.578125 -4.1875 C 1.65625 -4.1875 1.828125 -4.1875 1.828125 -3.875 C 1.828125 -3.625 1.71875 -3.359375 1.65625 -3.171875 C 1.25 -2.109375 1.078125 -1.546875 1.078125 -1.078125 C 1.078125 -0.1875 1.703125 0.109375 2.296875 0.109375 C 2.6875 0.109375 3.015625 -0.0625 3.296875 -0.34375 C 3.171875 0.171875 3.046875 0.671875 2.65625 1.203125 C 2.390625 1.53125 2.015625 1.828125 1.5625 1.828125 C 1.421875 1.828125 0.96875 1.796875 0.796875 1.40625 C 0.953125 1.40625 1.09375 1.40625 1.21875 1.28125 C 1.328125 1.203125 1.421875 1.0625 1.421875 0.875 C 1.421875 0.5625 1.15625 0.53125 1.0625 0.53125 C 0.828125 0.53125 0.5 0.6875 0.5 1.171875 C 0.5 1.671875 0.9375 2.046875 1.5625 2.046875 C 2.578125 2.046875 3.609375 1.140625 3.890625 0.015625 Z M 4.84375 -3.796875 "/>
</symbol>
<symbol overflow="visible" id="glyph1-0">
<path style="stroke:none;" d=""/>
</symbol>
<symbol overflow="visible" id="glyph1-1">
<path style="stroke:none;" d="M 8.421875 -2.828125 L 8.484375 -3.296875 L 0.640625 -3.296875 L 0.546875 -2.828125 Z M 8.421875 -2.828125 "/>
</symbol>
<symbol overflow="visible" id="glyph1-2">
<path style="stroke:none;" d="M 3.59375 1.953125 C 2.0625 1.65625 1.96875 -1.25 1.96875 -3.28125 C 1.96875 -5.078125 2.078125 -8.109375 3.59375 -8.5 L 3.59375 -8.828125 C 2.359375 -8.609375 1.8125 -7.25 1.59375 -6.09375 C 1.40625 -5.203125 1.34375 -4.265625 1.34375 -3.34375 C 1.34375 -2.375 1.40625 -1.40625 1.5625 -0.453125 C 1.765625 0.6875 2.34375 2.125 3.59375 2.234375 Z M 3.59375 1.953125 "/>
</symbol>
<symbol overflow="visible" id="glyph1-3">
<path style="stroke:none;" d="M 1.03125 -8.46875 C 2 -8.125 2.265625 -7 2.453125 -6.109375 C 2.625 -5.1875 2.671875 -4.234375 2.671875 -3.296875 C 2.671875 -1.9375 2.703125 -0.484375 2.265625 0.796875 C 2.03125 1.515625 1.578125 1.828125 1.03125 1.96875 L 1.03125 2.265625 C 3.171875 1.984375 3.296875 -1.203125 3.296875 -3.25 C 3.296875 -5.25 3.046875 -8.375 1.03125 -8.796875 Z M 1.03125 -8.46875 "/>
</symbol>
<symbol overflow="visible" id="glyph2-0">
<path style="stroke:none;" d=""/>
</symbol>
<symbol overflow="visible" id="glyph2-1">
<path style="stroke:none;" d="M 5.046875 -5.515625 C 5.015625 -5.546875 5 -5.546875 4.96875 -5.546875 C 4.9375 -5.546875 4.90625 -5.546875 4.90625 -5.515625 C 4.375 -4.90625 3.671875 -4.078125 3.234375 -3.5 L 3.171875 -3.515625 C 2.828125 -4.1875 2.328125 -5.046875 2.078125 -5.3125 C 1.90625 -5.5 1.640625 -5.546875 1.4375 -5.546875 C 1.046875 -5.546875 0.4375 -5.109375 0.03125 -4.78125 L 0.1875 -4.5625 C 0.40625 -4.703125 0.703125 -4.859375 0.953125 -4.859375 C 1.546875 -4.859375 2.109375 -3.578125 2.5625 -2.671875 C 1.984375 -1.90625 1.390625 -1.078125 0.875 -0.25 L 0.875 -0.15625 L 1.203125 0.140625 L 1.40625 0.09375 C 1.75 -0.828125 2.234375 -1.5625 2.703125 -2.28125 L 2.78125 -2.28125 C 3.578125 -0.734375 3.984375 0.140625 4.59375 0.140625 C 5.09375 0.140625 5.703125 -0.53125 6.125 -0.984375 L 6.03125 -1.203125 L 5.921875 -1.203125 C 5.6875 -1 5.359375 -0.75 5.078125 -0.75 C 4.546875 -0.75 3.84375 -2.015625 3.359375 -3.09375 C 3.984375 -3.828125 4.75 -4.609375 5.421875 -5.0625 C 5.4375 -5.078125 5.453125 -5.09375 5.453125 -5.125 C 5.453125 -5.140625 5.421875 -5.15625 5.421875 -5.171875 Z M 5.046875 -5.515625 "/>
</symbol>
<symbol overflow="visible" id="glyph2-2">
<path style="stroke:none;" d="M 0.5625 -5.1875 L 0.484375 -5.109375 L 0.4375 -4.859375 L 0.484375 -4.765625 L 1.828125 -4.765625 L 1.90625 -4.671875 L 1.90625 -3.375 C 1.90625 -2.296875 1.828125 -1.171875 1.75 0.015625 L 1.953125 0.140625 L 2.890625 -0.140625 C 2.8125 -1.109375 2.765625 -2.25 2.765625 -3.375 L 2.765625 -4.703125 L 2.84375 -4.765625 L 4.21875 -4.765625 L 4.296875 -4.84375 L 4.390625 -5.109375 L 4.328125 -5.1875 L 2.84375 -5.1875 L 2.796875 -5.265625 C 2.796875 -6.484375 3 -7.515625 3.515625 -7.515625 C 4.078125 -7.515625 4.15625 -7 4.203125 -6.75 L 4.34375 -6.703125 L 5.046875 -7.34375 C 4.890625 -7.671875 4.578125 -8 3.9375 -8 C 3.171875 -8 2.46875 -7.546875 2.109375 -6.71875 C 1.90625 -6.28125 1.890625 -5.671875 1.890625 -5.265625 L 1.8125 -5.1875 Z M 0.5625 -5.1875 "/>
</symbol>
</g>
<clipPath id="clip1">
  <path d="M 0 0 L 178.582031 0 L 178.582031 238.109375 L 0 238.109375 Z M 0 0 "/>
</clipPath>
<clipPath id="clip2">
  <path d="M 7 118 L 349.410156 118 L 349.410156 120 L 7 120 Z M 7 118 "/>
</clipPath>
<clipPath id="clip3">
  <path d="M 344 116 L 349.410156 116 L 349.410156 122 L 344 122 Z M 344 116 "/>
</clipPath>
<clipPath id="clip4">
  <path d="M 177 0 L 349.410156 0 L 349.410156 234 L 177 234 Z M 177 0 "/>
</clipPath>
</defs>
<g id="surface1">
<g clip-path="url(#clip1)" clip-rule="nonzero">
<path style=" stroke:none;fill-rule:nonzero;fill:rgb(100%,50%,0%);fill-opacity:1;" d="M -76.535156 289.132812 L 178.582031 289.132812 L 178.582031 -51.023438 L -76.535156 -51.023438 Z M -76.535156 289.132812 "/>
</g>
<g clip-path="url(#clip2)" clip-rule="nonzero">
<path style="fill:none;stroke-width:1.1;stroke-linecap:round;stroke-linejoin:round;stroke:rgb(100%,100%,100%);stroke-opacity:1;stroke-miterlimit:10;" d="M -170.079254 0.0007725 L 170.076996 0.0007725 " transform="matrix(1,0,0,-1,178.58316,119.05546)"/>
</g>
<path style=" stroke:none;fill-rule:nonzero;fill:rgb(100%,100%,100%);fill-opacity:1;" d="M 344.964844 120.585938 L 348.660156 119.054688 L 344.964844 117.523438 Z M 344.964844 120.585938 "/>
<g clip-path="url(#clip3)" clip-rule="nonzero">
<path style="fill:none;stroke-width:1.1;stroke-linecap:round;stroke-linejoin:round;stroke:rgb(100%,100%,100%);stroke-opacity:1;stroke-miterlimit:10;" d="M 166.381684 -1.530478 L 170.076996 0.0007725 L 166.381684 1.532022 Z M 166.381684 -1.530478 " transform="matrix(1,0,0,-1,178.58316,119.05546)"/>
</g>
<path style="fill:none;stroke-width:1.1;stroke-linecap:round;stroke-linejoin:round;stroke:rgb(100%,100%,100%);stroke-opacity:1;stroke-miterlimit:10;" d="M -0.00112875 -113.385946 L -0.00112875 113.387491 " transform="matrix(1,0,0,-1,178.58316,119.05546)"/>
<path style="fill-rule:nonzero;fill:rgb(100%,100%,100%);fill-opacity:1;stroke-width:1.1;stroke-linecap:round;stroke-linejoin:round;stroke:rgb(100%,100%,100%);stroke-opacity:1;stroke-miterlimit:10;" d="M 1.530121 109.692179 L -0.00112875 113.387491 L -1.532379 109.692179 Z M 1.530121 109.692179 " transform="matrix(1,0,0,-1,178.58316,119.05546)"/>
<g style="fill:rgb(100%,100%,100%);fill-opacity:1;">
  <use xlink:href="#glyph0-1" x="165.70716" y="128.12866"/>
</g>
<path style="fill:none;stroke-width:2.98878;stroke-linecap:round;stroke-linejoin:round;stroke:rgb(100%,100%,100%);stroke-opacity:1;stroke-miterlimit:10;" d="M -0.00112875 0.0007725 L -0.00112875 0.0007725 " transform="matrix(1,0,0,-1,178.58316,119.05546)"/>
<g style="fill:rgb(100%,100%,100%);fill-opacity:1;">
  <use xlink:href="#glyph0-2" x="342.98026" y="128.34496"/>
</g>
<g style="fill:rgb(100%,100%,100%);fill-opacity:1;">
  <use xlink:href="#glyph0-3" x="168.34126" y="9.68046"/>
</g>
<g clip-path="url(#clip4)" clip-rule="nonzero">
<path style="fill:none;stroke-width:1.5;stroke-linecap:round;stroke-linejoin:round;stroke:rgb(100%,69.999695%,69.999695%);stroke-opacity:1;stroke-miterlimit:10;" d="M -0.00112875 -56.69454 L 0.338715 -56.69454 L 0.678559 -56.698446 L 1.358246 -56.721884 L 1.69809 -56.737509 L 2.037934 -56.75704 L 2.381684 -56.780478 L 2.721528 -56.807821 L 3.061371 -56.839071 L 3.401215 -56.874228 L 4.080903 -56.952353 L 4.76059 -57.046103 L 5.440278 -57.155478 L 5.784028 -57.217978 L 6.123871 -57.280478 L 6.463715 -57.346884 L 6.803559 -57.417196 L 7.483246 -57.565634 L 7.82309 -57.647665 L 8.502778 -57.81954 L 9.182465 -58.00704 L 9.526215 -58.104696 L 9.866059 -58.210165 L 10.205903 -58.311728 C 10.307465 -58.346884 10.432465 -58.385946 10.545746 -58.421103 C 10.659028 -58.460165 10.787934 -58.503134 10.88559 -58.534384 L 11.225434 -58.651571 L 11.905121 -58.893759 L 12.244965 -59.018759 L 12.584809 -59.147665 C 12.686371 -59.186728 12.815278 -59.237509 12.928559 -59.284384 C 13.04184 -59.327353 13.170746 -59.38204 13.268403 -59.417196 L 13.608246 -59.557821 L 14.287934 -59.846884 L 14.967621 -60.151571 L 15.307465 -60.307821 L 15.987153 -60.628134 L 16.326996 -60.796103 L 16.670746 -60.964071 C 16.776215 -61.018759 16.897309 -61.081259 17.01059 -61.139853 C 17.123871 -61.19454 17.241059 -61.25704 17.350434 -61.311728 L 17.690278 -61.491415 L 18.369965 -61.858603 L 18.709809 -62.046103 L 19.049653 -62.241415 L 19.389496 -62.432821 L 20.069184 -62.831259 C 20.182465 -62.901571 20.295746 -62.967978 20.409028 -63.034384 L 20.748871 -63.241415 L 21.088715 -63.452353 L 21.432465 -63.667196 L 22.112153 -64.096884 C 22.19809 -64.155478 22.338715 -64.245321 22.451996 -64.31954 C 22.565278 -64.393759 22.725434 -64.499228 22.79184 -64.546103 L 23.131684 -64.772665 C 23.209809 -64.823446 23.358246 -64.925009 23.471528 -65.003134 C 23.584809 -65.077353 23.741059 -65.186728 23.811371 -65.233603 L 24.151215 -65.467978 L 24.491059 -65.706259 L 25.170746 -66.190634 L 25.51059 -66.436728 L 25.850434 -66.686728 L 26.194184 -66.940634 L 26.873871 -67.448446 L 27.893403 -68.233603 L 28.912934 -69.042196 L 29.252778 -69.315634 C 29.330903 -69.378134 29.47934 -69.499228 29.592621 -69.592978 C 29.705903 -69.686728 29.862153 -69.811728 29.932465 -69.870321 L 30.272309 -70.151571 C 30.315278 -70.186728 30.498871 -70.339071 30.612153 -70.436728 C 30.725434 -70.530478 30.88559 -70.66329 30.955903 -70.721884 L 31.295746 -71.00704 L 31.63559 -71.300009 L 31.975434 -71.589071 L 32.315278 -71.885946 L 32.655121 -72.178915 L 32.994965 -72.47579 C 33.084809 -72.557821 33.221528 -72.678915 33.334809 -72.776571 C 33.44809 -72.878134 33.584809 -72.999228 33.674653 -73.077353 L 34.35434 -73.686728 C 34.467621 -73.78829 34.580903 -73.893759 34.694184 -73.995321 C 34.807465 -74.096884 34.924653 -74.206259 35.034028 -74.303915 L 35.373871 -74.616415 L 35.717621 -74.932821 L 36.057465 -75.245321 C 36.170746 -75.35079 36.342621 -75.510946 36.397309 -75.561728 L 36.737153 -75.878134 L 37.076996 -76.198446 C 37.190278 -76.307821 37.362153 -76.467978 37.41684 -76.518759 C 37.498871 -76.596884 37.643403 -76.733603 37.756684 -76.842978 C 37.869965 -76.948446 38.014496 -77.089071 38.096528 -77.167196 C 38.112153 -77.178915 38.32309 -77.38204 38.436371 -77.491415 L 39.455903 -78.47579 L 40.13559 -79.139853 C 40.252778 -79.249228 40.440278 -79.436728 40.47934 -79.471884 C 40.592621 -79.585165 40.705903 -79.698446 40.819184 -79.807821 C 40.932465 -79.921103 41.049653 -80.03829 41.159028 -80.143759 L 41.498871 -80.479696 L 41.838715 -80.81954 L 42.178559 -81.155478 C 42.182465 -81.159384 42.405121 -81.38204 42.518403 -81.495321 L 42.858246 -81.835165 L 43.19809 -82.178915 L 43.537934 -82.518759 C 43.651215 -82.635946 43.826996 -82.811728 43.877778 -82.862509 L 44.217621 -83.206259 C 44.334809 -83.31954 44.506684 -83.495321 44.561371 -83.550009 L 45.241059 -84.245321 L 45.580903 -84.589071 L 45.920746 -84.936728 C 46.034028 -85.053915 46.213715 -85.233603 46.26059 -85.284384 L 46.940278 -85.979696 C 47.014496 -86.053915 47.16684 -86.210165 47.280121 -86.327353 C 47.362153 -86.409384 47.506684 -86.557821 47.619965 -86.675009 L 47.963715 -87.022665 C 48.076996 -87.139853 48.205903 -87.276571 48.303559 -87.374228 C 48.41684 -87.487509 48.569184 -87.643759 48.643403 -87.721884 L 48.983246 -88.06954 C 49.049653 -88.139853 49.209809 -88.303915 49.32309 -88.421103 L 49.662934 -88.768759 C 49.776215 -88.885946 49.928559 -89.042196 50.002778 -89.120321 L 50.682465 -89.815634 C 50.776215 -89.909384 50.909028 -90.050009 51.022309 -90.16329 L 51.362153 -90.514853 L 51.705903 -90.862509 L 52.045746 -91.206259 C 52.159028 -91.323446 52.326996 -91.499228 52.38559 -91.553915 L 52.725434 -91.901571 L 53.065278 -92.245321 L 53.405121 -92.592978 L 53.744965 -92.936728 C 53.858246 -93.050009 54.07309 -93.272665 54.084809 -93.280478 L 54.764496 -93.967978 L 55.108246 -94.307821 C 55.221528 -94.421103 55.389496 -94.592978 55.44809 -94.647665 C 55.553559 -94.75704 55.674653 -94.874228 55.787934 -94.987509 C 55.901215 -95.10079 56.018403 -95.217978 56.127778 -95.327353 C 56.147309 -95.35079 56.35434 -95.550009 56.467621 -95.66329 L 57.147309 -96.335165 L 58.16684 -97.331259 C 58.280121 -97.440634 58.459809 -97.616415 58.506684 -97.659384 C 58.612153 -97.760946 58.733246 -97.878134 58.846528 -97.987509 L 59.190278 -98.315634 L 59.530121 -98.639853 C 59.627778 -98.733603 59.756684 -98.854696 59.869965 -98.964071 C 59.983246 -99.06954 60.13559 -99.214071 60.209809 -99.284384 L 60.549653 -99.604696 L 61.22934 -100.237509 L 61.569184 -100.550009 C 61.662934 -100.639853 61.795746 -100.75704 61.909028 -100.858603 C 62.022309 -100.964071 62.151215 -101.081259 62.248871 -101.171103 L 63.268403 -102.085165 L 63.608246 -102.385946 L 63.951996 -102.686728 L 64.631684 -103.272665 L 64.971528 -103.561728 L 65.311371 -103.846884 C 65.319184 -103.854696 65.537934 -104.03829 65.651215 -104.13204 C 65.764496 -104.22579 65.905121 -104.342978 65.991059 -104.41329 L 66.670746 -104.967978 C 66.776215 -105.050009 66.897309 -105.147665 67.01059 -105.237509 C 67.123871 -105.327353 67.244965 -105.425009 67.350434 -105.50704 C 67.451996 -105.589071 67.576996 -105.686728 67.690278 -105.772665 C 67.803559 -105.862509 67.928559 -105.960165 68.030121 -106.03829 L 68.369965 -106.296103 L 68.713715 -106.553915 L 69.053559 -106.807821 L 69.393403 -107.057821 L 70.07309 -107.542196 L 70.412934 -107.780478 C 70.51059 -107.85079 70.639496 -107.936728 70.752778 -108.014853 C 70.866059 -108.092978 71.006684 -108.186728 71.092621 -108.245321 L 71.432465 -108.471884 L 71.772309 -108.69454 L 72.112153 -108.91329 L 72.79184 -109.335165 L 73.131684 -109.542196 L 73.475434 -109.741415 L 74.155121 -110.13204 L 74.494965 -110.31954 C 74.596528 -110.374228 74.721528 -110.440634 74.834809 -110.499228 C 74.94809 -110.561728 75.069184 -110.624228 75.174653 -110.678915 L 75.514496 -110.85079 L 75.85434 -111.018759 L 76.194184 -111.182821 L 76.534028 -111.339071 L 76.873871 -111.491415 L 77.213715 -111.639853 L 77.553559 -111.780478 L 77.893403 -111.917196 L 78.237153 -112.050009 L 78.576996 -112.175009 L 78.91684 -112.292196 L 79.256684 -112.405478 L 79.596528 -112.514853 L 79.936371 -112.616415 L 80.276215 -112.714071 L 80.616059 -112.803915 L 81.295746 -112.967978 L 81.63559 -113.03829 L 81.975434 -113.10079 L 82.315278 -113.159384 L 82.655121 -113.214071 L 82.998871 -113.25704 L 83.338715 -113.296103 L 83.678559 -113.331259 L 84.018403 -113.354696 L 84.358246 -113.370321 L 84.69809 -113.38204 L 85.037934 -113.385946 L 85.377778 -113.38204 L 85.717621 -113.370321 L 86.057465 -113.354696 L 86.397309 -113.327353 L 86.741059 -113.292196 L 87.080903 -113.253134 L 87.420746 -113.202353 L 87.76059 -113.147665 L 88.100434 -113.081259 L 88.440278 -113.00704 L 88.780121 -112.928915 L 89.119965 -112.839071 L 89.459809 -112.741415 L 89.799653 -112.63204 L 90.143403 -112.518759 L 90.483246 -112.397665 L 90.82309 -112.264853 L 91.162934 -112.124228 L 91.502778 -111.97579 L 91.842621 -111.815634 L 92.182465 -111.647665 L 92.522309 -111.471884 L 92.862153 -111.284384 L 93.201996 -111.089071 C 93.319184 -111.022665 93.432465 -110.956259 93.545746 -110.885946 C 93.659028 -110.815634 93.772309 -110.741415 93.88559 -110.671103 L 94.225434 -110.448446 L 94.565278 -110.214071 L 94.905121 -109.971884 L 95.244965 -109.717978 L 95.584809 -109.452353 L 95.924653 -109.178915 L 96.264496 -108.897665 L 96.60434 -108.60079 L 96.944184 -108.296103 L 97.287934 -107.979696 L 97.627778 -107.655478 L 97.967621 -107.31954 L 98.307465 -106.971884 L 98.647309 -106.612509 L 98.987153 -106.245321 L 99.326996 -105.866415 L 99.66684 -105.47579 L 100.006684 -105.073446 L 100.346528 -104.655478 L 100.686371 -104.233603 L 101.026215 -103.796103 L 101.366059 -103.346884 L 101.709809 -102.88204 L 102.049653 -102.409384 L 102.389496 -101.921103 L 102.72934 -101.425009 L 103.069184 -100.917196 L 103.409028 -100.397665 L 103.748871 -99.862509 L 104.088715 -99.315634 L 104.428559 -98.75704 L 104.768403 -98.186728 L 105.108246 -97.60079 L 105.44809 -97.003134 L 105.787934 -96.389853 L 106.127778 -95.768759 L 106.471528 -95.124228 L 106.811371 -94.47579 L 107.151215 -93.807821 L 107.491059 -93.13204 L 107.830903 -92.440634 L 108.170746 -91.733603 L 108.51059 -91.014853 L 108.850434 -90.280478 L 109.190278 -89.530478 L 109.530121 -88.768759 L 109.869965 -87.991415 L 110.209809 -87.202353 L 110.549653 -86.397665 L 110.889496 -85.577353 L 111.233246 -84.733603 L 111.57309 -83.88204 L 111.912934 -83.018759 L 112.252778 -82.135946 L 112.592621 -81.241415 L 112.932465 -80.331259 L 113.272309 -79.401571 L 113.612153 -78.460165 L 113.951996 -77.503134 L 114.29184 -76.526571 L 114.631684 -75.53829 L 114.971528 -74.526571 L 115.311371 -73.50704 L 115.651215 -72.467978 L 115.994965 -71.401571 L 116.334809 -70.331259 L 116.674653 -69.241415 L 117.014496 -68.135946 L 117.35434 -67.010946 L 117.694184 -65.874228 L 118.034028 -64.714071 L 118.373871 -63.542196 L 118.713715 -62.35079 L 119.053559 -61.139853 L 119.393403 -59.91329 L 119.733246 -58.667196 L 120.07309 -57.401571 L 120.412934 -56.120321 L 120.756684 -54.815634 L 121.096528 -53.495321 L 121.436371 -52.159384 L 121.776215 -50.803915 L 122.116059 -49.432821 L 122.455903 -48.03829 L 122.795746 -46.628134 L 123.13559 -45.198446 L 123.475434 -43.749228 L 123.815278 -42.280478 L 124.155121 -40.792196 L 124.494965 -39.284384 L 124.834809 -37.75704 L 125.178559 -36.214071 L 125.518403 -34.63204 L 125.858246 -33.042196 L 126.19809 -31.436728 L 126.537934 -29.811728 L 126.877778 -28.159384 L 127.217621 -26.491415 L 127.557465 -24.803915 L 127.897309 -23.092978 L 128.237153 -21.362509 L 128.576996 -19.612509 L 128.920746 -17.835165 L 129.26059 -16.03829 L 129.600434 -14.221884 L 129.940278 -12.374228 L 130.280121 -10.510946 L 130.619965 -8.628134 L 130.959809 -6.72579 L 131.299653 -4.800009 L 131.639496 -2.85079 L 131.97934 -0.88204 L 132.32309 1.114054 L 132.662934 3.129679 L 133.002778 5.168741 L 133.342621 7.231241 L 133.682465 9.317179 L 134.022309 11.422647 L 134.362153 13.551554 L 134.701996 15.727335 L 135.04184 17.907022 L 135.381684 20.110147 L 135.725434 22.332804 L 136.065278 24.582804 L 136.405121 26.860147 L 136.744965 29.157022 L 137.084809 31.481241 L 137.424653 33.832804 L 137.764496 36.207804 L 138.10434 38.606241 L 138.444184 41.028116 L 138.784028 43.477335 L 139.123871 45.949991 L 139.467621 48.469522 L 139.807465 50.99296 L 140.147309 53.543741 L 140.487153 56.11796 L 140.826996 58.723429 L 141.16684 61.352335 L 141.506684 64.008585 L 141.846528 66.688272 L 142.186371 69.395304 L 142.526215 72.133585 L 142.866059 74.895304 L 143.205903 77.684366 L 143.545746 80.500772 L 143.88559 83.344522 L 144.22934 86.235147 L 144.569184 89.137491 L 144.909028 92.063272 L 145.248871 95.020304 L 145.588715 98.000772 L 145.928559 101.012491 L 146.268403 104.051554 L 146.608246 107.11796 L 146.94809 110.215616 L 147.287934 113.340616 L 147.627778 116.496866 L 147.967621 119.68046 L 148.307465 122.891397 L 148.647309 126.133585 L 148.991059 129.43046 L 149.330903 132.735147 L 149.670746 136.067179 L 150.01059 139.43046 L 150.350434 142.821085 L 150.690278 146.24296 L 151.030121 149.696085 L 151.369965 153.18046 L 151.709809 156.696085 L 152.049653 160.24296 L 152.389496 163.817179 L 152.72934 167.426554 L 153.069184 171.067179 L 153.409028 174.735147 L 153.752778 178.469522 L 154.092621 182.203897 L 154.432465 185.969522 L 154.772309 189.770304 L 155.112153 193.598429 L 155.451996 197.465616 L 155.79184 201.364054 L 156.131684 205.293741 L 156.471528 209.254679 L 156.811371 213.250772 L 157.151215 217.278116 L 157.491059 221.344522 L 157.830903 225.438272 L 158.170746 229.571085 L 158.514496 233.766397 L 158.85434 237.965616 L 159.194184 242.199991 L 159.534028 246.465616 L 159.873871 250.770304 L 160.213715 255.106241 L 160.553559 259.477335 L 160.893403 263.883585 L 161.233246 268.328897 L 161.57309 272.801554 L 161.912934 277.317179 L 162.252778 281.86796 L 162.592621 286.453897 L 162.932465 291.074991 L 163.276215 295.766397 L 163.616059 300.46171 L 163.955903 305.196085 L 164.295746 309.96171 L 164.63559 314.762491 L 164.975434 319.606241 L 165.315278 324.489054 L 165.655121 329.403116 L 165.994965 334.360147 L 166.334809 339.352335 L 166.674653 344.379679 L 167.014496 349.449991 L 167.358246 354.55546 L 167.69809 359.699991 L 168.037934 364.926554 L 168.377778 370.145304 L 168.717621 375.410929 L 169.057465 380.707804 L 169.397309 386.051554 L 169.737153 391.43046 L 170.076996 396.848429 " transform="matrix(1,0,0,-1,178.58316,119.05546)"/>
</g>
<path style="fill:none;stroke-width:1.5;stroke-linecap:round;stroke-linejoin:round;stroke:rgb(100%,69.999695%,69.999695%);stroke-opacity:1;stroke-dasharray:0,2.5;stroke-dashoffset:1.25;stroke-miterlimit:10;" d="M -170.079254 396.848429 L -169.73941 391.43046 L -169.399566 386.051554 L -169.059722 380.707804 L -168.719879 375.410929 L -168.380035 370.145304 L -168.040191 364.926554 L -167.696441 359.699991 L -167.356597 354.55546 L -167.016754 349.449991 L -166.67691 344.379679 L -166.337066 339.352335 L -165.997222 334.360147 L -165.657379 329.403116 L -165.317535 324.489054 L -164.977691 319.606241 L -164.637847 314.762491 L -164.298004 309.96171 L -163.95816 305.196085 L -163.618316 300.46171 L -163.278472 295.766397 L -162.934722 291.074991 L -162.594879 286.453897 L -162.255035 281.86796 L -161.915191 277.317179 L -161.575347 272.801554 L -161.235504 268.328897 L -160.89566 263.883585 L -160.555816 259.477335 L -160.215972 255.106241 L -159.876129 250.770304 L -159.536285 246.465616 L -159.192535 242.199991 L -158.852691 237.965616 L -158.512847 233.766397 L -158.173004 229.571085 L -157.83316 225.438272 L -157.493316 221.344522 L -157.153472 217.278116 L -156.813629 213.250772 L -156.473785 209.254679 L -156.133941 205.293741 L -155.794097 201.364054 L -155.450347 197.465616 L -155.110504 193.598429 L -154.77066 189.770304 L -154.430816 185.969522 L -154.090972 182.203897 L -153.411285 174.735147 L -153.071441 171.067179 L -152.731597 167.426554 L -152.391754 163.817179 L -152.048004 160.24296 L -151.70816 156.696085 L -151.368316 153.18046 L -151.028472 149.696085 L -150.688629 146.24296 L -150.348785 142.821085 L -150.008941 139.43046 L -149.669097 136.067179 L -149.329254 132.735147 L -148.98941 129.43046 L -148.64566 126.133585 L -148.305816 122.891397 L -147.965972 119.68046 L -147.626129 116.496866 L -147.286285 113.340616 L -146.946441 110.215616 L -146.606597 107.11796 L -146.266754 104.051554 L -145.92691 101.012491 L -145.587066 98.000772 L -145.247222 95.020304 L -144.907379 92.063272 L -144.567535 89.137491 L -144.227691 86.235147 L -143.883941 83.344522 L -143.544097 80.500772 L -143.204254 77.684366 L -142.86441 74.895304 L -142.524566 72.133585 L -142.184722 69.395304 L -141.844879 66.688272 L -141.505035 64.008585 L -141.165191 61.352335 L -140.825347 58.723429 L -140.485504 56.11796 L -140.14566 53.543741 L -139.805816 50.99296 L -139.465972 48.469522 L -139.122222 45.949991 L -138.782379 43.477335 L -138.442535 41.028116 L -138.102691 38.606241 L -137.762847 36.207804 L -137.423004 33.832804 L -137.08316 31.481241 L -136.743316 29.157022 L -136.403472 26.860147 L -136.063629 24.582804 L -135.723785 22.332804 L -135.383941 20.110147 L -135.044097 17.907022 L -134.704254 15.727335 L -134.360504 13.551554 L -134.02066 11.422647 L -133.680816 9.317179 L -133.340972 7.231241 L -133.001129 5.168741 L -132.661285 3.129679 L -132.321441 1.114054 L -131.981597 -0.88204 L -131.641754 -2.85079 L -131.30191 -4.800009 L -130.962066 -6.72579 L -130.622222 -8.628134 L -130.282379 -10.510946 L -129.942535 -12.374228 L -129.598785 -14.221884 L -129.258941 -16.03829 L -128.919097 -17.835165 L -128.579254 -19.612509 L -128.23941 -21.362509 L -127.899566 -23.092978 L -127.559722 -24.803915 L -127.219879 -26.491415 L -126.880035 -28.159384 L -126.540191 -29.811728 L -126.200347 -31.436728 L -125.860504 -33.042196 L -125.52066 -34.63204 L -125.17691 -36.214071 L -124.837066 -37.75704 L -124.497222 -39.284384 L -124.157379 -40.792196 L -123.817535 -42.280478 L -123.477691 -43.749228 L -123.137847 -45.198446 L -122.798004 -46.628134 L -122.45816 -48.03829 L -122.118316 -49.432821 L -121.778472 -50.803915 L -121.438629 -52.159384 L -121.098785 -53.495321 L -120.758941 -54.815634 L -120.415191 -56.120321 L -120.075347 -57.401571 L -119.735504 -58.667196 L -119.39566 -59.91329 L -119.055816 -61.139853 L -118.715972 -62.35079 L -118.376129 -63.542196 L -118.036285 -64.714071 L -117.696441 -65.874228 L -117.356597 -67.010946 L -117.012847 -68.135946 L -116.673004 -69.241415 L -116.33316 -70.331259 L -115.993316 -71.401571 L -115.653472 -72.467978 L -115.313629 -73.50704 L -114.973785 -74.526571 L -114.633941 -75.53829 L -114.294097 -76.526571 L -113.954254 -77.503134 L -113.61441 -78.460165 L -113.27066 -79.401571 L -112.930816 -80.331259 L -112.590972 -81.241415 L -112.251129 -82.135946 L -111.911285 -83.018759 L -111.571441 -83.88204 L -111.231597 -84.733603 L -110.891754 -85.577353 L -110.55191 -86.397665 L -110.212066 -87.202353 L -109.868316 -87.991415 L -109.528472 -88.768759 L -109.188629 -89.530478 L -108.848785 -90.280478 L -108.508941 -91.014853 L -108.169097 -91.733603 L -107.829254 -92.440634 L -107.48941 -93.13204 L -107.149566 -93.807821 L -106.809722 -94.47579 L -106.469879 -95.124228 L -106.126129 -95.768759 L -105.786285 -96.389853 L -105.446441 -97.003134 L -105.106597 -97.60079 L -104.766754 -98.186728 L -104.42691 -98.75704 L -104.087066 -99.315634 L -103.747222 -99.862509 L -103.407379 -100.397665 L -103.067535 -100.917196 L -102.727691 -101.425009 L -102.387847 -101.921103 L -102.048004 -102.409384 L -101.70816 -102.88204 L -101.36441 -103.346884 L -101.024566 -103.796103 L -100.684722 -104.233603 L -100.344879 -104.655478 L -100.005035 -105.073446 L -99.665191 -105.47579 L -99.325347 -105.866415 L -98.985504 -106.245321 L -98.64566 -106.612509 L -98.305816 -106.971884 L -97.965972 -107.31954 L -97.626129 -107.655478 L -97.286285 -107.979696 L -96.946441 -108.296103 L -96.602691 -108.60079 L -96.262847 -108.897665 L -95.923004 -109.178915 L -95.58316 -109.452353 L -95.243316 -109.717978 L -94.903472 -109.971884 L -94.563629 -110.214071 L -94.223785 -110.448446 L -93.883941 -110.671103 C -93.77066 -110.741415 -93.657379 -110.815634 -93.544097 -110.885946 C -93.430816 -110.956259 -93.317535 -111.022665 -93.204254 -111.089071 L -92.86441 -111.284384 L -92.524566 -111.471884 L -92.184722 -111.647665 L -91.840972 -111.815634 L -91.501129 -111.97579 L -91.161285 -112.124228 L -90.821441 -112.264853 L -90.481597 -112.397665 L -90.141754 -112.518759 L -89.80191 -112.63204 L -89.462066 -112.741415 L -89.122222 -112.839071 L -88.782379 -112.928915 L -88.442535 -113.00704 L -88.102691 -113.081259 L -87.762847 -113.147665 L -87.423004 -113.202353 L -87.079254 -113.253134 L -86.73941 -113.292196 L -86.399566 -113.327353 L -86.059722 -113.354696 L -85.719879 -113.370321 L -85.380035 -113.38204 L -85.040191 -113.385946 L -84.700347 -113.38204 L -84.360504 -113.370321 L -84.02066 -113.354696 L -83.680816 -113.331259 L -83.340972 -113.296103 L -83.001129 -113.25704 L -82.657379 -113.214071 L -82.317535 -113.159384 L -81.977691 -113.10079 L -81.637847 -113.03829 L -81.298004 -112.967978 L -80.618316 -112.803915 L -80.278472 -112.714071 L -79.938629 -112.616415 L -79.598785 -112.514853 L -79.258941 -112.405478 L -78.919097 -112.292196 L -78.579254 -112.175009 L -78.235504 -112.050009 L -77.89566 -111.917196 L -77.555816 -111.780478 L -77.215972 -111.639853 L -76.876129 -111.491415 L -76.536285 -111.339071 L -76.196441 -111.182821 L -75.856597 -111.018759 L -75.516754 -110.85079 L -75.17691 -110.678915 C -75.071441 -110.624228 -74.946441 -110.561728 -74.83316 -110.499228 C -74.719879 -110.440634 -74.598785 -110.374228 -74.493316 -110.31954 L -74.153472 -110.13204 L -73.473785 -109.741415 L -73.133941 -109.542196 L -72.794097 -109.335165 L -72.11441 -108.91329 L -71.774566 -108.69454 L -71.430816 -108.471884 L -71.090972 -108.245321 C -71.005035 -108.186728 -70.86441 -108.092978 -70.751129 -108.014853 C -70.637847 -107.936728 -70.508941 -107.85079 -70.411285 -107.780478 L -70.071441 -107.542196 L -69.391754 -107.057821 L -69.05191 -106.807821 L -68.712066 -106.553915 L -68.032379 -106.03829 C -67.92691 -105.960165 -67.80191 -105.862509 -67.688629 -105.772665 C -67.575347 -105.686728 -67.454254 -105.589071 -67.348785 -105.50704 C -67.243316 -105.425009 -67.122222 -105.327353 -67.008941 -105.237509 C -66.89566 -105.147665 -66.774566 -105.050009 -66.669097 -104.967978 L -65.98941 -104.41329 C -65.903472 -104.342978 -65.762847 -104.22579 -65.649566 -104.13204 C -65.536285 -104.03829 -65.321441 -103.854696 -65.309722 -103.846884 L -64.969879 -103.561728 L -64.630035 -103.272665 L -63.950347 -102.686728 L -63.606597 -102.385946 L -63.266754 -102.085165 L -62.247222 -101.171103 C -62.153472 -101.081259 -62.02066 -100.964071 -61.907379 -100.858603 C -61.794097 -100.75704 -61.665191 -100.639853 -61.567535 -100.550009 L -61.227691 -100.237509 L -60.548004 -99.604696 L -60.20816 -99.284384 C -60.133941 -99.214071 -59.981597 -99.06954 -59.868316 -98.964071 C -59.755035 -98.854696 -59.626129 -98.733603 -59.528472 -98.639853 L -59.188629 -98.315634 L -58.844879 -97.987509 C -58.731597 -97.878134 -58.610504 -97.760946 -58.505035 -97.659384 C -58.462066 -97.616415 -58.278472 -97.440634 -58.165191 -97.331259 L -57.14566 -96.335165 L -56.465972 -95.66329 C -56.352691 -95.550009 -56.149566 -95.35079 -56.126129 -95.327353 C -56.016754 -95.217978 -55.899566 -95.10079 -55.786285 -94.987509 C -55.673004 -94.874228 -55.555816 -94.75704 -55.446441 -94.647665 C -55.387847 -94.592978 -55.219879 -94.421103 -55.106597 -94.307821 L -54.766754 -93.967978 L -54.42691 -93.624228 L -54.08316 -93.280478 C -54.075347 -93.272665 -53.856597 -93.050009 -53.743316 -92.936728 L -53.403472 -92.592978 L -53.063629 -92.245321 L -52.723785 -91.901571 L -52.383941 -91.553915 C -52.329254 -91.499228 -52.157379 -91.323446 -52.044097 -91.206259 L -51.704254 -90.862509 L -51.36441 -90.514853 L -51.024566 -90.16329 C -50.911285 -90.050009 -50.778472 -89.909384 -50.684722 -89.815634 L -50.005035 -89.120321 C -49.930816 -89.042196 -49.778472 -88.885946 -49.665191 -88.768759 L -49.321441 -88.421103 C -49.20816 -88.303915 -49.048004 -88.139853 -48.981597 -88.06954 L -48.641754 -87.721884 C -48.567535 -87.643759 -48.415191 -87.487509 -48.30191 -87.374228 C -48.20816 -87.276571 -48.075347 -87.139853 -47.962066 -87.022665 L -47.622222 -86.675009 C -47.508941 -86.557821 -47.360504 -86.409384 -47.282379 -86.327353 C -47.169097 -86.210165 -47.012847 -86.053915 -46.942535 -85.979696 L -46.262847 -85.284384 C -46.215972 -85.233603 -46.036285 -85.053915 -45.923004 -84.936728 L -45.58316 -84.589071 L -45.243316 -84.245321 L -44.903472 -83.897665 L -44.559722 -83.550009 C -44.505035 -83.495321 -44.33316 -83.31954 -44.219879 -83.206259 L -43.880035 -82.862509 C -43.825347 -82.807821 -43.653472 -82.635946 -43.540191 -82.518759 L -43.200347 -82.178915 L -42.860504 -81.835165 C -42.860504 -81.835165 -42.633941 -81.608603 -42.52066 -81.495321 C -42.407379 -81.38204 -42.188629 -81.167196 -42.180816 -81.155478 L -41.840972 -80.81954 L -41.501129 -80.479696 L -41.161285 -80.143759 C -41.05191 -80.034384 -40.934722 -79.921103 -40.821441 -79.807821 C -40.70816 -79.698446 -40.590972 -79.585165 -40.481597 -79.471884 C -40.442535 -79.436728 -40.251129 -79.249228 -40.137847 -79.139853 L -39.45816 -78.47579 L -38.438629 -77.491415 C -38.325347 -77.38204 -38.110504 -77.178915 -38.098785 -77.167196 C -38.012847 -77.085165 -37.872222 -76.948446 -37.758941 -76.842978 C -37.64566 -76.733603 -37.501129 -76.596884 -37.419097 -76.518759 C -37.36441 -76.467978 -37.192535 -76.307821 -37.079254 -76.198446 L -36.73941 -75.878134 L -36.39566 -75.561728 C -36.344879 -75.510946 -36.169097 -75.35079 -36.055816 -75.245321 L -35.715972 -74.932821 L -35.376129 -74.616415 L -35.036285 -74.303915 C -34.92691 -74.206259 -34.809722 -74.096884 -34.696441 -73.995321 C -34.58316 -73.893759 -34.465972 -73.78829 -34.356597 -73.686728 L -33.67691 -73.077353 C -33.58316 -72.999228 -33.450347 -72.878134 -33.337066 -72.776571 C -33.223785 -72.678915 -33.087066 -72.557821 -32.997222 -72.47579 L -32.653472 -72.178915 L -32.313629 -71.885946 L -31.973785 -71.589071 L -31.633941 -71.300009 L -31.294097 -71.00704 L -30.954254 -70.721884 C -30.883941 -70.66329 -30.727691 -70.530478 -30.61441 -70.436728 C -30.501129 -70.339071 -30.317535 -70.186728 -30.274566 -70.151571 L -29.934722 -69.870321 C -29.860504 -69.811728 -29.70816 -69.686728 -29.594879 -69.592978 C -29.481597 -69.499228 -29.33316 -69.378134 -29.251129 -69.315634 L -28.911285 -69.042196 L -27.891754 -68.233603 L -26.872222 -67.448446 L -25.852691 -66.686728 L -25.508941 -66.436728 L -25.169097 -66.190634 L -24.48941 -65.706259 L -24.149566 -65.467978 L -23.809722 -65.233603 C -23.743316 -65.186728 -23.58316 -65.077353 -23.469879 -65.003134 C -23.356597 -64.925009 -23.20816 -64.823446 -23.130035 -64.772665 L -22.790191 -64.546103 C -22.723785 -64.499228 -22.563629 -64.393759 -22.450347 -64.31954 C -22.337066 -64.245321 -22.196441 -64.155478 -22.110504 -64.096884 L -21.430816 -63.667196 L -21.087066 -63.452353 L -20.747222 -63.241415 L -20.407379 -63.034384 C -20.298004 -62.967978 -20.180816 -62.901571 -20.067535 -62.831259 L -19.387847 -62.432821 L -19.048004 -62.241415 L -18.70816 -62.046103 L -18.368316 -61.858603 L -17.688629 -61.491415 L -17.348785 -61.311728 C -17.243316 -61.25704 -17.122222 -61.19454 -17.008941 -61.139853 C -16.89566 -61.081259 -16.774566 -61.018759 -16.669097 -60.964071 L -16.325347 -60.796103 L -15.985504 -60.628134 L -15.305816 -60.307821 L -14.965972 -60.151571 L -14.286285 -59.846884 L -13.606597 -59.557821 L -13.266754 -59.417196 C -13.173004 -59.38204 -13.040191 -59.327353 -12.92691 -59.284384 C -12.813629 -59.237509 -12.684722 -59.186728 -12.587066 -59.147665 L -12.247222 -59.018759 L -11.907379 -58.893759 L -11.563629 -58.772665 L -11.223785 -58.651571 L -10.883941 -58.534384 C -10.790191 -58.503134 -10.657379 -58.460165 -10.544097 -58.421103 C -10.430816 -58.385946 -10.305816 -58.346884 -10.204254 -58.311728 L -9.86441 -58.210165 L -9.524566 -58.104696 L -9.184722 -58.00704 L -8.505035 -57.81954 L -7.825347 -57.647665 L -7.485504 -57.565634 L -7.14566 -57.491415 L -6.80191 -57.417196 L -6.462066 -57.346884 L -6.122222 -57.280478 L -5.442535 -57.155478 L -4.762847 -57.046103 L -4.08316 -56.952353 L -3.403472 -56.874228 L -3.063629 -56.839071 L -2.723785 -56.807821 L -2.383941 -56.780478 L -2.040191 -56.75704 L -1.700347 -56.737509 L -1.360504 -56.721884 L -0.680816 -56.698446 L -0.340972 -56.69454 L -0.00112875 -56.69454 " transform="matrix(1,0,0,-1,178.58316,119.05546)"/>
<path style="fill:none;stroke-width:0.49814;stroke-linecap:round;stroke-linejoin:round;stroke:rgb(100%,100%,100%);stroke-opacity:1;stroke-miterlimit:10;" d="M -42.52066 0.0007725 L -42.52066 -81.495321 " transform="matrix(1,0,0,-1,178.58316,119.05546)"/>
<path style="fill-rule:nonzero;fill:rgb(100%,100%,100%);fill-opacity:1;stroke-width:0.49814;stroke-linecap:round;stroke-linejoin:round;stroke:rgb(100%,100%,100%);stroke-opacity:1;stroke-miterlimit:10;" d="M -44.05191 -77.800009 L -42.52066 -81.495321 L -40.98941 -77.800009 Z M -44.05191 -77.800009 " transform="matrix(1,0,0,-1,178.58316,119.05546)"/>
<path style="fill:none;stroke-width:0.49814;stroke-linecap:round;stroke-linejoin:round;stroke:rgb(100%,100%,100%);stroke-opacity:1;stroke-miterlimit:10;" d="M -42.52066 -81.495321 L -0.00112875 -81.495321 " transform="matrix(1,0,0,-1,178.58316,119.05546)"/>
<path style="fill-rule:nonzero;fill:rgb(100%,100%,100%);fill-opacity:1;stroke-width:0.49814;stroke-linecap:round;stroke-linejoin:round;stroke:rgb(100%,100%,100%);stroke-opacity:1;stroke-miterlimit:10;" d="M -3.696441 -83.026571 L -0.00112875 -81.495321 L -3.696441 -79.964071 Z M -3.696441 -83.026571 " transform="matrix(1,0,0,-1,178.58316,119.05546)"/>
<path style="fill:none;stroke-width:0.49814;stroke-linecap:round;stroke-linejoin:round;stroke:rgb(100%,100%,100%);stroke-opacity:1;stroke-miterlimit:10;" d="M 42.518403 -81.495321 L -0.00112875 -81.495321 " transform="matrix(1,0,0,-1,178.58316,119.05546)"/>
<path style="fill-rule:nonzero;fill:rgb(100%,100%,100%);fill-opacity:1;stroke-width:0.49814;stroke-linecap:round;stroke-linejoin:round;stroke:rgb(100%,100%,100%);stroke-opacity:1;stroke-miterlimit:10;" d="M 3.694184 -79.964071 L -0.00112875 -81.495321 L 3.694184 -83.026571 Z M 3.694184 -79.964071 " transform="matrix(1,0,0,-1,178.58316,119.05546)"/>
<path style="fill:none;stroke-width:0.49814;stroke-linecap:round;stroke-linejoin:round;stroke:rgb(100%,100%,100%);stroke-opacity:1;stroke-miterlimit:10;" d="M 42.518403 0.0007725 L 42.518403 -81.495321 " transform="matrix(1,0,0,-1,178.58316,119.05546)"/>
<path style="fill-rule:nonzero;fill:rgb(100%,100%,100%);fill-opacity:1;stroke-width:0.49814;stroke-linecap:round;stroke-linejoin:round;stroke:rgb(100%,100%,100%);stroke-opacity:1;stroke-miterlimit:10;" d="M 40.987153 -77.800009 L 42.518403 -81.495321 L 44.049653 -77.800009 Z M 40.987153 -77.800009 " transform="matrix(1,0,0,-1,178.58316,119.05546)"/>
<g style="fill:rgb(100%,100%,100%);fill-opacity:1;">
  <use xlink:href="#glyph1-1" x="128.39816" y="113.06096"/>
</g>
<g style="fill:rgb(100%,100%,100%);fill-opacity:1;">
  <use xlink:href="#glyph2-1" x="137.43896" y="113.06096"/>
</g>
<path style="fill:none;stroke-width:3;stroke-linecap:round;stroke-linejoin:round;stroke:rgb(100%,100%,100%);stroke-opacity:1;stroke-miterlimit:10;" d="M -42.52066 0.0007725 L -42.52066 0.0007725 " transform="matrix(1,0,0,-1,178.58316,119.05546)"/>
<g style="fill:rgb(100%,100%,100%);fill-opacity:1;">
  <use xlink:href="#glyph2-1" x="217.95796" y="114.05546"/>
</g>
<path style="fill:none;stroke-width:3;stroke-linecap:round;stroke-linejoin:round;stroke:rgb(100%,100%,100%);stroke-opacity:1;stroke-miterlimit:10;" d="M 42.518403 0.0007725 L 42.518403 0.0007725 " transform="matrix(1,0,0,-1,178.58316,119.05546)"/>
<g style="fill:rgb(100%,100%,100%);fill-opacity:1;">
  <use xlink:href="#glyph2-2" x="145.43906" y="213.01156"/>
</g>
<g style="fill:rgb(100%,100%,100%);fill-opacity:1;">
  <use xlink:href="#glyph1-2" x="150.45996" y="213.01156"/>
  <use xlink:href="#glyph1-1" x="155.105712" y="213.01156"/>
</g>
<g style="fill:rgb(100%,100%,100%);fill-opacity:1;">
  <use xlink:href="#glyph2-1" x="164.14706" y="213.01156"/>
</g>
<g style="fill:rgb(100%,100%,100%);fill-opacity:1;">
  <use xlink:href="#glyph1-3" x="170.43686" y="213.01156"/>
</g>
<path style="fill:none;stroke-width:3;stroke-linecap:round;stroke-linejoin:round;stroke:rgb(100%,100%,100%);stroke-opacity:1;stroke-miterlimit:10;" d="M -0.00112875 -81.495321 L -0.00112875 -81.495321 " transform="matrix(1,0,0,-1,178.58316,119.05546)"/>
<g style="fill:rgb(100%,100%,100%);fill-opacity:1;">
  <use xlink:href="#glyph2-2" x="182.08316" y="213.01156"/>
</g>
<g style="fill:rgb(100%,100%,100%);fill-opacity:1;">
  <use xlink:href="#glyph1-2" x="187.10406" y="213.01156"/>
</g>
<g style="fill:rgb(100%,100%,100%);fill-opacity:1;">
  <use xlink:href="#glyph2-1" x="191.75036" y="213.01156"/>
</g>
<g style="fill:rgb(100%,100%,100%);fill-opacity:1;">
  <use xlink:href="#glyph1-3" x="198.04016" y="213.01156"/>
</g>
<path style="fill:none;stroke-width:3;stroke-linecap:round;stroke-linejoin:round;stroke:rgb(100%,100%,100%);stroke-opacity:1;stroke-miterlimit:10;" d="M -0.00112875 -81.495321 L -0.00112875 -81.495321 " transform="matrix(1,0,0,-1,178.58316,119.05546)"/>
</g>
</svg>
