<?xml version="1.0" encoding="UTF-8" standalone="no"?>
<svg
   xmlns:dc="http://purl.org/dc/elements/1.1/"
   xmlns:cc="http://creativecommons.org/ns#"
   xmlns:rdf="http://www.w3.org/1999/02/22-rdf-syntax-ns#"
   xmlns:svg="http://www.w3.org/2000/svg"
   xmlns="http://www.w3.org/2000/svg"
   xmlns:xlink="http://www.w3.org/1999/xlink"
   xmlns:sodipodi="http://sodipodi.sourceforge.net/DTD/sodipodi-0.dtd"
   xmlns:inkscape="http://www.inkscape.org/namespaces/inkscape"
   width="403.0699pt"
   height="153.0715pt"
   viewBox="0 0 403.0699 153.0715"
   version="1.1"
   id="svg3801"
   sodipodi:docname="trigo-14.pdf_b.svg"
   inkscape:version="1.0.1 (3bc2e813f5, 2020-09-07)">
  <metadata
     id="metadata3805">
    <rdf:RDF>
      <cc:Work
         rdf:about="">
        <dc:format>image/svg+xml</dc:format>
        <dc:type
           rdf:resource="http://purl.org/dc/dcmitype/StillImage" />
        <dc:title></dc:title>
      </cc:Work>
    </rdf:RDF>
  </metadata>
  <sodipodi:namedview
     pagecolor="#ffffff"
     bordercolor="#666666"
     borderopacity="1"
     objecttolerance="10"
     gridtolerance="10"
     guidetolerance="10"
     inkscape:pageopacity="0"
     inkscape:pageshadow="2"
     inkscape:window-width="1918"
     inkscape:window-height="1044"
     id="namedview3803"
     showgrid="false"
     inkscape:zoom="2.2142562"
     inkscape:cx="177.03462"
     inkscape:cy="102.04767"
     inkscape:window-x="0"
     inkscape:window-y="34"
     inkscape:window-maximized="0"
     inkscape:current-layer="svg3801"
     inkscape:document-rotation="0" />
  <defs
     id="defs3686">
    <g
       id="g3675">
      <symbol
         overflow="visible"
         id="glyph0-0">
        <path
           style="stroke:none"
           d=""
           id="path3639" />
      </symbol>
      <symbol
         overflow="visible"
         id="glyph0-1">
        <path
           style="stroke:none"
           d="M 7.375 -4.34375 C 7.375 -5.953125 6.3125 -7.03125 4.828125 -7.03125 C 2.6875 -7.03125 0.484375 -4.765625 0.484375 -2.4375 C 0.484375 -0.78125 1.609375 0.21875 3.046875 0.21875 C 5.15625 0.21875 7.375 -1.96875 7.375 -4.34375 Z M 3.09375 -0.046875 C 2.109375 -0.046875 1.421875 -0.84375 1.421875 -2.15625 C 1.421875 -2.609375 1.5625 -4.0625 2.328125 -5.21875 C 3.015625 -6.265625 3.984375 -6.78125 4.78125 -6.78125 C 5.59375 -6.78125 6.484375 -6.21875 6.484375 -4.734375 C 6.484375 -4.015625 6.21875 -2.46875 5.234375 -1.234375 C 4.75 -0.625 3.9375 -0.046875 3.09375 -0.046875 Z M 3.09375 -0.046875 "
           id="path3642" />
      </symbol>
      <symbol
         overflow="visible"
         id="glyph0-2">
        <path
           style="stroke:none"
           d="M 3.328125 -3.015625 C 3.390625 -3.265625 3.625 -4.1875 4.3125 -4.1875 C 4.359375 -4.1875 4.609375 -4.1875 4.8125 -4.0625 C 4.53125 -4 4.34375 -3.765625 4.34375 -3.515625 C 4.34375 -3.359375 4.453125 -3.171875 4.71875 -3.171875 C 4.9375 -3.171875 5.25 -3.34375 5.25 -3.75 C 5.25 -4.265625 4.671875 -4.40625 4.328125 -4.40625 C 3.75 -4.40625 3.40625 -3.875 3.28125 -3.65625 C 3.03125 -4.3125 2.5 -4.40625 2.203125 -4.40625 C 1.171875 -4.40625 0.59375 -3.125 0.59375 -2.875 C 0.59375 -2.765625 0.703125 -2.765625 0.71875 -2.765625 C 0.796875 -2.765625 0.828125 -2.796875 0.84375 -2.875 C 1.1875 -3.9375 1.84375 -4.1875 2.1875 -4.1875 C 2.375 -4.1875 2.71875 -4.09375 2.71875 -3.515625 C 2.71875 -3.203125 2.546875 -2.546875 2.1875 -1.140625 C 2.03125 -0.53125 1.671875 -0.109375 1.234375 -0.109375 C 1.171875 -0.109375 0.953125 -0.109375 0.734375 -0.234375 C 0.984375 -0.296875 1.203125 -0.5 1.203125 -0.78125 C 1.203125 -1.046875 0.984375 -1.125 0.84375 -1.125 C 0.53125 -1.125 0.296875 -0.875 0.296875 -0.546875 C 0.296875 -0.09375 0.78125 0.109375 1.21875 0.109375 C 1.890625 0.109375 2.25 -0.59375 2.265625 -0.640625 C 2.390625 -0.28125 2.75 0.109375 3.34375 0.109375 C 4.375 0.109375 4.9375 -1.171875 4.9375 -1.421875 C 4.9375 -1.53125 4.859375 -1.53125 4.828125 -1.53125 C 4.734375 -1.53125 4.71875 -1.484375 4.6875 -1.421875 C 4.359375 -0.34375 3.6875 -0.109375 3.375 -0.109375 C 2.984375 -0.109375 2.828125 -0.421875 2.828125 -0.765625 C 2.828125 -0.984375 2.875 -1.203125 2.984375 -1.640625 Z M 3.328125 -3.015625 "
           id="path3645" />
      </symbol>
      <symbol
         overflow="visible"
         id="glyph0-3">
        <path
           style="stroke:none"
           d="M 4.84375 -3.796875 C 4.890625 -3.9375 4.890625 -3.953125 4.890625 -4.03125 C 4.890625 -4.203125 4.75 -4.296875 4.59375 -4.296875 C 4.5 -4.296875 4.34375 -4.234375 4.25 -4.09375 C 4.234375 -4.03125 4.140625 -3.734375 4.109375 -3.546875 C 4.03125 -3.296875 3.96875 -3.015625 3.90625 -2.75 L 3.453125 -0.953125 C 3.421875 -0.8125 2.984375 -0.109375 2.328125 -0.109375 C 1.828125 -0.109375 1.71875 -0.546875 1.71875 -0.921875 C 1.71875 -1.375 1.890625 -2 2.21875 -2.875 C 2.375 -3.28125 2.421875 -3.390625 2.421875 -3.59375 C 2.421875 -4.03125 2.109375 -4.40625 1.609375 -4.40625 C 0.65625 -4.40625 0.296875 -2.953125 0.296875 -2.875 C 0.296875 -2.765625 0.390625 -2.765625 0.40625 -2.765625 C 0.515625 -2.765625 0.515625 -2.796875 0.5625 -2.953125 C 0.84375 -3.890625 1.234375 -4.1875 1.578125 -4.1875 C 1.65625 -4.1875 1.828125 -4.1875 1.828125 -3.875 C 1.828125 -3.625 1.71875 -3.359375 1.65625 -3.171875 C 1.25 -2.109375 1.078125 -1.546875 1.078125 -1.078125 C 1.078125 -0.1875 1.703125 0.109375 2.296875 0.109375 C 2.6875 0.109375 3.015625 -0.0625 3.296875 -0.34375 C 3.171875 0.171875 3.046875 0.671875 2.65625 1.203125 C 2.390625 1.53125 2.015625 1.828125 1.5625 1.828125 C 1.421875 1.828125 0.96875 1.796875 0.796875 1.40625 C 0.953125 1.40625 1.09375 1.40625 1.21875 1.28125 C 1.328125 1.203125 1.421875 1.0625 1.421875 0.875 C 1.421875 0.5625 1.15625 0.53125 1.0625 0.53125 C 0.828125 0.53125 0.5 0.6875 0.5 1.171875 C 0.5 1.671875 0.9375 2.046875 1.5625 2.046875 C 2.578125 2.046875 3.609375 1.140625 3.890625 0.015625 Z M 4.84375 -3.796875 "
           id="path3648" />
      </symbol>
      <symbol
         overflow="visible"
         id="glyph1-0">
        <path
           style="stroke:none"
           d=""
           id="path3651" />
      </symbol>
      <symbol
         overflow="visible"
         id="glyph1-1">
        <path
           style="stroke:none"
           d="M 8.421875 -2.828125 L 8.484375 -3.296875 L 0.640625 -3.296875 L 0.546875 -2.828125 Z M 8.421875 -2.828125 "
           id="path3654" />
      </symbol>
      <symbol
         overflow="visible"
         id="glyph2-0">
        <path
           style="stroke:none"
           d=""
           id="path3657" />
      </symbol>
      <symbol
         overflow="visible"
         id="glyph2-1">
        <path
           style="stroke:none"
           d="M 2.21875 -5.5 C 1.53125 -5.5 0.796875 -5.484375 0.578125 -4.796875 L 0.25 -3.4375 L 0.5 -3.328125 L 0.71875 -3.890625 C 0.984375 -4.59375 1.296875 -4.703125 1.890625 -4.703125 L 2.765625 -4.703125 C 2.46875 -3.375 1.828125 -1.65625 1.03125 -0.28125 L 1.046875 -0.125 L 1.703125 0.0625 L 1.828125 -0.0625 C 2.359375 -1.59375 2.890625 -3.15625 3.21875 -4.703125 L 4.921875 -4.703125 L 5 -4.640625 C 4.875 -3.6875 4.8125 -2.71875 4.8125 -1.75 C 4.8125 -1.21875 4.828125 -0.46875 5.171875 -0.140625 C 5.3125 0 5.578125 0 5.8125 0 C 6.296875 0 6.796875 -0.375 7.15625 -0.71875 L 7.046875 -0.921875 L 6.96875 -0.9375 C 6.796875 -0.828125 6.59375 -0.75 6.390625 -0.75 C 5.609375 -0.75 5.625 -2.296875 5.625 -3.375 C 5.625 -3.78125 5.671875 -4.203125 5.703125 -4.625 L 5.78125 -4.703125 C 6.234375 -4.71875 6.6875 -4.859375 7.09375 -5.046875 L 7.5 -5.75 L 7.40625 -5.828125 C 7 -5.625 6.546875 -5.5 6.078125 -5.5 Z M 2.21875 -5.5 "
           id="path3660" />
      </symbol>
      <symbol
         overflow="visible"
         id="glyph2-2">
        <path
           style="stroke:none"
           d="M 5.46875 -8.546875 L 5.21875 -8.609375 L 5.078125 -8.578125 L 0.46875 2.03125 L 0.5 2.203125 L 0.890625 2.296875 L 5.53125 -8.421875 Z M 5.46875 -8.546875 "
           id="path3663" />
      </symbol>
      <symbol
         overflow="visible"
         id="glyph3-0">
        <path
           style="stroke:none"
           d=""
           id="path3666" />
      </symbol>
      <symbol
         overflow="visible"
         id="glyph3-1">
        <path
           style="stroke:none"
           d="M 4.328125 0.015625 L 4.328125 -0.34375 C 3.875 -0.359375 3.5 -0.46875 3.21875 -0.78125 C 2.96875 -1.078125 3.046875 -3.0625 3.0625 -4.59375 C 3.078125 -6.078125 3.140625 -8.4375 3.140625 -8.4375 C 2.6875 -8.140625 1.109375 -7.234375 0.65625 -7.0625 L 0.65625 -6.703125 L 1.9375 -7.09375 C 1.9375 -7.09375 1.953125 -5.1875 1.953125 -3.953125 C 1.953125 -2.703125 2.015625 -1.0625 1.765625 -0.78125 C 1.5 -0.46875 1.109375 -0.359375 0.6875 -0.34375 L 0.6875 -0.015625 C 0.828125 -0.078125 2.28125 -0.109375 2.4375 -0.109375 C 2.609375 -0.109375 4.15625 -0.0625 4.328125 0.015625 Z M 4.328125 0.015625 "
           id="path3669" />
      </symbol>
      <symbol
         overflow="visible"
         id="glyph3-2">
        <path
           style="stroke:none"
           d="M 5.640625 -6.078125 C 5.703125 -8.03125 4.03125 -8.296875 2.9375 -8.28125 C 1.359375 -8.25 0.546875 -7.6875 0.453125 -6.734375 C 0.3125 -5.296875 1.734375 -5.421875 2.03125 -5.703125 C 1.40625 -6.140625 1.46875 -7.765625 2.90625 -7.90625 C 4.140625 -8 4.515625 -6.953125 4.390625 -6.21875 C 4.265625 -5.28125 3.59375 -3.921875 2.46875 -2.78125 L 0.59375 -0.796875 L 0.59375 0 L 5.328125 0 C 5.28125 -0.453125 5.609375 -2.15625 5.609375 -2.15625 L 5.234375 -2.15625 C 5.140625 -1.78125 4.96875 -1.078125 4.296875 -1.015625 C 3.515625 -0.953125 1.203125 -0.9375 1.203125 -0.9375 L 3.734375 -3.109375 C 4.25 -3.546875 5.609375 -4.90625 5.640625 -6.078125 Z M 5.640625 -6.078125 "
           id="path3672" />
      </symbol>
    </g>
    <clipPath
       id="clip1">
      <path
         d="M 0 0 L 204.09375 0 L 204.09375 153.070312 L 0 153.070312 Z M 0 0 "
         id="path3677" />
    </clipPath>
    <clipPath
       id="clip2">
      <path
         d="M 5 75 L 403.070312 75 L 403.070312 78 L 5 78 Z M 5 75 "
         id="path3680" />
    </clipPath>
    <clipPath
       id="clip3">
      <path
         d="M 398 74 L 403.070312 74 L 403.070312 79 L 398 79 Z M 398 74 "
         id="path3683" />
    </clipPath>
  </defs>
  <g
     id="surface1">
    <g
       clip-path="url(#clip1)"
       clip-rule="nonzero"
       id="g3690">
      <path
         style="stroke:none;fill-rule:nonzero;fill:#0080ff;fill-opacity:1"
         d="M -22.675781 246.613281 L 204.09375 246.613281 L 204.09375 -93.542969 L -22.675781 -93.542969 Z M -22.675781 246.613281 "
         id="path3688" />
    </g>
    <g
       clip-path="url(#clip2)"
       clip-rule="nonzero"
       id="g3694">
      <path
         style="fill:none;stroke-width:1.1;stroke-linecap:round;stroke-linejoin:round;stroke:#000000;stroke-opacity:1;stroke-miterlimit:10"
         d="M -198.426821 0.00057375 L 198.424741 0.00057375 "
         transform="matrix(1,0,0,-1,204.09479,76.53573)"
         id="path3692" />
    </g>
    <path
       style="stroke:none;fill-rule:nonzero;fill:#000000;fill-opacity:1"
       d="M 398.820312 78.066406 L 402.519531 76.535156 L 398.820312 75.003906 Z M 398.820312 78.066406 "
       id="path3696" />
    <g
       clip-path="url(#clip3)"
       clip-rule="nonzero"
       id="g3700">
      <path
         style="fill:none;stroke-width:1.1;stroke-linecap:round;stroke-linejoin:round;stroke:#000000;stroke-opacity:1;stroke-miterlimit:10"
         d="M 194.725523 -1.530676 L 198.424741 0.00057375 L 194.725523 1.531824 Z M 194.725523 -1.530676 "
         transform="matrix(1,0,0,-1,204.09479,76.53573)"
         id="path3698" />
    </g>
    <path
       style="fill:none;stroke-width:1.1;stroke-linecap:round;stroke-linejoin:round;stroke:#000000;stroke-opacity:1;stroke-miterlimit:10"
       d="M -0.00104 -70.866614 L -0.00104 70.867761 "
       transform="matrix(1,0,0,-1,204.09479,76.53573)"
       id="path3702" />
    <path
       style="fill-rule:nonzero;fill:#000000;fill-opacity:1;stroke-width:1.1;stroke-linecap:round;stroke-linejoin:round;stroke:#000000;stroke-opacity:1;stroke-miterlimit:10"
       d="M 1.53021 67.168543 L -0.00104 70.867761 L -1.53229 67.168543 Z M 1.53021 67.168543 "
       transform="matrix(1,0,0,-1,204.09479,76.53573)"
       id="path3704" />
    <g
       style="fill:#000000;fill-opacity:1"
       id="g3708">
      <use
         xlink:href="#glyph0-1"
         x="191.21879"
         y="85.60893"
         id="use3706" />
    </g>
    <path
       style="fill:none;stroke-width:2.98878;stroke-linecap:round;stroke-linejoin:round;stroke:#000000;stroke-opacity:1;stroke-miterlimit:10"
       d="M -0.00104 0.00057375 L -0.00104 0.00057375 "
       transform="matrix(1,0,0,-1,204.09479,76.53573)"
       id="path3710" />
    <g
       style="fill:#000000;fill-opacity:1"
       id="g3714">
      <use
         xlink:href="#glyph0-2"
         x="396.83839"
         y="85.82523"
         id="use3712" />
    </g>
    <g
       style="fill:#000000;fill-opacity:1"
       id="g3718">
      <use
         xlink:href="#glyph0-3"
         x="193.85289"
         y="9.68043"
         id="use3716" />
    </g>
    <path
       style="fill:none;stroke-width:1.5;stroke-linecap:round;stroke-linejoin:round;stroke:#004d4d;stroke-opacity:1;stroke-miterlimit:10"
       d="M -0.00104 56.69198 L 0.358335 56.69198 L 1.069273 56.684168 L 1.424741 56.676355 L 1.78021 56.664636 C 1.846616 56.664636 2.018491 56.656824 2.135679 56.652918 C 2.256773 56.649011 2.428648 56.641199 2.495054 56.637293 L 2.850523 56.621668 L 3.56146 56.582605 C 3.627866 56.578699 3.799741 56.56698 3.916929 56.555261 C 4.038023 56.547449 4.202085 56.53573 4.276304 56.531824 C 4.346616 56.527918 4.510679 56.512293 4.631773 56.50448 C 4.74896 56.492761 4.924741 56.481043 4.987241 56.47323 L 5.34271 56.44198 L 6.053648 56.371668 C 6.127866 56.363855 6.291929 56.344324 6.409116 56.328699 C 6.53021 56.31698 6.68646 56.297449 6.768491 56.289636 C 6.881773 56.277918 7.002866 56.262293 7.12396 56.246668 C 7.241148 56.231043 7.370054 56.215418 7.483335 56.199793 L 7.838804 56.152918 L 8.194273 56.102136 L 8.549741 56.047449 L 8.90521 55.996668 L 9.616148 55.87948 L 9.975523 55.81698 L 10.330991 55.75448 L 11.041929 55.621668 L 11.752866 55.481043 L 12.108335 55.402918 L 12.46771 55.328699 L 12.823179 55.246668 L 13.182554 55.168543 L 13.538023 55.086511 L 13.893491 55.000574 L 14.959898 54.731043 L 15.315366 54.637293 L 15.674741 54.539636 L 16.03021 54.44198 L 16.741148 54.238855 L 17.096616 54.133386 L 17.455991 54.027918 L 17.81146 53.918543 L 18.522398 53.69198 L 18.881773 53.578699 L 19.237241 53.461511 L 19.948179 53.219324 L 20.659116 52.969324 L 21.370054 52.711511 L 21.729429 52.578699 C 21.834898 52.539636 21.963804 52.488855 22.084898 52.445886 C 22.202085 52.399011 22.346616 52.344324 22.444273 52.309168 L 22.799741 52.168543 L 23.15521 52.031824 L 24.221616 51.59823 L 24.580991 51.449793 L 25.291929 51.145105 L 26.002866 50.832605 C 26.057554 50.809168 26.241148 50.727136 26.358335 50.676355 C 26.475523 50.621668 26.65521 50.539636 26.713804 50.516199 L 27.069273 50.352136 L 27.428648 50.184168 L 27.784116 50.020105 L 28.139585 49.852136 L 28.49896 49.680261 L 28.854429 49.508386 L 29.565366 49.156824 L 30.276304 48.797449 L 30.631773 48.613855 L 30.991148 48.430261 L 31.346616 48.246668 L 31.702085 48.059168 L 32.057554 47.867761 L 32.416929 47.676355 L 33.483335 47.090418 C 33.56146 47.047449 33.721616 46.957605 33.838804 46.887293 C 33.959898 46.820886 34.096616 46.742761 34.198179 46.688074 C 34.241148 46.664636 34.432554 46.551355 34.553648 46.484949 C 34.670835 46.418543 34.870054 46.305261 34.909116 46.281824 C 35.018491 46.215418 35.147398 46.145105 35.264585 46.074793 C 35.381773 46.00448 35.514585 45.930261 35.620054 45.863855 L 35.975523 45.656824 L 36.330991 45.44198 L 36.68646 45.231043 L 37.045835 45.016199 L 37.40521 44.797449 C 37.455991 44.762293 37.639585 44.649011 37.760679 44.574793 C 37.877866 44.500574 38.080991 44.375574 38.116148 44.356043 C 38.21771 44.293543 38.354429 44.207605 38.471616 44.133386 C 38.588804 44.059168 38.721616 43.977136 38.827085 43.91073 C 38.893491 43.867761 39.065366 43.758386 39.182554 43.684168 L 39.538023 43.453699 L 39.893491 43.227136 C 40.006773 43.152918 40.131773 43.070886 40.252866 42.992761 C 40.370054 42.914636 40.495054 42.836511 40.608335 42.762293 L 40.963804 42.527918 L 42.03021 41.813074 L 42.389585 41.570886 L 42.745054 41.328699 L 43.104429 41.082605 L 43.459898 40.836511 L 43.815366 40.586511 L 44.170835 40.340418 L 44.526304 40.086511 L 44.881773 39.836511 L 45.237241 39.582605 L 45.59271 39.324793 L 45.952085 39.06698 L 46.307554 38.809168 L 46.663023 38.547449 L 47.022398 38.28573 L 47.377866 38.024011 L 48.088804 37.492761 C 48.205991 37.402918 48.397398 37.258386 48.444273 37.22323 C 48.534116 37.156824 48.682554 37.043543 48.799741 36.953699 C 48.889585 36.887293 49.038023 36.774011 49.159116 36.684168 L 49.514585 36.41073 C 49.573179 36.363855 49.74896 36.227136 49.870054 36.137293 L 50.225523 35.863855 C 50.34271 35.774011 50.463804 35.676355 50.580991 35.586511 C 50.698179 35.492761 50.819273 35.399011 50.93646 35.309168 C 50.975523 35.277918 51.174741 35.121668 51.291929 35.027918 C 51.413023 34.934168 51.620054 34.770105 51.651304 34.750574 C 51.764585 34.656824 51.889585 34.559168 52.006773 34.465418 C 52.127866 34.371668 52.252866 34.270105 52.362241 34.180261 L 52.721616 33.895105 L 53.432554 33.324793 C 53.440366 33.31698 53.670835 33.12948 53.788023 33.03573 C 53.90521 32.938074 54.108335 32.774011 54.143491 32.742761 C 54.163023 32.727136 54.381773 32.551355 54.49896 32.453699 C 54.620054 32.356043 54.84271 32.172449 54.854429 32.16073 C 54.913023 32.113855 55.09271 31.965418 55.213804 31.867761 L 56.28021 30.977136 C 56.397398 30.87948 56.580991 30.72323 56.635679 30.680261 L 56.995054 30.375574 L 57.705991 29.774011 C 57.815366 29.680261 57.944273 29.570886 58.06146 29.469324 C 58.182554 29.367761 58.303648 29.262293 58.420835 29.164636 C 58.459898 29.12948 58.65521 28.961511 58.776304 28.859949 L 59.487241 28.242761 C 59.604429 28.141199 59.799741 27.97323 59.84271 27.934168 C 59.889585 27.895105 60.080991 27.727136 60.198179 27.625574 L 60.909116 27.000574 L 61.268491 26.688074 L 61.62396 26.371668 L 61.983335 26.055261 L 62.338804 25.738855 L 62.694273 25.418543 L 63.049741 25.102136 L 63.760679 24.461511 C 63.838804 24.391199 63.99896 24.246668 64.116148 24.137293 L 64.475523 23.81698 L 65.18646 23.168543 C 65.303648 23.059168 65.491148 22.891199 65.541929 22.844324 L 66.252866 22.188074 C 66.354429 22.09823 66.491148 21.969324 66.608335 21.859949 L 66.96771 21.527918 L 67.327085 21.199793 L 68.038023 20.53573 C 68.045835 20.527918 68.276304 20.31698 68.393491 20.203699 C 68.510679 20.094324 68.741148 19.87948 68.74896 19.871668 L 69.104429 19.539636 L 69.459898 19.203699 C 69.526304 19.141199 69.698179 18.981043 69.815366 18.867761 L 70.174741 18.531824 C 70.237241 18.47323 70.409116 18.309168 70.53021 18.195886 L 70.885679 17.859949 L 71.596616 17.180261 L 71.955991 16.840418 L 72.31146 16.496668 L 73.022398 15.81698 L 73.381773 15.47323 L 73.737241 15.12948 C 73.854429 15.016199 74.077085 14.801355 74.09271 14.78573 L 74.448179 14.445886 C 74.455991 14.434168 74.68646 14.215418 74.803648 14.09823 C 74.920835 13.984949 75.143491 13.770105 75.159116 13.75448 L 75.514585 13.406824 L 75.87396 13.063074 L 76.584898 12.367761 L 76.944273 12.020105 L 77.299741 11.668543 L 78.010679 10.97323 C 78.127866 10.856043 78.327085 10.664636 78.366148 10.621668 L 78.721616 10.274011 L 79.080991 9.922449 C 79.178648 9.824793 79.315366 9.688074 79.43646 9.570886 L 79.791929 9.219324 C 79.909116 9.102136 80.065366 8.953699 80.147398 8.867761 L 81.213804 7.813074 C 81.334898 7.695886 81.53021 7.500574 81.573179 7.461511 L 81.928648 7.102136 L 82.639585 6.399011 L 82.99896 6.043543 C 83.116148 5.926355 83.245054 5.801355 83.354429 5.688074 L 83.709898 5.336511 L 84.776304 4.270105 C 84.795835 4.25448 85.014585 4.03573 85.131773 3.914636 L 85.491148 3.559168 L 85.846616 3.203699 C 85.963804 3.086511 86.084898 2.969324 86.202085 2.84823 L 86.557554 2.492761 C 86.612241 2.438074 86.795835 2.25448 86.916929 2.137293 L 87.272398 1.777918 C 87.389585 1.66073 87.557554 1.492761 87.627866 1.422449 L 88.338804 0.711511 C 88.362241 0.688074 88.577085 0.47323 88.698179 0.356043 L 89.053648 0.00057375 C 89.170835 -0.12052 89.385679 -0.335364 89.409116 -0.354895 L 89.764585 -0.710364 L 90.120054 -1.069739 L 90.475523 -1.425207 C 90.545835 -1.491614 90.713804 -1.659582 90.830991 -1.780676 L 91.190366 -2.136145 C 91.307554 -2.253332 91.506773 -2.452551 91.545835 -2.49552 L 91.90521 -2.850989 C 92.022398 -2.968176 92.151304 -3.093176 92.260679 -3.206457 L 92.971616 -3.917395 C 93.088804 -4.034582 93.319273 -4.265051 93.327085 -4.268957 L 94.038023 -4.979895 L 94.397398 -5.335364 L 94.752866 -5.690832 C 94.858335 -5.796301 94.987241 -5.925207 95.108335 -6.042395 L 95.463804 -6.397864 L 95.819273 -6.749426 L 96.174741 -7.104895 L 96.534116 -7.460364 C 96.573179 -7.499426 96.772398 -7.694739 96.889585 -7.811926 L 97.245054 -8.163489 L 97.604429 -8.518957 L 97.959898 -8.87052 C 98.045835 -8.952551 98.194273 -9.104895 98.315366 -9.222082 L 98.670835 -9.573645 C 98.788023 -9.686926 98.928648 -9.827551 99.026304 -9.921301 L 99.737241 -10.624426 C 99.776304 -10.663489 99.975523 -10.854895 100.096616 -10.972082 L 100.452085 -11.319739 L 100.807554 -11.671301 L 101.163023 -12.018957 L 101.522398 -12.37052 L 101.877866 -12.71427 L 102.588804 -13.409582 L 102.944273 -13.753332 C 102.959898 -13.768957 103.182554 -13.983801 103.303648 -14.100989 L 104.014585 -14.788489 C 104.041929 -14.815832 104.24896 -15.015051 104.370054 -15.132239 L 104.725523 -15.475989 L 105.080991 -15.815832 L 105.43646 -16.159582 L 105.795835 -16.499426 L 106.862241 -17.518957 L 107.221616 -17.858801 L 107.577085 -18.194739 C 107.694273 -18.30802 107.866148 -18.468176 107.932554 -18.530676 L 108.288023 -18.87052 C 108.409116 -18.979895 108.580991 -19.143957 108.643491 -19.202551 L 108.99896 -19.538489 L 109.354429 -19.87052 C 109.370054 -19.882239 109.59271 -20.093176 109.713804 -20.206457 C 109.830991 -20.315832 110.057554 -20.52677 110.069273 -20.538489 L 110.424741 -20.87052 L 110.78021 -21.198645 L 111.135679 -21.530676 L 111.495054 -21.862707 C 111.612241 -21.972082 111.74896 -22.097082 111.850523 -22.190832 L 112.205991 -22.515051 L 112.56146 -22.843176 C 112.612241 -22.886145 112.799741 -23.05802 112.920835 -23.167395 L 113.987241 -24.140051 C 114.104429 -24.24552 114.264585 -24.390051 114.34271 -24.460364 L 115.053648 -25.100989 L 115.413023 -25.417395 L 115.768491 -25.737707 L 116.12396 -26.054114 L 116.483335 -26.37052 L 116.838804 -26.686926 L 117.90521 -27.624426 C 118.026304 -27.725989 118.213804 -27.893957 118.260679 -27.93302 C 118.307554 -27.975989 118.49896 -28.140051 118.620054 -28.241614 L 119.330991 -28.858801 C 119.448179 -28.960364 119.647398 -29.132239 119.68646 -29.163489 C 119.799741 -29.261145 119.924741 -29.366614 120.041929 -29.468176 C 120.163023 -29.569739 120.295835 -29.68302 120.397398 -29.772864 L 120.752866 -30.073645 L 121.112241 -30.378332 L 121.46771 -30.679114 C 121.526304 -30.725989 121.705991 -30.878332 121.827085 -30.975989 L 122.893491 -31.866614 C 123.010679 -31.96427 123.194273 -32.112707 123.24896 -32.159582 C 123.268491 -32.175207 123.487241 -32.354895 123.604429 -32.452551 C 123.725523 -32.550207 123.940366 -32.725989 123.959898 -32.74552 C 123.99896 -32.772864 124.198179 -32.936926 124.319273 -33.034582 C 124.43646 -33.132239 124.663023 -33.315832 124.674741 -33.323645 L 125.385679 -33.893957 L 125.741148 -34.18302 C 125.854429 -34.272864 125.979429 -34.37052 126.096616 -34.46427 C 126.21771 -34.55802 126.338804 -34.659582 126.455991 -34.749426 C 126.479429 -34.768957 126.694273 -34.936926 126.81146 -35.030676 C 126.932554 -35.12052 127.131773 -35.280676 127.166929 -35.30802 C 127.284116 -35.397864 127.40521 -35.49552 127.526304 -35.585364 C 127.643491 -35.679114 127.764585 -35.772864 127.881773 -35.862707 L 128.237241 -36.136145 C 128.354429 -36.229895 128.53021 -36.362707 128.59271 -36.409582 L 128.948179 -36.68302 C 129.065366 -36.772864 129.229429 -36.897864 129.303648 -36.952551 C 129.424741 -37.042395 129.573179 -37.159582 129.659116 -37.222082 C 129.709898 -37.261145 129.897398 -37.40177 130.018491 -37.491614 L 130.729429 -38.022864 L 131.084898 -38.284582 L 131.444273 -38.550207 L 131.799741 -38.80802 L 132.15521 -39.069739 L 132.510679 -39.327551 L 133.577085 -40.08927 L 133.93646 -40.33927 L 134.291929 -40.58927 L 135.358335 -41.327551 L 135.713804 -41.569739 L 136.073179 -41.811926 L 136.428648 -42.054114 L 136.784116 -42.288489 L 137.143491 -42.52677 L 137.49896 -42.761145 C 137.612241 -42.835364 137.737241 -42.917395 137.854429 -42.99552 C 137.971616 -43.069739 138.100523 -43.155676 138.209898 -43.225989 L 138.565366 -43.456457 L 138.920835 -43.68302 C 139.041929 -43.757239 139.213804 -43.866614 139.276304 -43.909582 C 139.381773 -43.975989 139.514585 -44.05802 139.635679 -44.132239 C 139.752866 -44.206457 139.889585 -44.292395 139.991148 -44.354895 C 140.03021 -44.378332 140.229429 -44.503332 140.346616 -44.577551 C 140.463804 -44.647864 140.647398 -44.761145 140.702085 -44.796301 L 141.06146 -45.015051 L 141.772398 -45.444739 L 142.483335 -45.866614 C 142.59271 -45.929114 142.721616 -46.003332 142.84271 -46.073645 C 142.959898 -46.143957 143.084898 -46.218176 143.198179 -46.280676 C 143.233335 -46.300207 143.432554 -46.417395 143.553648 -46.483801 C 143.670835 -46.554114 143.866148 -46.663489 143.909116 -46.686926 C 144.006773 -46.74552 144.147398 -46.823645 144.264585 -46.890051 C 144.385679 -46.956457 144.545835 -47.046301 144.620054 -47.08927 L 144.975523 -47.284582 L 145.334898 -47.479895 L 145.690366 -47.675207 L 146.049741 -47.866614 L 146.40521 -48.05802 L 147.116148 -48.43302 L 147.827085 -48.800207 L 148.182554 -48.979895 L 148.541929 -49.155676 L 149.252866 -49.507239 L 149.963804 -49.850989 L 150.674741 -50.186926 L 151.034116 -50.350989 L 151.389585 -50.515051 C 151.448179 -50.542395 151.627866 -50.62052 151.74896 -50.675207 C 151.866148 -50.725989 152.049741 -50.811926 152.104429 -50.835364 L 152.459898 -50.991614 L 153.526304 -51.448645 L 153.881773 -51.597082 L 154.241148 -51.741614 L 154.952085 -52.030676 L 155.307554 -52.171301 L 155.663023 -52.30802 C 155.760679 -52.347082 155.901304 -52.40177 156.022398 -52.444739 C 156.139585 -52.491614 156.272398 -52.542395 156.377866 -52.581457 L 156.733335 -52.710364 L 157.088804 -52.843176 L 157.444273 -52.968176 L 157.803648 -53.097082 L 158.159116 -53.218176 L 158.514585 -53.343176 L 159.580991 -53.694739 L 159.93646 -53.80802 L 160.295835 -53.917395 L 160.651304 -54.02677 L 161.006773 -54.132239 L 161.366148 -54.237707 L 161.721616 -54.343176 L 162.077085 -54.440832 L 162.432554 -54.542395 L 163.49896 -54.823645 L 163.858335 -54.913489 L 164.569273 -55.085364 L 165.28021 -55.249426 L 165.635679 -55.327551 L 165.995054 -55.405676 L 166.350523 -55.479895 L 166.705991 -55.550207 L 167.065366 -55.62052 L 167.776304 -55.753332 L 168.487241 -55.878332 L 169.198179 -55.99552 L 169.557554 -56.050207 L 170.268491 -56.15177 L 170.62396 -56.198645 C 170.733335 -56.21427 170.862241 -56.229895 170.983335 -56.24552 C 171.100523 -56.261145 171.221616 -56.27677 171.338804 -56.288489 C 171.416929 -56.300207 171.577085 -56.315832 171.694273 -56.331457 C 171.815366 -56.343176 171.975523 -56.362707 172.049741 -56.37052 L 172.40521 -56.405676 L 172.764585 -56.440832 L 173.120054 -56.475989 C 173.182554 -56.479895 173.354429 -56.49552 173.475523 -56.503332 C 173.59271 -56.515051 173.760679 -56.52677 173.830991 -56.530676 C 173.901304 -56.538489 174.069273 -56.550207 174.18646 -56.55802 C 174.303648 -56.565832 174.479429 -56.577551 174.541929 -56.581457 L 175.252866 -56.62052 L 175.612241 -56.640051 C 175.678648 -56.640051 175.850523 -56.647864 175.971616 -56.65177 C 176.088804 -56.655676 176.256773 -56.663489 176.327085 -56.663489 L 176.682554 -56.675207 L 177.038023 -56.68302 L 178.104429 -56.694739 "
       transform="matrix(1,0,0,-1,204.09479,76.53573)"
       id="path3720" />
    <path
       style="fill:none;stroke-width:1.5;stroke-linecap:round;stroke-linejoin:round;stroke:#004d4d;stroke-opacity:1;stroke-dasharray:0,2.5;stroke-dashoffset:1.25;stroke-miterlimit:10"
       d="M -178.106509 -56.694739 L -177.395571 -56.686926 L -177.036196 -56.68302 L -176.680727 -56.675207 L -176.325259 -56.663489 C -176.258852 -56.663489 -176.086977 -56.655676 -175.96979 -56.65177 C -175.848696 -56.647864 -175.676821 -56.640051 -175.610415 -56.640051 L -174.544009 -56.581457 C -174.477602 -56.577551 -174.305727 -56.565832 -174.18854 -56.55802 C -174.067446 -56.550207 -173.903384 -56.538489 -173.829165 -56.530676 C -173.758852 -56.52677 -173.59479 -56.515051 -173.473696 -56.503332 C -173.356509 -56.49552 -173.184634 -56.479895 -173.118227 -56.475989 L -172.051821 -56.37052 C -171.977602 -56.362707 -171.81354 -56.343176 -171.696352 -56.331457 C -171.575259 -56.315832 -171.419009 -56.300207 -171.336977 -56.288489 C -171.223696 -56.27677 -171.102602 -56.261145 -170.981509 -56.24552 C -170.864321 -56.229895 -170.735415 -56.21427 -170.622134 -56.198645 L -170.266665 -56.15177 L -169.555727 -56.050207 L -169.200259 -55.99552 L -168.489321 -55.878332 L -168.129946 -55.815832 L -167.774477 -55.753332 L -167.06354 -55.62052 L -166.352602 -55.479895 L -165.997134 -55.405676 L -165.637759 -55.327551 L -165.28229 -55.249426 L -164.922915 -55.167395 L -164.567446 -55.085364 L -163.856509 -54.913489 L -163.50104 -54.823645 L -162.790102 -54.636145 L -162.430727 -54.542395 L -162.075259 -54.440832 L -161.71979 -54.343176 L -161.008852 -54.132239 L -160.649477 -54.02677 L -159.93854 -53.80802 L -159.583071 -53.694739 L -159.223696 -53.577551 L -158.512759 -53.343176 L -158.15729 -53.218176 L -157.801821 -53.097082 L -157.446352 -52.968176 L -157.090884 -52.843176 L -156.735415 -52.710364 L -156.37604 -52.581457 C -156.270571 -52.542395 -156.141665 -52.491614 -156.020571 -52.444739 C -155.903384 -52.40177 -155.758852 -52.347082 -155.665102 -52.30802 L -155.305727 -52.171301 L -154.950259 -52.030676 L -153.883852 -51.597082 L -153.528384 -51.448645 L -153.172915 -51.296301 L -152.81354 -51.143957 L -152.458071 -50.991614 L -152.102602 -50.835364 C -152.047915 -50.80802 -151.864321 -50.725989 -151.747134 -50.675207 C -151.629946 -50.62052 -151.450259 -50.542395 -151.391665 -50.515051 L -151.036196 -50.350989 L -150.676821 -50.186926 L -149.965884 -49.850989 L -149.606509 -49.679114 L -149.25104 -49.507239 L -148.184634 -48.979895 L -147.829165 -48.800207 L -147.473696 -48.616614 L -147.114321 -48.43302 L -146.403384 -48.05802 L -146.047915 -47.866614 L -145.68854 -47.675207 L -144.622134 -47.08927 C -144.547915 -47.046301 -144.383852 -46.956457 -144.266665 -46.890051 C -144.145571 -46.823645 -144.008852 -46.74552 -143.90729 -46.686926 C -143.868227 -46.663489 -143.672915 -46.554114 -143.551821 -46.483801 C -143.434634 -46.417395 -143.231509 -46.300207 -143.196352 -46.280676 C -143.086977 -46.218176 -142.958071 -46.143957 -142.840884 -46.073645 C -142.723696 -46.003332 -142.590884 -45.929114 -142.485415 -45.866614 L -141.774477 -45.444739 L -141.419009 -45.229895 L -141.059634 -45.015051 L -140.700259 -44.796301 C -140.649477 -44.761145 -140.465884 -44.647864 -140.34479 -44.577551 C -140.227602 -44.503332 -140.028384 -44.378332 -139.989321 -44.354895 C -139.887759 -44.292395 -139.75104 -44.206457 -139.633852 -44.132239 C -139.516665 -44.05802 -139.383852 -43.975989 -139.278384 -43.909582 C -139.211977 -43.866614 -139.040102 -43.757239 -138.922915 -43.68302 L -138.567446 -43.456457 L -138.211977 -43.225989 C -138.102602 -43.155676 -137.973696 -43.069739 -137.852602 -42.99552 C -137.735415 -42.917395 -137.610415 -42.835364 -137.497134 -42.761145 L -137.141665 -42.52677 L -136.786196 -42.288489 L -136.430727 -42.054114 L -136.075259 -41.811926 L -135.715884 -41.569739 L -135.360415 -41.327551 L -135.00104 -41.081457 L -134.290102 -40.58927 L -133.579165 -40.08927 L -132.512759 -39.327551 L -132.153384 -39.069739 L -131.797915 -38.80802 L -131.442446 -38.550207 L -131.083071 -38.284582 L -130.727602 -38.022864 L -130.016665 -37.491614 C -129.899477 -37.40177 -129.708071 -37.261145 -129.661196 -37.222082 C -129.571352 -37.159582 -129.422915 -37.042395 -129.305727 -36.952551 C -129.227602 -36.897864 -129.067446 -36.772864 -128.950259 -36.68302 L -128.590884 -36.409582 C -128.528384 -36.362707 -128.356509 -36.229895 -128.235415 -36.136145 L -127.879946 -35.862707 C -127.766665 -35.772864 -127.641665 -35.679114 -127.524477 -35.585364 C -127.40729 -35.49552 -127.28229 -35.397864 -127.169009 -35.30802 C -127.133852 -35.280676 -126.930727 -35.12052 -126.81354 -35.030676 C -126.692446 -34.936926 -126.481509 -34.768957 -126.454165 -34.749426 C -126.340884 -34.659582 -126.215884 -34.55802 -126.098696 -34.46427 C -125.977602 -34.37052 -125.852602 -34.268957 -125.743227 -34.18302 L -125.383852 -33.893957 L -124.672915 -33.323645 C -124.661196 -33.315832 -124.434634 -33.132239 -124.317446 -33.034582 C -124.200259 -32.936926 -123.997134 -32.772864 -123.961977 -32.74552 C -123.93854 -32.725989 -123.723696 -32.550207 -123.606509 -32.452551 C -123.485415 -32.354895 -123.266665 -32.175207 -123.25104 -32.159582 C -123.192446 -32.116614 -123.012759 -31.96427 -122.895571 -31.866614 L -122.536196 -31.569739 L -121.825259 -30.975989 C -121.708071 -30.878332 -121.524477 -30.725989 -121.46979 -30.679114 L -121.110415 -30.378332 L -120.754946 -30.073645 L -120.399477 -29.772864 C -120.294009 -29.68302 -120.161196 -29.569739 -120.044009 -29.468176 C -119.922915 -29.366614 -119.801821 -29.261145 -119.684634 -29.163489 C -119.649477 -29.132239 -119.450259 -28.960364 -119.329165 -28.858801 L -118.618227 -28.241614 C -118.50104 -28.140051 -118.305727 -27.972082 -118.262759 -27.93302 C -118.211977 -27.893957 -118.024477 -27.725989 -117.90729 -27.624426 L -117.196352 -26.999426 L -116.836977 -26.686926 L -116.481509 -26.37052 L -116.122134 -26.054114 L -115.766665 -25.737707 L -115.411196 -25.417395 L -115.055727 -25.100989 L -114.34479 -24.460364 C -114.266665 -24.393957 -114.106509 -24.24552 -113.989321 -24.140051 L -113.629946 -23.815832 L -112.919009 -23.167395 C -112.801821 -23.05802 -112.614321 -22.890051 -112.56354 -22.843176 L -112.208071 -22.515051 L -111.852602 -22.190832 C -111.75104 -22.097082 -111.614321 -21.972082 -111.497134 -21.862707 L -110.778384 -21.198645 L -110.422915 -20.87052 L -110.067446 -20.538489 C -110.06354 -20.534582 -109.833071 -20.315832 -109.711977 -20.206457 C -109.59479 -20.093176 -109.364321 -19.882239 -109.356509 -19.87052 L -109.00104 -19.538489 L -108.645571 -19.202551 C -108.579165 -19.143957 -108.40729 -18.979895 -108.290102 -18.87052 L -107.930727 -18.530676 C -107.864321 -18.468176 -107.696352 -18.30802 -107.575259 -18.194739 L -107.21979 -17.858801 L -106.508852 -17.179114 L -106.149477 -16.83927 L -105.43854 -16.159582 L -105.083071 -15.815832 L -104.723696 -15.475989 L -104.368227 -15.132239 C -104.25104 -15.015051 -104.036196 -14.80802 -104.012759 -14.788489 L -103.65729 -14.444739 C -103.653384 -14.440832 -103.419009 -14.21427 -103.301821 -14.100989 C -103.184634 -13.983801 -102.958071 -13.768957 -102.946352 -13.753332 L -102.590884 -13.409582 L -102.231509 -13.061926 L -101.87604 -12.71427 L -101.520571 -12.37052 L -101.161196 -12.018957 L -100.805727 -11.671301 L -100.450259 -11.319739 L -100.09479 -10.972082 C -99.977602 -10.854895 -99.778384 -10.663489 -99.739321 -10.624426 L -99.028384 -9.921301 C -98.930727 -9.827551 -98.790102 -9.686926 -98.672915 -9.573645 L -98.31354 -9.222082 C -98.196352 -9.104895 -98.044009 -8.952551 -97.958071 -8.87052 L -97.602602 -8.518957 L -97.247134 -8.163489 L -96.891665 -7.811926 C -96.770571 -7.694739 -96.575259 -7.499426 -96.536196 -7.460364 L -96.176821 -7.104895 L -95.821352 -6.749426 L -95.465884 -6.397864 L -95.106509 -6.042395 C -94.989321 -5.925207 -94.860415 -5.796301 -94.75104 -5.690832 L -93.329165 -4.268957 C -93.321352 -4.265051 -93.090884 -4.034582 -92.973696 -3.917395 L -92.614321 -3.561926 L -92.258852 -3.206457 C -92.149477 -3.093176 -92.020571 -2.968176 -91.903384 -2.850989 L -91.547915 -2.49552 C -91.504946 -2.448645 -91.309634 -2.253332 -91.18854 -2.136145 L -90.833071 -1.780676 C -90.715884 -1.659582 -90.544009 -1.491614 -90.477602 -1.425207 L -90.122134 -1.069739 L -89.766665 -0.710364 C -89.739321 -0.686926 -89.528384 -0.475989 -89.40729 -0.354895 L -89.051821 0.00057375 C -88.934634 0.117761 -88.715884 0.336511 -88.696352 0.356043 L -87.629946 1.422449 C -87.555727 1.496668 -87.391665 1.66073 -87.274477 1.777918 L -86.915102 2.137293 C -86.797915 2.25448 -86.614321 2.438074 -86.559634 2.492761 L -86.200259 2.84823 L -85.133852 3.914636 C -85.016665 4.03573 -84.797915 4.250574 -84.778384 4.270105 L -84.067446 4.981043 L -83.708071 5.336511 L -83.352602 5.688074 C -83.243227 5.801355 -83.118227 5.926355 -82.997134 6.043543 L -82.641665 6.399011 L -81.930727 7.102136 L -81.571352 7.461511 C -81.528384 7.500574 -81.333071 7.695886 -81.215884 7.813074 L -80.860415 8.164636 L -80.50104 8.516199 L -80.145571 8.867761 C -80.06354 8.953699 -79.911196 9.102136 -79.790102 9.219324 L -79.434634 9.570886 C -79.317446 9.688074 -79.176821 9.824793 -79.079165 9.922449 L -78.723696 10.274011 L -78.368227 10.621668 C -78.325259 10.664636 -78.129946 10.856043 -78.008852 10.97323 L -77.297915 11.668543 L -76.942446 12.020105 L -76.583071 12.367761 L -75.872134 13.063074 L -75.516665 13.406824 L -75.161196 13.75448 C -75.145571 13.770105 -74.922915 13.984949 -74.805727 14.09823 C -74.684634 14.215418 -74.458071 14.434168 -74.450259 14.445886 L -74.090884 14.78573 C -74.075259 14.805261 -73.856509 15.016199 -73.735415 15.12948 L -73.024477 15.81698 L -72.31354 16.496668 L -71.958071 16.840418 L -71.598696 17.180261 L -71.243227 17.520105 L -70.883852 17.859949 L -70.528384 18.195886 C -70.411196 18.309168 -70.239321 18.469324 -70.172915 18.531824 L -69.817446 18.867761 C -69.700259 18.981043 -69.524477 19.145105 -69.461977 19.203699 L -69.106509 19.539636 L -68.75104 19.871668 C -68.743227 19.87948 -68.512759 20.094324 -68.391665 20.203699 C -68.274477 20.31698 -68.044009 20.531824 -68.036196 20.53573 L -67.325259 21.199793 L -66.96979 21.527918 L -66.610415 21.859949 C -66.493227 21.969324 -66.352602 22.09823 -66.254946 22.188074 L -65.544009 22.844324 C -65.493227 22.887293 -65.305727 23.059168 -65.184634 23.168543 L -64.473696 23.81698 L -64.118227 24.137293 C -64.00104 24.246668 -63.836977 24.395105 -63.762759 24.461511 L -63.051821 25.102136 L -62.692446 25.418543 L -62.336977 25.738855 L -61.981509 26.055261 L -61.622134 26.371668 L -61.266665 26.688074 L -60.200259 27.625574 C -60.079165 27.727136 -59.891665 27.895105 -59.84479 27.934168 C -59.801821 27.97323 -59.606509 28.141199 -59.485415 28.242761 L -58.774477 28.859949 C -58.65729 28.961511 -58.461977 29.12948 -58.419009 29.164636 C -58.305727 29.262293 -58.180727 29.367761 -58.06354 29.469324 C -57.946352 29.570886 -57.817446 29.680261 -57.708071 29.774011 L -57.352602 30.074793 L -56.993227 30.375574 L -56.637759 30.680261 C -56.586977 30.72323 -56.399477 30.87948 -56.278384 30.977136 L -55.211977 31.867761 C -55.09479 31.965418 -54.915102 32.109949 -54.856509 32.16073 C -54.840884 32.172449 -54.618227 32.356043 -54.50104 32.453699 C -54.379946 32.551355 -54.165102 32.727136 -54.145571 32.742761 C -54.106509 32.774011 -53.90729 32.938074 -53.786196 33.03573 C -53.669009 33.12948 -53.442446 33.313074 -53.430727 33.324793 L -52.364321 34.180261 C -52.254946 34.270105 -52.12604 34.371668 -52.008852 34.465418 C -51.887759 34.559168 -51.762759 34.656824 -51.649477 34.750574 C -51.622134 34.770105 -51.411196 34.934168 -51.294009 35.027918 C -51.172915 35.121668 -50.977602 35.277918 -50.93854 35.309168 C -50.821352 35.399011 -50.700259 35.492761 -50.583071 35.586511 C -50.461977 35.676355 -50.340884 35.774011 -50.227602 35.863855 L -49.868227 36.137293 C -49.75104 36.227136 -49.575259 36.363855 -49.512759 36.41073 L -49.15729 36.684168 C -49.040102 36.774011 -48.887759 36.887293 -48.801821 36.953699 C -48.680727 37.043543 -48.53229 37.156824 -48.446352 37.22323 C -48.399477 37.258386 -48.208071 37.402918 -48.090884 37.492761 L -47.731509 37.758386 L -47.37604 38.024011 L -47.020571 38.28573 L -46.661196 38.547449 L -46.305727 38.809168 L -45.239321 39.582605 L -44.883852 39.836511 L -44.528384 40.086511 L -44.169009 40.340418 L -43.81354 40.586511 L -43.458071 40.836511 L -42.747134 41.328699 L -42.391665 41.570886 L -42.03229 41.813074 L -41.321352 42.289636 L -40.961977 42.527918 L -40.606509 42.762293 C -40.493227 42.836511 -40.372134 42.914636 -40.25104 42.992761 C -40.133852 43.070886 -40.008852 43.152918 -39.895571 43.227136 L -39.540102 43.453699 L -39.184634 43.684168 C -39.06354 43.758386 -38.891665 43.867761 -38.829165 43.91073 C -38.71979 43.977136 -38.590884 44.059168 -38.46979 44.133386 C -38.352602 44.207605 -38.215884 44.293543 -38.114321 44.356043 C -38.079165 44.375574 -37.879946 44.500574 -37.758852 44.574793 C -37.641665 44.649011 -37.454165 44.762293 -37.403384 44.797449 L -37.044009 45.016199 L -36.68854 45.231043 L -36.333071 45.44198 L -35.977602 45.656824 L -35.622134 45.863855 C -35.512759 45.930261 -35.383852 46.00448 -35.262759 46.074793 C -35.145571 46.145105 -35.020571 46.215418 -34.90729 46.281824 C -34.868227 46.305261 -34.672915 46.418543 -34.551821 46.484949 C -34.434634 46.551355 -34.243227 46.66073 -34.196352 46.688074 C -34.098696 46.746668 -33.958071 46.820886 -33.840884 46.887293 C -33.71979 46.957605 -33.56354 47.047449 -33.485415 47.090418 L -33.129946 47.28573 L -32.770571 47.481043 L -32.415102 47.676355 L -32.055727 47.867761 L -31.700259 48.059168 L -31.34479 48.246668 L -30.278384 48.797449 L -29.922915 48.977136 L -29.56354 49.156824 L -28.852602 49.508386 L -28.141665 49.852136 L -27.786196 50.020105 L -27.430727 50.184168 L -27.071352 50.352136 L -26.715884 50.516199 C -26.653384 50.543543 -26.477602 50.621668 -26.360415 50.676355 C -26.239321 50.727136 -26.059634 50.809168 -26.00104 50.832605 L -25.290102 51.145105 L -24.579165 51.449793 L -24.223696 51.59823 L -23.864321 51.742761 L -23.153384 52.031824 L -22.797915 52.168543 L -22.442446 52.309168 C -22.34479 52.344324 -22.204165 52.399011 -22.083071 52.445886 C -21.965884 52.488855 -21.833071 52.539636 -21.727602 52.578699 L -21.372134 52.711511 L -20.661196 52.969324 L -20.305727 53.094324 L -19.946352 53.219324 L -19.235415 53.461511 L -18.879946 53.578699 L -17.81354 53.918543 L -17.454165 54.027918 L -17.098696 54.133386 L -16.739321 54.238855 L -16.028384 54.44198 L -15.317446 54.637293 L -14.961977 54.731043 L -14.606509 54.820886 L -14.247134 54.91073 L -13.891665 55.000574 L -13.536196 55.086511 L -13.180727 55.168543 L -12.825259 55.246668 L -12.46979 55.328699 L -12.110415 55.402918 L -11.754946 55.481043 L -11.399477 55.551355 L -11.040102 55.621668 L -10.329165 55.75448 L -9.618227 55.87948 L -8.90729 55.996668 L -8.547915 56.047449 L -8.192446 56.102136 L -7.836977 56.152918 L -7.481509 56.199793 C -7.372134 56.215418 -7.243227 56.231043 -7.122134 56.246668 C -7.004946 56.262293 -6.883852 56.277918 -6.766665 56.289636 C -6.68854 56.297449 -6.528384 56.31698 -6.411196 56.328699 C -6.294009 56.344324 -6.129946 56.363855 -6.055727 56.371668 L -5.700259 56.406824 L -5.340884 56.44198 L -4.985415 56.47323 C -4.922915 56.481043 -4.75104 56.492761 -4.629946 56.50448 C -4.512759 56.512293 -4.34479 56.527918 -4.274477 56.531824 C -4.204165 56.53573 -4.036196 56.547449 -3.919009 56.555261 C -3.801821 56.56698 -3.629946 56.578699 -3.56354 56.582605 L -2.852602 56.621668 L -2.493227 56.637293 C -2.426821 56.641199 -2.254946 56.649011 -2.137759 56.652918 C -2.016665 56.656824 -1.848696 56.664636 -1.778384 56.664636 L -1.422915 56.676355 L -1.067446 56.684168 L -0.356509 56.69198 L -0.00104 56.69198 "
       transform="matrix(1,0,0,-1,204.09479,76.53573)"
       id="path3722" />
    <path
       style="fill:none;stroke-width:0.49814;stroke-linecap:round;stroke-linejoin:round;stroke:#000000;stroke-opacity:1;stroke-miterlimit:10"
       d="M -178.106509 0.00057375 L -178.106509 -56.694739 "
       transform="matrix(1,0,0,-1,204.09479,76.53573)"
       id="path3724" />
    <path
       style="fill-rule:nonzero;fill:#000000;fill-opacity:1;stroke-width:0.49814;stroke-linecap:round;stroke-linejoin:round;stroke:#000000;stroke-opacity:1;stroke-miterlimit:10"
       d="M -179.637759 -52.99552 L -178.106509 -56.694739 L -176.575259 -52.99552 Z M -179.637759 -52.99552 "
       transform="matrix(1,0,0,-1,204.09479,76.53573)"
       id="path3726" />
    <path
       style="fill:none;stroke-width:0.49814;stroke-linecap:round;stroke-linejoin:round;stroke:#000000;stroke-opacity:1;stroke-miterlimit:10"
       d="M -178.106509 -56.694739 L -0.00104 -56.694739 "
       transform="matrix(1,0,0,-1,204.09479,76.53573)"
       id="path3728" />
    <path
       style="fill-rule:nonzero;fill:#000000;fill-opacity:1;stroke-width:0.49814;stroke-linecap:round;stroke-linejoin:round;stroke:#000000;stroke-opacity:1;stroke-miterlimit:10"
       d="M -3.696352 -58.222082 L -0.00104 -56.694739 L -3.696352 -55.163489 Z M -3.696352 -58.222082 "
       transform="matrix(1,0,0,-1,204.09479,76.53573)"
       id="path3730" />
    <path
       style="fill:none;stroke-width:0.49814;stroke-linecap:round;stroke-linejoin:round;stroke:#000000;stroke-opacity:1;stroke-miterlimit:10"
       d="M 178.104429 -56.694739 L -0.00104 -56.694739 "
       transform="matrix(1,0,0,-1,204.09479,76.53573)"
       id="path3732" />
    <path
       style="fill-rule:nonzero;fill:#000000;fill-opacity:1;stroke-width:0.49814;stroke-linecap:round;stroke-linejoin:round;stroke:#000000;stroke-opacity:1;stroke-miterlimit:10"
       d="M 3.694273 -55.163489 L -0.00104 -56.694739 L 3.694273 -58.222082 Z M 3.694273 -55.163489 "
       transform="matrix(1,0,0,-1,204.09479,76.53573)"
       id="path3734" />
    <path
       style="fill:none;stroke-width:0.49814;stroke-linecap:round;stroke-linejoin:round;stroke:#000000;stroke-opacity:1;stroke-miterlimit:10"
       d="M 178.104429 0.00057375 L 178.104429 -56.694739 "
       transform="matrix(1,0,0,-1,204.09479,76.53573)"
       id="path3736" />
    <path
       style="fill-rule:nonzero;fill:#000000;fill-opacity:1;stroke-width:0.49814;stroke-linecap:round;stroke-linejoin:round;stroke:#000000;stroke-opacity:1;stroke-miterlimit:10"
       d="M 176.573179 -52.99552 L 178.104429 -56.694739 L 179.635679 -52.99552 Z M 176.573179 -52.99552 "
       transform="matrix(1,0,0,-1,204.09479,76.53573)"
       id="path3738" />
    <g
       style="fill:#000000;fill-opacity:1"
       id="g3742">
      <use
         xlink:href="#glyph1-1"
         x="17.82819"
         y="70.54123"
         id="use3740" />
    </g>
    <g
       style="fill:#000000;fill-opacity:1"
       id="g3746">
      <use
         xlink:href="#glyph2-1"
         x="26.86899"
         y="70.54123"
         id="use3744" />
    </g>
    <path
       style="fill:none;stroke-width:3;stroke-linecap:round;stroke-linejoin:round;stroke:#000000;stroke-opacity:1;stroke-miterlimit:10"
       d="M -178.106509 0.00057375 L -178.106509 0.00057375 "
       transform="matrix(1,0,0,-1,204.09479,76.53573)"
       id="path3748" />
    <g
       style="fill:#000000;fill-opacity:1"
       id="g3752">
      <use
         xlink:href="#glyph2-1"
         x="378.55989"
         y="71.53573"
         id="use3750" />
    </g>
    <path
       style="fill:none;stroke-width:3;stroke-linecap:round;stroke-linejoin:round;stroke:#000000;stroke-opacity:1;stroke-miterlimit:10"
       d="M 178.104429 0.00057375 L 178.104429 0.00057375 "
       transform="matrix(1,0,0,-1,204.09479,76.53573)"
       id="path3754" />
    <g
       style="fill:#000000;fill-opacity:1"
       id="g3758">
      <use
         xlink:href="#glyph1-1"
         x="186.87929"
         y="145.01183"
         id="use3756" />
    </g>
    <g
       style="fill:#000000;fill-opacity:1"
       id="g3762">
      <use
         xlink:href="#glyph3-1"
         x="195.92009"
         y="145.01183"
         id="use3760" />
    </g>
    <path
       style="fill:none;stroke-width:3;stroke-linecap:round;stroke-linejoin:round;stroke:#000000;stroke-opacity:1;stroke-miterlimit:10"
       d="M -0.00104 -56.694739 L -0.00104 -56.694739 "
       transform="matrix(1,0,0,-1,204.09479,76.53573)"
       id="path3764" />
    <g
       style="fill:#000000;fill-opacity:1"
       id="g3768">
      <use
         xlink:href="#glyph3-1"
         x="207.59479"
         y="16.28423"
         id="use3766" />
    </g>
    <path
       style="fill:none;stroke-width:3;stroke-linecap:round;stroke-linejoin:round;stroke:#000000;stroke-opacity:1;stroke-miterlimit:10"
       d="M -0.00104 56.69198 L -0.00104 56.69198 "
       transform="matrix(1,0,0,-1,204.09479,76.53573)"
       id="path3770" />
    <g
       style="fill:#000000;fill-opacity:1"
       id="g3774">
      <use
         xlink:href="#glyph2-1"
         x="296.64799"
         y="70.04903"
         id="use3772" />
    </g>
    <g
       style="fill:#000000;fill-opacity:1"
       id="g3778">
      <use
         xlink:href="#glyph2-2"
         x="301.932144"
         y="70.04903"
         id="use3776" />
    </g>
    <g
       style="fill:#000000;fill-opacity:1"
       id="g3782">
      <use
         xlink:href="#glyph3-2"
         x="307.93579"
         y="72.87843"
         id="use3780" />
    </g>
    <g
       style="fill:#000000;fill-opacity:1"
       id="g3786">
      <use
         xlink:href="#glyph1-1"
         x="85.05039"
         y="70.04903"
         id="use3784" />
    </g>
    <g
       style="fill:#000000;fill-opacity:1"
       id="g3790">
      <use
         xlink:href="#glyph2-1"
         x="94.09119"
         y="70.04903"
         id="use3788" />
    </g>
    <g
       style="fill:#000000;fill-opacity:1"
       id="g3794">
      <use
         xlink:href="#glyph2-2"
         x="99.375344"
         y="70.04903"
         id="use3792" />
    </g>
    <g
       style="fill:#000000;fill-opacity:1"
       id="g3798">
      <use
         xlink:href="#glyph3-2"
         x="105.37899"
         y="72.87843"
         id="use3796" />
    </g>
  </g>
</svg>
