<?xml version="1.0" encoding="UTF-8"?>
<svg xmlns="http://www.w3.org/2000/svg" xmlns:xlink="http://www.w3.org/1999/xlink" width="272.6252pt" height="272.6252pt" viewBox="0 0 272.6252 272.6252" version="1.1">
<defs>
<g>
<symbol overflow="visible" id="glyph0-0">
<path style="stroke:none;" d=""/>
</symbol>
<symbol overflow="visible" id="glyph0-1">
<path style="stroke:none;" d="M 6.265625 -4.0625 C 6.265625 -5.5 5.734375 -8.28125 3.390625 -8.28125 C 1.0625 -8.28125 0.515625 -5.5 0.515625 -4.0625 C 0.515625 -2.5625 1.0625 0.171875 3.390625 0.171875 C 5.734375 0.171875 6.265625 -2.5625 6.265625 -4.0625 Z M 5.046875 -4.0625 C 5.046875 -3.078125 5.015625 -0.140625 3.390625 -0.140625 C 1.765625 -0.140625 1.75 -3.0625 1.75 -4.0625 C 1.75 -4.890625 1.765625 -7.953125 3.390625 -7.953125 C 5.015625 -7.953125 5.046875 -4.890625 5.046875 -4.0625 Z M 5.046875 -4.0625 "/>
</symbol>
<symbol overflow="visible" id="glyph1-0">
<path style="stroke:none;" d=""/>
</symbol>
<symbol overflow="visible" id="glyph1-1">
<path style="stroke:none;" d="M 4.140625 0.015625 L 4.15625 -0.28125 C 4.140625 -0.28125 3.640625 -0.40625 3.375 -0.484375 C 2.875 -0.609375 3.015625 -1.5 3 -2.015625 C 2.984375 -2.75 2.96875 -3.484375 2.96875 -4.296875 C 2.96875 -5.21875 2.90625 -6.640625 3.015625 -7.34375 C 3.03125 -7.5 3.125 -7.625 3.28125 -7.65625 L 4.078125 -7.84375 L 4.078125 -8.09375 L 4 -8.15625 L 1.015625 -8.15625 L 0.9375 -8.09375 L 0.9375 -7.828125 C 1.890625 -7.609375 1.96875 -7.671875 2 -7.3125 C 2.03125 -6.859375 2.03125 -6.40625 2.03125 -5.9375 L 2.03125 -1.609375 C 1.984375 -0.609375 2.140625 -0.53125 0.96875 -0.296875 L 0.96875 0.015625 Z M 4.140625 0.015625 "/>
</symbol>
<symbol overflow="visible" id="glyph1-2">
<path style="stroke:none;" d="M 3.109375 -7.265625 C 3.109375 -7.484375 3.21875 -7.6875 3.359375 -7.71875 L 4.171875 -7.890625 L 4.203125 -8.171875 L 4.109375 -8.25 L 1.125 -8.25 L 1.046875 -8.171875 L 1.046875 -7.921875 L 1.90625 -7.703125 C 2.046875 -7.671875 2.09375 -7.40625 2.09375 -7.265625 L 2.09375 -1.140625 C 2.09375 1.265625 1.53125 2 0.59375 2.578125 L 0.765625 2.796875 C 2.359375 1.96875 3.109375 0.765625 3.109375 -1.09375 Z M 3.109375 -7.265625 "/>
</symbol>
<symbol overflow="visible" id="glyph1-3">
<path style="stroke:none;" d="M 5.046875 -5.515625 C 5.015625 -5.546875 5 -5.546875 4.96875 -5.546875 C 4.9375 -5.546875 4.90625 -5.546875 4.90625 -5.515625 C 4.375 -4.90625 3.671875 -4.078125 3.234375 -3.5 L 3.171875 -3.515625 C 2.828125 -4.1875 2.328125 -5.046875 2.078125 -5.3125 C 1.90625 -5.5 1.640625 -5.546875 1.4375 -5.546875 C 1.046875 -5.546875 0.4375 -5.109375 0.03125 -4.78125 L 0.1875 -4.5625 C 0.40625 -4.703125 0.703125 -4.859375 0.953125 -4.859375 C 1.546875 -4.859375 2.109375 -3.578125 2.5625 -2.671875 C 1.984375 -1.90625 1.390625 -1.078125 0.875 -0.25 L 0.875 -0.15625 L 1.203125 0.140625 L 1.40625 0.09375 C 1.75 -0.828125 2.234375 -1.5625 2.703125 -2.28125 L 2.78125 -2.28125 C 3.578125 -0.734375 3.984375 0.140625 4.59375 0.140625 C 5.09375 0.140625 5.703125 -0.53125 6.125 -0.984375 L 6.03125 -1.203125 L 5.921875 -1.203125 C 5.6875 -1 5.359375 -0.75 5.078125 -0.75 C 4.546875 -0.75 3.84375 -2.015625 3.359375 -3.09375 C 3.984375 -3.828125 4.75 -4.609375 5.421875 -5.0625 C 5.4375 -5.078125 5.453125 -5.09375 5.453125 -5.125 C 5.453125 -5.140625 5.421875 -5.15625 5.421875 -5.171875 Z M 5.046875 -5.515625 "/>
</symbol>
<symbol overflow="visible" id="glyph2-0">
<path style="stroke:none;" d=""/>
</symbol>
<symbol overflow="visible" id="glyph2-1">
<path style="stroke:none;" d="M 4.328125 -1.5 L 4.171875 -1.59375 C 3.828125 -1.078125 3.453125 -0.640625 2.71875 -0.640625 C 1.859375 -0.640625 1.15625 -1.40625 1.15625 -2.59375 C 1.15625 -4.09375 2.09375 -4.359375 2.46875 -4.390625 C 2.84375 -4.4375 3.203125 -4.265625 3.265625 -3.96875 C 3.34375 -3.703125 3.21875 -3.546875 3.125 -3.4375 C 3.21875 -3.375 3.375 -3.1875 3.671875 -3.1875 C 4.09375 -3.21875 4.1875 -3.765625 4.015625 -4.09375 C 3.890625 -4.359375 3.609375 -4.703125 2.65625 -4.703125 C 1.546875 -4.71875 0.375 -3.84375 0.375 -2.171875 C 0.375 -0.5625 1.46875 0.09375 2.28125 0.09375 C 3.109375 0.09375 3.765625 -0.34375 4.328125 -1.5 Z M 4.328125 -1.5 "/>
</symbol>
<symbol overflow="visible" id="glyph2-2">
<path style="stroke:none;" d="M 4.984375 -2.25 C 4.984375 -3.859375 4 -4.625 2.65625 -4.65625 C 1.109375 -4.6875 0.359375 -3.65625 0.375 -2.34375 C 0.40625 -0.90625 1.3125 0.125 2.625 0.140625 C 4.171875 0.171875 5 -1.078125 4.984375 -2.25 Z M 4 -1.953125 C 3.96875 -0.5 3.296875 -0.140625 2.765625 -0.125 C 1.484375 -0.125 1.28125 -1.953125 1.359375 -2.78125 C 1.46875 -3.84375 1.9375 -4.375 2.59375 -4.359375 C 3.53125 -4.359375 4.03125 -3.234375 4 -1.953125 Z M 4 -1.953125 "/>
</symbol>
<symbol overflow="visible" id="glyph2-3">
<path style="stroke:none;" d="M 3.875 -1.1875 C 3.875 -1.796875 3.53125 -2.203125 3.015625 -2.453125 C 2.4375 -2.75 1.296875 -3.0625 1.265625 -3.6875 C 1.234375 -4.171875 1.59375 -4.46875 2.34375 -4.4375 C 2.78125 -4.421875 3.328125 -4.03125 3.40625 -3.21875 L 3.65625 -3.21875 L 3.609375 -4.703125 L 3.40625 -4.703125 C 3.40625 -4.703125 3.375 -4.515625 3.296875 -4.515625 C 3.109375 -4.515625 2.796875 -4.703125 2.359375 -4.734375 C 1.234375 -4.78125 0.5 -4.28125 0.5 -3.484375 C 0.484375 -2.6875 1.171875 -2.328125 1.890625 -2.015625 L 2.640625 -1.609375 C 2.984375 -1.453125 3.15625 -1.171875 3.15625 -0.84375 C 3.15625 -0.265625 2.703125 -0.140625 2.359375 -0.140625 C 1.34375 -0.140625 0.875 -0.96875 0.796875 -1.515625 L 0.5625 -1.53125 L 0.65625 0.078125 L 0.859375 0.078125 C 0.921875 -0.015625 0.9375 -0.0625 1.0625 -0.046875 C 1.375 0 1.9375 0.125 2.390625 0.125 C 3.109375 0.140625 3.875 -0.296875 3.875 -1.1875 Z M 3.875 -1.1875 "/>
</symbol>
<symbol overflow="visible" id="glyph3-0">
<path style="stroke:none;" d=""/>
</symbol>
<symbol overflow="visible" id="glyph3-1">
<path style="stroke:none;" d="M 3 1.625 C 1.71875 1.375 1.640625 -1.046875 1.640625 -2.734375 C 1.640625 -4.234375 1.734375 -6.765625 3 -7.09375 L 3 -7.359375 C 1.96875 -7.171875 1.515625 -6.046875 1.328125 -5.078125 C 1.171875 -4.34375 1.125 -3.5625 1.125 -2.796875 C 1.125 -1.984375 1.171875 -1.171875 1.3125 -0.375 C 1.46875 0.5625 1.953125 1.78125 3 1.859375 Z M 3 1.625 "/>
</symbol>
<symbol overflow="visible" id="glyph3-2">
<path style="stroke:none;" d="M 0.859375 -7.0625 C 1.671875 -6.78125 1.890625 -5.84375 2.046875 -5.09375 C 2.1875 -4.328125 2.234375 -3.53125 2.234375 -2.75 C 2.234375 -1.609375 2.25 -0.40625 1.890625 0.671875 C 1.6875 1.265625 1.3125 1.53125 0.859375 1.640625 L 0.859375 1.890625 C 2.640625 1.65625 2.75 -1 2.75 -2.71875 C 2.75 -4.375 2.546875 -6.984375 0.859375 -7.34375 Z M 0.859375 -7.0625 "/>
</symbol>
<symbol overflow="visible" id="glyph4-0">
<path style="stroke:none;" d=""/>
</symbol>
<symbol overflow="visible" id="glyph4-1">
<path style="stroke:none;" d="M 4.203125 -4.609375 C 4.1875 -4.625 4.171875 -4.625 4.140625 -4.625 C 4.109375 -4.625 4.09375 -4.625 4.09375 -4.609375 C 3.65625 -4.09375 3.0625 -3.40625 2.703125 -2.921875 L 2.640625 -2.9375 C 2.359375 -3.484375 1.9375 -4.203125 1.734375 -4.4375 C 1.59375 -4.578125 1.359375 -4.625 1.203125 -4.625 C 0.875 -4.625 0.375 -4.25 0.015625 -3.984375 L 0.15625 -3.8125 C 0.34375 -3.921875 0.59375 -4.0625 0.796875 -4.0625 C 1.28125 -4.0625 1.765625 -2.984375 2.140625 -2.21875 C 1.65625 -1.578125 1.15625 -0.890625 0.734375 -0.203125 L 0.734375 -0.125 L 1 0.125 L 1.171875 0.078125 C 1.46875 -0.6875 1.859375 -1.3125 2.25 -1.90625 L 2.328125 -1.90625 C 2.984375 -0.625 3.3125 0.125 3.828125 0.125 C 4.25 0.125 4.75 -0.4375 5.109375 -0.8125 L 5.03125 -1 L 4.9375 -1 C 4.75 -0.84375 4.46875 -0.625 4.234375 -0.625 C 3.796875 -0.625 3.203125 -1.6875 2.796875 -2.578125 C 3.3125 -3.1875 3.953125 -3.84375 4.515625 -4.234375 C 4.53125 -4.234375 4.546875 -4.25 4.546875 -4.28125 C 4.546875 -4.28125 4.53125 -4.3125 4.515625 -4.3125 Z M 4.203125 -4.609375 "/>
</symbol>
<symbol overflow="visible" id="glyph5-0">
<path style="stroke:none;" d=""/>
</symbol>
<symbol overflow="visible" id="glyph5-1">
<path style="stroke:none;" d="M 8.421875 -2.828125 L 8.484375 -3.296875 L 0.640625 -3.296875 L 0.546875 -2.828125 Z M 8.421875 -2.828125 "/>
</symbol>
</g>
<clipPath id="clip1">
  <path d="M 0 136 L 272.625 136 L 272.625 137 L 0 137 Z M 0 136 "/>
</clipPath>
<clipPath id="clip2">
  <path d="M 268 134 L 272.625 134 L 272.625 138 L 268 138 Z M 268 134 "/>
</clipPath>
<clipPath id="clip3">
  <path d="M 268 134 L 272.625 134 L 272.625 139 L 268 139 Z M 268 134 "/>
</clipPath>
<clipPath id="clip4">
  <path d="M 136 0 L 137 0 L 137 272.625 L 136 272.625 Z M 136 0 "/>
</clipPath>
</defs>
<g id="surface1">
<g clip-path="url(#clip1)" clip-rule="nonzero">
<path style="fill:none;stroke-width:0.5;stroke-linecap:round;stroke-linejoin:round;stroke:rgb(100%,100%,100%);stroke-opacity:1;stroke-miterlimit:10;" d="M -136.06262 0.00008 L 136.06238 0.00008 " transform="matrix(1,0,0,-1,136.31262,136.31258)"/>
</g>
<g clip-path="url(#clip2)" clip-rule="nonzero">
<path style=" stroke:none;fill-rule:nonzero;fill:rgb(100%,100%,100%);fill-opacity:1;" d="M 268.679688 137.84375 L 272.375 136.3125 L 268.679688 134.78125 Z M 268.679688 137.84375 "/>
</g>
<g clip-path="url(#clip3)" clip-rule="nonzero">
<path style="fill:none;stroke-width:0.5;stroke-linecap:round;stroke-linejoin:round;stroke:rgb(100%,100%,100%);stroke-opacity:1;stroke-miterlimit:10;" d="M 132.367067 -1.53117 L 136.06238 0.00008 L 132.367067 1.53133 Z M 132.367067 -1.53117 " transform="matrix(1,0,0,-1,136.31262,136.31258)"/>
</g>
<g clip-path="url(#clip4)" clip-rule="nonzero">
<path style="fill:none;stroke-width:0.5;stroke-linecap:round;stroke-linejoin:round;stroke:rgb(100%,100%,100%);stroke-opacity:1;stroke-miterlimit:10;" d="M -0.00012 -136.06242 L -0.00012 136.06258 " transform="matrix(1,0,0,-1,136.31262,136.31258)"/>
</g>
<path style="fill-rule:nonzero;fill:rgb(100%,100%,100%);fill-opacity:1;stroke-width:0.5;stroke-linecap:round;stroke-linejoin:round;stroke:rgb(100%,100%,100%);stroke-opacity:1;stroke-miterlimit:10;" d="M 1.53113 132.367267 L -0.00012 136.06258 L -1.53137 132.367267 Z M 1.53113 132.367267 " transform="matrix(1,0,0,-1,136.31262,136.31258)"/>
<path style="fill:none;stroke-width:0.5;stroke-linecap:round;stroke-linejoin:round;stroke:rgb(0%,100%,100%);stroke-opacity:1;stroke-miterlimit:10;" d="M 113.386599 0.00008 C 113.386599 30.074299 101.43738 58.910236 80.175661 80.175861 C 58.910036 101.43758 30.074099 113.386799 -0.00012 113.386799 C -30.074339 113.386799 -58.910276 101.43758 -80.175901 80.175861 C -101.43762 58.910236 -113.386839 30.074299 -113.386839 0.00008 C -113.386839 -30.074139 -101.43762 -58.910076 -80.175901 -80.175701 C -58.910276 -101.43742 -30.074339 -113.386639 -0.00012 -113.386639 C 30.074099 -113.386639 58.910036 -101.43742 80.175661 -80.175701 C 101.43738 -58.910076 113.386599 -30.074139 113.386599 0.00008 Z M 113.386599 0.00008 " transform="matrix(1,0,0,-1,136.31262,136.31258)"/>
<path style="fill:none;stroke-width:0.5;stroke-linecap:round;stroke-linejoin:round;stroke:rgb(100%,69.999695%,69.999695%);stroke-opacity:1;stroke-miterlimit:10;" d="M -0.00012 0.00008 L 113.386599 113.386799 " transform="matrix(1,0,0,-1,136.31262,136.31258)"/>
<path style="fill:none;stroke-width:0.5;stroke-linecap:round;stroke-linejoin:round;stroke:rgb(0%,79.000854%,33.999634%);stroke-opacity:1;stroke-miterlimit:10;" d="M -0.00012 0.00008 L 113.386599 -113.386639 " transform="matrix(1,0,0,-1,136.31262,136.31258)"/>
<path style="fill:none;stroke-width:0.5;stroke-linecap:round;stroke-linejoin:round;stroke:rgb(100%,100%,100%);stroke-opacity:1;stroke-dasharray:3,3;stroke-miterlimit:10;" d="M 80.175661 -80.175701 L 80.175661 80.175861 " transform="matrix(1,0,0,-1,136.31262,136.31258)"/>
<path style="fill:none;stroke-width:0.5;stroke-linecap:round;stroke-linejoin:round;stroke:rgb(100%,100%,100%);stroke-opacity:1;stroke-miterlimit:10;" d="M 22.675661 0.00008 C 22.675661 6.015705 20.288942 11.78133 16.035036 16.035236 " transform="matrix(1,0,0,-1,136.31262,136.31258)"/>
<path style="fill-rule:nonzero;fill:rgb(100%,100%,100%);fill-opacity:1;stroke-width:0.5;stroke-linecap:round;stroke-linejoin:round;stroke:rgb(100%,100%,100%);stroke-opacity:1;stroke-miterlimit:10;" d="M 19.581911 14.183674 C 18.464724 14.898517 17.277224 15.519611 16.035036 16.035236 C 16.550661 14.793049 16.949099 13.515705 17.234255 12.21883 Z M 19.581911 14.183674 " transform="matrix(1,0,0,-1,136.31262,136.31258)"/>
<path style="fill:none;stroke-width:0.5;stroke-linecap:round;stroke-linejoin:round;stroke:rgb(100%,100%,100%);stroke-opacity:1;stroke-miterlimit:10;" d="M 22.675661 0.00008 C 22.675661 -6.015545 20.288942 -11.78117 16.035036 -16.035076 " transform="matrix(1,0,0,-1,136.31262,136.31258)"/>
<path style="fill-rule:nonzero;fill:rgb(100%,100%,100%);fill-opacity:1;stroke-width:0.5;stroke-linecap:round;stroke-linejoin:round;stroke:rgb(100%,100%,100%);stroke-opacity:1;stroke-miterlimit:10;" d="M 17.234255 -12.21867 C 16.949099 -13.515545 16.550661 -14.792889 16.035036 -16.035076 C 17.277224 -15.519451 18.464724 -14.898358 19.581911 -14.183514 Z M 17.234255 -12.21867 " transform="matrix(1,0,0,-1,136.31262,136.31258)"/>
<g style="fill:rgb(100%,100%,100%);fill-opacity:1;">
  <use xlink:href="#glyph0-1" x="126.02902" y="132.64858"/>
</g>
<path style="fill:none;stroke-width:3;stroke-linecap:round;stroke-linejoin:round;stroke:rgb(100%,100%,100%);stroke-opacity:1;stroke-miterlimit:10;" d="M -0.00012 0.00008 L -0.00012 0.00008 " transform="matrix(1,0,0,-1,136.31262,136.31258)"/>
<g style="fill:rgb(100%,100%,100%);fill-opacity:1;">
  <use xlink:href="#glyph1-1" x="253.19842" y="148.07848"/>
</g>
<path style="fill:none;stroke-width:3;stroke-linecap:round;stroke-linejoin:round;stroke:rgb(100%,100%,100%);stroke-opacity:1;stroke-miterlimit:10;" d="M 113.386599 0.00008 L 113.386599 0.00008 " transform="matrix(1,0,0,-1,136.31262,136.31258)"/>
<g style="fill:rgb(100%,100%,100%);fill-opacity:1;">
  <use xlink:href="#glyph1-2" x="128.00482" y="17.91998"/>
</g>
<path style="fill:none;stroke-width:3;stroke-linecap:round;stroke-linejoin:round;stroke:rgb(100%,100%,100%);stroke-opacity:1;stroke-miterlimit:10;" d="M -0.00012 113.386799 L -0.00012 113.386799 " transform="matrix(1,0,0,-1,136.31262,136.31258)"/>
<g style="fill:rgb(100%,100%,100%);fill-opacity:1;">
  <use xlink:href="#glyph2-1" x="219.98852" y="130.32368"/>
  <use xlink:href="#glyph2-2" x="224.489401" y="130.32368"/>
  <use xlink:href="#glyph2-3" x="229.859216" y="130.32368"/>
</g>
<g style="fill:rgb(100%,100%,100%);fill-opacity:1;">
  <use xlink:href="#glyph3-1" x="234.13562" y="130.32368"/>
</g>
<g style="fill:rgb(100%,100%,100%);fill-opacity:1;">
  <use xlink:href="#glyph4-1" x="238.00752" y="130.32368"/>
</g>
<g style="fill:rgb(100%,100%,100%);fill-opacity:1;">
  <use xlink:href="#glyph3-2" x="243.24902" y="130.32368"/>
</g>
<path style="fill:none;stroke-width:3;stroke-linecap:round;stroke-linejoin:round;stroke:rgb(100%,100%,100%);stroke-opacity:1;stroke-miterlimit:10;" d="M 80.175661 0.00008 L 80.175661 0.00008 " transform="matrix(1,0,0,-1,136.31262,136.31258)"/>
<g style="fill:rgb(100%,100%,100%);fill-opacity:1;">
  <use xlink:href="#glyph1-3" x="213.34372" y="51.13668"/>
</g>
<g style="fill:rgb(100%,100%,100%);fill-opacity:1;">
  <use xlink:href="#glyph5-1" x="208.82332" y="234.12608"/>
</g>
<g style="fill:rgb(100%,100%,100%);fill-opacity:1;">
  <use xlink:href="#glyph1-3" x="217.86412" y="234.12608"/>
</g>
</g>
</svg>
