<?xml version="1.0" encoding="UTF-8" standalone="no"?>
<svg
   xmlns:dc="http://purl.org/dc/elements/1.1/"
   xmlns:cc="http://creativecommons.org/ns#"
   xmlns:rdf="http://www.w3.org/1999/02/22-rdf-syntax-ns#"
   xmlns:svg="http://www.w3.org/2000/svg"
   xmlns="http://www.w3.org/2000/svg"
   xmlns:xlink="http://www.w3.org/1999/xlink"
   xmlns:sodipodi="http://sodipodi.sourceforge.net/DTD/sodipodi-0.dtd"
   xmlns:inkscape="http://www.inkscape.org/namespaces/inkscape"
   width="205.0721pt"
   height="208.356pt"
   viewBox="0 0 205.0721 208.356"
   version="1.1"
   id="svg4308"
   sodipodi:docname="trigo-17.pdf_b.svg"
   inkscape:version="1.0.1 (3bc2e813f5, 2020-09-07)">
  <metadata
     id="metadata4312">
    <rdf:RDF>
      <cc:Work
         rdf:about="">
        <dc:format>image/svg+xml</dc:format>
        <dc:type
           rdf:resource="http://purl.org/dc/dcmitype/StillImage" />
        <dc:title></dc:title>
      </cc:Work>
    </rdf:RDF>
  </metadata>
  <sodipodi:namedview
     pagecolor="#ffffff"
     bordercolor="#666666"
     borderopacity="1"
     objecttolerance="10"
     gridtolerance="10"
     guidetolerance="10"
     inkscape:pageopacity="0"
     inkscape:pageshadow="2"
     inkscape:window-width="1918"
     inkscape:window-height="1044"
     id="namedview4310"
     showgrid="false"
     inkscape:zoom="2.0733744"
     inkscape:cx="38.806703"
     inkscape:cy="138.904"
     inkscape:window-x="0"
     inkscape:window-y="34"
     inkscape:window-maximized="0"
     inkscape:current-layer="svg4308"
     inkscape:document-rotation="0" />
  <defs
     id="defs4221">
    <g
       id="g4213">
      <symbol
         overflow="visible"
         id="glyph0-0">
        <path
           style="stroke:none"
           d=""
           id="path4171" />
      </symbol>
      <symbol
         overflow="visible"
         id="glyph0-1">
        <path
           style="stroke:none"
           d="M 8.421875 -2.828125 L 8.484375 -3.296875 L 0.640625 -3.296875 L 0.546875 -2.828125 Z M 8.421875 -2.828125 "
           id="path4174" />
      </symbol>
      <symbol
         overflow="visible"
         id="glyph0-2">
        <path
           style="stroke:none"
           d="M 4.734375 -3.296875 L 4.734375 -7 L 4.25 -6.9375 L 4.25 -3.296875 L 0.640625 -3.296875 L 0.546875 -2.828125 L 4.25 -2.828125 L 4.25 0.890625 L 4.734375 0.796875 L 4.734375 -2.828125 L 8.421875 -2.828125 L 8.46875 -3.296875 Z M 4.734375 -3.296875 "
           id="path4177" />
      </symbol>
      <symbol
         overflow="visible"
         id="glyph1-0">
        <path
           style="stroke:none"
           d=""
           id="path4180" />
      </symbol>
      <symbol
         overflow="visible"
         id="glyph1-1">
        <path
           style="stroke:none"
           d="M 10.453125 -2.75 C 10 -2.203125 9.375 -1.25 9.078125 0 L 9.546875 0 C 9.921875 -1.5625 10.921875 -2.65625 11.28125 -2.984375 C 10.90625 -3.34375 9.921875 -4.421875 9.546875 -5.96875 L 9.078125 -5.96875 C 9.375 -4.734375 10 -3.796875 10.453125 -3.234375 L 1.09375 -3.234375 C 0.875 -3.234375 0.671875 -3.234375 0.671875 -2.984375 C 0.671875 -2.75 0.890625 -2.75 1.09375 -2.75 Z M 10.453125 -2.75 "
           id="path4183" />
      </symbol>
      <symbol
         overflow="visible"
         id="glyph2-0">
        <path
           style="stroke:none"
           d=""
           id="path4186" />
      </symbol>
      <symbol
         overflow="visible"
         id="glyph2-1">
        <path
           style="stroke:none"
           d="M 2.390625 -4.6875 C 2.390625 -5.21875 2.1875 -5.625 1.65625 -5.625 C 1.1875 -5.625 0.515625 -5.15625 -0.03125 -4.734375 L 0.125 -4.515625 C 0.421875 -4.703125 0.828125 -4.90625 1.09375 -4.90625 C 1.40625 -4.90625 1.5 -4.5 1.5 -3.890625 L 1.4375 -1.25 C 1.4375 -0.0625 1.875 0.09375 2.390625 0.09375 C 3.046875 0.09375 3.671875 -0.53125 4.078125 -1.0625 L 4.078125 -1.1875 L 3.921875 -1.3125 C 3.59375 -1.03125 3.28125 -0.78125 2.828125 -0.78125 C 2.40625 -0.78125 2.296875 -1.296875 2.296875 -2.171875 Z M 2.390625 -4.6875 "
           id="path4189" />
      </symbol>
      <symbol
         overflow="visible"
         id="glyph2-2">
        <path
           style="stroke:none"
           d="M 0.328125 -4.484375 C 0.625 -4.640625 1.046875 -4.875 1.234375 -4.875 C 1.65625 -4.875 1.75 -4.734375 1.75 -1.84375 C 1.75 -1.3125 1.71875 0.171875 1.515625 0.90625 C 1.34375 1.5 0.875 2.046875 -0.015625 2.5625 L 0.171875 2.765625 C 1.25 2.25 2.15625 1.53125 2.515625 0.484375 C 2.671875 0.078125 2.671875 -1.609375 2.671875 -1.84375 C 2.671875 -2.28125 2.671875 -4.28125 2.578125 -4.796875 C 2.546875 -5.1875 2.421875 -5.59375 1.859375 -5.59375 C 1.34375 -5.59375 0.65625 -5.078125 0.171875 -4.703125 Z M 0.328125 -4.484375 "
           id="path4192" />
      </symbol>
      <symbol
         overflow="visible"
         id="glyph2-3">
        <path
           style="stroke:none"
           d="M 0.859375 -3.796875 C 0.859375 -1.828125 1.75 0.21875 4.203125 0.21875 C 6.078125 0.21875 7.609375 -0.640625 8.1875 -1.8125 C 8.671875 -2.78125 8.671875 -3.5625 8.671875 -4.34375 C 8.671875 -5.46875 8.421875 -6.703125 7.671875 -7.453125 C 7.03125 -8.109375 6.078125 -8.359375 5.1875 -8.359375 C 4.078125 -8.359375 2.828125 -8.125 2.0625 -7.3125 C 1.1875 -6.359375 0.859375 -5.34375 0.859375 -3.796875 Z M 1.96875 -4.15625 C 1.96875 -5.96875 2.734375 -7.890625 4.8125 -7.890625 C 6.828125 -7.890625 7.546875 -5.71875 7.546875 -4.015625 C 7.546875 -2.21875 6.8125 -0.28125 4.828125 -0.28125 C 4.359375 -0.28125 3.640625 -0.390625 2.921875 -1.1875 C 2.171875 -2.015625 1.96875 -3.03125 1.96875 -4.15625 Z M 1.96875 -4.15625 "
           id="path4195" />
      </symbol>
      <symbol
         overflow="visible"
         id="glyph2-4">
        <path
           style="stroke:none"
           d="M 7.34375 -6.3125 L 8.03125 -7 C 7.40625 -8.015625 6.5 -8.359375 5.453125 -8.359375 C 4.203125 -8.359375 3 -7.921875 2.125 -7.046875 C 1.296875 -6.21875 1.046875 -5.046875 1.046875 -3.890625 C 1.046875 -2.71875 1.34375 -1.546875 2.1875 -0.703125 C 2.875 -0.03125 3.84375 0.171875 4.796875 0.171875 C 5.828125 0.171875 6.796875 -0.328125 7.65625 -0.90625 L 7.453125 -1.25 C 6.78125 -0.796875 6.03125 -0.453125 5.21875 -0.453125 C 4.234375 -0.453125 3.734375 -0.78125 3.078125 -1.453125 C 2.671875 -1.84375 2.109375 -3.015625 2.109375 -4.109375 C 2.109375 -5.921875 2.875 -7.859375 5.046875 -7.859375 C 6.03125 -7.859375 6.78125 -7.40625 7.1875 -6.328125 Z M 7.34375 -6.3125 "
           id="path4198" />
      </symbol>
      <symbol
         overflow="visible"
         id="glyph2-5">
        <path
           style="stroke:none"
           d="M 4.140625 0.015625 L 4.15625 -0.28125 C 4.140625 -0.28125 3.640625 -0.40625 3.375 -0.484375 C 2.875 -0.609375 3.015625 -1.5 3 -2.015625 C 2.984375 -2.75 2.96875 -3.484375 2.96875 -4.296875 C 2.96875 -5.21875 2.90625 -6.640625 3.015625 -7.34375 C 3.03125 -7.5 3.125 -7.625 3.28125 -7.65625 L 4.078125 -7.84375 L 4.078125 -8.09375 L 4 -8.15625 L 1.015625 -8.15625 L 0.9375 -8.09375 L 0.9375 -7.828125 C 1.890625 -7.609375 1.96875 -7.671875 2 -7.3125 C 2.03125 -6.859375 2.03125 -6.40625 2.03125 -5.9375 L 2.03125 -1.609375 C 1.984375 -0.609375 2.140625 -0.53125 0.96875 -0.296875 L 0.96875 0.015625 Z M 4.140625 0.015625 "
           id="path4201" />
      </symbol>
      <symbol
         overflow="visible"
         id="glyph2-6">
        <path
           style="stroke:none"
           d="M 3.109375 -7.265625 C 3.109375 -7.484375 3.21875 -7.6875 3.359375 -7.71875 L 4.171875 -7.890625 L 4.203125 -8.171875 L 4.109375 -8.25 L 1.125 -8.25 L 1.046875 -8.171875 L 1.046875 -7.921875 L 1.90625 -7.703125 C 2.046875 -7.671875 2.09375 -7.40625 2.09375 -7.265625 L 2.09375 -1.140625 C 2.09375 1.265625 1.53125 2 0.59375 2.578125 L 0.765625 2.796875 C 2.359375 1.96875 3.109375 0.765625 3.109375 -1.09375 Z M 3.109375 -7.265625 "
           id="path4204" />
      </symbol>
      <symbol
         overflow="visible"
         id="glyph3-0">
        <path
           style="stroke:none"
           d=""
           id="path4207" />
      </symbol>
      <symbol
         overflow="visible"
         id="glyph3-1">
        <path
           style="stroke:none"
           d="M 2.109375 -3.78125 C 2.15625 -3.875 2.1875 -3.9375 2.1875 -4.015625 C 2.1875 -4.28125 1.9375 -4.453125 1.71875 -4.453125 C 1.40625 -4.453125 1.3125 -4.171875 1.28125 -4.0625 L 0.265625 -0.625 C 0.234375 -0.53125 0.234375 -0.515625 0.234375 -0.5 C 0.234375 -0.4375 0.28125 -0.421875 0.359375 -0.390625 C 0.515625 -0.328125 0.53125 -0.328125 0.546875 -0.328125 C 0.5625 -0.328125 0.609375 -0.328125 0.671875 -0.46875 Z M 2.109375 -3.78125 "
           id="path4210" />
      </symbol>
    </g>
    <clipPath
       id="clip1">
      <path
         d="M 94 198 L 99 198 L 99 208.355469 L 94 208.355469 Z M 94 198 "
         id="path4215" />
    </clipPath>
    <clipPath
       id="clip2">
      <path
         d="M 98 1 L 205.070312 1 L 205.070312 109 L 98 109 Z M 98 1 "
         id="path4218" />
    </clipPath>
  </defs>
  <g
     id="surface1">
    <path
       style="fill:none;stroke-width:0.56693;stroke-linecap:round;stroke-linejoin:round;stroke:#000000;stroke-opacity:1;stroke-miterlimit:10"
       d="M -85.040241 0.00058125 L 85.037884 0.00058125 "
       transform="matrix(1,0,0,-1,98.48946,108.04355)"
       id="path4223" />
    <path
       style="fill:none;stroke-width:0.56693;stroke-linecap:round;stroke-linejoin:round;stroke:#000000;stroke-opacity:1;stroke-miterlimit:10"
       d="M -0.00117875 -85.038481 L -0.00117875 85.039644 "
       transform="matrix(1,0,0,-1,98.48946,108.04355)"
       id="path4225" />
    <path
       style="fill:none;stroke-width:1;stroke-linecap:round;stroke-linejoin:round;stroke:#000000;stroke-opacity:1;stroke-miterlimit:10"
       d="M -0.00117875 0.00058125 L 82.487102 0.00058125 "
       transform="matrix(1,0,0,-1,98.48946,108.04355)"
       id="path4227" />
    <path
       style="fill-rule:nonzero;fill:#000000;fill-opacity:1;stroke-width:1;stroke-linecap:round;stroke-linejoin:round;stroke:#000000;stroke-opacity:1;stroke-miterlimit:10"
       d="M 78.79179 -1.530669 L 82.487102 0.00058125 L 78.79179 1.531831 Z M 78.79179 -1.530669 "
       transform="matrix(1,0,0,-1,98.48946,108.04355)"
       id="path4229" />
    <path
       style="fill:none;stroke-width:1;stroke-linecap:round;stroke-linejoin:round;stroke:#000000;stroke-opacity:1;stroke-miterlimit:10"
       d="M -0.00117875 0.00058125 L -0.00117875 82.488863 "
       transform="matrix(1,0,0,-1,98.48946,108.04355)"
       id="path4231" />
    <path
       style="fill-rule:nonzero;fill:#000000;fill-opacity:1;stroke-width:1;stroke-linecap:round;stroke-linejoin:round;stroke:#000000;stroke-opacity:1;stroke-miterlimit:10"
       d="M 1.530071 78.79355 L -0.00117875 82.488863 L -1.532429 78.79355 Z M 1.530071 78.79355 "
       transform="matrix(1,0,0,-1,98.48946,108.04355)"
       id="path4233" />
    <path
       style="fill:none;stroke-width:0.56693;stroke-linecap:round;stroke-linejoin:round;stroke:#000000;stroke-opacity:1;stroke-miterlimit:10"
       d="M 85.037884 0.00058125 C 85.037884 22.555269 76.076946 44.184175 60.131634 60.129488 C 44.182415 76.078706 22.553509 85.039644 -0.00117875 85.039644 C -22.555866 85.039644 -44.184773 76.078706 -60.130085 60.129488 C -76.079304 44.184175 -85.040241 22.555269 -85.040241 0.00058125 C -85.040241 -22.554106 -76.079304 -44.183012 -60.130085 -60.132231 C -44.184773 -76.077544 -22.555866 -85.038481 -0.00117875 -85.038481 C 22.553509 -85.038481 44.182415 -76.077544 60.131634 -60.132231 C 76.076946 -44.183012 85.037884 -22.554106 85.037884 0.00058125 Z M 85.037884 0.00058125 "
       transform="matrix(1,0,0,-1,98.48946,108.04355)"
       id="path4235" />
    <g
       style="fill:#000000;fill-opacity:1"
       id="g4239">
      <use
         xlink:href="#glyph0-1"
         x="130.90806"
         y="117.42955"
         id="use4237" />
    </g>
    <g
       style="fill:#000000;fill-opacity:1"
       id="g4243">
      <use
         xlink:href="#glyph1-1"
         x="130.65056"
         y="117.42955"
         id="use4241" />
    </g>
    <g
       style="fill:#000000;fill-opacity:1"
       id="g4247">
      <use
         xlink:href="#glyph2-1"
         x="133.88766"
         y="124.22015"
         id="use4245" />
    </g>
    <g
       style="fill:#000000;fill-opacity:1"
       id="g4251">
      <use
         xlink:href="#glyph0-1"
         x="73.28736"
         y="63.19145"
         id="use4249" />
    </g>
    <g
       style="fill:#000000;fill-opacity:1"
       id="g4255">
      <use
         xlink:href="#glyph1-1"
         x="73.02986"
         y="63.19145"
         id="use4253" />
    </g>
    <g
       style="fill:#000000;fill-opacity:1"
       id="g4259">
      <use
         xlink:href="#glyph2-2"
         x="76.27346"
         y="69.98205"
         id="use4257" />
    </g>
    <g
       style="fill:#000000;fill-opacity:1"
       id="g4263">
      <use
         xlink:href="#glyph2-3"
         x="85.38686"
         y="119.80945"
         id="use4261" />
    </g>
    <path
       style="fill:none;stroke-width:3;stroke-linecap:round;stroke-linejoin:round;stroke:#000000;stroke-opacity:1;stroke-miterlimit:10"
       d="M -0.00117875 0.00058125 L -0.00117875 0.00058125 "
       transform="matrix(1,0,0,-1,98.48946,108.04355)"
       id="path4265" />
    <g
       style="fill:#000000;fill-opacity:1"
       id="g4269">
      <use
         xlink:href="#glyph2-4"
         x="25.41856"
         y="180.20825"
         id="use4267" />
    </g>
    <g
       style="fill:#000000;fill-opacity:1"
       id="g4273">
      <use
         xlink:href="#glyph2-5"
         x="188.52876"
         y="112.17645"
         id="use4271" />
    </g>
    <g
       style="fill:#000000;fill-opacity:1"
       id="g4277">
      <use
         xlink:href="#glyph2-5"
         x="-0.00004"
         y="112.42665"
         id="use4275" />
    </g>
    <g
       style="fill:#000000;fill-opacity:1"
       id="g4281">
      <use
         xlink:href="#glyph3-1"
         x="5.65506"
         y="108.08825"
         id="use4279" />
    </g>
    <g
       style="fill:#000000;fill-opacity:1"
       id="g4285">
      <use
         xlink:href="#glyph2-6"
         x="96.08556"
         y="16.49735"
         id="use4283" />
    </g>
    <g
       clip-path="url(#clip1)"
       clip-rule="nonzero"
       id="g4291">
      <g
         style="fill:#000000;fill-opacity:1"
         id="g4289">
        <use
           xlink:href="#glyph2-6"
           x="94.21756"
           y="206.84915"
           id="use4287" />
      </g>
    </g>
    <g
       style="fill:#000000;fill-opacity:1"
       id="g4295">
      <use
         xlink:href="#glyph3-1"
         x="99.96626"
         y="202.51075"
         id="use4293" />
    </g>
    <g
       style="fill:#000000;fill-opacity:1"
       id="g4299">
      <use
         xlink:href="#glyph0-2"
         x="187.02876"
         y="44.02175"
         id="use4297" />
    </g>
    <g
       clip-path="url(#clip2)"
       clip-rule="nonzero"
       id="g4303">
      <path
         style="fill:none;stroke-width:0.56693;stroke-linecap:round;stroke-linejoin:round;stroke:#676767;stroke-opacity:1;stroke-miterlimit:10"
         d="M 106.299602 0.00058125 C 106.299602 28.191988 95.096477 55.227144 75.162884 75.164644 C 55.22929 95.098238 28.194134 106.297456 -0.00117875 106.297456 "
         transform="matrix(1,0,0,-1,98.48946,108.04355)"
         id="path4301" />
    </g>
    <path
       style="fill-rule:nonzero;fill:#676767;fill-opacity:1;stroke-width:0.56693;stroke-linecap:round;stroke-linejoin:round;stroke:#676767;stroke-opacity:1;stroke-miterlimit:10"
       d="M 3.721477 107.758394 C 2.475384 107.297456 1.233196 106.809175 -0.00117875 106.297456 C 1.233196 105.789644 2.455852 105.254488 3.66679 104.6998 Z M 3.721477 107.758394 "
       transform="matrix(1,0,0,-1,98.48946,108.04355)"
       id="path4305" />
  </g>
</svg>
