<?xml version="1.0" encoding="UTF-8"?>
<svg xmlns="http://www.w3.org/2000/svg" xmlns:xlink="http://www.w3.org/1999/xlink" width="171.1787pt" height="147.4019pt" viewBox="0 0 171.1787 147.4019" version="1.1">
<defs>
<g>
<symbol overflow="visible" id="glyph0-0">
<path style="stroke:none;" d=""/>
</symbol>
<symbol overflow="visible" id="glyph0-1">
<path style="stroke:none;" d="M 7.375 -4.34375 C 7.375 -5.953125 6.3125 -7.03125 4.828125 -7.03125 C 2.6875 -7.03125 0.484375 -4.765625 0.484375 -2.4375 C 0.484375 -0.78125 1.609375 0.21875 3.046875 0.21875 C 5.15625 0.21875 7.375 -1.96875 7.375 -4.34375 Z M 3.09375 -0.046875 C 2.109375 -0.046875 1.421875 -0.84375 1.421875 -2.15625 C 1.421875 -2.609375 1.5625 -4.0625 2.328125 -5.21875 C 3.015625 -6.265625 3.984375 -6.78125 4.78125 -6.78125 C 5.59375 -6.78125 6.484375 -6.21875 6.484375 -4.734375 C 6.484375 -4.015625 6.21875 -2.46875 5.234375 -1.234375 C 4.75 -0.625 3.9375 -0.046875 3.09375 -0.046875 Z M 3.09375 -0.046875 "/>
</symbol>
<symbol overflow="visible" id="glyph0-2">
<path style="stroke:none;" d="M 3.328125 -3.015625 C 3.390625 -3.265625 3.625 -4.1875 4.3125 -4.1875 C 4.359375 -4.1875 4.609375 -4.1875 4.8125 -4.0625 C 4.53125 -4 4.34375 -3.765625 4.34375 -3.515625 C 4.34375 -3.359375 4.453125 -3.171875 4.71875 -3.171875 C 4.9375 -3.171875 5.25 -3.34375 5.25 -3.75 C 5.25 -4.265625 4.671875 -4.40625 4.328125 -4.40625 C 3.75 -4.40625 3.40625 -3.875 3.28125 -3.65625 C 3.03125 -4.3125 2.5 -4.40625 2.203125 -4.40625 C 1.171875 -4.40625 0.59375 -3.125 0.59375 -2.875 C 0.59375 -2.765625 0.703125 -2.765625 0.71875 -2.765625 C 0.796875 -2.765625 0.828125 -2.796875 0.84375 -2.875 C 1.1875 -3.9375 1.84375 -4.1875 2.1875 -4.1875 C 2.375 -4.1875 2.71875 -4.09375 2.71875 -3.515625 C 2.71875 -3.203125 2.546875 -2.546875 2.1875 -1.140625 C 2.03125 -0.53125 1.671875 -0.109375 1.234375 -0.109375 C 1.171875 -0.109375 0.953125 -0.109375 0.734375 -0.234375 C 0.984375 -0.296875 1.203125 -0.5 1.203125 -0.78125 C 1.203125 -1.046875 0.984375 -1.125 0.84375 -1.125 C 0.53125 -1.125 0.296875 -0.875 0.296875 -0.546875 C 0.296875 -0.09375 0.78125 0.109375 1.21875 0.109375 C 1.890625 0.109375 2.25 -0.59375 2.265625 -0.640625 C 2.390625 -0.28125 2.75 0.109375 3.34375 0.109375 C 4.375 0.109375 4.9375 -1.171875 4.9375 -1.421875 C 4.9375 -1.53125 4.859375 -1.53125 4.828125 -1.53125 C 4.734375 -1.53125 4.71875 -1.484375 4.6875 -1.421875 C 4.359375 -0.34375 3.6875 -0.109375 3.375 -0.109375 C 2.984375 -0.109375 2.828125 -0.421875 2.828125 -0.765625 C 2.828125 -0.984375 2.875 -1.203125 2.984375 -1.640625 Z M 3.328125 -3.015625 "/>
</symbol>
<symbol overflow="visible" id="glyph0-3">
<path style="stroke:none;" d="M 4.84375 -3.796875 C 4.890625 -3.9375 4.890625 -3.953125 4.890625 -4.03125 C 4.890625 -4.203125 4.75 -4.296875 4.59375 -4.296875 C 4.5 -4.296875 4.34375 -4.234375 4.25 -4.09375 C 4.234375 -4.03125 4.140625 -3.734375 4.109375 -3.546875 C 4.03125 -3.296875 3.96875 -3.015625 3.90625 -2.75 L 3.453125 -0.953125 C 3.421875 -0.8125 2.984375 -0.109375 2.328125 -0.109375 C 1.828125 -0.109375 1.71875 -0.546875 1.71875 -0.921875 C 1.71875 -1.375 1.890625 -2 2.21875 -2.875 C 2.375 -3.28125 2.421875 -3.390625 2.421875 -3.59375 C 2.421875 -4.03125 2.109375 -4.40625 1.609375 -4.40625 C 0.65625 -4.40625 0.296875 -2.953125 0.296875 -2.875 C 0.296875 -2.765625 0.390625 -2.765625 0.40625 -2.765625 C 0.515625 -2.765625 0.515625 -2.796875 0.5625 -2.953125 C 0.84375 -3.890625 1.234375 -4.1875 1.578125 -4.1875 C 1.65625 -4.1875 1.828125 -4.1875 1.828125 -3.875 C 1.828125 -3.625 1.71875 -3.359375 1.65625 -3.171875 C 1.25 -2.109375 1.078125 -1.546875 1.078125 -1.078125 C 1.078125 -0.1875 1.703125 0.109375 2.296875 0.109375 C 2.6875 0.109375 3.015625 -0.0625 3.296875 -0.34375 C 3.171875 0.171875 3.046875 0.671875 2.65625 1.203125 C 2.390625 1.53125 2.015625 1.828125 1.5625 1.828125 C 1.421875 1.828125 0.96875 1.796875 0.796875 1.40625 C 0.953125 1.40625 1.09375 1.40625 1.21875 1.28125 C 1.328125 1.203125 1.421875 1.0625 1.421875 0.875 C 1.421875 0.5625 1.15625 0.53125 1.0625 0.53125 C 0.828125 0.53125 0.5 0.6875 0.5 1.171875 C 0.5 1.671875 0.9375 2.046875 1.5625 2.046875 C 2.578125 2.046875 3.609375 1.140625 3.890625 0.015625 Z M 4.84375 -3.796875 "/>
</symbol>
<symbol overflow="visible" id="glyph1-0">
<path style="stroke:none;" d=""/>
</symbol>
<symbol overflow="visible" id="glyph1-1">
<path style="stroke:none;" d="M 6.265625 -4.0625 C 6.265625 -5.5 5.734375 -8.28125 3.390625 -8.28125 C 1.0625 -8.28125 0.515625 -5.5 0.515625 -4.0625 C 0.515625 -2.5625 1.0625 0.171875 3.390625 0.171875 C 5.734375 0.171875 6.265625 -2.5625 6.265625 -4.0625 Z M 5.046875 -4.0625 C 5.046875 -3.078125 5.015625 -0.140625 3.390625 -0.140625 C 1.765625 -0.140625 1.75 -3.0625 1.75 -4.0625 C 1.75 -4.890625 1.765625 -7.953125 3.390625 -7.953125 C 5.015625 -7.953125 5.046875 -4.890625 5.046875 -4.0625 Z M 5.046875 -4.0625 "/>
</symbol>
<symbol overflow="visible" id="glyph1-2">
<path style="stroke:none;" d="M 4.328125 0.015625 L 4.328125 -0.34375 C 3.875 -0.359375 3.5 -0.46875 3.21875 -0.78125 C 2.96875 -1.078125 3.046875 -3.0625 3.0625 -4.59375 C 3.078125 -6.078125 3.140625 -8.4375 3.140625 -8.4375 C 2.6875 -8.140625 1.109375 -7.234375 0.65625 -7.0625 L 0.65625 -6.703125 L 1.9375 -7.09375 C 1.9375 -7.09375 1.953125 -5.1875 1.953125 -3.953125 C 1.953125 -2.703125 2.015625 -1.0625 1.765625 -0.78125 C 1.5 -0.46875 1.109375 -0.359375 0.6875 -0.34375 L 0.6875 -0.015625 C 0.828125 -0.078125 2.28125 -0.109375 2.4375 -0.109375 C 2.609375 -0.109375 4.15625 -0.0625 4.328125 0.015625 Z M 4.328125 0.015625 "/>
</symbol>
<symbol overflow="visible" id="glyph1-3">
<path style="stroke:none;" d="M 5.8125 -2.65625 C 5.84375 -3.6875 5.59375 -4.203125 5.046875 -4.8125 C 4.015625 -5.9375 2.296875 -5.796875 1.375 -5.09375 L 1.375 -7.078125 L 4.875 -7.078125 C 4.875 -7.078125 4.9375 -7.4375 5 -7.625 C 5.046875 -7.84375 5.15625 -8.1875 5.15625 -8.1875 C 5.15625 -8.1875 3.84375 -8.078125 3 -8.078125 C 1.671875 -8.078125 0.78125 -8.1875 0.78125 -8.1875 C 0.78125 -8.1875 1.078125 -6.078125 0.8125 -4.359375 C 1.390625 -4.8125 2.484375 -5.265625 3.3125 -4.921875 C 4.03125 -4.625 4.5625 -3.6875 4.59375 -2.546875 C 4.65625 -1.53125 4.109375 -0.1875 2.84375 -0.171875 C 1.609375 -0.15625 1.203125 -1.453125 1.703125 -2.125 C 1.578125 -2.375 0.359375 -2.703125 0.359375 -1.3125 C 0.359375 -0.34375 1.515625 0.171875 2.84375 0.171875 C 4.0625 0.171875 5.765625 -0.59375 5.8125 -2.65625 Z M 5.8125 -2.65625 "/>
</symbol>
<symbol overflow="visible" id="glyph2-0">
<path style="stroke:none;" d=""/>
</symbol>
<symbol overflow="visible" id="glyph2-1">
<path style="stroke:none;" d="M 8.421875 -2.828125 L 8.484375 -3.296875 L 0.640625 -3.296875 L 0.546875 -2.828125 Z M 8.421875 -2.828125 "/>
</symbol>
<symbol overflow="visible" id="glyph3-0">
<path style="stroke:none;" d=""/>
</symbol>
<symbol overflow="visible" id="glyph3-1">
<path style="stroke:none;" d="M 1.3125 2.515625 C 2.15625 1.53125 2.5625 0.921875 2.5625 0.328125 C 2.5625 -0.09375 2.140625 -1.65625 1.5 -1.65625 C 1.203125 -1.65625 0.796875 -1.390625 0.796875 -1.078125 C 0.796875 -0.953125 0.84375 -0.828125 0.890625 -0.765625 L 1.71875 0.234375 C 1.828125 0.359375 1.875 0.5625 1.875 0.734375 C 1.875 1.203125 1.5 1.796875 1.09375 2.34375 Z M 1.3125 2.515625 "/>
</symbol>
</g>
<clipPath id="clip1">
  <path d="M 0 73 L 171.179688 73 L 171.179688 75 L 0 75 Z M 0 73 "/>
</clipPath>
<clipPath id="clip2">
  <path d="M 166 71 L 171.179688 71 L 171.179688 76 L 166 76 Z M 166 71 "/>
</clipPath>
<clipPath id="clip3">
  <path d="M 142 72 L 145 72 L 145 147.402344 L 142 147.402344 Z M 142 72 "/>
</clipPath>
</defs>
<g id="surface1">
<g clip-path="url(#clip1)" clip-rule="nonzero">
<path style="fill:none;stroke-width:1.1;stroke-linecap:round;stroke-linejoin:round;stroke:rgb(100%,100%,100%);stroke-opacity:1;stroke-miterlimit:10;" d="M -85.038579 0.00172125 L 85.039546 0.00172125 " transform="matrix(1,0,0,-1,85.58936,73.70094)"/>
</g>
<path style=" stroke:none;fill-rule:nonzero;fill:rgb(100%,100%,100%);fill-opacity:1;" d="M 166.933594 75.230469 L 170.628906 73.699219 L 166.933594 72.171875 Z M 166.933594 75.230469 "/>
<g clip-path="url(#clip2)" clip-rule="nonzero">
<path style="fill:none;stroke-width:1.1;stroke-linecap:round;stroke-linejoin:round;stroke:rgb(100%,100%,100%);stroke-opacity:1;stroke-miterlimit:10;" d="M 81.344234 -1.529529 L 85.039546 0.00172125 L 81.344234 1.529065 Z M 81.344234 -1.529529 " transform="matrix(1,0,0,-1,85.58936,73.70094)"/>
</g>
<path style="fill:none;stroke-width:1.1;stroke-linecap:round;stroke-linejoin:round;stroke:rgb(100%,100%,100%);stroke-opacity:1;stroke-miterlimit:10;" d="M 0.00048375 -70.865466 L 0.00048375 70.865003 " transform="matrix(1,0,0,-1,85.58936,73.70094)"/>
<path style="fill-rule:nonzero;fill:rgb(100%,100%,100%);fill-opacity:1;stroke-width:1.1;stroke-linecap:round;stroke-linejoin:round;stroke:rgb(100%,100%,100%);stroke-opacity:1;stroke-miterlimit:10;" d="M 1.531734 67.16969 L 0.00048375 70.865003 L -1.530766 67.16969 Z M 1.531734 67.16969 " transform="matrix(1,0,0,-1,85.58936,73.70094)"/>
<g style="fill:rgb(100%,100%,100%);fill-opacity:1;">
  <use xlink:href="#glyph0-1" x="72.71336" y="82.77414"/>
</g>
<path style="fill:none;stroke-width:2.98878;stroke-linecap:round;stroke-linejoin:round;stroke:rgb(100%,100%,100%);stroke-opacity:1;stroke-miterlimit:10;" d="M 0.00048375 0.00172125 L 0.00048375 0.00172125 " transform="matrix(1,0,0,-1,85.58936,73.70094)"/>
<g style="fill:rgb(100%,100%,100%);fill-opacity:1;">
  <use xlink:href="#glyph0-2" x="164.94706" y="82.99044"/>
</g>
<g style="fill:rgb(100%,100%,100%);fill-opacity:1;">
  <use xlink:href="#glyph0-3" x="75.34746" y="6.84564"/>
</g>
<path style="fill:none;stroke-width:1.5;stroke-linecap:round;stroke-linejoin:round;stroke:rgb(100%,69.999695%,69.999695%);stroke-opacity:1;stroke-miterlimit:10;" d="M 58.109859 0.00172125 L 58.109859 113.384534 " transform="matrix(1,0,0,-1,85.58936,73.70094)"/>
<g clip-path="url(#clip3)" clip-rule="nonzero">
<path style="fill:none;stroke-width:1.5;stroke-linecap:round;stroke-linejoin:round;stroke:rgb(0%,100%,100%);stroke-opacity:1;stroke-miterlimit:10;" d="M 58.109859 0.00172125 L 58.109859 -106.29906 " transform="matrix(1,0,0,-1,85.58936,73.70094)"/>
</g>
<path style="fill:none;stroke-width:0.49814;stroke-linecap:round;stroke-linejoin:round;stroke:rgb(100%,100%,100%);stroke-opacity:1;stroke-miterlimit:10;" d="M 29.055171 0.00172125 C 29.055171 7.704846 25.992671 15.095471 20.543453 20.54469 C 15.094234 25.993909 7.707515 29.056409 0.00048375 29.056409 C -7.706547 29.056409 -15.097172 25.993909 -20.546391 20.54469 C -25.991704 15.095471 -29.054204 7.704846 -29.054204 0.00172125 C -29.054204 -7.70531 -25.991704 -15.095935 -20.546391 -20.545154 C -15.097172 -25.994372 -7.706547 -29.056872 0.00048375 -29.056872 C 7.707515 -29.056872 15.094234 -25.994372 20.543453 -20.545154 C 25.992671 -15.095935 29.055171 -7.70531 29.055171 0.00172125 Z M 29.055171 0.00172125 " transform="matrix(1,0,0,-1,85.58936,73.70094)"/>
<g style="fill:rgb(100%,100%,100%);fill-opacity:1;">
  <use xlink:href="#glyph1-1" x="147.19966" y="70.03694"/>
</g>
<g style="fill:rgb(100%,100%,100%);fill-opacity:1;">
  <use xlink:href="#glyph2-1" x="148.69966" y="135.45554"/>
</g>
<g style="fill:rgb(100%,100%,100%);fill-opacity:1;">
  <use xlink:href="#glyph1-2" x="157.74046" y="135.45554"/>
</g>
<path style="fill:none;stroke-width:3;stroke-linecap:round;stroke-linejoin:round;stroke:rgb(100%,100%,100%);stroke-opacity:1;stroke-miterlimit:10;" d="M 58.109859 -58.11156 L 58.109859 -58.11156 " transform="matrix(1,0,0,-1,85.58936,73.70094)"/>
<g style="fill:rgb(100%,100%,100%);fill-opacity:1;">
  <use xlink:href="#glyph1-2" x="148.69966" y="19.70294"/>
</g>
<path style="fill:none;stroke-width:3;stroke-linecap:round;stroke-linejoin:round;stroke:rgb(100%,100%,100%);stroke-opacity:1;stroke-miterlimit:10;" d="M 58.109859 58.111096 L 58.109859 58.111096 " transform="matrix(1,0,0,-1,85.58936,73.70094)"/>
<g style="fill:rgb(100%,100%,100%);fill-opacity:1;">
  <use xlink:href="#glyph1-1" x="148.69966" y="48.70564"/>
</g>
<g style="fill:rgb(100%,100%,100%);fill-opacity:1;">
  <use xlink:href="#glyph3-1" x="155.48326" y="48.70564"/>
</g>
<g style="fill:rgb(100%,100%,100%);fill-opacity:1;">
  <use xlink:href="#glyph1-3" x="160.79496" y="48.70564"/>
</g>
<path style="fill:none;stroke-width:3;stroke-linecap:round;stroke-linejoin:round;stroke:rgb(100%,100%,100%);stroke-opacity:1;stroke-miterlimit:10;" d="M 58.109859 29.056409 L 58.109859 29.056409 " transform="matrix(1,0,0,-1,85.58936,73.70094)"/>
</g>
</svg>
