<?xml version="1.0" encoding="UTF-8" standalone="no"?>
<svg
   xmlns:dc="http://purl.org/dc/elements/1.1/"
   xmlns:cc="http://creativecommons.org/ns#"
   xmlns:rdf="http://www.w3.org/1999/02/22-rdf-syntax-ns#"
   xmlns:svg="http://www.w3.org/2000/svg"
   xmlns="http://www.w3.org/2000/svg"
   xmlns:xlink="http://www.w3.org/1999/xlink"
   xmlns:sodipodi="http://sodipodi.sourceforge.net/DTD/sodipodi-0.dtd"
   xmlns:inkscape="http://www.inkscape.org/namespaces/inkscape"
   width="205.7613pt"
   height="205.7613pt"
   viewBox="0 0 205.7613 205.7613"
   version="1.1"
   id="svg4801"
   sodipodi:docname="trigo-21.pdf_b.svg"
   inkscape:version="1.0.1 (3bc2e813f5, 2020-09-07)">
  <metadata
     id="metadata4805">
    <rdf:RDF>
      <cc:Work
         rdf:about="">
        <dc:format>image/svg+xml</dc:format>
        <dc:type
           rdf:resource="http://purl.org/dc/dcmitype/StillImage" />
        <dc:title></dc:title>
      </cc:Work>
    </rdf:RDF>
  </metadata>
  <sodipodi:namedview
     pagecolor="#ffffff"
     bordercolor="#666666"
     borderopacity="1"
     objecttolerance="10"
     gridtolerance="10"
     guidetolerance="10"
     inkscape:pageopacity="0"
     inkscape:pageshadow="2"
     inkscape:window-width="1918"
     inkscape:window-height="1044"
     id="namedview4803"
     showgrid="false"
     inkscape:zoom="2.0995201"
     inkscape:cx="40.485442"
     inkscape:cy="137.1742"
     inkscape:window-x="0"
     inkscape:window-y="34"
     inkscape:window-maximized="0"
     inkscape:current-layer="svg4801"
     inkscape:document-rotation="0" />
  <defs
     id="defs4706">
    <g
       id="g4689">
      <symbol
         overflow="visible"
         id="glyph0-0">
        <path
           style="stroke:none"
           d=""
           id="path4656" />
      </symbol>
      <symbol
         overflow="visible"
         id="glyph0-1">
        <path
           style="stroke:none"
           d="M 5.171875 -5.15625 C 4.796875 -5.421875 4.28125 -5.5625 3.890625 -5.5625 C 1.859375 -5.5625 1.046875 -3.890625 1.046875 -2.21875 C 1.046875 -1.140625 1.484375 0.140625 2.8125 0.140625 C 3.5 0.140625 4.171875 -0.234375 4.75 -0.609375 L 4.9375 -0.5625 C 5.015625 -0.15625 5.171875 0.140625 5.625 0.140625 C 6 0.140625 6.640625 -0.265625 7.125 -0.546875 L 7.046875 -0.84375 C 6.796875 -0.734375 6.4375 -0.625 6.265625 -0.625 C 5.625 -0.625 5.796875 -2.109375 5.796875 -2.859375 C 5.796875 -3.734375 5.828125 -4.59375 5.875 -5.46875 L 5.8125 -5.515625 Z M 4.90625 -1.1875 C 4.546875 -0.90625 4.109375 -0.640625 3.640625 -0.640625 C 3.203125 -0.640625 2.71875 -0.734375 2.46875 -1.140625 C 2.1875 -1.546875 2.109375 -2.0625 2.125 -2.5625 C 2.15625 -3.78125 2.5 -4.4375 2.765625 -4.703125 C 3.078125 -5 3.484375 -5.15625 3.90625 -5.15625 C 4.203125 -5.15625 4.5 -4.984375 4.71875 -4.75 C 4.90625 -4.546875 4.90625 -4.25 4.90625 -3.9375 Z M 4.90625 -1.1875 "
           id="path4659" />
      </symbol>
      <symbol
         overflow="visible"
         id="glyph0-2">
        <path
           style="stroke:none"
           d="M 0.328125 -7.90625 L 0.328125 -7.65625 C 1.34375 -7.5 1.453125 -7.578125 1.453125 -7.15625 L 1.453125 -1.46875 C 1.453125 -0.140625 2.234375 0.125 2.84375 0.125 C 4.203125 0.125 5.609375 -0.84375 6.03125 -2.109375 C 6.1875 -2.625 6.25 -3.15625 6.25 -3.6875 C 6.25 -4.6875 5.671875 -5.59375 4.5625 -5.59375 C 3.75 -5.59375 3.0625 -5.1875 2.421875 -4.703125 L 2.3125 -4.765625 C 2.3125 -4.90625 2.3125 -5.03125 2.3125 -5.15625 C 2.3125 -6.140625 2.390625 -7.109375 2.484375 -8.09375 L 2.421875 -8.171875 L 0.390625 -7.953125 Z M 2.359375 -4.140625 C 2.828125 -4.546875 3.375 -4.859375 4 -4.859375 C 4.453125 -4.859375 4.75 -4.578125 4.90625 -4.34375 C 5.0625 -4.09375 5.265625 -3.578125 5.265625 -2.71875 C 5.265625 -1.609375 4.765625 -0.453125 3.5 -0.453125 C 2.453125 -0.453125 2.3125 -1.390625 2.3125 -2.734375 C 2.3125 -3.203125 2.34375 -3.734375 2.359375 -4.140625 Z M 2.359375 -4.140625 "
           id="path4662" />
      </symbol>
      <symbol
         overflow="visible"
         id="glyph0-3">
        <path
           style="stroke:none"
           d="M 4.140625 0.015625 L 4.15625 -0.28125 C 4.140625 -0.28125 3.640625 -0.40625 3.375 -0.484375 C 2.875 -0.609375 3.015625 -1.5 3 -2.015625 C 2.984375 -2.75 2.96875 -3.484375 2.96875 -4.296875 C 2.96875 -5.21875 2.90625 -6.640625 3.015625 -7.34375 C 3.03125 -7.5 3.125 -7.625 3.28125 -7.65625 L 4.078125 -7.84375 L 4.078125 -8.09375 L 4 -8.15625 L 1.015625 -8.15625 L 0.9375 -8.09375 L 0.9375 -7.828125 C 1.890625 -7.609375 1.96875 -7.671875 2 -7.3125 C 2.03125 -6.859375 2.03125 -6.40625 2.03125 -5.9375 L 2.03125 -1.609375 C 1.984375 -0.609375 2.140625 -0.53125 0.96875 -0.296875 L 0.96875 0.015625 Z M 4.140625 0.015625 "
           id="path4665" />
      </symbol>
      <symbol
         overflow="visible"
         id="glyph0-4">
        <path
           style="stroke:none"
           d="M 3.109375 -7.265625 C 3.109375 -7.484375 3.21875 -7.6875 3.359375 -7.71875 L 4.171875 -7.890625 L 4.203125 -8.171875 L 4.109375 -8.25 L 1.125 -8.25 L 1.046875 -8.171875 L 1.046875 -7.921875 L 1.90625 -7.703125 C 2.046875 -7.671875 2.09375 -7.40625 2.09375 -7.265625 L 2.09375 -1.140625 C 2.09375 1.265625 1.53125 2 0.59375 2.578125 L 0.765625 2.796875 C 2.359375 1.96875 3.109375 0.765625 3.109375 -1.09375 Z M 3.109375 -7.265625 "
           id="path4668" />
      </symbol>
      <symbol
         overflow="visible"
         id="glyph0-5">
        <path
           style="stroke:none"
           d="M 7.34375 -6.3125 L 8.03125 -7 C 7.40625 -8.015625 6.5 -8.359375 5.453125 -8.359375 C 4.203125 -8.359375 3 -7.921875 2.125 -7.046875 C 1.296875 -6.21875 1.046875 -5.046875 1.046875 -3.890625 C 1.046875 -2.71875 1.34375 -1.546875 2.1875 -0.703125 C 2.875 -0.03125 3.84375 0.171875 4.796875 0.171875 C 5.828125 0.171875 6.796875 -0.328125 7.65625 -0.90625 L 7.453125 -1.25 C 6.78125 -0.796875 6.03125 -0.453125 5.21875 -0.453125 C 4.234375 -0.453125 3.734375 -0.78125 3.078125 -1.453125 C 2.671875 -1.84375 2.109375 -3.015625 2.109375 -4.109375 C 2.109375 -5.921875 2.875 -7.859375 5.046875 -7.859375 C 6.03125 -7.859375 6.78125 -7.40625 7.1875 -6.328125 Z M 7.34375 -6.3125 "
           id="path4671" />
      </symbol>
      <symbol
         overflow="visible"
         id="glyph0-6">
        <path
           style="stroke:none"
           d="M 2.53125 -6.875 C 2.53125 -7.71875 2.578125 -7.609375 2.703125 -7.65625 C 2.765625 -7.703125 2.96875 -7.703125 3.484375 -7.703125 C 5.0625 -7.703125 6.25 -7.625 6.828125 -7.0625 C 7.5 -6.390625 7.703125 -5.234375 7.703125 -4.5 C 7.703125 -2.5 6.921875 -0.484375 3.6875 -0.484375 C 3.375 -0.484375 2.90625 -0.484375 2.75 -0.640625 C 2.5625 -0.8125 2.546875 -1.546875 2.53125 -2.03125 Z M 1.265625 -0.03125 L 4.03125 -0.03125 C 5.265625 -0.03125 6.84375 -0.21875 7.640625 -1.09375 C 8.5625 -2.078125 8.828125 -3.078125 8.828125 -4.609375 C 8.828125 -6.71875 8.140625 -8.203125 4.4375 -8.203125 L 0.6875 -8.203125 L 0.609375 -8.109375 L 0.609375 -7.875 C 0.921875 -7.78125 1.484375 -7.703125 1.5 -7.40625 C 1.515625 -7.234375 1.53125 -7.046875 1.53125 -6.84375 L 1.53125 -0.9375 C 1.515625 -0.484375 1.5 -0.328125 1.265625 -0.140625 Z M 1.265625 -0.03125 "
           id="path4674" />
      </symbol>
      <symbol
         overflow="visible"
         id="glyph0-7">
        <path
           style="stroke:none"
           d="M 6.40625 -0.90625 C 6.546875 -0.375 6.703125 0.125 7.09375 0.125 C 7.28125 0.125 7.453125 0.09375 7.640625 0.046875 L 8.875 -0.3125 L 8.875 -0.625 C 8.703125 -0.609375 8.515625 -0.578125 8.359375 -0.578125 C 8.03125 -0.578125 7.75 -0.6875 7.59375 -0.9375 C 7.15625 -1.65625 6.84375 -2.828125 6.578125 -3.796875 C 6.1875 -5.21875 5.640625 -7.140625 5.46875 -8.125 L 3.140625 -8.125 L 3.140625 -7.8125 L 4.21875 -7.625 C 4.328125 -7.609375 4.359375 -7.53125 4.359375 -7.5 C 4.359375 -7.453125 4.359375 -7.453125 4.34375 -7.40625 C 3.09375 -4.921875 1.71875 -2.484375 0.296875 -0.09375 L 0.328125 0.03125 L 1.421875 -0.203125 L 2.828125 -3.171875 C 2.84375 -3.21875 2.890625 -3.265625 2.9375 -3.265625 L 5.625 -3.265625 C 5.671875 -3.265625 5.734375 -3.203125 5.765625 -3.15625 Z M 4.5625 -6.84375 C 4.5625 -6.84375 4.609375 -6.890625 4.640625 -6.890625 C 4.671875 -6.890625 4.703125 -6.859375 4.71875 -6.84375 L 5.5625 -3.921875 C 5.5625 -3.90625 5.578125 -3.8125 5.578125 -3.8125 C 5.578125 -3.78125 5.5625 -3.734375 5.5 -3.734375 L 3.25 -3.734375 C 3.21875 -3.734375 3.171875 -3.78125 3.171875 -3.8125 C 3.171875 -3.828125 3.171875 -3.890625 3.171875 -3.921875 Z M 4.5625 -6.84375 "
           id="path4677" />
      </symbol>
      <symbol
         overflow="visible"
         id="glyph0-8">
        <path
           style="stroke:none"
           d="M 2.5625 -3.875 L 2.5625 -4.046875 C 2.625 -4.15625 2.875 -4.140625 3.3125 -4.140625 C 4.5 -4.140625 5.765625 -3.90625 5.765625 -2.484375 C 5.765625 -1.09375 4.6875 -0.46875 3.46875 -0.46875 C 2.671875 -0.46875 2.5625 -0.515625 2.5625 -0.78125 Z M 2.5625 -4.90625 L 2.5625 -7.515625 C 2.640625 -7.765625 3.171875 -7.75 3.4375 -7.75 C 4.453125 -7.75 5.359375 -7.515625 5.359375 -6.515625 C 5.359375 -5.109375 4.25 -4.546875 2.96875 -4.546875 C 2.734375 -4.546875 2.59375 -4.546875 2.5625 -4.671875 Z M 4.546875 -4.515625 C 5.515625 -4.921875 6.390625 -5.453125 6.390625 -6.609375 C 6.390625 -7.90625 5 -8.203125 3.640625 -8.203125 L 0.6875 -8.203125 L 0.609375 -8.109375 L 0.59375 -7.90625 C 1.046875 -7.796875 1.59375 -7.703125 1.59375 -7.296875 L 1.59375 -0.96875 C 1.59375 -0.296875 1.546875 -0.484375 1.3125 -0.125 L 1.328125 -0.015625 C 1.34375 -0.015625 2.90625 0.015625 3.6875 0.015625 C 5.140625 0.015625 6.859375 -0.5625 6.859375 -2.40625 C 6.859375 -3.578125 6.28125 -4.203125 4.546875 -4.421875 Z M 4.546875 -4.515625 "
           id="path4680" />
      </symbol>
      <symbol
         overflow="visible"
         id="glyph1-0">
        <path
           style="stroke:none"
           d=""
           id="path4683" />
      </symbol>
      <symbol
         overflow="visible"
         id="glyph1-1">
        <path
           style="stroke:none"
           d="M 6.265625 -4.0625 C 6.265625 -5.5 5.734375 -8.28125 3.390625 -8.28125 C 1.0625 -8.28125 0.515625 -5.5 0.515625 -4.0625 C 0.515625 -2.5625 1.0625 0.171875 3.390625 0.171875 C 5.734375 0.171875 6.265625 -2.5625 6.265625 -4.0625 Z M 5.046875 -4.0625 C 5.046875 -3.078125 5.015625 -0.140625 3.390625 -0.140625 C 1.765625 -0.140625 1.75 -3.0625 1.75 -4.0625 C 1.75 -4.890625 1.765625 -7.953125 3.390625 -7.953125 C 5.015625 -7.953125 5.046875 -4.890625 5.046875 -4.0625 Z M 5.046875 -4.0625 "
           id="path4686" />
      </symbol>
    </g>
    <clipPath
       id="clip1">
      <path
         d="M 0 170 L 205.761719 170 L 205.761719 171 L 0 171 Z M 0 170 "
         id="path4691" />
    </clipPath>
    <clipPath
       id="clip2">
      <path
         d="M 201 168 L 205.761719 168 L 205.761719 172 L 201 172 Z M 201 168 "
         id="path4694" />
    </clipPath>
    <clipPath
       id="clip3">
      <path
         d="M 201 168 L 205.761719 168 L 205.761719 173 L 201 173 Z M 201 168 "
         id="path4697" />
    </clipPath>
    <clipPath
       id="clip4">
      <path
         d="M 35 0 L 36 0 L 36 205.761719 L 35 205.761719 Z M 35 0 "
         id="path4700" />
    </clipPath>
    <clipPath
       id="clip5">
      <path
         d="M 0 28 L 178 28 L 178 205.761719 L 0 205.761719 Z M 0 28 "
         id="path4703" />
    </clipPath>
  </defs>
  <g
     id="surface1">
    <g
       clip-path="url(#clip1)"
       clip-rule="nonzero"
       id="g4710">
      <path
         style="fill:none;stroke-width:0.5;stroke-linecap:round;stroke-linejoin:round;stroke:#000000;stroke-opacity:1;stroke-dasharray:3,3;stroke-miterlimit:10"
         d="M -170.077591 0.000115 L 170.078659 0.000115 "
         transform="matrix(1,0,0,-1,35.43306,170.32824)"
         id="path4708" />
    </g>
    <g
       clip-path="url(#clip2)"
       clip-rule="nonzero"
       id="g4714">
      <path
         style="stroke:none;fill-rule:nonzero;fill:#000000;fill-opacity:1"
         d="M 201.8125 171.859375 L 205.511719 170.328125 L 201.8125 168.796875 Z M 201.8125 171.859375 "
         id="path4712" />
    </g>
    <g
       clip-path="url(#clip3)"
       clip-rule="nonzero"
       id="g4718">
      <path
         style="fill:none;stroke-width:0.5;stroke-linecap:round;stroke-linejoin:round;stroke:#000000;stroke-opacity:1;stroke-miterlimit:10"
         d="M 166.37944 -1.531135 L 170.078659 0.000115 L 166.37944 1.531365 Z M 166.37944 -1.531135 "
         transform="matrix(1,0,0,-1,35.43306,170.32824)"
         id="path4716" />
    </g>
    <g
       clip-path="url(#clip4)"
       clip-rule="nonzero"
       id="g4722">
      <path
         style="fill:none;stroke-width:0.5;stroke-linecap:round;stroke-linejoin:round;stroke:#000000;stroke-opacity:1;stroke-dasharray:3,3;stroke-miterlimit:10"
         d="M 0.00053375 -170.07801 L 0.00053375 170.07824 "
         transform="matrix(1,0,0,-1,35.43306,170.32824)"
         id="path4720" />
    </g>
    <path
       style="fill-rule:nonzero;fill:#000000;fill-opacity:1;stroke-width:0.5;stroke-linecap:round;stroke-linejoin:round;stroke:#000000;stroke-opacity:1;stroke-miterlimit:10"
       d="M 1.531784 166.382927 L 0.00053375 170.07824 L -1.530716 166.382927 Z M 1.531784 166.382927 "
       transform="matrix(1,0,0,-1,35.43306,170.32824)"
       id="path4724" />
    <g
       clip-path="url(#clip5)"
       clip-rule="nonzero"
       id="g4728">
      <path
         style="fill:none;stroke-width:0.5;stroke-linecap:round;stroke-linejoin:round;stroke:#ff0000;stroke-opacity:1;stroke-dasharray:3,3;stroke-miterlimit:10"
         d="M 141.731002 0.000115 C 141.731002 37.589959 126.797409 73.636834 100.219284 100.218865 C 73.637253 126.79699 37.590378 141.730584 0.00053375 141.730584 C -37.593216 141.730584 -73.640091 126.79699 -100.218216 100.218865 C -126.796341 73.636834 -141.733841 37.589959 -141.733841 0.000115 C -141.733841 -37.589729 -126.796341 -73.64051 -100.218216 -100.218635 C -73.640091 -126.79676 -37.593216 -141.730354 0.00053375 -141.730354 C 37.590378 -141.730354 73.637253 -126.79676 100.219284 -100.218635 C 126.797409 -73.64051 141.731002 -37.589729 141.731002 0.000115 Z M 141.731002 0.000115 "
         transform="matrix(1,0,0,-1,35.43306,170.32824)"
         id="path4726" />
    </g>
    <path
       style="fill:none;stroke-width:1.2;stroke-linecap:round;stroke-linejoin:round;stroke:#000000;stroke-opacity:1;stroke-miterlimit:10"
       d="M 0.00053375 0.000115 L 128.453659 59.898552 "
       transform="matrix(1,0,0,-1,35.43306,170.32824)"
       id="path4730" />
    <path
       style="fill:none;stroke-width:1.2;stroke-linecap:round;stroke-linejoin:round;stroke:#000000;stroke-opacity:1;stroke-miterlimit:10"
       d="M 128.453659 59.898552 L 128.453659 0.000115 "
       transform="matrix(1,0,0,-1,35.43306,170.32824)"
       id="path4732" />
    <path
       style="fill:none;stroke-width:1.2;stroke-linecap:round;stroke-linejoin:round;stroke:#000000;stroke-opacity:1;stroke-miterlimit:10"
       d="M 0.00053375 0.000115 L 128.453659 0.000115 "
       transform="matrix(1,0,0,-1,35.43306,170.32824)"
       id="path4734" />
    <path
       style="fill:none;stroke-width:0.5;stroke-linecap:round;stroke-linejoin:round;stroke:#000000;stroke-opacity:1;stroke-miterlimit:10"
       d="M 28.344284 0.000115 C 28.344284 4.14074 27.438034 8.226677 25.69194 11.980584 "
       transform="matrix(1,0,0,-1,35.43306,170.32824)"
       id="path4736" />
    <path
       style="fill-rule:nonzero;fill:#000000;fill-opacity:1;stroke-width:0.5;stroke-linecap:round;stroke-linejoin:round;stroke:#000000;stroke-opacity:1;stroke-miterlimit:10"
       d="M 28.44194 9.074334 C 27.594284 10.105584 26.676315 11.074334 25.69194 11.980584 C 25.750534 10.64074 25.711471 9.304802 25.582565 7.980584 Z M 28.44194 9.074334 "
       transform="matrix(1,0,0,-1,35.43306,170.32824)"
       id="path4738" />
    <path
       style="fill:none;stroke-width:0.5;stroke-linecap:round;stroke-linejoin:round;stroke:#000000;stroke-opacity:1;stroke-miterlimit:10"
       d="M 123.453659 0.000115 L 123.453659 5.000115 L 128.453659 5.000115 "
       transform="matrix(1,0,0,-1,35.43306,170.32824)"
       id="path4740" />
    <path
       style="fill:none;stroke-width:1.2;stroke-linecap:round;stroke-linejoin:round;stroke:#000000;stroke-opacity:1;stroke-miterlimit:10"
       d="M 0.00053375 0.000115 L 81.293503 116.101677 "
       transform="matrix(1,0,0,-1,35.43306,170.32824)"
       id="path4742" />
    <path
       style="fill:none;stroke-width:1.2;stroke-linecap:round;stroke-linejoin:round;stroke:#000000;stroke-opacity:1;stroke-miterlimit:10"
       d="M 81.293503 116.101677 L 81.293503 0.000115 "
       transform="matrix(1,0,0,-1,35.43306,170.32824)"
       id="path4744" />
    <path
       style="fill:none;stroke-width:1.2;stroke-linecap:round;stroke-linejoin:round;stroke:#000000;stroke-opacity:1;stroke-miterlimit:10"
       d="M 0.00053375 0.000115 L 81.293503 0.000115 "
       transform="matrix(1,0,0,-1,35.43306,170.32824)"
       id="path4746" />
    <path
       style="fill:none;stroke-width:0.5;stroke-linecap:round;stroke-linejoin:round;stroke:#000000;stroke-opacity:1;stroke-miterlimit:10"
       d="M 42.520065 0.000115 C 42.520065 13.871209 35.750534 26.871209 24.387253 34.82824 "
       transform="matrix(1,0,0,-1,35.43306,170.32824)"
       id="path4748" />
    <path
       style="fill-rule:nonzero;fill:#000000;fill-opacity:1;stroke-width:0.5;stroke-linecap:round;stroke-linejoin:round;stroke:#000000;stroke-opacity:1;stroke-miterlimit:10"
       d="M 28.246628 33.781365 C 26.984909 34.187615 25.695846 34.539177 24.387253 34.82824 C 25.109909 33.699334 25.770065 32.539177 26.375534 31.35949 Z M 28.246628 33.781365 "
       transform="matrix(1,0,0,-1,35.43306,170.32824)"
       id="path4750" />
    <path
       style="fill:none;stroke-width:0.5;stroke-linecap:round;stroke-linejoin:round;stroke:#000000;stroke-opacity:1;stroke-miterlimit:10"
       d="M 76.293503 0.000115 L 76.293503 5.000115 L 81.293503 5.000115 "
       transform="matrix(1,0,0,-1,35.43306,170.32824)"
       id="path4752" />
    <g
       style="fill:#000000;fill-opacity:1"
       id="g4756">
      <use
         xlink:href="#glyph0-1"
         x="66.12336"
         y="166.93734"
         id="use4754" />
    </g>
    <g
       style="fill:#000000;fill-opacity:1"
       id="g4760">
      <use
         xlink:href="#glyph0-2"
         x="68.88726"
         y="141.75314"
         id="use4758" />
    </g>
    <g
       style="fill:#000000;fill-opacity:1"
       id="g4764">
      <use
         xlink:href="#glyph1-1"
         x="25.14946"
         y="182.11144"
         id="use4762" />
    </g>
    <path
       style="fill:none;stroke-width:3;stroke-linecap:round;stroke-linejoin:round;stroke:#000000;stroke-opacity:1;stroke-miterlimit:10"
       d="M 0.00053375 0.000115 L 0.00053375 0.000115 "
       transform="matrix(1,0,0,-1,35.43306,170.32824)"
       id="path4766" />
    <g
       style="fill:#000000;fill-opacity:1"
       id="g4770">
      <use
         xlink:href="#glyph0-3"
         x="180.66526"
         y="182.09414"
         id="use4768" />
    </g>
    <path
       style="fill:none;stroke-width:3;stroke-linecap:round;stroke-linejoin:round;stroke:#000000;stroke-opacity:1;stroke-miterlimit:10"
       d="M 141.731002 0.000115 L 141.731002 0.000115 "
       transform="matrix(1,0,0,-1,35.43306,170.32824)"
       id="path4772" />
    <g
       style="fill:#000000;fill-opacity:1"
       id="g4776">
      <use
         xlink:href="#glyph0-4"
         x="27.12526"
         y="23.58924"
         id="use4774" />
    </g>
    <path
       style="fill:none;stroke-width:3;stroke-linecap:round;stroke-linejoin:round;stroke:#000000;stroke-opacity:1;stroke-miterlimit:10"
       d="M 0.00053375 141.730584 L 0.00053375 141.730584 "
       transform="matrix(1,0,0,-1,35.43306,170.32824)"
       id="path4778" />
    <g
       style="fill:#004d4d;fill-opacity:1"
       id="g4782">
      <use
         xlink:href="#glyph0-5"
         x="159.61476"
         y="183.59414"
         id="use4780" />
    </g>
    <g
       style="fill:#004d4d;fill-opacity:1"
       id="g4786">
      <use
         xlink:href="#glyph0-6"
         x="111.777623"
         y="183.59414"
         id="use4784" />
    </g>
    <g
       style="fill:#000000;fill-opacity:1"
       id="g4790">
      <use
         xlink:href="#glyph0-7"
         x="167.38656"
         y="106.92904"
         id="use4788" />
    </g>
    <path
       style="fill:none;stroke-width:3;stroke-linecap:round;stroke-linejoin:round;stroke:#000000;stroke-opacity:1;stroke-miterlimit:10"
       d="M 128.453659 59.898552 L 128.453659 59.898552 "
       transform="matrix(1,0,0,-1,35.43306,170.32824)"
       id="path4792" />
    <g
       style="fill:#000000;fill-opacity:1"
       id="g4796">
      <use
         xlink:href="#glyph0-8"
         x="120.22756"
         y="50.72794"
         id="use4794" />
    </g>
    <path
       style="fill:none;stroke-width:3;stroke-linecap:round;stroke-linejoin:round;stroke:#000000;stroke-opacity:1;stroke-miterlimit:10"
       d="M 81.293503 116.101677 L 81.293503 116.101677 "
       transform="matrix(1,0,0,-1,35.43306,170.32824)"
       id="path4798" />
  </g>
</svg>
