<?xml version="1.0" encoding="UTF-8"?>
<svg xmlns="http://www.w3.org/2000/svg" xmlns:xlink="http://www.w3.org/1999/xlink" width="269.0093pt" height="61.272pt" viewBox="0 0 269.0093 61.272" version="1.1">
<defs>
<g>
<symbol overflow="visible" id="glyph0-0">
<path style="stroke:none;" d=""/>
</symbol>
<symbol overflow="visible" id="glyph0-1">
<path style="stroke:none;" d="M 4.65625 -1.265625 C 4.4375 -0.859375 4.1875 -0.359375 3.921875 -0.359375 C 3.75 -0.359375 3.671875 -0.578125 3.46875 -1.390625 L 3.1875 -2.59375 C 3.515625 -3.1875 3.984375 -3.921875 4.25 -3.921875 C 4.328125 -3.921875 4.40625 -3.890625 4.5 -3.84375 C 4.59375 -3.8125 4.6875 -3.765625 4.796875 -3.765625 C 5 -3.765625 5.1875 -3.96875 5.1875 -4.203125 C 5.1875 -4.5 4.984375 -4.609375 4.71875 -4.609375 C 4.234375 -4.609375 3.828125 -4.171875 3.5 -3.65625 L 3.09375 -3.03125 L 3.078125 -3.03125 L 2.71875 -4.5625 L 2.65625 -4.609375 L 1.140625 -4.140625 L 1.171875 -3.921875 L 1.859375 -3.96875 C 2.03125 -3.984375 2.09375 -3.9375 2.1875 -3.515625 L 2.515625 -2.1875 L 2.265625 -1.75 C 1.875 -1.078125 1.53125 -0.59375 1.3125 -0.59375 C 1.21875 -0.59375 1.125 -0.640625 1.046875 -0.671875 C 0.953125 -0.71875 0.828125 -0.8125 0.671875 -0.8125 C 0.4375 -0.8125 0.28125 -0.578125 0.28125 -0.359375 C 0.28125 -0.09375 0.5 0.109375 0.875 0.109375 C 1.5 0.109375 1.859375 -0.515625 2.234375 -1.125 L 2.59375 -1.734375 L 2.609375 -1.734375 L 2.78125 -1.015625 C 2.953125 -0.28125 3.125 0.109375 3.59375 0.109375 C 4.265625 0.109375 4.609375 -0.578125 4.890625 -1.140625 Z M 4.65625 -1.265625 "/>
</symbol>
<symbol overflow="visible" id="glyph0-2">
<path style="stroke:none;" d="M 2.796875 -4.609375 C 1.859375 -4.609375 1.3125 -4 1.3125 -3.25 C 1.3125 -2.78125 1.640625 -2.359375 2.125 -1.96875 C 2.515625 -1.65625 2.75 -1.25 2.75 -0.90625 C 2.75 -0.46875 2.46875 -0.21875 2.09375 -0.21875 C 1.75 -0.21875 1.40625 -0.5 1.265625 -0.984375 C 1.203125 -1.15625 1.125 -1.25 0.96875 -1.25 C 0.703125 -1.25 0.5 -1.015625 0.5 -0.765625 C 0.5 -0.359375 1 0.109375 1.875 0.109375 C 2.859375 0.109375 3.453125 -0.515625 3.453125 -1.28125 C 3.453125 -1.78125 3.234375 -2.171875 2.609375 -2.671875 C 2.0625 -3.125 1.96875 -3.4375 1.96875 -3.6875 C 1.96875 -3.984375 2.1875 -4.28125 2.53125 -4.28125 C 2.828125 -4.28125 3.078125 -4.078125 3.265625 -3.65625 C 3.3125 -3.546875 3.390625 -3.46875 3.515625 -3.46875 C 3.703125 -3.46875 3.96875 -3.609375 3.96875 -3.890625 C 3.96875 -4.171875 3.609375 -4.609375 2.796875 -4.609375 Z M 2.796875 -4.609375 "/>
</symbol>
<symbol overflow="visible" id="glyph0-3">
<path style="stroke:none;" d="M 1.203125 -4.34375 L 1.15625 -4.125 L 1.671875 -4.078125 C 1.921875 -4.0625 1.953125 -3.984375 1.875 -3.65625 L 1.09375 -0.78125 C 0.96875 -0.265625 1.078125 0.109375 1.578125 0.109375 C 2.234375 0.109375 2.75 -0.515625 3.0625 -1.203125 L 2.84375 -1.34375 C 2.671875 -1.015625 2.28125 -0.359375 2.015625 -0.359375 C 1.828125 -0.359375 1.84375 -0.578125 1.921875 -0.875 L 2.921875 -4.5625 L 2.875 -4.609375 Z M 2.828125 -6.5625 C 2.4375 -6.5625 2.234375 -6.25 2.234375 -5.953125 C 2.234375 -5.609375 2.46875 -5.4375 2.75 -5.4375 C 3.09375 -5.4375 3.328125 -5.6875 3.328125 -6.046875 C 3.328125 -6.40625 3.09375 -6.5625 2.828125 -6.5625 Z M 2.828125 -6.5625 "/>
</symbol>
<symbol overflow="visible" id="glyph0-4">
<path style="stroke:none;" d="M 1.703125 0 C 1.96875 -0.9375 2.125 -1.4375 2.359375 -2 C 2.703125 -2.78125 3.59375 -4.125 4.328125 -4.125 C 4.65625 -4.125 4.734375 -3.828125 4.625 -3.46875 L 3.84375 -0.78125 C 3.703125 -0.28125 3.8125 0.109375 4.3125 0.109375 C 5 0.109375 5.515625 -0.515625 5.828125 -1.203125 L 5.609375 -1.34375 C 5.4375 -1.015625 5.03125 -0.359375 4.78125 -0.359375 C 4.59375 -0.359375 4.609375 -0.578125 4.6875 -0.875 L 5.40625 -3.28125 C 5.609375 -4 5.5 -4.609375 4.75 -4.609375 C 3.875 -4.609375 2.921875 -3.625 2.359375 -2.5625 L 2.34375 -2.5625 L 2.9375 -4.5625 L 2.890625 -4.609375 L 1.203125 -4.34375 L 1.15625 -4.125 L 1.71875 -4.078125 C 1.9375 -4.0625 1.9375 -3.9375 1.859375 -3.640625 L 0.90625 0.109375 Z M 1.703125 0 "/>
</symbol>
<symbol overflow="visible" id="glyph1-0">
<path style="stroke:none;" d=""/>
</symbol>
<symbol overflow="visible" id="glyph1-1">
<path style="stroke:none;" d="M 5.828125 -2.328125 L 5.828125 -2.859375 L 0.78125 -2.859375 L 0.78125 -2.328125 Z M 5.828125 -2.328125 "/>
</symbol>
<symbol overflow="visible" id="glyph2-0">
<path style="stroke:none;" d=""/>
</symbol>
<symbol overflow="visible" id="glyph2-1">
<path style="stroke:none;" d="M 1.59375 -4.5 C 1.09375 -4.5 0.5625 -4.234375 0.3125 -3.671875 L 0.5 -3.546875 C 0.8125 -3.78125 1.203125 -3.890625 1.765625 -3.890625 C 1.75 -2.390625 1.6875 -0.9375 1.328125 -0.765625 C 1.140625 -0.6875 0.78125 -0.59375 0.78125 -0.328125 C 0.78125 0.109375 1.078125 0.140625 1.234375 0.140625 C 1.75 0.140625 2.046875 -0.5 2.140625 -0.90625 C 2.234375 -1.4375 2.28125 -2.578125 2.28125 -3.890625 L 3.46875 -3.890625 L 3.46875 -1.125 C 3.46875 -0.328125 3.65625 0.125 4.296875 0.125 C 4.71875 0.125 5.078125 -0.125 5.15625 -0.234375 L 5.046875 -0.4375 C 4.96875 -0.390625 4.875 -0.375 4.765625 -0.375 C 4.390625 -0.375 4.34375 -0.75 4.34375 -1.703125 L 4.34375 -3.890625 L 5.1875 -3.890625 L 5.40625 -4.609375 C 5.15625 -4.546875 4.734375 -4.5 4.296875 -4.5 Z M 1.59375 -4.5 "/>
</symbol>
<symbol overflow="visible" id="glyph3-0">
<path style="stroke:none;" d=""/>
</symbol>
<symbol overflow="visible" id="glyph3-1">
<path style="stroke:none;" d="M 1.203125 -3.421875 C 0.828125 -3.421875 0.421875 -3.21875 0.234375 -2.796875 L 0.375 -2.6875 C 0.609375 -2.875 0.90625 -2.953125 1.34375 -2.953125 C 1.328125 -1.8125 1.28125 -0.71875 1 -0.578125 C 0.859375 -0.515625 0.59375 -0.453125 0.59375 -0.25 C 0.59375 0.078125 0.828125 0.109375 0.9375 0.109375 C 1.328125 0.109375 1.5625 -0.375 1.625 -0.6875 C 1.703125 -1.09375 1.734375 -1.953125 1.734375 -2.953125 L 2.640625 -2.953125 L 2.640625 -0.859375 C 2.640625 -0.25 2.78125 0.09375 3.265625 0.09375 C 3.578125 0.09375 3.859375 -0.09375 3.921875 -0.1875 L 3.828125 -0.328125 C 3.78125 -0.296875 3.703125 -0.28125 3.609375 -0.28125 C 3.34375 -0.28125 3.296875 -0.578125 3.296875 -1.296875 L 3.296875 -2.953125 L 3.9375 -2.953125 L 4.109375 -3.5 C 3.921875 -3.453125 3.609375 -3.421875 3.265625 -3.421875 Z M 1.203125 -3.421875 "/>
</symbol>
<symbol overflow="visible" id="glyph4-0">
<path style="stroke:none;" d=""/>
</symbol>
<symbol overflow="visible" id="glyph4-1">
<path style="stroke:none;" d="M 3.375 -0.921875 L 3.1875 -0.953125 C 3.03125 -0.578125 2.90625 -0.53125 2.625 -0.53125 L 0.84375 -0.53125 C 0.953125 -0.890625 1.359375 -1.390625 2 -1.859375 C 2.671875 -2.34375 3.1875 -2.65625 3.1875 -3.4375 C 3.1875 -4.40625 2.546875 -4.734375 1.8125 -4.734375 C 0.859375 -4.734375 0.375 -4.15625 0.375 -3.796875 C 0.375 -3.5625 0.640625 -3.453125 0.75 -3.453125 C 0.875 -3.453125 0.921875 -3.515625 0.953125 -3.640625 C 1.0625 -4.109375 1.34375 -4.5 1.765625 -4.5 C 2.3125 -4.5 2.453125 -4.046875 2.453125 -3.53125 C 2.453125 -2.78125 2.078125 -2.375 1.484375 -1.828125 C 0.625 -1.09375 0.328125 -0.609375 0.1875 -0.0625 L 0.265625 0 L 3.140625 0 Z M 3.375 -0.921875 "/>
</symbol>
<symbol overflow="visible" id="glyph5-0">
<path style="stroke:none;" d=""/>
</symbol>
<symbol overflow="visible" id="glyph5-1">
<path style="stroke:none;" d="M -0.171875 -6.34375 L -0.171875 -6.078125 C 0.34375 -6.0625 0.453125 -6.03125 0.640625 -5.546875 C 0.9375 -4.765625 1.28125 -3.859375 1.59375 -2.9375 L 2.625 0 L 3.28125 0 L 4.453125 -3.171875 C 4.828125 -4.1875 5.203125 -5.125 5.421875 -5.609375 C 5.609375 -6.03125 5.71875 -6.046875 6.21875 -6.078125 L 6.21875 -6.34375 L 4.1875 -6.34375 L 4.1875 -6.078125 L 4.703125 -6.03125 C 4.9375 -6.015625 4.9375 -5.921875 4.890625 -5.75 C 4.796875 -5.34375 4.515625 -4.546875 4.1875 -3.625 L 3.234375 -0.984375 L 3.203125 -1.015625 L 2.359375 -3.359375 C 2.078125 -4.171875 1.78125 -4.96875 1.546875 -5.703125 C 1.484375 -5.9375 1.5 -6.015625 1.71875 -6.03125 L 2.203125 -6.078125 L 2.203125 -6.34375 Z M -0.171875 -6.34375 "/>
</symbol>
<symbol overflow="visible" id="glyph5-2">
<path style="stroke:none;" d="M 3.140625 -1.3125 C 3.140625 -0.5625 2.578125 -0.375 2.21875 -0.375 C 1.65625 -0.375 1.375 -0.78125 1.375 -1.328125 C 1.375 -1.75 1.578125 -1.96875 2.09375 -2.171875 C 2.453125 -2.296875 2.9375 -2.46875 3.140625 -2.609375 Z M 3.96875 -3.390625 C 3.96875 -3.921875 3.859375 -4.609375 2.46875 -4.609375 C 1.4375 -4.609375 0.609375 -4.0625 0.609375 -3.5625 C 0.609375 -3.265625 0.953125 -3.125 1.125 -3.125 C 1.328125 -3.125 1.375 -3.234375 1.421875 -3.390625 C 1.625 -4.0625 2 -4.28125 2.359375 -4.28125 C 2.71875 -4.28125 3.140625 -4.09375 3.140625 -3.359375 L 3.140625 -2.984375 C 2.921875 -2.75 2.03125 -2.515625 1.296875 -2.28125 C 0.640625 -2.078125 0.453125 -1.625 0.453125 -1.1875 C 0.453125 -0.5 0.90625 0.109375 1.765625 0.109375 C 2.34375 0.09375 2.84375 -0.25 3.140625 -0.4375 C 3.265625 -0.09375 3.40625 0.109375 3.734375 0.109375 C 4.078125 0.109375 4.46875 0.015625 4.8125 -0.171875 L 4.765625 -0.390625 C 4.625 -0.359375 4.4375 -0.34375 4.296875 -0.375 C 4.125 -0.40625 3.96875 -0.59375 3.96875 -1.171875 Z M 3.96875 -3.390625 "/>
</symbol>
<symbol overflow="visible" id="glyph5-3">
<path style="stroke:none;" d="M 1.734375 -4.609375 L 0.34375 -4.375 L 0.34375 -4.140625 L 0.6875 -4.09375 C 0.921875 -4.0625 0.984375 -4.015625 0.984375 -3.6875 L 0.984375 -0.796875 C 0.984375 -0.328125 0.9375 -0.3125 0.296875 -0.265625 L 0.296875 0 L 2.71875 0 L 2.71875 -0.265625 C 1.90625 -0.3125 1.84375 -0.328125 1.84375 -0.796875 L 1.84375 -2.9375 C 1.84375 -3.65625 2.15625 -3.890625 2.359375 -3.890625 C 2.515625 -3.890625 2.671875 -3.828125 2.9375 -3.6875 C 3 -3.65625 3.078125 -3.640625 3.125 -3.640625 C 3.34375 -3.640625 3.546875 -3.875 3.546875 -4.15625 C 3.546875 -4.359375 3.40625 -4.609375 3.046875 -4.609375 C 2.71875 -4.609375 2.453125 -4.40625 1.84375 -3.875 Z M 1.734375 -4.609375 "/>
</symbol>
<symbol overflow="visible" id="glyph5-4">
<path style="stroke:none;" d="M 0.34375 -4.375 L 0.34375 -4.140625 L 0.6875 -4.09375 C 0.921875 -4.0625 0.984375 -4.015625 0.984375 -3.6875 L 0.984375 -0.796875 C 0.984375 -0.328125 0.953125 -0.3125 0.296875 -0.265625 L 0.296875 0 L 2.53125 0 L 2.53125 -0.265625 C 1.875 -0.3125 1.84375 -0.328125 1.84375 -0.796875 L 1.84375 -4.546875 L 1.78125 -4.609375 Z M 1.40625 -6.5625 C 1.078125 -6.5625 0.84375 -6.3125 0.84375 -5.984375 C 0.84375 -5.671875 1.078125 -5.4375 1.40625 -5.4375 C 1.75 -5.4375 1.953125 -5.671875 1.96875 -5.984375 C 1.96875 -6.3125 1.75 -6.5625 1.40625 -6.5625 Z M 1.40625 -6.5625 "/>
</symbol>
<symbol overflow="visible" id="glyph5-5">
<path style="stroke:none;" d="M 2.984375 -4.125 L 2.984375 -4.5 L 1.8125 -4.5 L 1.8125 -5.65625 L 1.546875 -5.65625 L 0.984375 -4.5 L 0.28125 -4.5 L 0.28125 -4.125 L 0.9375 -4.125 L 0.9375 -0.9375 C 0.9375 0 1.640625 0.109375 1.96875 0.109375 C 2.4375 0.109375 2.875 -0.125 3.140625 -0.296875 L 3.0625 -0.484375 C 2.84375 -0.390625 2.640625 -0.359375 2.40625 -0.359375 C 2.09375 -0.359375 1.8125 -0.59375 1.8125 -1.28125 L 1.8125 -4.125 Z M 2.984375 -4.125 "/>
</symbol>
<symbol overflow="visible" id="glyph5-6">
<path style="stroke:none;" d="M 2.640625 -4.609375 C 1.171875 -4.609375 0.453125 -3.734375 0.453125 -2.25 C 0.453125 -0.765625 1.171875 0.109375 2.640625 0.109375 C 4.125 0.109375 4.84375 -0.765625 4.84375 -2.25 C 4.84375 -3.734375 4.125 -4.609375 2.640625 -4.609375 Z M 1.40625 -2.25 C 1.40625 -3.515625 1.8125 -4.28125 2.640625 -4.28125 C 3.5 -4.28125 3.890625 -3.515625 3.890625 -2.25 C 3.890625 -0.984375 3.5 -0.21875 2.640625 -0.21875 C 1.8125 -0.21875 1.40625 -0.984375 1.40625 -2.25 Z M 1.40625 -2.25 "/>
</symbol>
<symbol overflow="visible" id="glyph5-7">
<path style="stroke:none;" d="M 4.859375 -3.140625 C 4.859375 -4.078125 4.34375 -4.609375 3.5 -4.609375 C 2.828125 -4.609375 2.40625 -4.28125 1.828125 -3.90625 L 1.703125 -4.609375 L 0.34375 -4.375 L 0.34375 -4.140625 L 0.6875 -4.09375 C 0.921875 -4.0625 0.984375 -4.015625 0.984375 -3.6875 L 0.984375 -0.796875 C 0.984375 -0.328125 0.953125 -0.3125 0.296875 -0.265625 L 0.296875 0 L 2.53125 0 L 2.53125 -0.265625 C 1.875 -0.3125 1.84375 -0.328125 1.84375 -0.796875 L 1.84375 -2.9375 C 1.84375 -3.171875 1.859375 -3.296875 1.9375 -3.453125 C 2.125 -3.8125 2.546875 -4.109375 3.03125 -4.109375 C 3.65625 -4.109375 3.984375 -3.765625 3.984375 -2.96875 L 3.984375 -0.796875 C 3.984375 -0.328125 3.96875 -0.3125 3.296875 -0.265625 L 3.296875 0 L 5.546875 0 L 5.546875 -0.265625 C 4.890625 -0.3125 4.859375 -0.328125 4.859375 -0.796875 Z M 4.859375 -3.140625 "/>
</symbol>
<symbol overflow="visible" id="glyph5-8">
<path style="stroke:none;" d="M 3.359375 -3.21875 L 3.359375 -4.296875 C 3.0625 -4.515625 2.59375 -4.609375 2.1875 -4.609375 C 1.1875 -4.609375 0.515625 -4.140625 0.515625 -3.265625 C 0.515625 -2.5 1.140625 -2.171875 1.90625 -1.9375 C 2.3125 -1.8125 2.890625 -1.59375 2.890625 -0.96875 C 2.890625 -0.5 2.515625 -0.21875 2.03125 -0.21875 C 1.296875 -0.21875 0.875 -0.75 0.703125 -1.53125 L 0.4375 -1.53125 L 0.515625 -0.328125 C 0.859375 -0.03125 1.40625 0.109375 1.953125 0.109375 C 3.046875 0.109375 3.671875 -0.46875 3.671875 -1.25 C 3.671875 -2.046875 3.171875 -2.421875 2.234375 -2.71875 C 1.859375 -2.828125 1.25 -3.03125 1.25 -3.546875 C 1.25 -4.015625 1.609375 -4.28125 2.078125 -4.28125 C 2.71875 -4.28125 3.03125 -3.78125 3.09375 -3.21875 Z M 3.359375 -3.21875 "/>
</symbol>
<symbol overflow="visible" id="glyph5-9">
<path style="stroke:none;" d="M 5.34375 0 L 5.34375 -0.265625 C 4.703125 -0.3125 4.65625 -0.328125 4.65625 -0.796875 L 4.65625 -6.75 L 4.59375 -6.8125 L 3.15625 -6.578125 L 3.15625 -6.34375 L 3.5 -6.3125 C 3.734375 -6.28125 3.796875 -6.234375 3.796875 -5.890625 L 3.796875 -4.390625 C 3.546875 -4.515625 3.203125 -4.609375 2.78125 -4.609375 C 2.03125 -4.609375 1.46875 -4.359375 1.078125 -3.96875 C 0.6875 -3.5625 0.453125 -2.953125 0.453125 -2.15625 C 0.453125 -0.796875 1.15625 0.109375 2.359375 0.109375 C 2.859375 0.109375 3.296875 -0.109375 3.78125 -0.515625 L 3.78125 -0.0625 L 3.859375 0 Z M 3.796875 -1.5625 C 3.796875 -1.359375 3.78125 -1.203125 3.734375 -1.046875 C 3.546875 -0.5625 3.140625 -0.390625 2.671875 -0.390625 C 1.828125 -0.390625 1.40625 -1.203125 1.40625 -2.265625 C 1.40625 -3.453125 1.828125 -4.28125 2.765625 -4.28125 C 3.203125 -4.28125 3.546875 -4.078125 3.71875 -3.703125 C 3.78125 -3.546875 3.796875 -3.421875 3.796875 -3.171875 Z M 3.796875 -1.5625 "/>
</symbol>
<symbol overflow="visible" id="glyph5-10">
<path style="stroke:none;" d="M 4.046875 -2.40625 C 4.234375 -2.40625 4.40625 -2.453125 4.40625 -2.765625 C 4.40625 -3.296875 4.234375 -4.609375 2.5625 -4.609375 C 1.125 -4.609375 0.453125 -3.59375 0.453125 -2.203125 C 0.453125 -0.765625 1.078125 0.125 2.5625 0.109375 C 3.59375 0.09375 4.109375 -0.453125 4.359375 -1.1875 L 4.078125 -1.328125 C 3.828125 -0.796875 3.46875 -0.359375 2.75 -0.359375 C 1.609375 -0.359375 1.390625 -1.453125 1.40625 -2.40625 Z M 1.40625 -2.765625 C 1.40625 -3.140625 1.546875 -4.28125 2.5 -4.28125 C 3.359375 -4.28125 3.453125 -3.40625 3.453125 -3.046875 C 3.453125 -2.875 3.40625 -2.765625 3.140625 -2.765625 Z M 1.40625 -2.765625 "/>
</symbol>
<symbol overflow="visible" id="glyph5-11">
<path style="stroke:none;" d="M 2.4375 -5.921875 C 3.296875 -5.921875 3.546875 -4.5625 3.546875 -3.0625 C 3.546875 -1.5625 3.296875 -0.21875 2.4375 -0.21875 C 1.5625 -0.21875 1.3125 -1.5625 1.3125 -3.0625 C 1.3125 -4.5625 1.5625 -5.921875 2.4375 -5.921875 Z M 2.4375 -6.234375 C 0.921875 -6.234375 0.375 -4.890625 0.375 -3.0625 C 0.375 -1.234375 0.921875 0.109375 2.4375 0.109375 C 3.9375 0.109375 4.484375 -1.234375 4.484375 -3.0625 C 4.484375 -4.890625 3.9375 -6.234375 2.4375 -6.234375 Z M 2.4375 -6.234375 "/>
</symbol>
<symbol overflow="visible" id="glyph5-12">
<path style="stroke:none;" d="M 4.015625 0 L 4.015625 -0.265625 L 3.234375 -0.328125 C 3.046875 -0.34375 2.9375 -0.421875 2.9375 -0.78125 L 2.9375 -6.1875 L 2.890625 -6.234375 L 1 -5.921875 L 1 -5.6875 L 1.859375 -5.578125 C 2.015625 -5.5625 2.078125 -5.5 2.078125 -5.234375 L 2.078125 -0.78125 C 2.078125 -0.609375 2.046875 -0.5 1.984375 -0.4375 C 1.9375 -0.359375 1.875 -0.34375 1.765625 -0.328125 L 1 -0.265625 L 1 0 Z M 4.015625 0 "/>
</symbol>
</g>
<clipPath id="clip1">
  <path d="M 70 15 L 72 15 L 72 61.273438 L 70 61.273438 Z M 70 15 "/>
</clipPath>
<clipPath id="clip2">
  <path d="M 0 15 L 269.007812 15 L 269.007812 17 L 0 17 Z M 0 15 "/>
</clipPath>
<clipPath id="clip3">
  <path d="M 0 0 L 269.007812 0 L 269.007812 1 L 0 1 Z M 0 0 "/>
</clipPath>
<clipPath id="clip4">
  <path d="M 0 60 L 269.007812 60 L 269.007812 61.273438 L 0 61.273438 Z M 0 60 "/>
</clipPath>
<clipPath id="clip5">
  <path d="M 0 0 L 1 0 L 1 61.273438 L 0 61.273438 Z M 0 0 "/>
</clipPath>
<clipPath id="clip6">
  <path d="M 268 0 L 269.007812 0 L 269.007812 61.273438 L 268 61.273438 Z M 268 0 "/>
</clipPath>
</defs>
<g id="surface1">
<g style="fill:rgb(100%,100%,100%);fill-opacity:1;">
  <use xlink:href="#glyph0-1" x="32.9921" y="10.41933"/>
</g>
<path style="fill:none;stroke-width:0.5;stroke-linecap:round;stroke-linejoin:round;stroke:rgb(100%,100%,100%);stroke-opacity:1;stroke-miterlimit:10;" d="M 70.65625 0.00003 L 70.65625 -15.941376 " transform="matrix(1,0,0,-1,0.25,0.25003)"/>
<g style="fill:rgb(100%,100%,100%);fill-opacity:1;">
  <use xlink:href="#glyph1-1" x="75.8862" y="10.48913"/>
</g>
<g style="fill:rgb(100%,100%,100%);fill-opacity:1;">
  <use xlink:href="#glyph2-1" x="82.4815" y="10.48913"/>
</g>
<g style="fill:rgb(100%,100%,100%);fill-opacity:1;">
  <use xlink:href="#glyph1-1" x="138.1127" y="10.23973"/>
</g>
<g style="fill:rgb(100%,100%,100%);fill-opacity:1;">
  <use xlink:href="#glyph3-1" x="145.9035" y="6.31443"/>
</g>
<path style="fill:none;stroke-width:0.5316;stroke-linecap:butt;stroke-linejoin:round;stroke:rgb(100%,100%,100%);stroke-opacity:1;stroke-miterlimit:10;" d="M 145.652344 -7.410126 L 150.074219 -7.410126 " transform="matrix(1,0,0,-1,0.25,0.25003)"/>
<g style="fill:rgb(100%,100%,100%);fill-opacity:1;">
  <use xlink:href="#glyph4-1" x="146.267" y="13.67683"/>
</g>
<g style="fill:rgb(100%,100%,100%);fill-opacity:1;">
  <use xlink:href="#glyph3-1" x="202.5294" y="6.31443"/>
</g>
<path style="fill:none;stroke-width:0.5316;stroke-linecap:butt;stroke-linejoin:round;stroke:rgb(100%,100%,100%);stroke-opacity:1;stroke-miterlimit:10;" d="M 202.28125 -7.410126 L 206.703125 -7.410126 " transform="matrix(1,0,0,-1,0.25,0.25003)"/>
<g style="fill:rgb(100%,100%,100%);fill-opacity:1;">
  <use xlink:href="#glyph4-1" x="202.8929" y="13.67683"/>
</g>
<g style="fill:rgb(100%,100%,100%);fill-opacity:1;">
  <use xlink:href="#glyph2-1" x="257.9598" y="10.48913"/>
</g>
<g style="fill:rgb(100%,100%,100%);fill-opacity:1;">
  <use xlink:href="#glyph5-1" x="8.4891" y="37.82623"/>
</g>
<g style="fill:rgb(100%,100%,100%);fill-opacity:1;">
  <use xlink:href="#glyph5-2" x="13.750154" y="37.82623"/>
  <use xlink:href="#glyph5-3" x="18.543763" y="37.82623"/>
</g>
<g style="fill:rgb(100%,100%,100%);fill-opacity:1;">
  <use xlink:href="#glyph5-4" x="22.173341" y="37.82623"/>
</g>
<g style="fill:rgb(100%,100%,100%);fill-opacity:1;">
  <use xlink:href="#glyph5-2" x="24.849696" y="37.82623"/>
  <use xlink:href="#glyph5-5" x="29.643305" y="37.82623"/>
</g>
<g style="fill:rgb(100%,100%,100%);fill-opacity:1;">
  <use xlink:href="#glyph5-4" x="32.787106" y="37.82623"/>
  <use xlink:href="#glyph5-6" x="35.454295" y="37.82623"/>
</g>
<g style="fill:rgb(100%,100%,100%);fill-opacity:1;">
  <use xlink:href="#glyph5-7" x="40.752012" y="37.82623"/>
</g>
<g style="fill:rgb(100%,100%,100%);fill-opacity:1;">
  <use xlink:href="#glyph5-8" x="46.416353" y="37.82623"/>
</g>
<g style="fill:rgb(100%,100%,100%);fill-opacity:1;">
  <use xlink:href="#glyph5-9" x="52.474814" y="37.82623"/>
  <use xlink:href="#glyph5-10" x="57.955843" y="37.82623"/>
</g>
<g style="fill:rgb(100%,100%,100%);fill-opacity:1;">
  <use xlink:href="#glyph0-2" x="28.5239" y="46.08593"/>
</g>
<g style="fill:rgb(100%,100%,100%);fill-opacity:1;">
  <use xlink:href="#glyph0-3" x="32.657586" y="46.08593"/>
</g>
<g style="fill:rgb(100%,100%,100%);fill-opacity:1;">
  <use xlink:href="#glyph0-4" x="36.662953" y="46.08593"/>
</g>
<g clip-path="url(#clip1)" clip-rule="nonzero">
<path style="fill:none;stroke-width:0.5;stroke-linecap:round;stroke-linejoin:round;stroke:rgb(100%,100%,100%);stroke-opacity:1;stroke-miterlimit:10;" d="M 70.65625 -15.941376 L 70.65625 -60.773407 " transform="matrix(1,0,0,-1,0.25,0.25003)"/>
</g>
<g style="fill:rgb(100%,100%,100%);fill-opacity:1;">
  <use xlink:href="#glyph5-11" x="79.662" y="26.84813"/>
</g>
<path style="fill:none;stroke-width:0.5;stroke-linecap:round;stroke-linejoin:round;stroke:rgb(100%,100%,100%);stroke-opacity:1;stroke-miterlimit:10;" d="M 86.273438 -25.644501 L 136.839844 -49.511689 " transform="matrix(1,0,0,-1,0.25,0.25003)"/>
<path style="fill-rule:nonzero;fill:rgb(100%,100%,100%);fill-opacity:1;stroke-width:0.5;stroke-linecap:round;stroke-linejoin:round;stroke:rgb(100%,100%,100%);stroke-opacity:1;stroke-miterlimit:10;" d="M 132.84375 -49.316376 L 136.839844 -49.511689 L 134.148438 -46.546845 Z M 132.84375 -49.316376 " transform="matrix(1,0,0,-1,0.25,0.25003)"/>
<g style="fill:rgb(100%,100%,100%);fill-opacity:1;">
  <use xlink:href="#glyph1-1" x="139.0883" y="56.47613"/>
</g>
<g style="fill:rgb(100%,100%,100%);fill-opacity:1;">
  <use xlink:href="#glyph5-12" x="145.6836" y="56.47613"/>
</g>
<path style="fill:none;stroke-width:0.5;stroke-linecap:round;stroke-linejoin:round;stroke:rgb(100%,100%,100%);stroke-opacity:1;stroke-miterlimit:10;" d="M 152.296875 -49.339814 L 200.058594 -25.742157 " transform="matrix(1,0,0,-1,0.25,0.25003)"/>
<path style="fill-rule:nonzero;fill:rgb(100%,100%,100%);fill-opacity:1;stroke-width:0.5;stroke-linecap:round;stroke-linejoin:round;stroke:rgb(100%,100%,100%);stroke-opacity:1;stroke-miterlimit:10;" d="M 197.425781 -28.753876 L 200.058594 -25.742157 L 196.066406 -26.007782 Z M 197.425781 -28.753876 " transform="matrix(1,0,0,-1,0.25,0.25003)"/>
<g style="fill:rgb(100%,100%,100%);fill-opacity:1;">
  <use xlink:href="#glyph5-12" x="202.3094" y="26.87303"/>
</g>
<path style="fill:none;stroke-width:0.5;stroke-linecap:round;stroke-linejoin:round;stroke:rgb(100%,100%,100%);stroke-opacity:1;stroke-miterlimit:10;" d="M 208.921875 -25.890595 L 256.1875 -50.820282 " transform="matrix(1,0,0,-1,0.25,0.25003)"/>
<path style="fill-rule:nonzero;fill:rgb(100%,100%,100%);fill-opacity:1;stroke-width:0.5;stroke-linecap:round;stroke-linejoin:round;stroke:rgb(100%,100%,100%);stroke-opacity:1;stroke-miterlimit:10;" d="M 252.203125 -50.449189 L 256.1875 -50.820282 L 253.632812 -47.742157 Z M 252.203125 -50.449189 " transform="matrix(1,0,0,-1,0.25,0.25003)"/>
<g style="fill:rgb(100%,100%,100%);fill-opacity:1;">
  <use xlink:href="#glyph5-11" x="258.438" y="56.45123"/>
</g>
<g clip-path="url(#clip2)" clip-rule="nonzero">
<path style="fill:none;stroke-width:0.5;stroke-linecap:round;stroke-linejoin:round;stroke:rgb(100%,100%,100%);stroke-opacity:1;stroke-miterlimit:10;" d="M 0 -15.941376 L 268.507812 -15.941376 " transform="matrix(1,0,0,-1,0.25,0.25003)"/>
</g>
<g clip-path="url(#clip3)" clip-rule="nonzero">
<path style="fill:none;stroke-width:0.5;stroke-linecap:round;stroke-linejoin:round;stroke:rgb(100%,100%,100%);stroke-opacity:1;stroke-miterlimit:10;" d="M 0 0.00003 L 268.507812 0.00003 " transform="matrix(1,0,0,-1,0.25,0.25003)"/>
</g>
<g clip-path="url(#clip4)" clip-rule="nonzero">
<path style="fill:none;stroke-width:0.5;stroke-linecap:round;stroke-linejoin:round;stroke:rgb(100%,100%,100%);stroke-opacity:1;stroke-miterlimit:10;" d="M 0 -60.773407 L 268.507812 -60.773407 " transform="matrix(1,0,0,-1,0.25,0.25003)"/>
</g>
<g clip-path="url(#clip5)" clip-rule="nonzero">
<path style="fill:none;stroke-width:0.5;stroke-linecap:round;stroke-linejoin:round;stroke:rgb(100%,100%,100%);stroke-opacity:1;stroke-miterlimit:10;" d="M 0 0.00003 L 0 -60.773407 " transform="matrix(1,0,0,-1,0.25,0.25003)"/>
</g>
<g clip-path="url(#clip6)" clip-rule="nonzero">
<path style="fill:none;stroke-width:0.5;stroke-linecap:round;stroke-linejoin:round;stroke:rgb(100%,100%,100%);stroke-opacity:1;stroke-miterlimit:10;" d="M 268.507812 0.00003 L 268.507812 -60.773407 " transform="matrix(1,0,0,-1,0.25,0.25003)"/>
</g>
</g>
</svg>
