%!PS
%%BoundingBox: -205 -77 199 77 
%%HiResBoundingBox: -204.09479 -76.53577 198.97516 76.53577 
%%Creator: MetaPost 2.02
%%CreationDate: 2024.01.06:1112
%%Pages: 1
%*Font: cmr10 9.96265 9.96265 2c:ae40000010000504318
%*Font: cmr7 6.97385 6.97385 31:fc
%*Font: cmmi10 9.96265 9.96265 4f:80000000006
%*Font: eufm10 9.96265 9.96265 28:d4
%*Font: eurm10 9.96265 9.96265 0b:8002000000000083200000100004
%*Font: eurm7 6.97385 6.97385 19:800000000000000000000001
%%BeginProlog
%%EndProlog
%%Page: 1 1
gsave newpath -297.63774 -106.2992 moveto
-297.63774 106.2992 lineto
297.63774 106.2992 lineto
297.63774 -106.2992 lineto
 closepath clip
gsave newpath -297.63774 -106.2992 moveto
-297.63774 106.2992 lineto
297.63774 106.2992 lineto
297.63774 -106.2992 lineto
 closepath clip
gsave newpath -297.63774 -106.2992 moveto
-297.63774 106.2992 lineto
297.63774 106.2992 lineto
297.63774 -106.2992 lineto
 closepath clip
gsave newpath -297.63774 -106.2992 moveto
-297.63774 106.2992 lineto
297.63774 106.2992 lineto
297.63774 -106.2992 lineto
 closepath clip
gsave newpath -297.63774 -106.2992 moveto
-297.63774 106.2992 lineto
297.63774 106.2992 lineto
297.63774 -106.2992 lineto
 closepath clip
gsave newpath -297.63774 -106.2992 moveto
-297.63774 106.2992 lineto
297.63774 106.2992 lineto
297.63774 -106.2992 lineto
 closepath clip
gsave newpath -297.63774 -106.2992 moveto
-297.63774 106.2992 lineto
297.63774 106.2992 lineto
297.63774 -106.2992 lineto
 closepath clip
gsave newpath -204.09479 -76.53577 moveto
-204.09479 76.53577 lineto
204.09479 76.53577 lineto
204.09479 -76.53577 lineto
 closepath clip
gsave newpath -226.7716 -170.0787 moveto
0 -170.0787 lineto
0 170.0787 lineto
-226.7716 170.0787 lineto
 closepath clip
 1 0.5 0 setrgbcolor
newpath -226.7716 -170.0787 moveto
0 -170.0787 lineto
0 170.0787 lineto
-226.7716 170.0787 lineto
 closepath fill
grestore
 1 1 1 setrgbcolor 0 1.1 dtransform truncate idtransform setlinewidth pop
 [] 0 setdash 1 setlinecap 1 setlinejoin 10 setmiterlimit
newpath -198.42516 0 moveto
198.42516 0 lineto stroke
newpath 194.72722 -1.53177 moveto
198.42516 0 lineto
194.72722 1.53177 lineto
 closepath
gsave fill grestore stroke
 1.1 0 dtransform exch truncate exch idtransform pop setlinewidth
newpath 0 -70.86613 moveto
0 70.86613 lineto stroke
 0 1.1 dtransform truncate idtransform setlinewidth pop
newpath 1.53113 67.16977 moveto
0 70.86613 lineto
-1.53113 67.16977 lineto
 closepath
gsave fill grestore stroke
192.74356 -9.2895 moveto
(x) cmmi10 9.96265 fshow
-10.2419 66.85533 moveto
(y) cmmi10 9.96265 fshow
 1 0.7 0.7 setrgbcolor 0 1.5 dtransform truncate idtransform setlinewidth pop
newpath 0 0 moveto
0.3564 0.3564 lineto
0.47491 0.47491 0.62302 0.62303 0.71194 0.71194 curveto
0.83076 0.83073 0.9921 0.99205 1.06836 1.06836 curveto
1.18684 1.1869 1.34857 1.34872 1.4239 1.4239 curveto
1.7803 1.77943 lineto
2.13585 2.13585 lineto
2.24055 2.24065 2.37509 2.3747 2.49484 2.49399 curveto
2.85126 2.84952 lineto
3.2068 3.20506 lineto
3.5632 3.56061 lineto
3.91875 3.91615 lineto
4.27515 4.27083 lineto
4.63069 4.6255 lineto
4.9871 4.98018 lineto
5.34264 5.33485 lineto
5.36229 5.35445 5.58025 5.5713 5.69905 5.68953 curveto
6.0546 6.04335 lineto
6.13698 6.12524 6.29218 6.27925 6.411 6.39716 curveto
6.52217 6.50748 6.64862 6.63301 6.76741 6.75096 curveto
7.12294 7.10391 lineto
7.24263 7.2227 7.39322 7.37218 7.48195 7.46033 curveto
7.60042 7.57802 7.75677 7.73335 7.8375 7.81326 curveto
8.1939 8.16534 lineto
8.54944 8.51743 lineto
8.90584 8.8695 lineto
9.26225 9.22073 lineto
9.6178 9.57195 lineto
9.9742 9.9223 lineto
10.32974 10.27264 lineto
10.68614 10.623 lineto
10.80464 10.73952 10.9994 10.93103 11.04169 10.97249 curveto
11.3981 11.3211 lineto
11.75363 11.66972 lineto
12.11005 12.01834 lineto
12.46904 12.3687 lineto
12.58754 12.48434 12.75284 12.64568 12.82458 12.71559 curveto
13.181 13.06248 lineto
13.29951 13.17783 13.51865 13.39111 13.53654 13.40851 curveto
13.89294 13.75453 lineto
14.01144 13.86961 14.20193 14.05463 14.24849 14.0997 curveto
14.29825 14.14789 14.48607 14.32925 14.60489 14.44398 curveto
14.96043 14.78741 lineto
14.98544 14.81154 15.19804 15.01639 15.31685 15.13086 curveto
15.67325 15.47429 lineto
16.0288 15.81598 lineto
16.03328 15.82028 16.26639 16.04378 16.3852 16.15768 curveto
16.50371 16.2713 16.70236 16.46178 16.74074 16.49852 curveto
17.09715 16.83936 lineto
17.45528 17.18106 lineto
17.81169 17.52016 lineto
18.16809 17.8584 lineto
18.28658 17.9709 18.45853 18.13417 18.52364 18.19577 curveto
18.88005 18.53229 lineto
19.23558 18.8688 lineto
19.592 19.20444 lineto
19.94754 19.53836 lineto
20.30394 19.87227 lineto
20.42242 19.9833 20.60449 20.15395 20.65948 20.20532 curveto
20.73149 20.27261 20.89705 20.42682 21.01588 20.5375 curveto
21.37143 20.86884 lineto
21.72784 21.20015 lineto
22.08424 21.52974 lineto
22.44238 21.86105 lineto
22.50696 21.92062 22.67995 22.07967 22.79878 22.18892 curveto
23.15433 22.51591 lineto
23.51074 22.84291 lineto
23.86627 23.16817 lineto
24.22269 23.49257 lineto
24.57909 23.8161 lineto
24.69757 23.92369 24.86461 24.07536 24.93463 24.13878 curveto
25.29105 24.46057 lineto
25.64658 24.78065 lineto
26.00299 25.10072 lineto
26.35854 25.41907 lineto
26.71494 25.73741 lineto
27.07048 26.05403 lineto
27.18349 26.1543 27.30974 26.26578 27.42949 26.3715 curveto
27.78589 26.68639 lineto
27.90433 26.79114 28.05338 26.92296 28.14143 27.00041 curveto
28.18993 27.04306 28.379 27.20863 28.49783 27.3127 curveto
28.85338 27.62411 lineto
29.2098 27.93468 lineto
29.56532 28.24352 lineto
29.61497 28.28651 29.80292 28.44884 29.92174 28.55147 curveto
30.04025 28.65384 30.27635 28.85776 30.27728 28.85857 curveto
30.63368 29.1648 lineto
30.9901 29.4693 lineto
31.10857 29.57057 31.28877 29.72462 31.34563 29.77295 curveto
31.70204 30.07484 lineto
32.05759 30.37675 lineto
32.13892 30.44553 32.29683 30.57813 32.41658 30.67867 curveto
32.53508 30.77817 32.74283 30.95259 32.77213 30.97711 curveto
33.12852 31.27469 lineto
33.24701 31.37363 33.44032 31.53505 33.48407 31.57141 curveto
33.60106 31.66869 33.72157 31.7682 33.84048 31.8664 curveto
33.95926 31.96446 34.08421 32.06764 34.19688 32.16052 curveto
34.55243 32.45291 lineto
34.90883 32.74445 lineto
35.26437 33.03424 lineto
35.36888 33.11917 35.50194 33.22691 35.62079 33.32317 curveto
35.73918 33.41904 35.86404 33.52014 35.97632 33.61037 curveto
36.33273 33.89584 lineto
36.68828 34.18132 lineto
36.76433 34.24208 36.9258 34.37 37.04468 34.46419 curveto
37.40369 34.7488 lineto
37.75922 35.02908 lineto
38.11563 35.30849 lineto
38.47118 35.58618 lineto
38.53625 35.63676 38.70874 35.7702 38.82758 35.86214 curveto
39.18312 36.13722 lineto
39.53952 36.41145 lineto
39.89507 36.68307 lineto
40.25148 36.95384 lineto
40.60788 37.22375 lineto
40.96342 37.49106 lineto
41.31982 37.75749 lineto
41.67537 38.0222 lineto
41.74756 38.07568 41.91293 38.19759 42.03178 38.28519 curveto
42.15114 38.37317 42.33656 38.50984 42.38992 38.54903 curveto
42.74632 38.80942 lineto
43.10274 39.06807 lineto
43.22118 39.15408 43.38826 39.27542 43.45827 39.32585 curveto
43.51003 39.36314 43.69583 39.49605 43.81468 39.58105 curveto
44.17023 39.83537 lineto
44.27817 39.91228 44.40773 40.0039 44.52663 40.08798 curveto
44.64505 40.17174 44.7739 40.26286 44.88217 40.33885 curveto
45.23857 40.58798 lineto
45.35704 40.6708 45.54149 40.79974 45.59412 40.83626 curveto
45.6521 40.87648 45.83168 41.00012 45.95053 41.08194 curveto
46.30606 41.32675 lineto
46.66248 41.56984 lineto
47.02147 41.81291 lineto
47.37701 42.05254 lineto
47.73343 42.29044 lineto
48.08896 42.5266 lineto
48.44537 42.76103 lineto
48.80092 42.99373 lineto
49.15732 43.22557 lineto
49.51373 43.45482 lineto
49.86926 43.68233 lineto
50.22568 43.90897 lineto
50.58122 44.13303 lineto
50.93762 44.35535 lineto
51.29317 44.57594 lineto
51.64957 44.79567 lineto
52.00858 45.01453 lineto
52.36412 45.22992 lineto
52.72052 45.4436 lineto
53.07607 45.65553 lineto
53.43246 45.86575 lineto
53.78801 46.07423 lineto
54.14442 46.28098 lineto
54.49995 46.48514 lineto
54.85637 46.68843 lineto
55.21191 46.88911 lineto
55.56831 47.08894 lineto
55.67044 47.14581 55.80585 47.22057 55.92473 47.28618 curveto
56.04314 47.35155 56.17284 47.42314 56.28026 47.48169 curveto
56.28119 47.4822 56.51787 47.6103 56.63667 47.6746 curveto
56.75604 47.73921 56.97623 47.8584 56.99481 47.86838 curveto
57.10732 47.92877 57.23228 47.9949 57.35121 48.05782 curveto
57.46967 48.1205 57.60063 48.18979 57.70676 48.24554 curveto
58.06317 48.43153 lineto
58.41957 48.61578 lineto
58.77512 48.79832 lineto
59.13152 48.97826 lineto
59.48706 49.15645 lineto
59.84348 49.33293 lineto
60.199 49.50768 lineto
60.55542 49.67982 lineto
60.91096 49.85023 lineto
61.26736 50.01892 lineto
61.62291 50.18588 lineto
61.9819 50.35197 lineto
62.33832 50.5146 lineto
62.69386 50.67464 lineto
63.05026 50.83382 lineto
63.4058 50.99039 lineto
63.4636 51.01555 63.64339 51.09311 63.7622 51.14438 curveto
63.88069 51.1955 64.05292 51.2698 64.11775 51.29749 curveto
64.47417 51.44801 lineto
64.83057 51.5968 lineto
65.18611 51.743 lineto
65.54251 51.88747 lineto
65.89806 52.0302 lineto
66.01115 52.07512 66.13559 52.12383 66.25447 52.17035 curveto
66.3729 52.2167 66.49614 52.26494 66.61 52.30875 curveto
66.68797 52.33875 66.84929 52.4 66.96901 52.44543 curveto
67.08777 52.49052 67.25081 52.55241 67.32541 52.58038 curveto
67.68095 52.71187 lineto
68.03737 52.84163 lineto
68.3929 52.96967 lineto
68.74931 53.09596 lineto
69.10486 53.21967 lineto
69.46126 53.34164 lineto
69.8168 53.46101 lineto
69.89069 53.48547 70.05437 53.53897 70.1732 53.5778 curveto
70.29169 53.61653 70.45663 53.67044 70.52875 53.69373 curveto
70.88516 53.80704 lineto
71.24156 53.91777 lineto
71.5971 54.02676 lineto
71.95612 54.13403 lineto
72.31165 54.23871 lineto
72.66806 54.34166 lineto
73.0236 54.442 lineto
73.38 54.54062 lineto
73.73642 54.63664 lineto
74.09195 54.73007 lineto
74.44836 54.82176 lineto
74.80391 54.91173 lineto
75.16031 54.9991 lineto
75.51585 55.08475 lineto
75.87225 55.16779 lineto
76.2278 55.24825 lineto
76.58421 55.32697 lineto
76.9432 55.40482 lineto
77.29875 55.47922 lineto
77.65515 55.55101 lineto
78.0107 55.62108 lineto
78.36711 55.68857 lineto
78.72264 55.7543 lineto
79.07906 55.81746 lineto
79.4346 55.87888 lineto
79.791 55.9377 lineto
80.14742 55.9948 lineto
80.50294 56.04929 lineto
80.85936 56.10207 lineto
81.2149 56.15224 lineto
81.5713 56.19981 lineto
81.92944 56.24567 lineto
82.28584 56.28978 lineto
82.36995 56.29976 82.52286 56.31705 82.64139 56.33044 curveto
82.76018 56.34387 82.91264 56.3611 82.9978 56.37024 curveto
83.3542 56.40657 lineto
83.70975 56.44116 lineto
84.06615 56.47404 lineto
84.14236 56.48067 84.30316 56.49377 84.42169 56.50345 curveto
84.54048 56.51314 84.69566 56.52579 84.7781 56.532 curveto
84.85966 56.53813 85.01512 56.54889 85.13365 56.55708 curveto
85.25244 56.56529 85.41344 56.57643 85.49005 56.58131 curveto
85.8456 56.60207 lineto
86.202 56.6211 lineto
86.55841 56.6384 lineto
86.63197 56.64156 86.79716 56.64777 86.91655 56.65224 curveto
87.03534 56.6567 87.20055 56.66289 87.27295 56.66522 curveto
87.6285 56.67473 lineto
87.9849 56.68253 lineto
88.34044 56.68858 lineto
88.69685 56.69203 lineto
89.05325 56.6929 lineto
89.4088 56.69203 lineto
89.7652 56.68858 lineto
90.12074 56.68253 lineto
90.47716 56.67473 lineto
90.83269 56.66522 lineto
90.90378 56.66293 91.0703 56.6567 91.1891 56.65224 curveto
91.30849 56.64775 91.47534 56.6415 91.54724 56.6384 curveto
91.90364 56.6211 lineto
92.26006 56.60207 lineto
92.61559 56.58131 lineto
92.69226 56.57643 92.85321 56.56529 92.972 56.55708 curveto
93.09053 56.54889 93.24571 56.53816 93.32755 56.532 curveto
93.40997 56.52579 93.56516 56.51314 93.68394 56.50345 curveto
93.80247 56.49379 93.9632 56.48067 94.03949 56.47404 curveto
94.39589 56.44116 lineto
94.75143 56.40657 lineto
95.10785 56.37024 lineto
95.1931 56.3611 95.34547 56.34387 95.46425 56.33044 curveto
95.58278 56.31705 95.73552 56.29979 95.8198 56.28978 curveto
96.1762 56.24567 lineto
96.53433 56.19981 lineto
96.89075 56.15224 lineto
97.24629 56.10207 lineto
97.60269 56.04929 lineto
97.95824 55.9948 lineto
98.31464 55.9377 lineto
98.67105 55.87888 lineto
99.0266 55.81746 lineto
99.383 55.7543 lineto
99.73854 55.68857 lineto
100.09494 55.62108 lineto
100.45049 55.55101 lineto
100.8069 55.47922 lineto
101.16243 55.40482 lineto
101.52144 55.32697 lineto
101.87784 55.24825 lineto
102.23338 55.16779 lineto
102.5898 55.08475 lineto
102.94533 54.9991 lineto
103.30174 54.91173 lineto
103.65729 54.82176 lineto
104.01369 54.73007 lineto
104.36923 54.63664 lineto
104.72563 54.54062 lineto
105.08205 54.442 lineto
105.43759 54.34166 lineto
105.79399 54.23871 lineto
106.14954 54.13403 lineto
106.50853 54.02676 lineto
106.86407 53.91777 lineto
107.22049 53.80704 lineto
107.57689 53.69373 lineto
107.64885 53.67049 107.81395 53.61653 107.93243 53.5778 curveto
108.05127 53.53897 108.21475 53.48553 108.28883 53.46101 curveto
108.64438 53.34164 lineto
109.0008 53.21967 lineto
109.35632 53.09596 lineto
109.71274 52.96967 lineto
110.06828 52.84163 lineto
110.42468 52.71187 lineto
110.78023 52.58038 lineto
110.85458 52.5525 111.01787 52.49052 111.13663 52.44543 curveto
111.25635 52.4 111.41849 52.33842 111.49564 52.30875 curveto
111.60933 52.265 111.73276 52.2167 111.85118 52.17035 curveto
111.97006 52.12383 112.09467 52.07504 112.20758 52.0302 curveto
112.56313 51.88747 lineto
112.91954 51.743 lineto
113.27507 51.5968 lineto
113.63148 51.44801 lineto
113.98788 51.29749 lineto
114.05215 51.27005 114.22495 51.1955 114.34343 51.14438 curveto
114.46227 51.09311 114.6419 51.01561 114.69984 50.99039 curveto
115.05537 50.83382 lineto
115.41179 50.67464 lineto
115.76733 50.5146 lineto
116.12373 50.35197 lineto
116.48274 50.18588 lineto
116.83827 50.01892 lineto
117.19469 49.85023 lineto
117.55023 49.67982 lineto
117.90663 49.50768 lineto
118.26218 49.33293 lineto
118.61858 49.15645 lineto
118.97412 48.97826 lineto
119.33054 48.79832 lineto
119.68607 48.61578 lineto
120.04248 48.43153 lineto
120.39888 48.24554 lineto
120.5045 48.19005 120.63596 48.1205 120.75443 48.05782 curveto
120.87335 47.9949 120.99852 47.92867 121.11084 47.86838 curveto
121.12846 47.85892 121.3496 47.73921 121.46896 47.6746 curveto
121.82538 47.48169 lineto
121.9336 47.42271 122.06252 47.35155 122.18092 47.28618 curveto
122.29979 47.22057 122.43399 47.14648 122.53732 47.08894 curveto
122.89374 46.88911 lineto
123.24927 46.68843 lineto
123.60568 46.48514 lineto
123.96123 46.28098 lineto
124.31763 46.07423 lineto
124.67317 45.86575 lineto
125.02957 45.65553 lineto
125.38512 45.4436 lineto
125.74153 45.22992 lineto
126.09706 45.01453 lineto
126.45607 44.79567 lineto
126.81248 44.57594 lineto
127.16801 44.35535 lineto
127.52443 44.13303 lineto
127.87997 43.90897 lineto
128.23637 43.68233 lineto
128.59192 43.45482 lineto
128.94832 43.22557 lineto
129.30473 42.99373 lineto
129.66028 42.76103 lineto
130.01668 42.5266 lineto
130.37222 42.29044 lineto
130.72862 42.05254 lineto
131.08417 41.81291 lineto
131.44318 41.56984 lineto
131.79958 41.32675 lineto
132.15512 41.08194 lineto
132.27397 41.00012 132.45045 40.87863 132.51152 40.83626 curveto
132.56146 40.8016 132.7486 40.67079 132.86707 40.58798 curveto
133.22348 40.33885 lineto
133.33005 40.26405 133.46059 40.17174 133.57901 40.08798 curveto
133.6979 40.0039 133.82944 39.91087 133.93542 39.83537 curveto
133.9357 39.83517 134.17245 39.66583 134.29097 39.58105 curveto
134.4098 39.49605 134.59608 39.3628 134.64737 39.32585 curveto
134.71892 39.2743 134.88446 39.15408 135.00291 39.06807 curveto
135.35931 38.80942 lineto
135.71573 38.54903 lineto
135.77034 38.50893 135.95451 38.37317 136.07387 38.28519 curveto
136.1927 38.19759 136.3582 38.07559 136.43027 38.0222 curveto
136.78581 37.75749 lineto
137.14221 37.49106 lineto
137.49776 37.22375 lineto
137.85417 36.95384 lineto
138.21057 36.68307 lineto
138.56612 36.41145 lineto
138.92252 36.13722 lineto
139.27806 35.86214 lineto
139.39691 35.7702 139.56723 35.63844 139.63448 35.58618 curveto
139.99 35.30849 lineto
140.34642 35.02908 lineto
140.70197 34.7488 lineto
141.06096 34.46419 lineto
141.17984 34.37 141.34398 34.23994 141.41737 34.18132 curveto
141.77292 33.89584 lineto
142.12932 33.61037 lineto
142.24297 33.51904 142.36647 33.41904 142.48486 33.32317 curveto
142.60371 33.22691 142.7336 33.12173 142.84126 33.03424 curveto
143.19681 32.74445 lineto
143.55322 32.45291 lineto
143.90875 32.16052 lineto
144.26517 31.8664 lineto
144.62157 31.57141 lineto
144.66103 31.5386 144.85861 31.37363 144.97711 31.27469 curveto
145.33353 30.97711 lineto
145.35858 30.95613 145.57056 30.77815 145.68906 30.67867 curveto
145.8088 30.57813 145.96864 30.44391 146.04807 30.37675 curveto
146.40361 30.07484 lineto
146.76001 29.77295 lineto
146.81909 29.72273 146.99709 29.57057 147.11555 29.4693 curveto
147.47195 29.1648 lineto
147.82837 28.85857 lineto
147.83574 28.8522 148.0654 28.65384 148.18391 28.55147 curveto
148.30273 28.44884 148.49352 28.28404 148.54031 28.24352 curveto
148.89586 27.93468 lineto
149.25226 27.62411 lineto
149.6078 27.3127 lineto
149.72664 27.20863 149.91664 27.04227 149.96422 27.00041 curveto
150.05022 26.92477 150.20131 26.79114 150.31975 26.68639 curveto
150.67616 26.3715 lineto
150.79591 26.26578 150.92004 26.15617 151.03516 26.05403 curveto
151.3907 25.73741 lineto
151.74712 25.41907 lineto
152.10266 25.10072 lineto
152.45906 24.78065 lineto
152.8146 24.46057 lineto
153.171 24.13878 lineto
153.24042 24.07591 153.40807 23.92369 153.52655 23.8161 curveto
153.88295 23.49257 lineto
154.23936 23.16817 lineto
154.59491 22.84291 lineto
154.95131 22.51591 lineto
155.30685 22.18892 lineto
155.42569 22.07967 155.59702 21.92216 155.66325 21.86105 curveto
156.0214 21.52974 lineto
156.3778 21.20015 lineto
156.7342 20.86884 lineto
157.08975 20.5375 lineto
157.20859 20.42682 157.3757 20.27116 157.44617 20.20532 curveto
157.49867 20.15627 157.68321 19.9833 157.8017 19.87227 curveto
158.15811 19.53836 lineto
158.51366 19.20444 lineto
158.87006 18.8688 lineto
159.2256 18.53229 lineto
159.582 18.19577 lineto
159.64206 18.13895 159.81906 17.97089 159.93755 17.8584 curveto
160.29396 17.52016 lineto
160.65036 17.18106 lineto
161.0085 16.83936 lineto
161.3649 16.49852 lineto
161.39688 16.46788 161.60193 16.2713 161.72044 16.15768 curveto
161.83925 16.04378 162.06142 15.8308 162.07686 15.81598 curveto
162.43239 15.47429 lineto
162.7888 15.13086 lineto
162.90761 15.01639 163.11128 14.82014 163.1452 14.78741 curveto
163.50075 14.44398 lineto
163.61958 14.32925 163.80862 14.14671 163.85716 14.0997 curveto
163.90074 14.0575 164.09421 13.86961 164.21269 13.75453 curveto
164.5691 13.40851 lineto
164.59727 13.38113 164.80614 13.17783 164.92465 13.06248 curveto
165.04346 12.94685 165.27888 12.7177 165.28105 12.71559 curveto
165.34503 12.65324 165.5181 12.48434 165.6366 12.3687 curveto
165.9956 12.01834 lineto
166.352 11.66972 lineto
166.70755 11.3211 lineto
167.06395 10.97249 lineto
167.10594 10.93132 167.301 10.73952 167.4195 10.623 curveto
167.7759 10.27264 lineto
168.13144 9.9223 lineto
168.48785 9.57195 lineto
168.8434 9.22073 lineto
169.1998 8.8695 lineto
169.5562 8.51743 lineto
169.91174 8.16534 lineto
170.26816 7.81326 lineto
170.34956 7.73268 170.50523 7.57802 170.6237 7.46033 curveto
170.72293 7.36174 170.86302 7.2227 170.9827 7.10391 curveto
171.33824 6.75096 lineto
171.45703 6.63301 171.6033 6.4878 171.69464 6.39716 curveto
171.81346 6.27924 171.97908 6.1149 172.05106 6.04335 curveto
172.4066 5.68953 lineto
172.5254 5.5713 172.73972 5.35806 172.763 5.33485 curveto
173.11855 4.98018 lineto
173.47495 4.6255 lineto
173.83049 4.27083 lineto
174.1869 3.91615 lineto
174.54243 3.56061 lineto
174.89885 3.20506 lineto
175.2544 2.84952 lineto
175.6108 2.49399 lineto
175.73055 2.37468 175.86874 2.237 175.9698 2.13585 curveto
176.32533 1.77943 lineto
176.68175 1.4239 lineto
176.76003 1.34578 176.91881 1.1869 177.0373 1.06836 curveto
177.11356 0.99207 177.27489 0.83073 177.39369 0.71194 curveto
177.48254 0.62311 177.63072 0.47491 177.74924 0.3564 curveto
178.10564 0 lineto stroke
 [0 2.5 ] 1.25 setdash
newpath -178.10564 0 moveto
-177.74924 -0.3564 lineto
-177.63072 -0.47491 -177.4825 -0.62314 -177.39369 -0.71194 curveto
-177.27489 -0.83073 -177.12389 -0.9817 -177.0373 -1.06836 curveto
-176.91881 -1.1869 -176.75787 -1.34795 -176.68175 -1.4239 curveto
-176.32533 -1.77943 lineto
-175.9698 -2.13585 lineto
-175.86693 -2.23882 -175.73055 -2.3747 -175.6108 -2.49399 curveto
-175.2544 -2.84952 lineto
-174.89885 -3.20506 lineto
-174.54243 -3.56061 lineto
-174.1869 -3.91615 lineto
-173.83049 -4.27083 lineto
-173.47495 -4.6255 lineto
-173.11855 -4.98018 lineto
-172.763 -5.33485 lineto
-172.73972 -5.35806 -172.5254 -5.5713 -172.4066 -5.68953 curveto
-172.05106 -6.04335 lineto
-171.97917 -6.1148 -171.81346 -6.27924 -171.69464 -6.39716 curveto
-171.6042 -6.4869 -171.45703 -6.63301 -171.33824 -6.75096 curveto
-170.9827 -7.10391 lineto
-170.86302 -7.2227 -170.72377 -7.36092 -170.6237 -7.46033 curveto
-170.50523 -7.57802 -170.35165 -7.7306 -170.26816 -7.81326 curveto
-169.91174 -8.16534 lineto
-169.5562 -8.51743 lineto
-169.1998 -8.8695 lineto
-168.8434 -9.22073 lineto
-168.48785 -9.57195 lineto
-168.13144 -9.9223 lineto
-167.7759 -10.27264 lineto
-167.4195 -10.623 lineto
-167.301 -10.73952 -167.10509 -10.93216 -167.06395 -10.97249 curveto
-166.70755 -11.3211 lineto
-166.352 -11.66972 lineto
-165.9956 -12.01834 lineto
-165.6366 -12.3687 lineto
-165.5181 -12.48434 -165.34586 -12.65245 -165.28105 -12.71559 curveto
-165.27893 -12.71767 -165.04346 -12.94685 -164.92465 -13.06248 curveto
-164.80614 -13.17783 -164.5974 -13.38101 -164.5691 -13.40851 curveto
-164.21269 -13.75453 lineto
-164.09421 -13.86961 -163.90079 -14.05745 -163.85716 -14.0997 curveto
-163.80856 -14.14676 -163.61958 -14.32925 -163.50075 -14.44398 curveto
-163.1452 -14.78741 lineto
-163.111 -14.82042 -162.90761 -15.01639 -162.7888 -15.13086 curveto
-162.43239 -15.47429 lineto
-162.07686 -15.81598 lineto
-162.07251 -15.82016 -161.83925 -16.04378 -161.72044 -16.15768 curveto
-161.60193 -16.2713 -161.38454 -16.4797 -161.3649 -16.49852 curveto
-161.0085 -16.83936 lineto
-160.65036 -17.18106 lineto
-160.29396 -17.52016 lineto
-159.93755 -17.8584 lineto
-159.81906 -17.97089 -159.6421 -18.1389 -159.582 -18.19577 curveto
-159.2256 -18.53229 lineto
-158.87006 -18.8688 lineto
-158.51366 -19.20444 lineto
-158.15811 -19.53836 lineto
-157.8017 -19.87227 lineto
-157.68321 -19.9833 -157.49788 -20.15701 -157.44617 -20.20532 curveto
-157.37563 -20.27124 -157.20859 -20.42682 -157.08975 -20.5375 curveto
-156.7342 -20.86884 lineto
-156.3778 -21.20015 lineto
-156.0214 -21.52974 lineto
-155.66325 -21.86105 lineto
-155.59746 -21.92175 -155.42569 -22.07967 -155.30685 -22.18892 curveto
-154.95131 -22.51591 lineto
-154.59491 -22.84291 lineto
-154.23936 -23.16817 lineto
-153.88295 -23.49257 lineto
-153.52655 -23.8161 lineto
-153.40807 -23.92369 -153.24051 -24.07584 -153.171 -24.13878 curveto
-152.8146 -24.46057 lineto
-152.45906 -24.78065 lineto
-152.10266 -25.10072 lineto
-151.74712 -25.41907 lineto
-151.3907 -25.73741 lineto
-151.03516 -26.05403 lineto
-150.91858 -26.15747 -150.79591 -26.26578 -150.67616 -26.3715 curveto
-150.31975 -26.68639 lineto
-150.20131 -26.79114 -150.04982 -26.92513 -149.96422 -27.00041 curveto
-149.91637 -27.0425 -149.72664 -27.20863 -149.6078 -27.3127 curveto
-149.25226 -27.62411 lineto
-148.89586 -27.93468 lineto
-148.54031 -28.24352 lineto
-148.49257 -28.28487 -148.30273 -28.44884 -148.18391 -28.55147 curveto
-148.0654 -28.65384 -147.83464 -28.85316 -147.82837 -28.85857 curveto
-147.47195 -29.1648 lineto
-147.11555 -29.4693 lineto
-146.99709 -29.57057 -146.81892 -29.72287 -146.76001 -29.77295 curveto
-146.40361 -30.07484 lineto
-146.04807 -30.37675 lineto
-145.96823 -30.44426 -145.8088 -30.57813 -145.68906 -30.67867 curveto
-145.57056 -30.77815 -145.35927 -30.95557 -145.33353 -30.97711 curveto
-144.97711 -31.27469 lineto
-144.85863 -31.37363 -144.66394 -31.53618 -144.62157 -31.57141 curveto
-144.26517 -31.8664 lineto
-143.90875 -32.16052 lineto
-143.55322 -32.45291 lineto
-143.19681 -32.74445 lineto
-142.84126 -33.03424 lineto
-142.73166 -33.12332 -142.60371 -33.22693 -142.48486 -33.32317 curveto
-142.36647 -33.41904 -142.24377 -33.5184 -142.12932 -33.61037 curveto
-141.77292 -33.89584 lineto
-141.41737 -34.18132 lineto
-141.34377 -34.24011 -141.17984 -34.37 -141.06096 -34.46419 curveto
-140.70197 -34.7488 lineto
-140.34642 -35.02908 lineto
-139.99 -35.30849 lineto
-139.63448 -35.58618 lineto
-139.56923 -35.6369 -139.39691 -35.7702 -139.27806 -35.86214 curveto
-138.92252 -36.13722 lineto
-138.56612 -36.41145 lineto
-138.21057 -36.68307 lineto
-137.85417 -36.95384 lineto
-137.49776 -37.22375 lineto
-137.14221 -37.49106 lineto
-136.78581 -37.75749 lineto
-136.43027 -38.0222 lineto
-136.35643 -38.0769 -136.19272 -38.19759 -136.07387 -38.28519 curveto
-135.95451 -38.37317 -135.77275 -38.50714 -135.71573 -38.54903 curveto
-135.35931 -38.80942 lineto
-135.00291 -39.06807 lineto
-134.88446 -39.15408 -134.71884 -39.27435 -134.64737 -39.32585 curveto
-134.5962 -39.3627 -134.4098 -39.49605 -134.29097 -39.58105 curveto
-134.17245 -39.66583 -133.93658 -39.83455 -133.93542 -39.83537 curveto
-133.82994 -39.9105 -133.6979 -40.0039 -133.57901 -40.08798 curveto
-133.46059 -40.17172 -133.32945 -40.26448 -133.22348 -40.33885 curveto
-132.86707 -40.58798 lineto
-132.7486 -40.6708 -132.56331 -40.80032 -132.51152 -40.83626 curveto
-132.4501 -40.87888 -132.27397 -41.00012 -132.15512 -41.08194 curveto
-131.79958 -41.32675 lineto
-131.44318 -41.56984 lineto
-131.08417 -41.81291 lineto
-130.72862 -42.05254 lineto
-130.37222 -42.29044 lineto
-130.01668 -42.5266 lineto
-129.66028 -42.76103 lineto
-129.30473 -42.99373 lineto
-128.94832 -43.22557 lineto
-128.59192 -43.45482 lineto
-128.23637 -43.68233 lineto
-127.87997 -43.90897 lineto
-127.52443 -44.13303 lineto
-127.16801 -44.35535 lineto
-126.81248 -44.57594 lineto
-126.45607 -44.79567 lineto
-126.09706 -45.01453 lineto
-125.74153 -45.22992 lineto
-125.38512 -45.4436 lineto
-125.02957 -45.65553 lineto
-124.67317 -45.86575 lineto
-124.31763 -46.07423 lineto
-123.96123 -46.28098 lineto
-123.60568 -46.48514 lineto
-123.24927 -46.68843 lineto
-122.89374 -46.88911 lineto
-122.53732 -47.08894 lineto
-122.43379 -47.14659 -122.29979 -47.22057 -122.18092 -47.28618 curveto
-122.06252 -47.35155 -121.93372 -47.42264 -121.82538 -47.48169 curveto
-121.46896 -47.6746 lineto
-121.3496 -47.73921 -121.12872 -47.85878 -121.11084 -47.86838 curveto
-120.9991 -47.92836 -120.87335 -47.99489 -120.75443 -48.05782 curveto
-120.63596 -48.12048 -120.50316 -48.19075 -120.39888 -48.24554 curveto
-120.04248 -48.43153 lineto
-119.68607 -48.61578 lineto
-119.33054 -48.79832 lineto
-118.97412 -48.97826 lineto
-118.61858 -49.15645 lineto
-118.26218 -49.33293 lineto
-117.90663 -49.50768 lineto
-117.55023 -49.67982 lineto
-117.19469 -49.85023 lineto
-116.83827 -50.01892 lineto
-116.48274 -50.18588 lineto
-116.12373 -50.35197 lineto
-115.76733 -50.5146 lineto
-115.41179 -50.67464 lineto
-115.05537 -50.83382 lineto
-114.69984 -50.99039 lineto
-114.64186 -51.01563 -114.46227 -51.09311 -114.34343 -51.14438 curveto
-114.22495 -51.1955 -114.05223 -51.27 -113.98788 -51.29749 curveto
-113.63148 -51.44801 lineto
-113.27507 -51.5968 lineto
-112.91954 -51.743 lineto
-112.56313 -51.88747 lineto
-112.20758 -52.0302 lineto
-112.09433 -52.07518 -111.97006 -52.12383 -111.85118 -52.17035 curveto
-111.73276 -52.2167 -111.60968 -52.26486 -111.49564 -52.30875 curveto
-111.41777 -52.3387 -111.25635 -52.4 -111.13663 -52.44543 curveto
-111.01787 -52.49052 -110.85486 -52.55241 -110.78023 -52.58038 curveto
-110.42468 -52.71187 lineto
-110.06828 -52.84163 lineto
-109.71274 -52.96967 lineto
-109.35632 -53.09596 lineto
-109.0008 -53.21967 lineto
-108.64438 -53.34164 lineto
-108.28883 -53.46101 lineto
-108.21458 -53.4856 -108.05127 -53.53897 -107.93243 -53.5778 curveto
-107.81395 -53.61653 -107.64894 -53.67046 -107.57689 -53.69373 curveto
-107.22049 -53.80704 lineto
-106.86407 -53.91777 lineto
-106.50853 -54.02676 lineto
-106.14954 -54.13403 lineto
-105.79399 -54.23871 lineto
-105.43759 -54.34166 lineto
-105.08205 -54.442 lineto
-104.72563 -54.54062 lineto
-104.36923 -54.63664 lineto
-104.01369 -54.73007 lineto
-103.65729 -54.82176 lineto
-103.30174 -54.91173 lineto
-102.94533 -54.9991 lineto
-102.5898 -55.08475 lineto
-102.23338 -55.16779 lineto
-101.87784 -55.24825 lineto
-101.52144 -55.32697 lineto
-101.16243 -55.40482 lineto
-100.8069 -55.47922 lineto
-100.45049 -55.55101 lineto
-100.09494 -55.62108 lineto
-99.73854 -55.68857 lineto
-99.383 -55.7543 lineto
-99.0266 -55.81746 lineto
-98.67105 -55.87888 lineto
-98.31464 -55.9377 lineto
-97.95824 -55.9948 lineto
-97.60269 -56.04929 lineto
-97.24629 -56.10207 lineto
-96.89075 -56.15224 lineto
-96.53433 -56.19981 lineto
-96.1762 -56.24567 lineto
-95.8198 -56.28978 lineto
-95.73569 -56.29976 -95.58278 -56.31705 -95.46425 -56.33044 curveto
-95.34547 -56.34387 -95.19301 -56.3611 -95.10785 -56.37024 curveto
-94.75143 -56.40657 lineto
-94.39589 -56.44116 lineto
-94.03949 -56.47404 lineto
-93.96353 -56.48065 -93.80247 -56.49377 -93.68394 -56.50345 curveto
-93.56516 -56.51314 -93.40996 -56.52579 -93.32755 -56.532 curveto
-93.24579 -56.53815 -93.09053 -56.54889 -92.972 -56.55708 curveto
-92.85321 -56.56529 -92.69193 -56.57645 -92.61559 -56.58131 curveto
-92.26006 -56.60207 lineto
-91.90364 -56.6211 lineto
-91.54724 -56.6384 lineto
-91.47368 -56.64156 -91.30849 -56.64777 -91.1891 -56.65224 curveto
-91.0703 -56.6567 -90.90508 -56.66289 -90.83269 -56.66522 curveto
-90.47716 -56.67473 lineto
-90.12074 -56.68253 lineto
-89.7652 -56.68858 lineto
-89.4088 -56.69203 lineto
-89.05238 -56.6929 lineto
-88.69685 -56.69203 lineto
-88.34044 -56.68858 lineto
-87.9849 -56.68253 lineto
-87.6285 -56.67473 lineto
-87.27295 -56.66522 lineto
-87.20186 -56.66293 -87.03534 -56.6567 -86.91655 -56.65224 curveto
-86.79716 -56.64775 -86.63031 -56.6415 -86.55841 -56.6384 curveto
-86.202 -56.6211 lineto
-85.8456 -56.60207 lineto
-85.49005 -56.58131 lineto
-85.41434 -56.57649 -85.25244 -56.56529 -85.13365 -56.55708 curveto
-85.01512 -56.54889 -84.85907 -56.5381 -84.7781 -56.532 curveto
-84.69481 -56.52573 -84.54048 -56.51314 -84.42169 -56.50345 curveto
-84.30316 -56.49379 -84.1434 -56.48076 -84.06615 -56.47404 curveto
-83.70975 -56.44116 lineto
-83.3542 -56.40657 lineto
-82.9978 -56.37024 lineto
-82.91255 -56.3611 -82.76018 -56.34387 -82.64139 -56.33044 curveto
-82.52286 -56.31705 -82.37013 -56.29979 -82.28584 -56.28978 curveto
-81.92944 -56.24567 lineto
-81.5713 -56.19981 lineto
-81.2149 -56.15224 lineto
-80.85936 -56.10207 lineto
-80.50294 -56.04929 lineto
-80.14742 -55.9948 lineto
-79.791 -55.9377 lineto
-79.4346 -55.87888 lineto
-79.07906 -55.81746 lineto
-78.72264 -55.7543 lineto
-78.36711 -55.68857 lineto
-78.0107 -55.62108 lineto
-77.65515 -55.55101 lineto
-77.29875 -55.47922 lineto
-76.9432 -55.40482 lineto
-76.58421 -55.32697 lineto
-76.2278 -55.24825 lineto
-75.87225 -55.16779 lineto
-75.51585 -55.08475 lineto
-75.16031 -54.9991 lineto
-74.80391 -54.91173 lineto
-74.44836 -54.82176 lineto
-74.09195 -54.73007 lineto
-73.73642 -54.63664 lineto
-73.38 -54.54062 lineto
-73.0236 -54.442 lineto
-72.66806 -54.34166 lineto
-72.31165 -54.23871 lineto
-71.95612 -54.13403 lineto
-71.5971 -54.02676 lineto
-71.24156 -53.91777 lineto
-70.88516 -53.80704 lineto
-70.52875 -53.69373 lineto
-70.45679 -53.67049 -70.29169 -53.61653 -70.1732 -53.5778 curveto
-70.05437 -53.53897 -69.89088 -53.48553 -69.8168 -53.46101 curveto
-69.46126 -53.34164 lineto
-69.10486 -53.21967 lineto
-68.74931 -53.09596 lineto
-68.3929 -52.96967 lineto
-68.03737 -52.84163 lineto
-67.68095 -52.71187 lineto
-67.32541 -52.58038 lineto
-67.25137 -52.55263 -67.08777 -52.49052 -66.96901 -52.44543 curveto
-66.84929 -52.4 -66.68716 -52.33844 -66.61 -52.30875 curveto
-66.49641 -52.26505 -66.3729 -52.2167 -66.25447 -52.17035 curveto
-66.13559 -52.12383 -66.0108 -52.07498 -65.89806 -52.0302 curveto
-65.54251 -51.88747 lineto
-65.18611 -51.743 lineto
-64.83057 -51.5968 lineto
-64.47417 -51.44801 lineto
-64.11775 -51.29749 lineto
-64.05298 -51.26982 -63.88069 -51.1955 -63.7622 -51.14438 curveto
-63.64339 -51.09311 -63.46344 -51.01547 -63.4058 -50.99039 curveto
-63.05026 -50.83382 lineto
-62.69386 -50.67464 lineto
-62.33832 -50.5146 lineto
-61.9819 -50.35197 lineto
-61.62291 -50.18588 lineto
-61.26736 -50.01892 lineto
-60.91096 -49.85023 lineto
-60.55542 -49.67982 lineto
-60.199 -49.50768 lineto
-59.84348 -49.33293 lineto
-59.48706 -49.15645 lineto
-59.13152 -48.97826 lineto
-58.77512 -48.79832 lineto
-58.41957 -48.61578 lineto
-58.06317 -48.43153 lineto
-57.70676 -48.24554 lineto
-57.60077 -48.18985 -57.46967 -48.1205 -57.35121 -48.05782 curveto
-57.23228 -47.99489 -57.10724 -47.92873 -56.99481 -47.86838 curveto
-56.97644 -47.85852 -56.75604 -47.73921 -56.63667 -47.6746 curveto
-56.51787 -47.6103 -56.28165 -47.48245 -56.28026 -47.48169 curveto
-56.1734 -47.42345 -56.04314 -47.35153 -55.92473 -47.28618 curveto
-55.80585 -47.22057 -55.66989 -47.14551 -55.56831 -47.08894 curveto
-55.21191 -46.88911 lineto
-54.85637 -46.68843 lineto
-54.49995 -46.48514 lineto
-54.14442 -46.28098 lineto
-53.78801 -46.07423 lineto
-53.43246 -45.86575 lineto
-53.07607 -45.65553 lineto
-52.72052 -45.4436 lineto
-52.36412 -45.22992 lineto
-52.00858 -45.01453 lineto
-51.64957 -44.79567 lineto
-51.29317 -44.57594 lineto
-50.93762 -44.35535 lineto
-50.58122 -44.13303 lineto
-50.22568 -43.90897 lineto
-49.86926 -43.68233 lineto
-49.51373 -43.45482 lineto
-49.15732 -43.22557 lineto
-48.80092 -42.99373 lineto
-48.44537 -42.76103 lineto
-48.08896 -42.5266 lineto
-47.73343 -42.29044 lineto
-47.37701 -42.05254 lineto
-47.02147 -41.81291 lineto
-46.66248 -41.56984 lineto
-46.30606 -41.32675 lineto
-45.95053 -41.08194 lineto
-45.83168 -41.00012 -45.65207 -40.87646 -45.59412 -40.83626 curveto
-45.54196 -40.80006 -45.35704 -40.6708 -45.23857 -40.58798 curveto
-44.88217 -40.33885 lineto
-44.77434 -40.26317 -44.64505 -40.17174 -44.52663 -40.08798 curveto
-44.40775 -40.0039 -44.27763 -39.9119 -44.17023 -39.83537 curveto
-43.81468 -39.58105 lineto
-43.69583 -39.49605 -43.51006 -39.36316 -43.45827 -39.32585 curveto
-43.3882 -39.27538 -43.22118 -39.15408 -43.10274 -39.06807 curveto
-42.74632 -38.80942 lineto
-42.38992 -38.54903 lineto
-42.33618 -38.50955 -42.15114 -38.37317 -42.03178 -38.28519 curveto
-41.91293 -38.19759 -41.74767 -38.07576 -41.67537 -38.0222 curveto
-41.31982 -37.75749 lineto
-40.96342 -37.49106 lineto
-40.60788 -37.22375 lineto
-40.25148 -36.95384 lineto
-39.89507 -36.68307 lineto
-39.53952 -36.41145 lineto
-39.18312 -36.13722 lineto
-38.82758 -35.86214 lineto
-38.70874 -35.7702 -38.53827 -35.63834 -38.47118 -35.58618 curveto
-38.11563 -35.30849 lineto
-37.75922 -35.02908 lineto
-37.40369 -34.7488 lineto
-37.04468 -34.46419 lineto
-36.9258 -34.37 -36.76425 -34.242 -36.68828 -34.18132 curveto
-36.33273 -33.89584 lineto
-35.97632 -33.61037 lineto
-35.8642 -33.52028 -35.73918 -33.41904 -35.62079 -33.32317 curveto
-35.50194 -33.22691 -35.36853 -33.11888 -35.26437 -33.03424 curveto
-34.90883 -32.74445 lineto
-34.55243 -32.45291 lineto
-34.19688 -32.16052 lineto
-34.0839 -32.06738 -33.95926 -31.96448 -33.84048 -31.8664 curveto
-33.72157 -31.7682 -33.60109 -31.66872 -33.48407 -31.57141 curveto
-33.44063 -31.5353 -33.24701 -31.37363 -33.12852 -31.27469 curveto
-32.77213 -30.97711 lineto
-32.74115 -30.95119 -32.53508 -30.77817 -32.41658 -30.67867 curveto
-32.29683 -30.57813 -32.13974 -30.44623 -32.05759 -30.37675 curveto
-31.70204 -30.07484 lineto
-31.34563 -29.77295 lineto
-31.28902 -29.72482 -31.10857 -29.57057 -30.9901 -29.4693 curveto
-30.63368 -29.1648 lineto
-30.27728 -28.85857 lineto
-29.92174 -28.55147 lineto
-29.80292 -28.44884 -29.6107 -28.2828 -29.56532 -28.24352 curveto
-29.2098 -27.93468 lineto
-28.85338 -27.62411 lineto
-28.49783 -27.3127 lineto
-28.379 -27.20863 -28.19006 -27.04318 -28.14143 -27.00041 curveto
-28.05354 -26.92311 -27.90433 -26.79114 -27.78589 -26.68639 curveto
-27.42949 -26.3715 lineto
-27.30974 -26.26578 -27.18379 -26.15457 -27.07048 -26.05403 curveto
-26.71494 -25.73741 lineto
-26.35854 -25.41907 lineto
-26.00299 -25.10072 lineto
-25.64658 -24.78065 lineto
-25.29105 -24.46057 lineto
-24.93463 -24.13878 lineto
-24.86487 -24.0756 -24.69757 -23.92369 -24.57909 -23.8161 curveto
-24.22269 -23.49257 lineto
-23.86627 -23.16817 lineto
-23.51074 -22.84291 lineto
-23.15433 -22.51591 lineto
-22.79878 -22.18892 lineto
-22.67995 -22.07967 -22.5071 -21.92076 -22.44238 -21.86105 curveto
-22.44194 -21.86064 -22.20363 -21.64018 -22.08424 -21.52974 curveto
-21.72784 -21.20015 lineto
-21.37143 -20.86884 lineto
-21.01588 -20.5375 lineto
-20.89705 -20.42682 -20.73154 -20.27264 -20.65948 -20.20532 curveto
-20.60156 -20.1512 -20.42242 -19.98332 -20.30394 -19.87227 curveto
-19.94754 -19.53836 lineto
-19.592 -19.20444 lineto
-19.23558 -18.8688 lineto
-18.88005 -18.53229 lineto
-18.52364 -18.19577 lineto
-18.4592 -18.1348 -18.28658 -17.9709 -18.16809 -17.8584 curveto
-17.81169 -17.52016 lineto
-17.45528 -17.18106 lineto
-17.09715 -16.83936 lineto
-16.74074 -16.49852 lineto
-16.69252 -16.45233 -16.5037 -16.2713 -16.3852 -16.15768 curveto
-16.26639 -16.04378 -16.043 -15.82962 -16.0288 -15.81598 curveto
-15.67325 -15.47429 lineto
-15.31685 -15.13086 lineto
-15.19804 -15.01639 -14.9823 -14.80852 -14.96043 -14.78741 curveto
-14.60489 -14.44398 lineto
-14.48607 -14.32925 -14.29898 -14.1486 -14.24849 -14.0997 curveto
-14.20195 -14.05463 -14.01144 -13.86961 -13.89294 -13.75453 curveto
-13.53654 -13.40851 lineto
-13.51657 -13.38908 -13.29951 -13.17783 -13.181 -13.06248 curveto
-12.82458 -12.71559 lineto
-12.75182 -12.64468 -12.58754 -12.48434 -12.46904 -12.3687 curveto
-12.11005 -12.01834 lineto
-11.75363 -11.66972 lineto
-11.3981 -11.3211 lineto
-11.04169 -10.97249 lineto
-10.99855 -10.9302 -10.80464 -10.73952 -10.68614 -10.623 curveto
-10.32974 -10.27264 lineto
-9.9742 -9.9223 lineto
-9.6178 -9.57195 lineto
-9.26225 -9.22073 lineto
-8.90584 -8.8695 lineto
-8.54944 -8.51743 lineto
-8.1939 -8.16534 lineto
-7.8375 -7.81326 lineto
-7.7574 -7.73398 -7.60042 -7.57802 -7.48195 -7.46033 curveto
-7.40182 -7.38072 -7.24261 -7.2227 -7.12294 -7.10391 curveto
-6.76741 -6.75096 lineto
-6.64862 -6.63301 -6.52643 -6.51172 -6.411 -6.39716 curveto
-6.29218 -6.27925 -6.1375 -6.12576 -6.0546 -6.04335 curveto
-5.69905 -5.68953 lineto
-5.58025 -5.5713 -5.36876 -5.36089 -5.34264 -5.33485 curveto
-4.9871 -4.98018 lineto
-4.63069 -4.6255 lineto
-4.27515 -4.27083 lineto
-3.91875 -3.91615 lineto
-3.5632 -3.56061 lineto
-3.2068 -3.20506 lineto
-2.85126 -2.84952 lineto
-2.49484 -2.49399 lineto
-2.37509 -2.3747 -2.23889 -2.23898 -2.13585 -2.13585 curveto
-1.7803 -1.77943 lineto
-1.4239 -1.4239 lineto
-1.34857 -1.34872 -1.18684 -1.1869 -1.06836 -1.06836 curveto
-0.99211 -0.99207 -0.83076 -0.83073 -0.71194 -0.71194 curveto
-0.62303 -0.62305 -0.47491 -0.47491 -0.3564 -0.3564 curveto
0 0 lineto stroke
 1 1 1 setrgbcolor 0.49814
 0 dtransform exch truncate exch idtransform pop setlinewidth [] 0 setdash
newpath -89.05325 0 moveto
-89.05325 -56.6929 lineto stroke
 0 0.49814 dtransform truncate idtransform setlinewidth pop
newpath -90.58405 -52.99733 moveto
-89.05325 -56.6929 lineto
-87.52246 -52.99733 lineto
 closepath
gsave fill grestore stroke
newpath -89.05325 -56.6929 moveto
0 -56.6929 lineto stroke
newpath -3.6959 -58.22383 moveto
0 -56.6929 lineto
-3.6959 -55.16197 lineto
 closepath
gsave fill grestore stroke
newpath 89.05325 56.6929 moveto
0 56.6929 lineto stroke
newpath 3.6959 58.22383 moveto
0 56.6929 lineto
3.6959 55.16197 lineto
 closepath
gsave fill grestore stroke
 0.49814 0 dtransform exch truncate exch idtransform pop setlinewidth
newpath 89.05325 0 moveto
89.05325 56.6929 lineto stroke
 0 0.49814 dtransform truncate idtransform setlinewidth pop
newpath 90.58405 52.99733 moveto
89.05325 56.6929 lineto
87.52246 52.99733 lineto
 closepath
gsave fill grestore stroke
-96.62636 8.4371 moveto
(-) eufm10 9.96265 fshow
-87.89906 12.3624 moveto
(\031) eurm7 6.97385 fshow
 0 0.3985 dtransform truncate idtransform setlinewidth pop 0 setlinecap
newpath -87.89906 10.9975 moveto
-82.67566 10.9975 lineto stroke
-87.27306 5 moveto
(2) cmr7 6.97385 fshow
 0 3 dtransform truncate idtransform setlinewidth pop 1 setlinecap
newpath -89.05325 0 moveto 0 0 rlineto stroke
86.44154 -8.2079 moveto
(\031) eurm7 6.97385 fshow
 0 0.3985 dtransform truncate idtransform setlinewidth pop 0 setlinecap
newpath 86.44154 -9.5728 moveto
91.66495 -9.5728 lineto stroke
87.06764 -15.5703 moveto
(2) cmr7 6.97385 fshow
 0 3 dtransform truncate idtransform setlinewidth pop 1 setlinecap
newpath 89.05325 0 moveto 0 0 rlineto stroke
3.49998 -66.61328 moveto
(-) eufm10 9.96265 fshow
11.03168 -66.61328 moveto
(1) cmr10 9.96265 fshow
newpath 0 -56.6929 moveto 0 0 rlineto stroke
-8.48128 46.77252 moveto
(1) cmr10 9.96265 fshow
newpath 0 56.6929 moveto 0 0 rlineto stroke
3.49998 -10.30779 moveto
(O) cmr10 9.96265 fshow
-184.90514 5.8269 moveto
(-) eufm10 9.96265 fshow
-177.37344 5.8269 moveto
(\031) eurm10 9.96265 fshow
newpath -178.10564 0 moveto 0 0 rlineto stroke
175.07204 -9.5728 moveto
(\031) eurm10 9.96265 fshow
newpath 178.10564 0 moveto 0 0 rlineto stroke
grestore
grestore
grestore
grestore
grestore
grestore
grestore
grestore
showpage
%%EOF
