%!PS
%%BoundingBox: -188 -188 188 188 
%%HiResBoundingBox: -187.3361 -187.3361 187.3361 187.3361 
%%Creator: MetaPost 2.02
%%CreationDate: 2024.01.06:1112
%%Pages: 1
%*Font: cmr10 9.96265 9.96265 30:8
%*Font: cmsy7 6.97385 6.97385 70:8
%*Font: cmr7 6.97385 6.97385 31:e
%*Font: eufm10 9.96265 9.96265 2d:8
%*Font: eurm10 9.96265 9.96265 19:8
%*Font: eurm7 6.97385 6.97385 19:8
%%BeginProlog
%%EndProlog
%%Page: 1 1
 1 1 1 setrgbcolor 0 0.5 dtransform truncate idtransform setlinewidth pop
 [] 0 setdash 1 setlinecap 1 setlinejoin 10 setmiterlimit
newpath -187.0861 0 moveto
187.0861 0 lineto stroke
newpath 183.38847 -1.53165 moveto
187.0861 0 lineto
183.38847 1.53165 lineto
 closepath
gsave fill grestore stroke
 0.5 0 dtransform exch truncate exch idtransform pop setlinewidth
newpath 0 -187.0861 moveto
0 187.0861 lineto stroke
 0 0.5 dtransform truncate idtransform setlinewidth pop
newpath 1.53165 183.38847 moveto
0 187.0861 lineto
-1.53165 183.38847 lineto
 closepath
gsave fill grestore stroke
 1 0.7 0.7 setrgbcolor 0 1.3 dtransform truncate idtransform setlinewidth pop
newpath 127.55904 0 moveto
127.55904 33.83226 114.11722 66.2748 90.196 90.196 curveto
66.2748 114.11722 33.83226 127.55904 0 127.55904 curveto
-33.83226 127.55904 -66.2748 114.11722 -90.196 90.196 curveto
-114.11722 66.2748 -127.55904 33.83226 -127.55904 0 curveto
-127.55904 -33.83226 -114.11722 -66.2748 -90.196 -90.196 curveto
-66.2748 -114.11722 -33.83226 -127.55904 0 -127.55904 curveto
33.83226 -127.55904 66.2748 -114.11722 90.196 -90.196 curveto
114.11722 -66.2748 127.55904 -33.83226 127.55904 0 curveto closepath stroke
 0 0.5 dtransform truncate idtransform setlinewidth pop
 [3 3 ] 0 setdash
newpath 155.90549 0 moveto
77.95274 135.0185 lineto
0 0 lineto stroke
newpath 77.95274 135.0185 moveto
-77.9534 135.0185 lineto
0 0 lineto stroke
newpath -77.95274 135.0185 moveto
-155.90616 0 lineto
0 0 lineto stroke
newpath -155.90549 0 moveto
-77.95274 -135.0185 lineto
0 0 lineto stroke
newpath -77.95274 -135.0185 moveto
77.9534 -135.0185 lineto
0 0 lineto stroke
newpath 77.95274 -135.0185 moveto
155.90616 0 lineto
0 0 lineto stroke
 0.5 0 dtransform exch truncate exch idtransform pop setlinewidth
newpath 77.95274 -135.0185 moveto
77.95274 135.0185 lineto stroke
newpath -77.95274 -135.0185 moveto
-77.95274 135.0185 lineto stroke
 0 0 0 setrgbcolor
159.40547 -9.92038 moveto
(0) cmr10 9.96265 fshow
 0 3 dtransform truncate idtransform setlinewidth pop [] 0 setdash
newpath 155.90549 0 moveto 0 0 rlineto stroke
 1 0.7 0.7 setrgbcolor
82.64822 -7.99419 moveto
(1) cmr7 6.97385 fshow
 0 0.3985 dtransform truncate idtransform setlinewidth pop 0 setlinecap
newpath 82.64822 -9.35909 moveto
86.61952 -9.35909 lineto stroke
82.64822 -15.35658 moveto
(2) cmr7 6.97385 fshow
-74.45276 -11.91948 moveto
(-) eufm10 9.96265 fshow
-65.72546 -7.99419 moveto
(1) cmr7 6.97385 fshow
newpath -65.72546 -9.35909 moveto
-61.75426 -9.35909 lineto stroke
-65.72546 -15.35658 moveto
(2) cmr7 6.97385 fshow
 0 0 0 setrgbcolor
-165.47267 -8.07278 moveto
(\031) eurm10 9.96265 fshow
 0 3 dtransform truncate idtransform setlinewidth pop 1 setlinecap
newpath -155.90549 0 moveto 0 0 rlineto stroke
 1 0.7 0.7 setrgbcolor
82.64822 145.88087 moveto
(\031) eurm7 6.97385 fshow
 0 0.3985 dtransform truncate idtransform setlinewidth pop 0 setlinecap
newpath 82.64822 144.51598 moveto
87.87163 144.51598 lineto stroke
83.27432 138.51848 moveto
(3) cmr7 6.97385 fshow
-91.84293 145.88087 moveto
(2) cmr7 6.97385 fshow
-87.87163 145.88087 moveto
(\031) eurm7 6.97385 fshow
newpath -91.84293 144.51598 moveto
-82.64822 144.51598 lineto stroke
-89.23122 138.51848 moveto
(3) cmr7 6.97385 fshow
-100.57013 -146.93797 moveto
(-) eufm10 9.96265 fshow
-91.84283 -143.01268 moveto
(2) cmr7 6.97385 fshow
-87.87163 -143.01268 moveto
(\031) eurm7 6.97385 fshow
newpath -91.84283 -144.37758 moveto
-82.64822 -144.37758 lineto stroke
-89.23112 -150.37508 moveto
(3) cmr7 6.97385 fshow
81.45273 -145.65167 moveto
(-) eufm10 9.96265 fshow
90.18002 -141.72638 moveto
(\031) eurm7 6.97385 fshow
newpath 90.18002 -143.09128 moveto
95.40343 -143.09128 lineto stroke
90.80603 -149.08878 moveto
(3) cmr7 6.97385 fshow
-15.20819 130.83511 moveto
(p) cmsy7 6.97385 fshow
 0 0.3417 dtransform truncate idtransform setlinewidth pop
newpath -8.66669 131.00592 moveto
-4.69548 131.00592 lineto stroke
-8.66669 125.09752 moveto
(3) cmr7 6.97385 fshow
 0 0.3985 dtransform truncate idtransform setlinewidth pop
newpath -15.20819 123.60521 moveto
-4.69548 123.60521 lineto stroke
-11.9374 117.60771 moveto
(2) cmr7 6.97385 fshow
-23.93549 -128.0814 moveto
(-) eufm10 9.96265 fshow
-15.20819 -118.2911 moveto
(p) cmsy7 6.97385 fshow
 0 0.3417 dtransform truncate idtransform setlinewidth pop
newpath -8.66678 -118.1203 moveto
-4.69548 -118.1203 lineto stroke
-8.66678 -124.0287 moveto
(3) cmr7 6.97385 fshow
 0 0.3985 dtransform truncate idtransform setlinewidth pop
newpath -15.20819 -125.52101 moveto
-4.69548 -125.52101 lineto stroke
-11.93748 -131.51851 moveto
(2) cmr7 6.97385 fshow
showpage
%%EOF
