%!PS
%%BoundingBox: -36 -36 171 171 
%%HiResBoundingBox: -35.43306 -35.43306 170.32828 170.32828 
%%Creator: MetaPost 2.02
%%CreationDate: 2024.01.06:1112
%%Pages: 1
%*Font: cmr10 9.96265 9.96265 2c:ae40000010000504318
%*Font: eurm10 9.96265 9.96265 0b:80020000000003c329c003130004
%%BeginProlog
%%EndProlog
%%Page: 1 1
gsave newpath -35.43306 -35.43306 moveto
-35.43306 212.59839 lineto
212.59839 212.59839 lineto
212.59839 -35.43306 lineto
 closepath clip
gsave newpath -35.43306 -35.43306 moveto
-35.43306 212.59839 lineto
212.59839 212.59839 lineto
212.59839 -35.43306 lineto
 closepath clip
gsave newpath -35.43306 -35.43306 moveto
-35.43306 212.59839 lineto
212.59839 212.59839 lineto
212.59839 -35.43306 lineto
 closepath clip
gsave newpath -35.43306 -35.43306 moveto
-35.43306 212.59839 lineto
212.59839 212.59839 lineto
212.59839 -35.43306 lineto
 closepath clip
gsave newpath -35.43306 -35.43306 moveto
-35.43306 212.59839 lineto
212.59839 212.59839 lineto
212.59839 -35.43306 lineto
 closepath clip
gsave newpath -35.43306 -35.43306 moveto
-35.43306 212.59839 lineto
212.59839 212.59839 lineto
212.59839 -35.43306 lineto
 closepath clip
gsave newpath -35.43306 -35.43306 moveto
-35.43306 212.59839 lineto
212.59839 212.59839 lineto
212.59839 -35.43306 lineto
 closepath clip
gsave newpath -35.43306 -35.43306 moveto
-35.43306 212.59839 lineto
212.59839 212.59839 lineto
212.59839 -35.43306 lineto
 closepath clip
gsave newpath -35.43306 -35.43306 moveto
-35.43306 212.59839 lineto
212.59839 212.59839 lineto
212.59839 -35.43306 lineto
 closepath clip
gsave newpath -35.43306 -35.43306 moveto
-35.43306 212.59839 lineto
212.59839 212.59839 lineto
212.59839 -35.43306 lineto
 closepath clip
gsave newpath -35.43306 -35.43306 moveto
-35.43306 212.59839 lineto
212.59839 212.59839 lineto
212.59839 -35.43306 lineto
 closepath clip
gsave newpath -35.43306 -35.43306 moveto
-35.43306 212.59839 lineto
212.59839 212.59839 lineto
212.59839 -35.43306 lineto
 closepath clip
gsave newpath -35.43306 -35.43306 moveto
-35.43306 212.59839 lineto
212.59839 212.59839 lineto
212.59839 -35.43306 lineto
 closepath clip
 1 1 1 setrgbcolor 0 0.5 dtransform truncate idtransform setlinewidth pop
 [3 3 ] 0 setdash 1 setlinecap 1 setlinejoin 10 setmiterlimit
newpath -170.07828 0 moveto
170.07828 0 lineto stroke
 [] 0 setdash
newpath 166.38115 -1.53143 moveto
170.07828 0 lineto
166.38115 1.53143 lineto
 closepath
gsave fill grestore stroke
 0.5 0 dtransform exch truncate exch idtransform pop setlinewidth
 [3 3 ] 0 setdash
newpath 0 -170.07828 moveto
0 170.07828 lineto stroke
 0 0.5 dtransform truncate idtransform setlinewidth pop [] 0 setdash
newpath 1.53143 166.38115 moveto
0 170.07828 lineto
-1.53143 166.38115 lineto
 closepath
gsave fill grestore stroke
 0 1 1 setrgbcolor [3 3 ] 0 setdash
newpath 141.73225 0 moveto
141.73225 37.5914 126.7969 73.63866 100.21779 100.21779 curveto
73.63866 126.7969 37.5914 141.73225 0 141.73225 curveto
-37.5914 141.73225 -73.63866 126.7969 -100.21779 100.21779 curveto
-126.7969 73.63866 -141.73225 37.5914 -141.73225 0 curveto
-141.73225 -37.5914 -126.7969 -73.63866 -100.21779 -100.21779 curveto
-73.63866 -126.7969 -37.5914 -141.73225 0 -141.73225 curveto
37.5914 -141.73225 73.63866 -126.7969 100.21779 -100.21779 curveto
126.7969 -73.63866 141.73225 -37.5914 141.73225 0 curveto closepath stroke
 1 1 1 setrgbcolor 0 1.2 dtransform truncate idtransform setlinewidth pop
 [] 0 setdash
newpath 0 0 moveto
128.4535 59.89926 lineto stroke
 1.2 0 dtransform exch truncate exch idtransform pop setlinewidth
newpath 128.4535 59.89926 moveto
128.4535 0 lineto stroke
 0 1.2 dtransform truncate idtransform setlinewidth pop
newpath 0 0 moveto
128.4535 0 lineto stroke
 0 0.5 dtransform truncate idtransform setlinewidth pop
newpath 28.34602 0 moveto
28.34602 4.139 27.43953 8.2278 25.69026 11.97899 curveto stroke
newpath 28.44145 9.07527 moveto
27.59612 10.10408 26.67715 11.0747 25.69026 11.97899 curveto
25.74866 10.64172 25.71208 9.30559 25.58232 7.98036 curveto
 closepath
gsave fill grestore stroke
newpath 123.4535 0 moveto
123.4535 5 lineto
128.4535 5 lineto stroke
 0 1.2 dtransform truncate idtransform setlinewidth pop
newpath 0 0 moveto
81.29448 116.10037 lineto stroke
 1.2 0 dtransform exch truncate exch idtransform pop setlinewidth
newpath 81.29448 116.10037 moveto
81.29448 0 lineto stroke
 0 1.2 dtransform truncate idtransform setlinewidth pop
newpath 0 0 moveto
81.29448 0 lineto stroke
 0 0.5 dtransform truncate idtransform setlinewidth pop
newpath 42.52011 0 moveto
42.52011 13.87265 35.75237 26.87296 24.38835 34.82968 curveto stroke
newpath 28.2484 33.7817 moveto
26.98553 34.18921 25.69777 34.53943 24.38835 34.82968 curveto
25.109 33.69855 25.77191 32.54028 26.37672 31.35915 curveto
 closepath
gsave fill grestore stroke
newpath 76.29448 0 moveto
76.29448 5 lineto
81.29448 5 lineto stroke
30.69026 3.84906 moveto
(a) eurm10 9.96265 fshow
33.45415 29.266 moveto
(b) eurm10 9.96265 fshow
-8.48128 -9.92038 moveto
(0) cmr10 9.96265 fshow
 0 3 dtransform truncate idtransform setlinewidth pop
newpath 0 0 moveto 0 0 rlineto stroke
145.23224 -10.38419 moveto
(I) eurm10 9.96265 fshow
newpath 141.73225 0 moveto 0 0 rlineto stroke
-7.50499 146.48753 moveto
(J) eurm10 9.96265 fshow
newpath 0 141.73225 moveto 0 0 rlineto stroke
 1 0.7 0.7 setrgbcolor
124.89185 -11.8842 moveto
(C) eurm10 9.96265 fshow
77.16992 -11.8842 moveto
(D) eurm10 9.96265 fshow
 1 1 1 setrgbcolor
131.95349 63.39925 moveto
(A) eurm10 9.96265 fshow
newpath 128.4535 59.89926 moveto 0 0 rlineto stroke
84.79446 119.60036 moveto
(B) eurm10 9.96265 fshow
newpath 81.29448 116.10037 moveto 0 0 rlineto stroke
grestore
grestore
grestore
grestore
grestore
grestore
grestore
grestore
grestore
grestore
grestore
grestore
grestore
showpage
%%EOF
