<?xml version="1.0" encoding="UTF-8"?>
<svg xmlns="http://www.w3.org/2000/svg" xmlns:xlink="http://www.w3.org/1999/xlink" width="205.7613pt" height="205.7613pt" viewBox="0 0 205.7613 205.7613" version="1.1">
<defs>
<g>
<symbol overflow="visible" id="glyph0-0">
<path style="stroke:none;" d=""/>
</symbol>
<symbol overflow="visible" id="glyph0-1">
<path style="stroke:none;" d="M 5.046875 -5.515625 C 5.015625 -5.546875 5 -5.546875 4.96875 -5.546875 C 4.9375 -5.546875 4.90625 -5.546875 4.90625 -5.515625 C 4.375 -4.90625 3.671875 -4.078125 3.234375 -3.5 L 3.171875 -3.515625 C 2.828125 -4.1875 2.328125 -5.046875 2.078125 -5.3125 C 1.90625 -5.5 1.640625 -5.546875 1.4375 -5.546875 C 1.046875 -5.546875 0.4375 -5.109375 0.03125 -4.78125 L 0.1875 -4.5625 C 0.40625 -4.703125 0.703125 -4.859375 0.953125 -4.859375 C 1.546875 -4.859375 2.109375 -3.578125 2.5625 -2.671875 C 1.984375 -1.90625 1.390625 -1.078125 0.875 -0.25 L 0.875 -0.15625 L 1.203125 0.140625 L 1.40625 0.09375 C 1.75 -0.828125 2.234375 -1.5625 2.703125 -2.28125 L 2.78125 -2.28125 C 3.578125 -0.734375 3.984375 0.140625 4.59375 0.140625 C 5.09375 0.140625 5.703125 -0.53125 6.125 -0.984375 L 6.03125 -1.203125 L 5.921875 -1.203125 C 5.6875 -1 5.359375 -0.75 5.078125 -0.75 C 4.546875 -0.75 3.84375 -2.015625 3.359375 -3.09375 C 3.984375 -3.828125 4.75 -4.609375 5.421875 -5.0625 C 5.4375 -5.078125 5.453125 -5.09375 5.453125 -5.125 C 5.453125 -5.140625 5.421875 -5.15625 5.421875 -5.171875 Z M 5.046875 -5.515625 "/>
</symbol>
<symbol overflow="visible" id="glyph0-2">
<path style="stroke:none;" d="M 4.140625 0.015625 L 4.15625 -0.28125 C 4.140625 -0.28125 3.640625 -0.40625 3.375 -0.484375 C 2.875 -0.609375 3.015625 -1.5 3 -2.015625 C 2.984375 -2.75 2.96875 -3.484375 2.96875 -4.296875 C 2.96875 -5.21875 2.90625 -6.640625 3.015625 -7.34375 C 3.03125 -7.5 3.125 -7.625 3.28125 -7.65625 L 4.078125 -7.84375 L 4.078125 -8.09375 L 4 -8.15625 L 1.015625 -8.15625 L 0.9375 -8.09375 L 0.9375 -7.828125 C 1.890625 -7.609375 1.96875 -7.671875 2 -7.3125 C 2.03125 -6.859375 2.03125 -6.40625 2.03125 -5.9375 L 2.03125 -1.609375 C 1.984375 -0.609375 2.140625 -0.53125 0.96875 -0.296875 L 0.96875 0.015625 Z M 4.140625 0.015625 "/>
</symbol>
<symbol overflow="visible" id="glyph0-3">
<path style="stroke:none;" d="M 3.109375 -7.265625 C 3.109375 -7.484375 3.21875 -7.6875 3.359375 -7.71875 L 4.171875 -7.890625 L 4.203125 -8.171875 L 4.109375 -8.25 L 1.125 -8.25 L 1.046875 -8.171875 L 1.046875 -7.921875 L 1.90625 -7.703125 C 2.046875 -7.671875 2.09375 -7.40625 2.09375 -7.265625 L 2.09375 -1.140625 C 2.09375 1.265625 1.53125 2 0.59375 2.578125 L 0.765625 2.796875 C 2.359375 1.96875 3.109375 0.765625 3.109375 -1.09375 Z M 3.109375 -7.265625 "/>
</symbol>
<symbol overflow="visible" id="glyph0-4">
<path style="stroke:none;" d="M 7.34375 -6.3125 L 8.03125 -7 C 7.40625 -8.015625 6.5 -8.359375 5.453125 -8.359375 C 4.203125 -8.359375 3 -7.921875 2.125 -7.046875 C 1.296875 -6.21875 1.046875 -5.046875 1.046875 -3.890625 C 1.046875 -2.71875 1.34375 -1.546875 2.1875 -0.703125 C 2.875 -0.03125 3.84375 0.171875 4.796875 0.171875 C 5.828125 0.171875 6.796875 -0.328125 7.65625 -0.90625 L 7.453125 -1.25 C 6.78125 -0.796875 6.03125 -0.453125 5.21875 -0.453125 C 4.234375 -0.453125 3.734375 -0.78125 3.078125 -1.453125 C 2.671875 -1.84375 2.109375 -3.015625 2.109375 -4.109375 C 2.109375 -5.921875 2.875 -7.859375 5.046875 -7.859375 C 6.03125 -7.859375 6.78125 -7.40625 7.1875 -6.328125 Z M 7.34375 -6.3125 "/>
</symbol>
<symbol overflow="visible" id="glyph0-5">
<path style="stroke:none;" d="M 9.5625 -8.25 L 6.265625 -1.75 C 6.234375 -1.703125 6.171875 -1.65625 6.125 -1.65625 C 6.078125 -1.65625 6.015625 -1.765625 5.984375 -1.8125 C 5 -3.9375 3.875 -6.328125 3.21875 -8.25 L 1.109375 -8.25 L 1.03125 -8.15625 L 1 -7.90625 L 1.8125 -7.671875 C 2.03125 -7.609375 2.15625 -7.421875 2.15625 -7.203125 C 2.15625 -7.15625 2.15625 -7.109375 2.140625 -7.0625 C 1.8125 -4.703125 1.40625 -2.34375 0.9375 0 L 1.03125 0.03125 L 1.921875 -0.28125 C 2.015625 -1.34375 2.421875 -6.546875 2.671875 -6.546875 C 2.71875 -6.546875 2.765625 -6.484375 2.796875 -6.4375 C 3.546875 -4.90625 4.671875 -2.15625 5.5625 -0.015625 L 5.921875 -0.015625 L 9.34375 -6.640625 C 9.390625 -6.6875 9.4375 -6.734375 9.484375 -6.734375 C 9.53125 -6.734375 9.578125 -6.640625 9.578125 -6.546875 C 9.59375 -5.765625 9.6875 -2.828125 9.6875 -2.515625 L 9.6875 -0.34375 C 9.6875 -0.03125 10.09375 0.078125 10.453125 0.078125 C 10.921875 0.078125 11.546875 -0.140625 12.078125 -0.328125 L 12.078125 -0.625 C 11.859375 -0.59375 11.5625 -0.546875 11.40625 -0.546875 C 11.015625 -0.546875 10.75 -0.875 10.703125 -1.21875 C 10.5 -3.171875 10.5 -5.015625 10.5 -6.96875 C 10.5 -7.5 10.46875 -7.9375 10.796875 -8.109375 L 10.796875 -8.25 Z M 9.5625 -8.25 "/>
</symbol>
<symbol overflow="visible" id="glyph1-0">
<path style="stroke:none;" d=""/>
</symbol>
<symbol overflow="visible" id="glyph1-1">
<path style="stroke:none;" d="M 6.265625 -4.0625 C 6.265625 -5.5 5.734375 -8.28125 3.390625 -8.28125 C 1.0625 -8.28125 0.515625 -5.5 0.515625 -4.0625 C 0.515625 -2.5625 1.0625 0.171875 3.390625 0.171875 C 5.734375 0.171875 6.265625 -2.5625 6.265625 -4.0625 Z M 5.046875 -4.0625 C 5.046875 -3.078125 5.015625 -0.140625 3.390625 -0.140625 C 1.765625 -0.140625 1.75 -3.0625 1.75 -4.0625 C 1.75 -4.890625 1.765625 -7.953125 3.390625 -7.953125 C 5.015625 -7.953125 5.046875 -4.890625 5.046875 -4.0625 Z M 5.046875 -4.0625 "/>
</symbol>
<symbol overflow="visible" id="glyph2-0">
<path style="stroke:none;" d=""/>
</symbol>
<symbol overflow="visible" id="glyph2-1">
<path style="stroke:none;" d="M 4.328125 -1.5 L 4.171875 -1.59375 C 3.828125 -1.078125 3.453125 -0.640625 2.71875 -0.640625 C 1.859375 -0.640625 1.15625 -1.40625 1.15625 -2.59375 C 1.15625 -4.09375 2.09375 -4.359375 2.46875 -4.390625 C 2.84375 -4.4375 3.203125 -4.265625 3.265625 -3.96875 C 3.34375 -3.703125 3.21875 -3.546875 3.125 -3.4375 C 3.21875 -3.375 3.375 -3.1875 3.671875 -3.1875 C 4.09375 -3.21875 4.1875 -3.765625 4.015625 -4.09375 C 3.890625 -4.359375 3.609375 -4.703125 2.65625 -4.703125 C 1.546875 -4.71875 0.375 -3.84375 0.375 -2.171875 C 0.375 -0.5625 1.46875 0.09375 2.28125 0.09375 C 3.109375 0.09375 3.765625 -0.34375 4.328125 -1.5 Z M 4.328125 -1.5 "/>
</symbol>
<symbol overflow="visible" id="glyph2-2">
<path style="stroke:none;" d="M 4.984375 -2.25 C 4.984375 -3.859375 4 -4.625 2.65625 -4.65625 C 1.109375 -4.6875 0.359375 -3.65625 0.375 -2.34375 C 0.40625 -0.90625 1.3125 0.125 2.625 0.140625 C 4.171875 0.171875 5 -1.078125 4.984375 -2.25 Z M 4 -1.953125 C 3.96875 -0.5 3.296875 -0.140625 2.765625 -0.125 C 1.484375 -0.125 1.28125 -1.953125 1.359375 -2.78125 C 1.46875 -3.84375 1.9375 -4.375 2.59375 -4.359375 C 3.53125 -4.359375 4.03125 -3.234375 4 -1.953125 Z M 4 -1.953125 "/>
</symbol>
<symbol overflow="visible" id="glyph2-3">
<path style="stroke:none;" d="M 3.875 -1.1875 C 3.875 -1.796875 3.53125 -2.203125 3.015625 -2.453125 C 2.4375 -2.75 1.296875 -3.0625 1.265625 -3.6875 C 1.234375 -4.171875 1.59375 -4.46875 2.34375 -4.4375 C 2.78125 -4.421875 3.328125 -4.03125 3.40625 -3.21875 L 3.65625 -3.21875 L 3.609375 -4.703125 L 3.40625 -4.703125 C 3.40625 -4.703125 3.375 -4.515625 3.296875 -4.515625 C 3.109375 -4.515625 2.796875 -4.703125 2.359375 -4.734375 C 1.234375 -4.78125 0.5 -4.28125 0.5 -3.484375 C 0.484375 -2.6875 1.171875 -2.328125 1.890625 -2.015625 L 2.640625 -1.609375 C 2.984375 -1.453125 3.15625 -1.171875 3.15625 -0.84375 C 3.15625 -0.265625 2.703125 -0.140625 2.359375 -0.140625 C 1.34375 -0.140625 0.875 -0.96875 0.796875 -1.515625 L 0.5625 -1.53125 L 0.65625 0.078125 L 0.859375 0.078125 C 0.921875 -0.015625 0.9375 -0.0625 1.0625 -0.046875 C 1.375 0 1.9375 0.125 2.390625 0.125 C 3.109375 0.140625 3.875 -0.296875 3.875 -1.1875 Z M 3.875 -1.1875 "/>
</symbol>
<symbol overflow="visible" id="glyph3-0">
<path style="stroke:none;" d=""/>
</symbol>
<symbol overflow="visible" id="glyph3-1">
<path style="stroke:none;" d="M 3 1.625 C 1.71875 1.375 1.640625 -1.046875 1.640625 -2.734375 C 1.640625 -4.234375 1.734375 -6.765625 3 -7.09375 L 3 -7.359375 C 1.96875 -7.171875 1.515625 -6.046875 1.328125 -5.078125 C 1.171875 -4.34375 1.125 -3.5625 1.125 -2.796875 C 1.125 -1.984375 1.171875 -1.171875 1.3125 -0.375 C 1.46875 0.5625 1.953125 1.78125 3 1.859375 Z M 3 1.625 "/>
</symbol>
<symbol overflow="visible" id="glyph3-2">
<path style="stroke:none;" d="M 0.859375 -7.0625 C 1.671875 -6.78125 1.890625 -5.84375 2.046875 -5.09375 C 2.1875 -4.328125 2.234375 -3.53125 2.234375 -2.75 C 2.234375 -1.609375 2.25 -0.40625 1.890625 0.671875 C 1.6875 1.265625 1.3125 1.53125 0.859375 1.640625 L 0.859375 1.890625 C 2.640625 1.65625 2.75 -1 2.75 -2.71875 C 2.75 -4.375 2.546875 -6.984375 0.859375 -7.34375 Z M 0.859375 -7.0625 "/>
</symbol>
<symbol overflow="visible" id="glyph4-0">
<path style="stroke:none;" d=""/>
</symbol>
<symbol overflow="visible" id="glyph4-1">
<path style="stroke:none;" d="M 4.203125 -4.609375 C 4.1875 -4.625 4.171875 -4.625 4.140625 -4.625 C 4.109375 -4.625 4.09375 -4.625 4.09375 -4.609375 C 3.65625 -4.09375 3.0625 -3.40625 2.703125 -2.921875 L 2.640625 -2.9375 C 2.359375 -3.484375 1.9375 -4.203125 1.734375 -4.4375 C 1.59375 -4.578125 1.359375 -4.625 1.203125 -4.625 C 0.875 -4.625 0.375 -4.25 0.015625 -3.984375 L 0.15625 -3.8125 C 0.34375 -3.921875 0.59375 -4.0625 0.796875 -4.0625 C 1.28125 -4.0625 1.765625 -2.984375 2.140625 -2.21875 C 1.65625 -1.578125 1.15625 -0.890625 0.734375 -0.203125 L 0.734375 -0.125 L 1 0.125 L 1.171875 0.078125 C 1.46875 -0.6875 1.859375 -1.3125 2.25 -1.90625 L 2.328125 -1.90625 C 2.984375 -0.625 3.3125 0.125 3.828125 0.125 C 4.25 0.125 4.75 -0.4375 5.109375 -0.8125 L 5.03125 -1 L 4.9375 -1 C 4.75 -0.84375 4.46875 -0.625 4.234375 -0.625 C 3.796875 -0.625 3.203125 -1.6875 2.796875 -2.578125 C 3.3125 -3.1875 3.953125 -3.84375 4.515625 -4.234375 C 4.53125 -4.234375 4.546875 -4.25 4.546875 -4.28125 C 4.546875 -4.28125 4.53125 -4.3125 4.515625 -4.3125 Z M 4.203125 -4.609375 "/>
</symbol>
<symbol overflow="visible" id="glyph5-0">
<path style="stroke:none;" d=""/>
</symbol>
<symbol overflow="visible" id="glyph5-1">
<path style="stroke:none;" d="M -1.1875 -3.875 C -1.796875 -3.875 -2.203125 -3.53125 -2.453125 -3.015625 C -2.75 -2.4375 -3.0625 -1.296875 -3.6875 -1.265625 C -4.171875 -1.234375 -4.46875 -1.59375 -4.4375 -2.34375 C -4.421875 -2.78125 -4.03125 -3.328125 -3.21875 -3.40625 L -3.21875 -3.65625 L -4.703125 -3.609375 L -4.703125 -3.40625 C -4.703125 -3.40625 -4.515625 -3.375 -4.515625 -3.296875 C -4.515625 -3.109375 -4.703125 -2.796875 -4.734375 -2.359375 C -4.78125 -1.234375 -4.28125 -0.5 -3.484375 -0.5 C -2.6875 -0.484375 -2.328125 -1.171875 -2.015625 -1.890625 L -1.609375 -2.640625 C -1.453125 -2.984375 -1.171875 -3.15625 -0.84375 -3.15625 C -0.265625 -3.15625 -0.140625 -2.703125 -0.140625 -2.359375 C -0.140625 -1.34375 -0.96875 -0.875 -1.515625 -0.796875 L -1.53125 -0.5625 L 0.078125 -0.65625 L 0.078125 -0.859375 C -0.015625 -0.921875 -0.0625 -0.9375 -0.046875 -1.0625 C 0 -1.375 0.125 -1.9375 0.125 -2.390625 C 0.140625 -3.109375 -0.296875 -3.875 -1.1875 -3.875 Z M -1.1875 -3.875 "/>
</symbol>
<symbol overflow="visible" id="glyph5-2">
<path style="stroke:none;" d="M -6.34375 -1.890625 C -6.671875 -1.890625 -6.9375 -1.625 -6.9375 -1.3125 C -6.9375 -0.984375 -6.671875 -0.71875 -6.34375 -0.71875 C -6.03125 -0.71875 -5.765625 -0.984375 -5.765625 -1.3125 C -5.765625 -1.625 -6.03125 -1.890625 -6.34375 -1.890625 Z M -1.4375 -3.03125 L -1.515625 -2.78125 C -0.953125 -2.59375 -0.484375 -2.359375 -0.515625 -2.015625 C -0.5625 -1.53125 -1.203125 -1.625 -1.90625 -1.625 C -2.953125 -1.625 -4.109375 -1.75 -4.765625 -1.8125 C -4.625 -1.40625 -4.671875 -0.546875 -4.703125 -0.4375 L -4.421875 -0.4375 C -4.421875 -0.65625 -4.359375 -0.84375 -4.234375 -0.90625 C -4.03125 -0.96875 -3.140625 -0.890625 -2.453125 -0.875 C -1.53125 -0.84375 -0.84375 -0.875 -0.421875 -1 C 0.03125 -1.15625 0.125 -1.484375 0.125 -1.78125 C 0.125 -2.078125 -0.046875 -2.625 -1.4375 -3.03125 Z M -1.4375 -3.03125 "/>
</symbol>
<symbol overflow="visible" id="glyph5-3">
<path style="stroke:none;" d="M -1.390625 -5.71875 L -1.5 -5.484375 C -1.34375 -5.4375 -0.515625 -5.203125 -0.5 -4.703125 C -0.484375 -4.359375 -0.671875 -4.375 -2.078125 -4.46875 C -4.109375 -4.578125 -4.8125 -4.59375 -4.734375 -3.515625 C -4.671875 -2.859375 -3.78125 -1.921875 -3.421875 -1.6875 C -3.609375 -1.6875 -4.28125 -1.6875 -4.71875 -1.78125 C -4.578125 -1.390625 -4.625 -0.515625 -4.671875 -0.375 L -4.390625 -0.375 C -4.390625 -0.59375 -4.359375 -0.796875 -4.203125 -0.84375 C -4 -0.921875 -3.09375 -0.953125 -2.40625 -0.953125 C -1.703125 -0.953125 -0.203125 -0.84375 0.015625 -0.796875 C -0.0625 -1 -0.046875 -1.59375 0 -1.71875 C -0.921875 -1.6875 -1.84375 -1.625 -3.0625 -1.6875 C -3.0625 -1.6875 -4.328125 -2.625 -4.09375 -3.453125 C -4.03125 -3.65625 -3.640625 -3.734375 -2.5625 -3.703125 C -1.578125 -3.65625 -0.609375 -3.46875 -0.140625 -3.75 C 0.09375 -3.921875 0.171875 -4.265625 0.15625 -4.453125 C 0.140625 -4.625 0.21875 -5.203125 -1.390625 -5.71875 Z M -1.390625 -5.71875 "/>
</symbol>
<symbol overflow="visible" id="glyph6-0">
<path style="stroke:none;" d=""/>
</symbol>
<symbol overflow="visible" id="glyph6-1">
<path style="stroke:none;" d="M 1.625 -3 C 1.375 -1.71875 -1.046875 -1.640625 -2.734375 -1.640625 C -4.234375 -1.640625 -6.765625 -1.734375 -7.09375 -3 L -7.359375 -3 C -7.171875 -1.96875 -6.046875 -1.515625 -5.078125 -1.328125 C -4.34375 -1.171875 -3.5625 -1.125 -2.796875 -1.125 C -1.984375 -1.125 -1.171875 -1.171875 -0.375 -1.3125 C 0.5625 -1.46875 1.78125 -1.953125 1.859375 -3 Z M 1.625 -3 "/>
</symbol>
<symbol overflow="visible" id="glyph6-2">
<path style="stroke:none;" d="M -7.0625 -0.859375 C -6.78125 -1.671875 -5.84375 -1.890625 -5.09375 -2.046875 C -4.328125 -2.1875 -3.53125 -2.234375 -2.75 -2.234375 C -1.609375 -2.234375 -0.40625 -2.25 0.671875 -1.890625 C 1.265625 -1.6875 1.53125 -1.3125 1.640625 -0.859375 L 1.890625 -0.859375 C 1.65625 -2.640625 -1 -2.75 -2.71875 -2.75 C -4.375 -2.75 -6.984375 -2.546875 -7.34375 -0.859375 Z M -7.0625 -0.859375 "/>
</symbol>
<symbol overflow="visible" id="glyph7-0">
<path style="stroke:none;" d=""/>
</symbol>
<symbol overflow="visible" id="glyph7-1">
<path style="stroke:none;" d="M -4.609375 -4.203125 C -4.625 -4.1875 -4.625 -4.171875 -4.625 -4.140625 C -4.625 -4.109375 -4.625 -4.09375 -4.609375 -4.09375 C -4.09375 -3.65625 -3.40625 -3.0625 -2.921875 -2.703125 L -2.9375 -2.640625 C -3.484375 -2.359375 -4.203125 -1.9375 -4.4375 -1.734375 C -4.578125 -1.59375 -4.625 -1.359375 -4.625 -1.203125 C -4.625 -0.875 -4.25 -0.375 -3.984375 -0.015625 L -3.8125 -0.15625 C -3.921875 -0.34375 -4.0625 -0.59375 -4.0625 -0.796875 C -4.0625 -1.28125 -2.984375 -1.765625 -2.21875 -2.140625 C -1.578125 -1.65625 -0.890625 -1.15625 -0.203125 -0.734375 L -0.125 -0.734375 L 0.125 -1 L 0.078125 -1.171875 C -0.6875 -1.46875 -1.3125 -1.859375 -1.90625 -2.25 L -1.90625 -2.328125 C -0.625 -2.984375 0.125 -3.3125 0.125 -3.828125 C 0.125 -4.25 -0.4375 -4.75 -0.8125 -5.109375 L -1 -5.03125 L -1 -4.9375 C -0.84375 -4.75 -0.625 -4.46875 -0.625 -4.234375 C -0.625 -3.796875 -1.6875 -3.203125 -2.578125 -2.796875 C -3.1875 -3.3125 -3.84375 -3.953125 -4.234375 -4.515625 C -4.234375 -4.53125 -4.25 -4.546875 -4.28125 -4.546875 C -4.28125 -4.546875 -4.3125 -4.53125 -4.3125 -4.515625 Z M -4.609375 -4.203125 "/>
</symbol>
<symbol overflow="visible" id="glyph8-0">
<path style="stroke:none;" d=""/>
</symbol>
<symbol overflow="visible" id="glyph8-1">
<path style="stroke:none;" d="M 3.03125 -2.515625 L 2.8125 -2.765625 C 2.5 -2.515625 2.171875 -2.375 1.78125 -2.4375 C 1.453125 -2.484375 0.328125 -3.921875 -0.546875 -5 C -1.421875 -6.046875 -2.75 -7.734375 -2.75 -7.734375 C -2.890625 -7.265625 -3.46875 -5.6875 -3.6875 -5.3125 L -3.46875 -5.0625 L -2.796875 -6.09375 C -2.796875 -6.09375 -1.671875 -4.75 -0.953125 -3.90625 C -0.234375 -3.03125 0.78125 -1.921875 0.765625 -1.578125 C 0.78125 -1.21875 0.578125 -0.90625 0.28125 -0.640625 L 0.46875 -0.421875 C 0.546875 -0.53125 1.53125 -1.40625 1.640625 -1.5 C 1.765625 -1.609375 2.875 -2.46875 3.03125 -2.515625 Z M 3.03125 -2.515625 "/>
</symbol>
</g>
<clipPath id="clip1">
  <path d="M 0 170 L 205.761719 170 L 205.761719 171 L 0 171 Z M 0 170 "/>
</clipPath>
<clipPath id="clip2">
  <path d="M 201 168 L 205.761719 168 L 205.761719 172 L 201 172 Z M 201 168 "/>
</clipPath>
<clipPath id="clip3">
  <path d="M 201 168 L 205.761719 168 L 205.761719 173 L 201 173 Z M 201 168 "/>
</clipPath>
<clipPath id="clip4">
  <path d="M 35 0 L 36 0 L 36 205.761719 L 35 205.761719 Z M 35 0 "/>
</clipPath>
<clipPath id="clip5">
  <path d="M 0 28 L 178 28 L 178 205.761719 L 0 205.761719 Z M 0 28 "/>
</clipPath>
</defs>
<g id="surface1">
<g clip-path="url(#clip1)" clip-rule="nonzero">
<path style="fill:none;stroke-width:0.5;stroke-linecap:round;stroke-linejoin:round;stroke:rgb(100%,100%,100%);stroke-opacity:1;stroke-dasharray:3,3;stroke-miterlimit:10;" d="M -170.077591 0.000115 L 170.078659 0.000115 " transform="matrix(1,0,0,-1,35.43306,170.32824)"/>
</g>
<g clip-path="url(#clip2)" clip-rule="nonzero">
<path style=" stroke:none;fill-rule:nonzero;fill:rgb(100%,100%,100%);fill-opacity:1;" d="M 201.8125 171.859375 L 205.511719 170.328125 L 201.8125 168.796875 Z M 201.8125 171.859375 "/>
</g>
<g clip-path="url(#clip3)" clip-rule="nonzero">
<path style="fill:none;stroke-width:0.5;stroke-linecap:round;stroke-linejoin:round;stroke:rgb(100%,100%,100%);stroke-opacity:1;stroke-miterlimit:10;" d="M 166.37944 -1.531135 L 170.078659 0.000115 L 166.37944 1.531365 Z M 166.37944 -1.531135 " transform="matrix(1,0,0,-1,35.43306,170.32824)"/>
</g>
<g clip-path="url(#clip4)" clip-rule="nonzero">
<path style="fill:none;stroke-width:0.5;stroke-linecap:round;stroke-linejoin:round;stroke:rgb(100%,100%,100%);stroke-opacity:1;stroke-dasharray:3,3;stroke-miterlimit:10;" d="M 0.00053375 -170.07801 L 0.00053375 170.07824 " transform="matrix(1,0,0,-1,35.43306,170.32824)"/>
</g>
<path style="fill-rule:nonzero;fill:rgb(100%,100%,100%);fill-opacity:1;stroke-width:0.5;stroke-linecap:round;stroke-linejoin:round;stroke:rgb(100%,100%,100%);stroke-opacity:1;stroke-miterlimit:10;" d="M 1.531784 166.382927 L 0.00053375 170.07824 L -1.530716 166.382927 Z M 1.531784 166.382927 " transform="matrix(1,0,0,-1,35.43306,170.32824)"/>
<g clip-path="url(#clip5)" clip-rule="nonzero">
<path style="fill:none;stroke-width:0.5;stroke-linecap:round;stroke-linejoin:round;stroke:rgb(0%,100%,100%);stroke-opacity:1;stroke-dasharray:3,3;stroke-miterlimit:10;" d="M 141.731002 0.000115 C 141.731002 37.589959 126.797409 73.636834 100.219284 100.218865 C 73.637253 126.79699 37.590378 141.730584 0.00053375 141.730584 C -37.593216 141.730584 -73.640091 126.79699 -100.218216 100.218865 C -126.796341 73.636834 -141.733841 37.589959 -141.733841 0.000115 C -141.733841 -37.589729 -126.796341 -73.64051 -100.218216 -100.218635 C -73.640091 -126.79676 -37.593216 -141.730354 0.00053375 -141.730354 C 37.590378 -141.730354 73.637253 -126.79676 100.219284 -100.218635 C 126.797409 -73.64051 141.731002 -37.589729 141.731002 0.000115 Z M 141.731002 0.000115 " transform="matrix(1,0,0,-1,35.43306,170.32824)"/>
</g>
<path style="fill:none;stroke-width:1.2;stroke-linecap:round;stroke-linejoin:round;stroke:rgb(100%,100%,100%);stroke-opacity:1;stroke-miterlimit:10;" d="M 0.00053375 0.000115 L 108.570846 91.105584 " transform="matrix(1,0,0,-1,35.43306,170.32824)"/>
<path style="fill:none;stroke-width:1.2;stroke-linecap:round;stroke-linejoin:round;stroke:rgb(100%,100%,100%);stroke-opacity:1;stroke-miterlimit:10;" d="M 108.570846 91.105584 L 108.570846 0.000115 " transform="matrix(1,0,0,-1,35.43306,170.32824)"/>
<path style="fill:none;stroke-width:1.2;stroke-linecap:round;stroke-linejoin:round;stroke:rgb(100%,100%,100%);stroke-opacity:1;stroke-miterlimit:10;" d="M 0.00053375 0.000115 L 108.570846 0.000115 " transform="matrix(1,0,0,-1,35.43306,170.32824)"/>
<path style="fill:none;stroke-width:0.5;stroke-linecap:round;stroke-linejoin:round;stroke:rgb(100%,100%,100%);stroke-opacity:1;stroke-miterlimit:10;" d="M 28.344284 0.000115 C 28.344284 6.664177 25.996628 13.117302 21.711471 18.218865 " transform="matrix(1,0,0,-1,35.43306,170.32824)"/>
<path style="fill-rule:nonzero;fill:rgb(100%,100%,100%);fill-opacity:1;stroke-width:0.5;stroke-linecap:round;stroke-linejoin:round;stroke:rgb(100%,100%,100%);stroke-opacity:1;stroke-miterlimit:10;" d="M 25.121628 16.129021 C 24.043503 16.902459 22.902878 17.601677 21.711471 18.218865 C 22.117721 16.941521 22.426315 15.64074 22.645065 14.332146 Z M 25.121628 16.129021 " transform="matrix(1,0,0,-1,35.43306,170.32824)"/>
<path style="fill:none;stroke-width:0.5;stroke-linecap:round;stroke-linejoin:round;stroke:rgb(0%,0%,0%);stroke-opacity:1;stroke-miterlimit:10;" d="M 103.570846 0.000115 L 103.570846 5.000115 L 108.570846 5.000115 " transform="matrix(1,0,0,-1,35.43306,170.32824)"/>
<g style="fill:rgb(100%,100%,100%);fill-opacity:1;">
  <use xlink:href="#glyph0-1" x="62.14616" y="163.37754"/>
</g>
<g style="fill:rgb(100%,100%,100%);fill-opacity:1;">
  <use xlink:href="#glyph1-1" x="25.14946" y="182.11144"/>
</g>
<path style="fill:none;stroke-width:3;stroke-linecap:round;stroke-linejoin:round;stroke:rgb(100%,100%,100%);stroke-opacity:1;stroke-miterlimit:10;" d="M 0.00053375 0.000115 L 0.00053375 0.000115 " transform="matrix(1,0,0,-1,35.43306,170.32824)"/>
<g style="fill:rgb(100%,100%,100%);fill-opacity:1;">
  <use xlink:href="#glyph0-2" x="180.66526" y="182.09414"/>
</g>
<path style="fill:none;stroke-width:3;stroke-linecap:round;stroke-linejoin:round;stroke:rgb(100%,100%,100%);stroke-opacity:1;stroke-miterlimit:10;" d="M 141.731002 0.000115 L 141.731002 0.000115 " transform="matrix(1,0,0,-1,35.43306,170.32824)"/>
<g style="fill:rgb(100%,100%,100%);fill-opacity:1;">
  <use xlink:href="#glyph0-3" x="27.12526" y="23.58924"/>
</g>
<path style="fill:none;stroke-width:3;stroke-linecap:round;stroke-linejoin:round;stroke:rgb(100%,100%,100%);stroke-opacity:1;stroke-miterlimit:10;" d="M 0.00053375 141.730584 L 0.00053375 141.730584 " transform="matrix(1,0,0,-1,35.43306,170.32824)"/>
<g style="fill:rgb(100%,69.999695%,69.999695%);fill-opacity:1;">
  <use xlink:href="#glyph0-4" x="139.73336" y="183.59414"/>
</g>
<g style="fill:rgb(100%,100%,100%);fill-opacity:1;">
  <use xlink:href="#glyph0-5" x="147.50516" y="75.72394"/>
</g>
<path style="fill:none;stroke-width:3;stroke-linecap:round;stroke-linejoin:round;stroke:rgb(100%,100%,100%);stroke-opacity:1;stroke-miterlimit:10;" d="M 108.570846 91.105584 L 108.570846 91.105584 " transform="matrix(1,0,0,-1,35.43306,170.32824)"/>
<g style="fill:rgb(100%,100%,100%);fill-opacity:1;">
  <use xlink:href="#glyph2-1" x="76.15286" y="178.48644"/>
  <use xlink:href="#glyph2-2" x="80.653741" y="178.48644"/>
  <use xlink:href="#glyph2-3" x="86.023556" y="178.48644"/>
</g>
<g style="fill:rgb(100%,100%,100%);fill-opacity:1;">
  <use xlink:href="#glyph3-1" x="90.29996" y="178.48644"/>
</g>
<g style="fill:rgb(100%,100%,100%);fill-opacity:1;">
  <use xlink:href="#glyph4-1" x="94.17186" y="178.48644"/>
</g>
<g style="fill:rgb(100%,100%,100%);fill-opacity:1;">
  <use xlink:href="#glyph3-2" x="99.41336" y="178.48644"/>
</g>
<g style="fill:rgb(100%,100%,100%);fill-opacity:1;">
  <use xlink:href="#glyph5-1" x="152.16338" y="137.90298"/>
  <use xlink:href="#glyph5-2" x="152.16338" y="133.626655"/>
  <use xlink:href="#glyph5-3" x="152.16338" y="130.473109"/>
</g>
<g style="fill:rgb(100%,100%,100%);fill-opacity:1;">
  <use xlink:href="#glyph6-1" x="152.16338" y="124.63458"/>
</g>
<g style="fill:rgb(100%,100%,100%);fill-opacity:1;">
  <use xlink:href="#glyph7-1" x="152.16338" y="120.76267"/>
</g>
<g style="fill:rgb(100%,100%,100%);fill-opacity:1;">
  <use xlink:href="#glyph6-2" x="152.16338" y="115.52117"/>
</g>
<g style="fill:rgb(100%,100%,100%);fill-opacity:1;">
  <use xlink:href="#glyph8-1" x="86.8532" y="124.67872"/>
</g>
</g>
</svg>
