%!PS
%%BoundingBox: -36 -36 171 171 
%%HiResBoundingBox: -35.43306 -35.43306 170.32828 170.32828 
%%Creator: MetaPost 2.02
%%CreationDate: 2024.01.06:1112
%%Pages: 1
%*Font: cmr10 9.96265 9.96265 2c:ae4000000000010431
%*Font: eurm10 9.96265 9.96265 19:800000000020c80000000001
%*Font: eurm7 7.97008 6.97385 19:800000000000000000000001
%*Font: cmr8 7.97011 7.97011 63:82188
%*Font: eufm7 7.97008 6.97385 28:c
%*Font: cmr9 8.96634 8.96637 31:8
%%BeginProlog
%%EndProlog
%%Page: 1 1
gsave newpath -35.43306 -35.43306 moveto
-35.43306 212.59839 lineto
212.59839 212.59839 lineto
212.59839 -35.43306 lineto
 closepath clip
 1 1 1 setrgbcolor 0 0.5 dtransform truncate idtransform setlinewidth pop
 [3 3 ] 0 setdash 1 setlinecap 1 setlinejoin 10 setmiterlimit
newpath -170.07828 0 moveto
170.07828 0 lineto stroke
 [] 0 setdash
newpath 166.38115 -1.53143 moveto
170.07828 0 lineto
166.38115 1.53143 lineto
 closepath
gsave fill grestore stroke
 0.5 0 dtransform exch truncate exch idtransform pop setlinewidth
 [3 3 ] 0 setdash
newpath 0 -170.07828 moveto
0 170.07828 lineto stroke
 0 0.5 dtransform truncate idtransform setlinewidth pop [] 0 setdash
newpath 1.53143 166.38115 moveto
0 170.07828 lineto
-1.53143 166.38115 lineto
 closepath
gsave fill grestore stroke
 0 1 1 setrgbcolor [3 3 ] 0 setdash
newpath 141.73225 0 moveto
141.73225 37.5914 126.7969 73.63866 100.21779 100.21779 curveto
73.63866 126.7969 37.5914 141.73225 0 141.73225 curveto
-37.5914 141.73225 -73.63866 126.7969 -100.21779 100.21779 curveto
-126.7969 73.63866 -141.73225 37.5914 -141.73225 0 curveto
-141.73225 -37.5914 -126.7969 -73.63866 -100.21779 -100.21779 curveto
-73.63866 -126.7969 -37.5914 -141.73225 0 -141.73225 curveto
37.5914 -141.73225 73.63866 -126.7969 100.21779 -100.21779 curveto
126.7969 -73.63866 141.73225 -37.5914 141.73225 0 curveto closepath stroke
 1 1 1 setrgbcolor 0 1.2 dtransform truncate idtransform setlinewidth pop
 [] 0 setdash
newpath 0 0 moveto
108.57214 91.10432 lineto stroke
 1.2 0 dtransform exch truncate exch idtransform pop setlinewidth
newpath 108.57214 91.10432 moveto
108.57214 0 lineto stroke
 0 1.2 dtransform truncate idtransform setlinewidth pop
newpath 0 0 moveto
108.57214 0 lineto stroke
 0 0.5 dtransform truncate idtransform setlinewidth pop
newpath 28.34602 0 moveto
28.34602 6.66441 25.99753 13.11568 21.71313 18.22043 curveto stroke
newpath 25.12221 16.12817 moveto
24.0419 16.90121 22.90332 17.60104 21.71313 18.22043 curveto
22.11673 16.94086 22.42694 15.6409 22.64421 14.33038 curveto
 closepath
gsave fill grestore stroke
 0 0 0 setrgbcolor
newpath 103.57214 0 moveto
103.57214 5 lineto
108.57214 5 lineto stroke
 1 1 1 setrgbcolor
26.71313 7.40881 moveto
(x) eurm10 9.96265 fshow
-8.48128 -9.92038 moveto
(0) cmr10 9.96265 fshow
 0 3 dtransform truncate idtransform setlinewidth pop
newpath 0 0 moveto 0 0 rlineto stroke
145.23224 -10.38419 moveto
(I) eurm10 9.96265 fshow
newpath 141.73225 0 moveto 0 0 rlineto stroke
-7.50499 146.48753 moveto
(J) eurm10 9.96265 fshow
newpath 0 141.73225 moveto 0 0 rlineto stroke
 1 0.7 0.7 setrgbcolor
105.01048 -11.8842 moveto
(C) eurm10 9.96265 fshow
 1 1 1 setrgbcolor
112.07213 94.60431 moveto
(M) eurm10 9.96265 fshow
newpath 108.57214 91.10432 moveto 0 0 rlineto stroke
42.18507 -7.66183 moveto
(cos) cmr8 7.97011 fshow
53.52327 -7.66183 moveto
(\() eufm7 7.97008 fshow
57.34097 -7.66183 moveto
(x) eurm7 7.97008 fshow
62.56937 -7.66183 moveto
(\)) eufm7 7.97008 fshow
gsave [0 1 -1 0 116.23398 33.92166 ] concat 0 0 moveto
(sin) cmr8 7.97011 fshow grestore
gsave [0 1 -1 0 116.23398 44.31895 ] concat 0 0 moveto
(\() eufm7 7.97008 fshow grestore
gsave [0 1 -1 0 116.23398 48.13666 ] concat 0 0 moveto
(x) eurm7 7.97008 fshow grestore
gsave [0 1 -1 0 116.23398 53.36507 ] concat 0 0 moveto
(\)) eufm7 7.97008 fshow grestore
gsave [0.76604 0.64279 -0.64279 0.76604 50.7342 46.20096 ] concat 0 0 moveto
(1) cmr9 8.96634 fshow grestore
grestore
showpage
%%EOF
