%!PS
%%BoundingBox: -120 -120 120 120 
%%HiResBoundingBox: -119.3048 -119.3048 119.3048 119.3048 
%%Creator: MetaPost 2.02
%%CreationDate: 2024.01.06:1112
%%Pages: 1
%*Font: cmr10 9.96265 9.96265 2c:ae4000000000010431
%*Font: eufm10 9.96265 9.96265 28:d4
%*Font: eurm10 9.96265 9.96265 19:800000000000c00000000001
%%BeginProlog
%%EndProlog
%%Page: 1 1
 1 1 1 setrgbcolor 0 0.5 dtransform truncate idtransform setlinewidth pop
 [] 0 setdash 1 setlinecap 1 setlinejoin 10 setmiterlimit
newpath -119.0548 0 moveto
119.0548 0 lineto stroke
newpath 115.3591 -1.53084 moveto
119.0548 0 lineto
115.3591 1.53084 lineto
 closepath
gsave fill grestore stroke
 0.5 0 dtransform exch truncate exch idtransform pop setlinewidth
newpath 0 -119.0548 moveto
0 119.0548 lineto stroke
 0 0.5 dtransform truncate idtransform setlinewidth pop
newpath 1.53084 115.3591 moveto
0 119.0548 lineto
-1.53084 115.3591 lineto
 closepath
gsave fill grestore stroke
 0 0 1 setrgbcolor
newpath 99.21259 0 moveto
99.21259 26.31398 88.75783 51.54706 70.15245 70.15245 curveto
51.54706 88.75783 26.31398 99.21259 0 99.21259 curveto
-26.31398 99.21259 -51.54706 88.75783 -70.15245 70.15245 curveto
-88.75783 51.54706 -99.21259 26.31398 -99.21259 0 curveto
-99.21259 -26.31398 -88.75783 -51.54706 -70.15245 -70.15245 curveto
-51.54706 -88.75783 -26.31398 -99.21259 0 -99.21259 curveto
26.31398 -99.21259 51.54706 -88.75783 70.15245 -70.15245 curveto
88.75783 -51.54706 99.21259 -26.31398 99.21259 0 curveto closepath stroke
 1 1 1 setrgbcolor 0 1.2 dtransform truncate idtransform setlinewidth pop
newpath 0 0 moveto
76.0005 63.77303 lineto stroke
 1 0.7 0.7 setrgbcolor [3 3 ] 0 setdash
newpath 0 63.77303 moveto
76.0005 63.77303 lineto stroke
 1 0.5 0 setrgbcolor 1.2
 0 dtransform exch truncate exch idtransform pop setlinewidth
newpath 76.0005 0 moveto
76.0005 63.77303 lineto stroke
 1 1 1 setrgbcolor 0 0.5 dtransform truncate idtransform setlinewidth pop
 [] 0 setdash
newpath 19.84221 0 moveto
19.84221 4.6651 18.19826 9.18098 15.19919 12.7543 curveto stroke
newpath 18.54326 10.55948 moveto
17.51181 11.39668 16.39255 12.13327 15.19919 12.7543 curveto
15.60385 11.47131 15.87442 10.15904 16.01176 8.8377 curveto
 closepath
gsave fill grestore stroke
-8.48128 -9.92038 moveto
(0) cmr10 9.96265 fshow
 0 3 dtransform truncate idtransform setlinewidth pop
newpath 0 0 moveto 0 0 rlineto stroke
102.71257 -10.38419 moveto
(I) eurm10 9.96265 fshow
newpath 99.21259 0 moveto 0 0 rlineto stroke
-7.50499 103.96786 moveto
(J) eurm10 9.96265 fshow
newpath 0 99.21259 moveto 0 0 rlineto stroke
 1 0.7 0.7 setrgbcolor
-30.2232 61.28487 moveto
(sin) cmr10 9.96265 fshow
-17.9913 61.28487 moveto
(\() eufm10 9.96265 fshow
-14.1158 61.28487 moveto
(x) eurm10 9.96265 fshow
-8.8755 61.28487 moveto
(\)) eufm10 9.96265 fshow
 1 0.5 0 setrgbcolor
62.8354 -12.467 moveto
(cos) cmr10 9.96265 fshow
76.1743 -12.467 moveto
(\() eufm10 9.96265 fshow
80.0497 -12.467 moveto
(x) eurm10 9.96265 fshow
85.2901 -12.467 moveto
(\)) eufm10 9.96265 fshow
 1 1 1 setrgbcolor
73.38036 68.77303 moveto
(x) eurm10 9.96265 fshow
newpath 76.0005 63.77303 moveto 0 0 rlineto stroke
showpage
%%EOF
