%!PS
%%BoundingBox: -188 -188 188 188 
%%HiResBoundingBox: -187.3361 -187.3361 187.3361 187.3361 
%%Creator: MetaPost 2.02
%%CreationDate: 2024.01.06:1112
%%Pages: 1
%*Font: cmsy7 6.97385 6.97385 70:8
%*Font: cmr7 6.97385 6.97385 31:ec
%*Font: eufm10 9.96265 9.96265 2d:8
%*Font: eurm7 6.97385 6.97385 19:8
%%BeginProlog
%%EndProlog
%%Page: 1 1
 1 1 1 setrgbcolor 0 0.5 dtransform truncate idtransform setlinewidth pop
 [] 0 setdash 1 setlinecap 1 setlinejoin 10 setmiterlimit
newpath -187.0861 0 moveto
187.0861 0 lineto stroke
newpath 183.38847 -1.53165 moveto
187.0861 0 lineto
183.38847 1.53165 lineto
 closepath
gsave fill grestore stroke
 0.5 0 dtransform exch truncate exch idtransform pop setlinewidth
newpath 0 -187.0861 moveto
0 187.0861 lineto stroke
 0 0.5 dtransform truncate idtransform setlinewidth pop
newpath 1.53165 183.38847 moveto
0 187.0861 lineto
-1.53165 183.38847 lineto
 closepath
gsave fill grestore stroke
 1 0.7 0.7 setrgbcolor 0 1.3 dtransform truncate idtransform setlinewidth pop
newpath 127.55904 0 moveto
127.55904 33.83226 114.11722 66.2748 90.196 90.196 curveto
66.2748 114.11722 33.83226 127.55904 0 127.55904 curveto
-33.83226 127.55904 -66.2748 114.11722 -90.196 90.196 curveto
-114.11722 66.2748 -127.55904 33.83226 -127.55904 0 curveto
-127.55904 -33.83226 -114.11722 -66.2748 -90.196 -90.196 curveto
-66.2748 -114.11722 -33.83226 -127.55904 0 -127.55904 curveto
33.83226 -127.55904 66.2748 -114.11722 90.196 -90.196 curveto
114.11722 -66.2748 127.55904 -33.83226 127.55904 0 curveto closepath stroke
 1 0.5 0 setrgbcolor 0 0.5 dtransform truncate idtransform setlinewidth pop
 [3 3 ] 0 setdash
newpath 0 155.90549 moveto
135.0185 77.95274 lineto
0 0 lineto stroke
newpath -135.0185 77.95274 moveto
0 155.90616 lineto
0 0 lineto stroke
newpath -135.0185 -77.95274 moveto
-135.0185 77.9534 lineto
0 0 lineto stroke
newpath 0 -155.90549 moveto
-135.0185 -77.95274 lineto
0 0 lineto stroke
newpath 135.0185 -77.95274 moveto
0 -155.90616 lineto
0 0 lineto stroke
newpath 135.0185 77.95274 moveto
135.0185 -77.9534 lineto
0 0 lineto stroke
newpath -135.0185 77.95274 moveto
135.0185 77.95274 lineto stroke
newpath -135.0185 -77.95274 moveto
135.0185 -77.95274 lineto stroke
139.71397 88.81512 moveto
(\031) eurm7 6.97385 fshow
 0 0.3985 dtransform truncate idtransform setlinewidth pop [] 0 setdash
 0 setlinecap
newpath 139.71397 87.45023 moveto
144.93738 87.45023 lineto stroke
140.34007 81.45273 moveto
(6) cmr7 6.97385 fshow
 1 1 1 setrgbcolor
4.69548 166.76854 moveto
(\031) eurm7 6.97385 fshow
newpath 4.69548 165.40364 moveto
9.91888 165.40364 lineto stroke
5.32158 159.40614 moveto
(2) cmr7 6.97385 fshow
 0 3 dtransform truncate idtransform setlinewidth pop 1 setlinecap
newpath 0 155.90616 moveto 0 0 rlineto stroke
 1 0.5 0 setrgbcolor
-148.90868 88.81578 moveto
(5) cmr7 6.97385 fshow
-144.93738 88.81578 moveto
(\031) eurm7 6.97385 fshow
 0 0.3985 dtransform truncate idtransform setlinewidth pop 0 setlinecap
newpath -148.90868 87.45088 moveto
-139.71397 87.45088 lineto stroke
-146.29697 81.45338 moveto
(6) cmr7 6.97385 fshow
-157.63588 -89.87222 moveto
(-) eufm10 9.96265 fshow
-148.90858 -85.94693 moveto
(5) cmr7 6.97385 fshow
-144.93738 -85.94693 moveto
(\031) eurm7 6.97385 fshow
newpath -148.90858 -87.31183 moveto
-139.71397 -87.31183 lineto stroke
-146.29688 -93.30933 moveto
(6) cmr7 6.97385 fshow
-18.64618 -166.53934 moveto
(-) eufm10 9.96265 fshow
-9.91888 -162.61404 moveto
(\031) eurm7 6.97385 fshow
newpath -9.91888 -163.97894 moveto
-4.69548 -163.97894 lineto stroke
-9.29288 -169.97644 moveto
(2) cmr7 6.97385 fshow
138.51848 -88.58658 moveto
(-) eufm10 9.96265 fshow
147.24577 -84.66129 moveto
(\031) eurm7 6.97385 fshow
newpath 147.24577 -86.02618 moveto
152.46918 -86.02618 lineto stroke
147.87178 -92.02368 moveto
(6) cmr7 6.97385 fshow
119.8103 -4.18338 moveto
(p) cmsy7 6.97385 fshow
 0 0.3417 dtransform truncate idtransform setlinewidth pop
newpath 126.3518 -4.01257 moveto
130.32301 -4.01257 lineto stroke
126.3518 -9.92097 moveto
(3) cmr7 6.97385 fshow
 0 0.3985 dtransform truncate idtransform setlinewidth pop
newpath 119.8103 -11.41328 moveto
130.32301 -11.41328 lineto stroke
123.0811 -17.41078 moveto
(2) cmr7 6.97385 fshow
-131.51851 -13.97368 moveto
(-) eufm10 9.96265 fshow
-122.79121 -4.18338 moveto
(p) cmsy7 6.97385 fshow
 0 0.3417 dtransform truncate idtransform setlinewidth pop
newpath -116.2498 -4.01257 moveto
-112.2785 -4.01257 lineto stroke
-116.2498 -9.92097 moveto
(3) cmr7 6.97385 fshow
 0 0.3985 dtransform truncate idtransform setlinewidth pop
newpath -122.79121 -11.41328 moveto
-112.2785 -11.41328 lineto stroke
-119.52051 -17.41078 moveto
(2) cmr7 6.97385 fshow
-8.6668 69.95856 moveto
(1) cmr7 6.97385 fshow
newpath -8.6668 68.59366 moveto
-4.6955 68.59366 lineto stroke
-8.6668 62.59616 moveto
(2) cmr7 6.97385 fshow
-17.39398 -89.87222 moveto
(-) eufm10 9.96265 fshow
-8.66669 -85.94693 moveto
(1) cmr7 6.97385 fshow
newpath -8.66669 -87.31183 moveto
-4.69548 -87.31183 lineto stroke
-8.66669 -93.30933 moveto
(2) cmr7 6.97385 fshow
showpage
%%EOF
