%!PS
%%BoundingBox: -205 -77 199 77 
%%HiResBoundingBox: -204.09479 -76.53577 198.97516 76.53577 
%%Creator: MetaPost 2.02
%%CreationDate: 2024.01.06:1112
%%Pages: 1
%*Font: cmr10 9.96265 9.96265 2c:ae40000010000504318
%*Font: cmr7 6.97385 6.97385 31:fc
%*Font: cmmi10 9.96265 9.96265 4f:80000000006
%*Font: eufm10 9.96265 9.96265 28:d4
%*Font: eurm10 9.96265 9.96265 0b:8002000000000083200000100004
%*Font: eurm7 6.97385 6.97385 19:800000000000000000000001
%%BeginProlog
%%EndProlog
%%Page: 1 1
gsave newpath -297.63774 -106.2992 moveto
-297.63774 106.2992 lineto
297.63774 106.2992 lineto
297.63774 -106.2992 lineto
 closepath clip
gsave newpath -297.63774 -106.2992 moveto
-297.63774 106.2992 lineto
297.63774 106.2992 lineto
297.63774 -106.2992 lineto
 closepath clip
gsave newpath -297.63774 -106.2992 moveto
-297.63774 106.2992 lineto
297.63774 106.2992 lineto
297.63774 -106.2992 lineto
 closepath clip
gsave newpath -297.63774 -106.2992 moveto
-297.63774 106.2992 lineto
297.63774 106.2992 lineto
297.63774 -106.2992 lineto
 closepath clip
gsave newpath -297.63774 -106.2992 moveto
-297.63774 106.2992 lineto
297.63774 106.2992 lineto
297.63774 -106.2992 lineto
 closepath clip
gsave newpath -297.63774 -106.2992 moveto
-297.63774 106.2992 lineto
297.63774 106.2992 lineto
297.63774 -106.2992 lineto
 closepath clip
gsave newpath -204.09479 -76.53577 moveto
-204.09479 76.53577 lineto
204.09479 76.53577 lineto
204.09479 -76.53577 lineto
 closepath clip
gsave newpath -226.7716 -170.0787 moveto
0 -170.0787 lineto
0 170.0787 lineto
-226.7716 170.0787 lineto
 closepath clip
 1 0.5 0 setrgbcolor
newpath -226.7716 -170.0787 moveto
0 -170.0787 lineto
0 170.0787 lineto
-226.7716 170.0787 lineto
 closepath fill
grestore
 1 1 1 setrgbcolor 0 1.1 dtransform truncate idtransform setlinewidth pop
 [] 0 setdash 1 setlinecap 1 setlinejoin 10 setmiterlimit
newpath -198.42516 0 moveto
198.42516 0 lineto stroke
newpath 194.72722 -1.53177 moveto
198.42516 0 lineto
194.72722 1.53177 lineto
 closepath
gsave fill grestore stroke
 1.1 0 dtransform exch truncate exch idtransform pop setlinewidth
newpath 0 -70.86613 moveto
0 70.86613 lineto stroke
 0 1.1 dtransform truncate idtransform setlinewidth pop
newpath 1.53113 67.16977 moveto
0 70.86613 lineto
-1.53113 67.16977 lineto
 closepath
gsave fill grestore stroke
-12.876 -9.07318 moveto
(O) cmmi10 9.96265 fshow
 0 2.98878 dtransform truncate idtransform setlinewidth pop
newpath 0 0 moveto 0 0 rlineto stroke
192.74356 -9.2895 moveto
(x) cmmi10 9.96265 fshow
-10.2419 66.85533 moveto
(y) cmmi10 9.96265 fshow
 1 0.7 0.7 setrgbcolor 0 1.5 dtransform truncate idtransform setlinewidth pop
newpath 0 56.6929 moveto
0.3564 56.69203 lineto
0.71194 56.68858 lineto
1.06836 56.68253 lineto
1.4239 56.67473 lineto
1.7803 56.66522 lineto
1.84695 56.66309 2.01733 56.65668 2.13585 56.65224 curveto
2.25552 56.64774 2.42839 56.64125 2.49484 56.6384 curveto
2.85126 56.6211 lineto
3.2068 56.60207 lineto
3.5632 56.58131 lineto
3.6278 56.5772 3.80025 56.56528 3.91875 56.55708 curveto
4.03755 56.54887 4.20276 56.53745 4.27515 56.532 curveto
4.34596 56.52666 4.51219 56.5131 4.63069 56.50345 curveto
4.74951 56.49376 4.92336 56.47958 4.9871 56.47404 curveto
5.34264 56.44116 lineto
5.69905 56.40657 lineto
6.0546 56.37024 lineto
6.12877 56.36226 6.2922 56.34384 6.411 56.33044 curveto
6.52982 56.31705 6.68713 56.29932 6.76741 56.28978 curveto
6.88213 56.27615 7.00447 56.26067 7.12294 56.24567 curveto
7.24263 56.23051 7.37073 56.2143 7.48195 56.19981 curveto
7.8375 56.15224 lineto
8.1939 56.10207 lineto
8.54944 56.04929 lineto
8.90584 55.9948 lineto
9.26225 55.9377 lineto
9.6178 55.87888 lineto
9.9742 55.81746 lineto
10.32974 55.7543 lineto
10.68614 55.68857 lineto
11.04169 55.62108 lineto
11.3981 55.55101 lineto
11.75363 55.47922 lineto
12.11005 55.40482 lineto
12.46904 55.32697 lineto
12.82458 55.24825 lineto
13.181 55.16779 lineto
13.53654 55.08475 lineto
13.89294 54.9991 lineto
14.24849 54.91173 lineto
14.60489 54.82176 lineto
14.96043 54.73007 lineto
15.31685 54.63664 lineto
15.67325 54.54062 lineto
16.0288 54.442 lineto
16.3852 54.34166 lineto
16.74074 54.23871 lineto
17.09715 54.13403 lineto
17.45528 54.02676 lineto
17.81169 53.91777 lineto
18.16809 53.80704 lineto
18.52364 53.69373 lineto
18.88005 53.5778 lineto
19.23558 53.46101 lineto
19.592 53.34164 lineto
19.94754 53.21967 lineto
20.30394 53.09596 lineto
20.65948 52.96967 lineto
21.01588 52.84163 lineto
21.37143 52.71187 lineto
21.72784 52.58038 lineto
21.83418 52.54062 21.96553 52.49063 22.08424 52.44543 curveto
22.20366 52.39998 22.34566 52.34593 22.44238 52.30875 curveto
22.79878 52.17035 lineto
23.15433 52.0302 lineto
23.51074 51.88747 lineto
23.86627 51.743 lineto
24.22269 51.5968 lineto
24.57909 51.44801 lineto
24.93463 51.29749 lineto
25.29105 51.14438 lineto
25.64658 50.99039 lineto
26.00299 50.83382 lineto
26.0576 50.80956 26.24005 50.72775 26.35854 50.67464 curveto
26.47737 50.62137 26.65634 50.54112 26.71494 50.5146 curveto
27.07048 50.35197 lineto
27.42949 50.18588 lineto
27.78589 50.01892 lineto
28.14143 49.85023 lineto
28.49783 49.67982 lineto
28.85338 49.50768 lineto
29.2098 49.33293 lineto
29.56532 49.15645 lineto
29.92174 48.97826 lineto
30.27728 48.79832 lineto
30.63368 48.61578 lineto
30.9901 48.43153 lineto
31.34563 48.24554 lineto
31.70204 48.05782 lineto
32.05759 47.86838 lineto
32.41658 47.6746 lineto
32.77213 47.48169 lineto
33.12852 47.28618 lineto
33.48407 47.08894 lineto
33.5601 47.0465 33.72171 46.95578 33.84048 46.88911 curveto
33.95938 46.82237 34.09837 46.74435 34.19688 46.68843 curveto
34.24014 46.66388 34.43394 46.55295 34.55243 46.48514 curveto
34.67125 46.41713 34.87004 46.30334 34.90883 46.28098 curveto
35.02002 46.21686 35.14597 46.14334 35.26437 46.07423 curveto
35.38324 46.00485 35.51427 45.92839 35.62079 45.86575 curveto
35.97632 45.65553 lineto
36.33273 45.4436 lineto
36.68828 45.22992 lineto
37.04468 45.01453 lineto
37.40369 44.79567 lineto
37.45609 44.76347 37.64073 44.64923 37.75922 44.57594 curveto
37.87804 44.50244 38.08174 44.37642 38.11563 44.35535 curveto
38.21817 44.2916 38.35274 44.20724 38.47118 44.13303 curveto
38.59009 44.0585 38.72098 43.97647 38.82758 43.90897 curveto
38.89241 43.8679 39.06465 43.75795 39.18312 43.68233 curveto
39.53952 43.45482 lineto
39.89507 43.22557 lineto
40.00484 43.15439 40.13272 43.07109 40.25148 42.99373 curveto
40.37036 42.91629 40.49506 42.83505 40.60788 42.76103 curveto
40.96342 42.5266 lineto
41.31982 42.29044 lineto
41.67537 42.05254 lineto
42.03178 41.81291 lineto
42.38992 41.56984 lineto
42.74632 41.32675 lineto
43.10274 41.08194 lineto
43.45827 40.83626 lineto
43.81468 40.58798 lineto
44.17023 40.33885 lineto
44.52663 40.08798 lineto
44.88217 39.83537 lineto
45.23857 39.58105 lineto
45.59412 39.32585 lineto
45.95053 39.06807 lineto
46.30606 38.80942 lineto
46.66248 38.54903 lineto
47.02147 38.28519 lineto
47.37701 38.0222 lineto
47.73343 37.75749 lineto
48.08896 37.49106 lineto
48.2078 37.40201 48.3981 37.25941 48.44537 37.22375 curveto
48.53343 37.15733 48.6825 37.04393 48.80092 36.95384 curveto
48.88919 36.88669 49.0385 36.7733 49.15732 36.68307 curveto
49.51373 36.41145 lineto
49.5738 36.36537 49.75081 36.2287 49.86926 36.13722 curveto
50.22568 35.86214 lineto
50.34126 35.77272 50.46278 35.67825 50.58122 35.58618 curveto
50.70012 35.49374 50.8212 35.39963 50.93762 35.30849 curveto
50.97508 35.27916 51.17467 35.12224 51.29317 35.02908 curveto
51.41199 34.93567 51.62065 34.77162 51.64957 34.7488 curveto
51.76408 34.65842 51.889 34.55917 52.00858 34.46419 curveto
52.12717 34.36998 52.25291 34.27008 52.36412 34.18132 curveto
52.72052 33.89584 lineto
53.07607 33.61037 lineto
53.43246 33.32317 lineto
53.4395 33.31746 53.6695 33.13055 53.78801 33.03424 curveto
53.90683 32.93767 54.10913 32.77327 54.14442 32.74445 curveto
54.16434 32.72818 54.38145 32.55011 54.49995 32.45291 curveto
54.61876 32.35545 54.84291 32.17162 54.85637 32.16052 curveto
54.91452 32.11263 55.09344 31.9645 55.21191 31.8664 curveto
55.56831 31.57141 lineto
55.92473 31.27469 lineto
56.28026 30.97711 lineto
56.3991 30.87766 56.58258 30.72408 56.63667 30.67867 curveto
56.99481 30.37675 lineto
57.35121 30.07484 lineto
57.70676 29.77295 lineto
57.81705 29.67912 57.9444 29.57056 58.06317 29.4693 curveto
58.18208 29.36792 58.30397 29.26399 58.41957 29.1648 curveto
58.46094 29.1293 58.65663 28.96066 58.77512 28.85857 curveto
59.13152 28.55147 lineto
59.48706 28.24352 lineto
59.6059 28.14061 59.79971 27.97275 59.84348 27.93468 curveto
59.88985 27.89433 60.08052 27.72768 60.199 27.62411 curveto
60.55542 27.3127 lineto
60.91096 27.00041 lineto
61.26736 26.68639 lineto
61.62291 26.3715 lineto
61.9819 26.05403 lineto
62.33832 25.73741 lineto
62.69386 25.41907 lineto
63.05026 25.10072 lineto
63.4058 24.78065 lineto
63.7622 24.46057 lineto
63.83774 24.39252 63.9993 24.24611 64.11775 24.13878 curveto
64.47417 23.8161 lineto
64.83057 23.49257 lineto
65.18611 23.16817 lineto
65.30495 23.0598 65.49037 22.89069 65.54251 22.84291 curveto
65.89806 22.51591 lineto
66.25447 22.18892 lineto
66.35338 22.098 66.49156 21.97041 66.61 21.86105 curveto
66.96901 21.52974 lineto
67.32541 21.20015 lineto
67.68095 20.86884 lineto
68.03737 20.5375 lineto
68.04561 20.52983 68.2744 20.31606 68.3929 20.20532 curveto
68.5117 20.09431 68.74252 19.87863 68.74931 19.87227 curveto
69.10486 19.53836 lineto
69.46126 19.20444 lineto
69.52663 19.14299 69.69833 18.98074 69.8168 18.8688 curveto
70.1732 18.53229 lineto
70.23666 18.4723 70.41025 18.30797 70.52875 18.19577 curveto
70.88516 17.8584 lineto
71.24156 17.52016 lineto
71.5971 17.18106 lineto
71.95612 16.83936 lineto
72.31165 16.49852 lineto
72.66806 16.15768 lineto
73.0236 15.81598 lineto
73.38 15.47429 lineto
73.73642 15.13086 lineto
73.85492 15.01637 74.07713 14.8017 74.09195 14.78741 curveto
74.44836 14.44398 lineto
74.45662 14.436 74.6854 14.21446 74.80391 14.0997 curveto
74.92271 13.98465 75.14537 13.76903 75.16031 13.75453 curveto
75.51585 13.40851 lineto
75.87225 13.06248 lineto
76.2278 12.71559 lineto
76.58421 12.3687 lineto
76.9432 12.01834 lineto
77.29875 11.66972 lineto
77.65515 11.3211 lineto
78.0107 10.97249 lineto
78.12952 10.85602 78.32614 10.66328 78.36711 10.623 curveto
78.72264 10.27264 lineto
79.07906 9.9223 lineto
79.1787 9.8243 79.31613 9.68877 79.4346 9.57195 curveto
79.791 9.22073 lineto
79.90985 9.10371 80.06413 8.95181 80.14742 8.8695 curveto
80.50294 8.51743 lineto
80.85936 8.16534 lineto
81.2149 7.81326 lineto
81.33372 7.69565 81.52966 7.5017 81.5713 7.46033 curveto
81.92944 7.10391 lineto
82.28584 6.75096 lineto
82.64139 6.39716 lineto
82.9978 6.04335 lineto
83.11668 5.92549 83.24377 5.79948 83.3542 5.68953 curveto
83.70975 5.33485 lineto
84.06615 4.98018 lineto
84.42169 4.6255 lineto
84.7781 4.27083 lineto
84.79619 4.2528 85.01514 4.03438 85.13365 3.91615 curveto
85.49005 3.56061 lineto
85.8456 3.20506 lineto
85.96329 3.08746 86.08315 2.96799 86.202 2.84952 curveto
86.55841 2.49399 lineto
86.6131 2.43936 86.79718 2.25523 86.91655 2.13585 curveto
87.27295 1.77943 lineto
87.39143 1.66089 87.55782 1.49445 87.6285 1.4239 curveto
87.9849 1.06836 lineto
88.34044 0.71194 lineto
88.36282 0.68954 88.57803 0.4749 88.69685 0.3564 curveto
89.05325 0 lineto
89.17175 -0.1188 89.38583 -0.33345 89.4088 -0.3564 curveto
89.7652 -0.71194 lineto
90.12074 -1.06836 lineto
90.47716 -1.4239 lineto
90.54453 -1.49113 90.7142 -1.66089 90.83269 -1.77943 curveto
91.1891 -2.13585 lineto
91.30847 -2.25523 91.50514 -2.45193 91.54724 -2.49399 curveto
91.90364 -2.84952 lineto
92.02249 -2.96799 92.14941 -3.0945 92.26006 -3.20506 curveto
92.61559 -3.56061 lineto
92.972 -3.91615 lineto
93.09052 -4.03438 93.32077 -4.26408 93.32755 -4.27083 curveto
93.68394 -4.6255 lineto
94.03949 -4.98018 lineto
94.39589 -5.33485 lineto
94.75143 -5.68953 lineto
94.85968 -5.7973 94.98897 -5.92549 95.10785 -6.04335 curveto
95.46425 -6.39716 lineto
95.8198 -6.75096 lineto
96.1762 -7.10391 lineto
96.53433 -7.46033 lineto
96.57484 -7.50058 96.77191 -7.69565 96.89075 -7.81326 curveto
97.24629 -8.16534 lineto
97.60269 -8.51743 lineto
97.95824 -8.8695 lineto
98.04408 -8.95436 98.19579 -9.10371 98.31464 -9.22073 curveto
98.67105 -9.57195 lineto
98.78952 -9.68877 98.93059 -9.82787 99.0266 -9.9223 curveto
99.383 -10.27264 lineto
99.73854 -10.623 lineto
99.77786 -10.66167 99.97612 -10.85602 100.09494 -10.97249 curveto
100.45049 -11.3211 lineto
100.8069 -11.66972 lineto
101.16243 -12.01834 lineto
101.52144 -12.3687 lineto
101.87784 -12.71559 lineto
102.23338 -13.06248 lineto
102.5898 -13.40851 lineto
102.94533 -13.75453 lineto
102.96019 -13.76897 103.18294 -13.98465 103.30174 -14.0997 curveto
103.65729 -14.44398 lineto
104.01369 -14.78741 lineto
104.04117 -14.81392 104.25073 -15.01637 104.36923 -15.13086 curveto
104.72563 -15.47429 lineto
105.08205 -15.81598 lineto
105.43759 -16.15768 lineto
105.79399 -16.49852 lineto
106.14954 -16.83936 lineto
106.50853 -17.18106 lineto
106.86407 -17.52016 lineto
107.22049 -17.8584 lineto
107.57689 -18.19577 lineto
107.69539 -18.30797 107.8647 -18.46826 107.93243 -18.53229 curveto
108.28883 -18.8688 lineto
108.4073 -18.98074 108.57928 -19.14325 108.64438 -19.20444 curveto
109.0008 -19.53836 lineto
109.35632 -19.87227 lineto
109.36894 -19.8841 109.59393 -20.09431 109.71274 -20.20532 curveto
109.83125 -20.31606 110.05844 -20.52834 110.06828 -20.5375 curveto
110.42468 -20.86884 lineto
110.78023 -21.20015 lineto
111.13663 -21.52974 lineto
111.49564 -21.86105 lineto
111.61407 -21.97041 111.7503 -22.09619 111.85118 -22.18892 curveto
112.20758 -22.51591 lineto
112.56313 -22.84291 lineto
112.6106 -22.88641 112.8007 -23.05978 112.91954 -23.16817 curveto
113.27507 -23.49257 lineto
113.63148 -23.8161 lineto
113.98788 -24.13878 lineto
114.10634 -24.24612 114.26555 -24.39041 114.34343 -24.46057 curveto
114.69984 -24.78065 lineto
115.05537 -25.10072 lineto
115.41179 -25.41907 lineto
115.76733 -25.73741 lineto
116.12373 -26.05403 lineto
116.48274 -26.3715 lineto
116.83827 -26.68639 lineto
117.19469 -27.00041 lineto
117.55023 -27.3127 lineto
117.90663 -27.62411 lineto
118.02512 -27.72768 118.21376 -27.89255 118.26218 -27.93468 curveto
118.30867 -27.97513 118.49974 -28.14061 118.61858 -28.24352 curveto
118.97412 -28.55147 lineto
119.33054 -28.85857 lineto
119.44902 -28.96066 119.64891 -29.1329 119.68607 -29.1648 curveto
119.80003 -29.2626 119.92357 -29.36792 120.04248 -29.4693 curveto
120.16125 -29.57056 120.29391 -29.68365 120.39888 -29.77295 curveto
120.75443 -30.07484 lineto
121.11084 -30.37675 lineto
121.46896 -30.67867 lineto
121.52457 -30.72534 121.70654 -30.87766 121.82538 -30.97711 curveto
122.18092 -31.27469 lineto
122.53732 -31.57141 lineto
122.89374 -31.8664 lineto
123.0122 -31.96448 123.19353 -32.11461 123.24927 -32.16052 curveto
123.2672 -32.1753 123.48686 -32.35545 123.60568 -32.45291 curveto
123.72418 -32.55011 123.94037 -32.72742 123.96123 -32.74445 curveto
123.99837 -32.77477 124.1988 -32.93767 124.31763 -33.03424 curveto
124.43614 -33.13055 124.66182 -33.31396 124.67317 -33.32317 curveto
125.02957 -33.61037 lineto
125.38512 -33.89584 lineto
125.74153 -34.18132 lineto
125.85387 -34.27098 125.97849 -34.36998 126.09706 -34.46419 curveto
126.21663 -34.55917 126.34062 -34.65768 126.45607 -34.7488 curveto
126.48117 -34.76862 126.69366 -34.93567 126.81248 -35.02908 curveto
126.93097 -35.12224 127.13248 -35.28065 127.16801 -35.30849 curveto
127.28368 -35.39903 127.40552 -35.49374 127.52443 -35.58618 curveto
127.64288 -35.67825 127.76563 -35.77368 127.87997 -35.86214 curveto
128.23637 -36.13722 lineto
128.35484 -36.2287 128.53014 -36.36406 128.59192 -36.41145 curveto
128.94832 -36.68307 lineto
129.06714 -36.77332 129.22865 -36.89597 129.30473 -36.95384 curveto
129.42316 -37.04393 129.5738 -37.15852 129.66028 -37.22375 curveto
129.70963 -37.26099 129.89784 -37.40201 130.01668 -37.49106 curveto
130.37222 -37.75749 lineto
130.72862 -38.0222 lineto
131.08417 -38.28519 lineto
131.44318 -38.54903 lineto
131.79958 -38.80942 lineto
132.15512 -39.06807 lineto
132.51152 -39.32585 lineto
132.86707 -39.58105 lineto
133.22348 -39.83537 lineto
133.57901 -40.08798 lineto
133.93542 -40.33885 lineto
134.29097 -40.58798 lineto
134.64737 -40.83626 lineto
135.00291 -41.08194 lineto
135.35931 -41.32675 lineto
135.71573 -41.56984 lineto
136.07387 -41.81291 lineto
136.43027 -42.05254 lineto
136.78581 -42.29044 lineto
137.14221 -42.5266 lineto
137.49776 -42.76103 lineto
137.61041 -42.83495 137.73529 -42.91629 137.85417 -42.99373 curveto
137.97292 -43.07109 138.10103 -43.15454 138.21057 -43.22557 curveto
138.56612 -43.45482 lineto
138.92252 -43.68233 lineto
139.04099 -43.75795 139.21301 -43.86777 139.27806 -43.90897 curveto
139.38286 -43.97533 139.51556 -44.0585 139.63448 -44.13303 curveto
139.75291 -44.20724 139.89003 -44.29318 139.99 -44.35535 curveto
140.02852 -44.3793 140.2276 -44.50244 140.34642 -44.57594 curveto
140.4649 -44.64923 140.64886 -44.76303 140.70197 -44.79567 curveto
141.06096 -45.01453 lineto
141.41737 -45.22992 lineto
141.77292 -45.4436 lineto
142.12932 -45.65553 lineto
142.48486 -45.86575 lineto
142.59207 -45.9288 142.7224 -46.00485 142.84126 -46.07423 curveto
142.95967 -46.14334 143.08514 -46.21658 143.19681 -46.28098 curveto
143.2326 -46.30162 143.4344 -46.41713 143.55322 -46.48514 curveto
143.6717 -46.55295 143.86612 -46.66423 143.90875 -46.68843 curveto
144.00691 -46.74416 144.14627 -46.82239 144.26517 -46.88911 curveto
144.38394 -46.95578 144.54681 -47.04721 144.62157 -47.08894 curveto
144.97711 -47.28618 lineto
145.33353 -47.48169 lineto
145.68906 -47.6746 lineto
146.04807 -47.86838 lineto
146.40361 -48.05782 lineto
146.76001 -48.24554 lineto
147.11555 -48.43153 lineto
147.47195 -48.61578 lineto
147.82837 -48.79832 lineto
148.18391 -48.97826 lineto
148.54031 -49.15645 lineto
148.89586 -49.33293 lineto
149.25226 -49.50768 lineto
149.6078 -49.67982 lineto
149.96422 -49.85023 lineto
150.31975 -50.01892 lineto
150.67616 -50.18588 lineto
151.03516 -50.35197 lineto
151.3907 -50.5146 lineto
151.44789 -50.54048 151.62828 -50.62135 151.74712 -50.67464 curveto
151.8656 -50.72775 152.04959 -50.81023 152.10266 -50.83382 curveto
152.45906 -50.99039 lineto
152.8146 -51.14438 lineto
153.171 -51.29749 lineto
153.52655 -51.44801 lineto
153.88295 -51.5968 lineto
154.23936 -51.743 lineto
154.59491 -51.88747 lineto
154.95131 -52.0302 lineto
155.30685 -52.17035 lineto
155.66325 -52.30875 lineto
155.75931 -52.34567 155.90198 -52.39998 156.0214 -52.44543 curveto
156.14012 -52.49063 156.27177 -52.54074 156.3778 -52.58038 curveto
156.7342 -52.71187 lineto
157.08975 -52.84163 lineto
157.44617 -52.96967 lineto
157.8017 -53.09596 lineto
158.15811 -53.21967 lineto
158.51366 -53.34164 lineto
158.87006 -53.46101 lineto
159.2256 -53.5778 lineto
159.582 -53.69373 lineto
159.93755 -53.80704 lineto
160.29396 -53.91777 lineto
160.65036 -54.02676 lineto
161.0085 -54.13403 lineto
161.3649 -54.23871 lineto
161.72044 -54.34166 lineto
162.07686 -54.442 lineto
162.43239 -54.54062 lineto
162.7888 -54.63664 lineto
163.1452 -54.73007 lineto
163.50075 -54.82176 lineto
163.85716 -54.91173 lineto
164.21269 -54.9991 lineto
164.5691 -55.08475 lineto
164.92465 -55.16779 lineto
165.28105 -55.24825 lineto
165.6366 -55.32697 lineto
165.9956 -55.40482 lineto
166.352 -55.47922 lineto
166.70755 -55.55101 lineto
167.06395 -55.62108 lineto
167.4195 -55.68857 lineto
167.7759 -55.7543 lineto
168.13144 -55.81746 lineto
168.48785 -55.87888 lineto
168.8434 -55.9377 lineto
169.1998 -55.9948 lineto
169.5562 -56.04929 lineto
169.91174 -56.10207 lineto
170.26816 -56.15224 lineto
170.6237 -56.19981 lineto
170.73486 -56.2143 170.86302 -56.23051 170.9827 -56.24567 curveto
171.10118 -56.26067 171.22354 -56.27615 171.33824 -56.28978 curveto
171.41856 -56.29932 171.57582 -56.31705 171.69464 -56.33044 curveto
171.81343 -56.34384 171.97678 -56.36226 172.05106 -56.37024 curveto
172.4066 -56.40657 lineto
172.763 -56.44116 lineto
173.11855 -56.47404 lineto
173.18227 -56.47958 173.35614 -56.49376 173.47495 -56.50345 curveto
173.59344 -56.5131 173.75943 -56.52664 173.83049 -56.532 curveto
173.90308 -56.53748 174.06808 -56.54887 174.1869 -56.55708 curveto
174.3054 -56.56528 174.47784 -56.5772 174.54243 -56.58131 curveto
174.89885 -56.60207 lineto
175.2544 -56.6211 lineto
175.6108 -56.6384 lineto
175.67896 -56.64133 175.85013 -56.64775 175.9698 -56.65224 curveto
176.0883 -56.6567 176.25726 -56.66304 176.32533 -56.66522 curveto
176.68175 -56.67473 lineto
177.0373 -56.68253 lineto
177.39369 -56.68858 lineto
177.74924 -56.69203 lineto
178.10564 -56.6929 lineto stroke
 [0 2.5 ] 1.25 setdash
newpath -178.10564 -56.6929 moveto
-177.74924 -56.69203 lineto
-177.39369 -56.68858 lineto
-177.0373 -56.68253 lineto
-176.68175 -56.67473 lineto
-176.32533 -56.66522 lineto
-176.25868 -56.66309 -176.0883 -56.65668 -175.9698 -56.65224 curveto
-175.85013 -56.64774 -175.67723 -56.64125 -175.6108 -56.6384 curveto
-175.2544 -56.6211 lineto
-174.89885 -56.60207 lineto
-174.54243 -56.58131 lineto
-174.47775 -56.5772 -174.3054 -56.56528 -174.1869 -56.55708 curveto
-174.06808 -56.54887 -173.90286 -56.53745 -173.83049 -56.532 curveto
-173.75876 -56.5266 -173.59344 -56.5131 -173.47495 -56.50345 curveto
-173.35614 -56.49376 -173.1834 -56.47969 -173.11855 -56.47404 curveto
-172.763 -56.44116 lineto
-172.4066 -56.40657 lineto
-172.05106 -56.37024 lineto
-171.97687 -56.36226 -171.81343 -56.34384 -171.69464 -56.33044 curveto
-171.57582 -56.31705 -171.41852 -56.29932 -171.33824 -56.28978 curveto
-171.22351 -56.27615 -171.10118 -56.26067 -170.9827 -56.24567 curveto
-170.86302 -56.23051 -170.73492 -56.2143 -170.6237 -56.19981 curveto
-170.26816 -56.15224 lineto
-169.91174 -56.10207 lineto
-169.5562 -56.04929 lineto
-169.1998 -55.9948 lineto
-168.8434 -55.9377 lineto
-168.48785 -55.87888 lineto
-168.13144 -55.81746 lineto
-167.7759 -55.7543 lineto
-167.4195 -55.68857 lineto
-167.06395 -55.62108 lineto
-166.70755 -55.55101 lineto
-166.352 -55.47922 lineto
-165.9956 -55.40482 lineto
-165.6366 -55.32697 lineto
-165.28105 -55.24825 lineto
-164.92465 -55.16779 lineto
-164.5691 -55.08475 lineto
-164.21269 -54.9991 lineto
-163.85716 -54.91173 lineto
-163.50075 -54.82176 lineto
-163.1452 -54.73007 lineto
-162.7888 -54.63664 lineto
-162.43239 -54.54062 lineto
-162.07686 -54.442 lineto
-161.72044 -54.34166 lineto
-161.3649 -54.23871 lineto
-161.0085 -54.13403 lineto
-160.65036 -54.02676 lineto
-160.29396 -53.91777 lineto
-159.93755 -53.80704 lineto
-159.582 -53.69373 lineto
-159.2256 -53.5778 lineto
-158.87006 -53.46101 lineto
-158.51366 -53.34164 lineto
-158.15811 -53.21967 lineto
-157.8017 -53.09596 lineto
-157.44617 -52.96967 lineto
-157.08975 -52.84163 lineto
-156.7342 -52.71187 lineto
-156.3778 -52.58038 lineto
-156.27133 -52.54057 -156.14012 -52.49063 -156.0214 -52.44543 curveto
-155.90198 -52.39998 -155.76035 -52.34607 -155.66325 -52.30875 curveto
-155.30685 -52.17035 lineto
-154.95131 -52.0302 lineto
-154.59491 -51.88747 lineto
-154.23936 -51.743 lineto
-153.88295 -51.5968 lineto
-153.52655 -51.44801 lineto
-153.171 -51.29749 lineto
-152.8146 -51.14438 lineto
-152.45906 -50.99039 lineto
-152.10266 -50.83382 lineto
-152.04852 -50.80975 -151.8656 -50.72775 -151.74712 -50.67464 curveto
-151.62828 -50.62137 -151.44954 -50.54123 -151.3907 -50.5146 curveto
-151.03516 -50.35197 lineto
-150.67616 -50.18588 lineto
-150.31975 -50.01892 lineto
-149.96422 -49.85023 lineto
-149.6078 -49.67982 lineto
-149.25226 -49.50768 lineto
-148.89586 -49.33293 lineto
-148.54031 -49.15645 lineto
-148.18391 -48.97826 lineto
-147.82837 -48.79832 lineto
-147.47195 -48.61578 lineto
-147.11555 -48.43153 lineto
-146.76001 -48.24554 lineto
-146.40361 -48.05782 lineto
-146.04807 -47.86838 lineto
-145.68906 -47.6746 lineto
-145.33353 -47.48169 lineto
-144.97711 -47.28618 lineto
-144.62157 -47.08894 lineto
-144.54626 -47.0469 -144.38394 -46.95578 -144.26517 -46.88911 curveto
-144.14627 -46.82239 -144.00714 -46.74428 -143.90875 -46.68843 curveto
-143.86688 -46.66466 -143.6717 -46.55295 -143.55322 -46.48514 curveto
-143.4344 -46.41713 -143.23335 -46.30205 -143.19681 -46.28098 curveto
-143.08562 -46.21686 -142.95967 -46.14334 -142.84126 -46.07423 curveto
-142.7224 -46.00485 -142.59132 -45.92836 -142.48486 -45.86575 curveto
-142.12932 -45.65553 lineto
-141.77292 -45.4436 lineto
-141.41737 -45.22992 lineto
-141.06096 -45.01453 lineto
-140.70197 -44.79567 lineto
-140.64879 -44.76299 -140.4649 -44.64923 -140.34642 -44.57594 curveto
-140.2276 -44.50244 -140.02826 -44.37914 -139.99 -44.35535 curveto
-139.88875 -44.29237 -139.75291 -44.20724 -139.63448 -44.13303 curveto
-139.51556 -44.0585 -139.38368 -43.97585 -139.27806 -43.90897 curveto
-139.21309 -43.86781 -139.04099 -43.75795 -138.92252 -43.68233 curveto
-138.56612 -43.45482 lineto
-138.21057 -43.22557 lineto
-138.10304 -43.15584 -137.97292 -43.07109 -137.85417 -42.99373 curveto
-137.73529 -42.91629 -137.6091 -42.83409 -137.49776 -42.76103 curveto
-137.14221 -42.5266 lineto
-136.78581 -42.29044 lineto
-136.43027 -42.05254 lineto
-136.07387 -41.81291 lineto
-135.71573 -41.56984 lineto
-135.35931 -41.32675 lineto
-135.00291 -41.08194 lineto
-134.64737 -40.83626 lineto
-134.29097 -40.58798 lineto
-133.93542 -40.33885 lineto
-133.57901 -40.08798 lineto
-133.22348 -39.83537 lineto
-132.86707 -39.58105 lineto
-132.51152 -39.32585 lineto
-132.15512 -39.06807 lineto
-131.79958 -38.80942 lineto
-131.44318 -38.54903 lineto
-131.08417 -38.28519 lineto
-130.72862 -38.0222 lineto
-130.37222 -37.75749 lineto
-130.01668 -37.49106 lineto
-129.89784 -37.40201 -129.70947 -37.26086 -129.66028 -37.22375 curveto
-129.57278 -37.15776 -129.42316 -37.04393 -129.30473 -36.95384 curveto
-129.22884 -36.89612 -129.06714 -36.77332 -128.94832 -36.68307 curveto
-128.59192 -36.41145 lineto
-128.53024 -36.36414 -128.35484 -36.2287 -128.23637 -36.13722 curveto
-127.87997 -35.86214 lineto
-127.76593 -35.77391 -127.64288 -35.67825 -127.52443 -35.58618 curveto
-127.40552 -35.49374 -127.28348 -35.39888 -127.16801 -35.30849 curveto
-127.13249 -35.28069 -126.93097 -35.12224 -126.81248 -35.02908 curveto
-126.69366 -34.93567 -126.48108 -34.76852 -126.45607 -34.7488 curveto
-126.34103 -34.658 -126.21663 -34.55917 -126.09706 -34.46419 curveto
-125.97849 -34.36998 -125.85326 -34.2705 -125.74153 -34.18132 curveto
-125.38512 -33.89584 lineto
-125.02957 -33.61037 lineto
-124.67317 -33.32317 lineto
-124.66182 -33.31396 -124.43614 -33.13055 -124.31763 -33.03424 curveto
-124.1988 -32.93767 -123.99829 -32.77472 -123.96123 -32.74445 curveto
-123.94044 -32.72746 -123.72418 -32.55011 -123.60568 -32.45291 curveto
-123.48686 -32.35545 -123.2672 -32.1753 -123.24927 -32.16052 curveto
-123.19397 -32.11497 -123.0122 -31.96448 -122.89374 -31.8664 curveto
-122.53732 -31.57141 lineto
-122.18092 -31.27469 lineto
-121.82538 -30.97711 lineto
-121.70654 -30.87766 -121.52452 -30.72531 -121.46896 -30.67867 curveto
-121.11084 -30.37675 lineto
-120.75443 -30.07484 lineto
-120.39888 -29.77295 lineto
-120.29385 -29.68361 -120.16125 -29.57056 -120.04248 -29.4693 curveto
-119.92357 -29.36792 -119.80008 -29.26263 -119.68607 -29.1648 curveto
-119.64917 -29.13313 -119.44902 -28.96066 -119.33054 -28.85857 curveto
-118.97412 -28.55147 lineto
-118.61858 -28.24352 lineto
-118.49974 -28.14061 -118.30644 -27.97319 -118.26218 -27.93468 curveto
-118.21378 -27.89256 -118.02512 -27.72768 -117.90663 -27.62411 curveto
-117.55023 -27.3127 lineto
-117.19469 -27.00041 lineto
-116.83827 -26.68639 lineto
-116.48274 -26.3715 lineto
-116.12373 -26.05403 lineto
-115.76733 -25.73741 lineto
-115.41179 -25.41907 lineto
-115.05537 -25.10072 lineto
-114.69984 -24.78065 lineto
-114.34343 -24.46057 lineto
-114.26738 -24.39204 -114.10634 -24.24611 -113.98788 -24.13878 curveto
-113.63148 -23.8161 lineto
-113.27507 -23.49257 lineto
-112.91954 -23.16817 lineto
-112.8007 -23.05978 -112.61287 -22.8885 -112.56313 -22.84291 curveto
-112.20758 -22.51591 lineto
-111.85118 -22.18892 lineto
-111.75162 -22.0974 -111.61409 -21.97041 -111.49564 -21.86105 curveto
-111.13663 -21.52974 lineto
-110.78023 -21.20015 lineto
-110.42468 -20.86884 lineto
-110.06828 -20.5375 lineto
-110.06317 -20.53275 -109.83125 -20.31606 -109.71274 -20.20532 curveto
-109.59393 -20.09431 -109.36621 -19.88153 -109.35632 -19.87227 curveto
-109.0008 -19.53836 lineto
-108.64438 -19.20444 lineto
-108.5789 -19.1429 -108.40729 -18.98074 -108.28883 -18.8688 curveto
-107.93243 -18.53229 lineto
-107.8661 -18.4696 -107.69539 -18.30797 -107.57689 -18.19577 curveto
-107.22049 -17.8584 lineto
-106.86407 -17.52016 lineto
-106.50853 -17.18106 lineto
-106.14954 -16.83936 lineto
-105.79399 -16.49852 lineto
-105.43759 -16.15768 lineto
-105.08205 -15.81598 lineto
-104.72563 -15.47429 lineto
-104.36923 -15.13086 lineto
-104.25072 -15.01637 -104.03471 -14.80768 -104.01369 -14.78741 curveto
-103.65729 -14.44398 lineto
-103.65533 -14.4421 -103.42026 -14.21446 -103.30174 -14.0997 curveto
-103.18294 -13.98465 -102.95854 -13.76736 -102.94533 -13.75453 curveto
-102.5898 -13.40851 lineto
-102.23338 -13.06248 lineto
-101.87784 -12.71559 lineto
-101.52144 -12.3687 lineto
-101.16243 -12.01834 lineto
-100.8069 -11.66972 lineto
-100.45049 -11.3211 lineto
-100.09494 -10.97249 lineto
-99.97612 -10.85602 -99.778 -10.6618 -99.73854 -10.623 curveto
-99.383 -10.27264 lineto
-99.0266 -9.9223 lineto
-98.93039 -9.82768 -98.78952 -9.68877 -98.67105 -9.57195 curveto
-98.31464 -9.22073 lineto
-98.19579 -9.10371 -98.04399 -8.95425 -97.95824 -8.8695 curveto
-97.60269 -8.51743 lineto
-97.24629 -8.16534 lineto
-96.89075 -7.81326 lineto
-96.77191 -7.69565 -96.57489 -7.50063 -96.53433 -7.46033 curveto
-96.1762 -7.10391 lineto
-95.8198 -6.75096 lineto
-95.46425 -6.39716 lineto
-95.10785 -6.04335 lineto
-94.98897 -5.92549 -94.85965 -5.79729 -94.75143 -5.68953 curveto
-94.39589 -5.33485 lineto
-94.03949 -4.98018 lineto
-93.68394 -4.6255 lineto
-93.32755 -4.27083 lineto
-93.32076 -4.26407 -93.09052 -4.03438 -92.972 -3.91615 curveto
-92.61559 -3.56061 lineto
-92.26006 -3.20506 lineto
-92.14888 -3.09396 -92.02249 -2.96799 -91.90364 -2.84952 curveto
-91.54724 -2.49399 lineto
-91.50366 -2.45047 -91.30847 -2.25523 -91.1891 -2.13585 curveto
-90.83269 -1.77943 lineto
-90.7142 -1.66089 -90.5442 -1.4908 -90.47716 -1.4239 curveto
-90.12074 -1.06836 lineto
-89.7652 -0.71194 lineto
-89.73878 -0.68552 -89.52762 -0.4749 -89.4088 -0.3564 curveto
-89.05238 0 lineto
-88.93388 0.1188 -88.71721 0.33606 -88.69685 0.3564 curveto
-88.34044 0.71194 lineto
-87.9849 1.06836 lineto
-87.6285 1.4239 lineto
-87.55464 1.4976 -87.39143 1.66089 -87.27295 1.77943 curveto
-86.91655 2.13585 lineto
-86.79718 2.25523 -86.61435 2.43811 -86.55841 2.49399 curveto
-86.202 2.84952 lineto
-85.8456 3.20506 lineto
-85.49005 3.56061 lineto
-85.13365 3.91615 lineto
-85.01514 4.03438 -84.79718 4.25185 -84.7781 4.27083 curveto
-84.42169 4.6255 lineto
-84.06615 4.98018 lineto
-83.70975 5.33485 lineto
-83.3542 5.68953 lineto
-83.24335 5.79993 -83.11668 5.92549 -82.9978 6.04335 curveto
-82.64139 6.39716 lineto
-82.28584 6.75096 lineto
-81.92944 7.10391 lineto
-81.5713 7.46033 lineto
-81.52954 7.50182 -81.33372 7.69565 -81.2149 7.81326 curveto
-80.85936 8.16534 lineto
-80.50294 8.51743 lineto
-80.14742 8.8695 lineto
-80.06409 8.95187 -79.90985 9.10371 -79.791 9.22073 curveto
-79.4346 9.57195 lineto
-79.31613 9.68877 -79.17856 9.82443 -79.07906 9.9223 curveto
-78.72264 10.27264 lineto
-78.36711 10.623 lineto
-78.32658 10.66284 -78.12952 10.85602 -78.0107 10.97249 curveto
-77.65515 11.3211 lineto
-77.29875 11.66972 lineto
-76.9432 12.01834 lineto
-76.58421 12.3687 lineto
-76.2278 12.71559 lineto
-75.87225 13.06248 lineto
-75.51585 13.40851 lineto
-75.16031 13.75453 lineto
-75.14534 13.76907 -74.92271 13.98465 -74.80391 14.0997 curveto
-74.6854 14.21446 -74.45663 14.43599 -74.44836 14.44398 curveto
-74.09195 14.78741 lineto
-74.07468 14.80406 -73.85492 15.01637 -73.73642 15.13086 curveto
-73.38 15.47429 lineto
-73.0236 15.81598 lineto
-72.66806 16.15768 lineto
-72.31165 16.49852 lineto
-71.95612 16.83936 lineto
-71.5971 17.18106 lineto
-71.24156 17.52016 lineto
-70.88516 17.8584 lineto
-70.52875 18.19577 lineto
-70.41025 18.30797 -70.23813 18.47092 -70.1732 18.53229 curveto
-69.8168 18.8688 lineto
-69.69833 18.98074 -69.52618 19.1434 -69.46126 19.20444 curveto
-69.10486 19.53836 lineto
-68.74931 19.87227 lineto
-68.74155 19.87955 -68.5117 20.09431 -68.3929 20.20532 curveto
-68.2744 20.31606 -68.04475 20.53062 -68.03737 20.5375 curveto
-67.68095 20.86884 lineto
-67.32541 21.20015 lineto
-66.96901 21.52974 lineto
-66.61 21.86105 lineto
-66.49156 21.97041 -66.35345 22.09793 -66.25447 22.18892 curveto
-65.89806 22.51591 lineto
-65.54251 22.84291 lineto
-65.49222 22.88899 -65.30495 23.05978 -65.18611 23.16817 curveto
-64.83057 23.49257 lineto
-64.47417 23.8161 lineto
-64.11775 24.13878 lineto
-63.9993 24.24611 -63.8359 24.39417 -63.7622 24.46057 curveto
-63.4058 24.78065 lineto
-63.05026 25.10072 lineto
-62.69386 25.41907 lineto
-62.33832 25.73741 lineto
-61.9819 26.05403 lineto
-61.62291 26.3715 lineto
-61.26736 26.68639 lineto
-60.91096 27.00041 lineto
-60.55542 27.3127 lineto
-60.199 27.62411 lineto
-60.08052 27.72768 -59.89024 27.894 -59.84348 27.93468 curveto
-59.79996 27.97253 -59.6059 28.1406 -59.48706 28.24352 curveto
-59.13152 28.55147 lineto
-58.77512 28.85857 lineto
-58.65663 28.96066 -58.46107 29.12918 -58.41957 29.1648 curveto
-58.30394 29.26404 -58.18208 29.36792 -58.06317 29.4693 curveto
-57.9444 29.57056 -57.81715 29.67905 -57.70676 29.77295 curveto
-57.35121 30.07484 lineto
-56.99481 30.37675 lineto
-56.63667 30.67867 lineto
-56.58563 30.72153 -56.39908 30.87766 -56.28026 30.97711 curveto
-55.92473 31.27469 lineto
-55.56831 31.57141 lineto
-55.21191 31.8664 lineto
-55.09344 31.9645 -54.91632 32.11115 -54.85637 32.16052 curveto
-54.84283 32.17166 -54.61876 32.35545 -54.49995 32.45291 curveto
-54.38145 32.55011 -54.1644 32.72813 -54.14442 32.74445 curveto
-54.10689 32.7751 -53.90685 32.93767 -53.78801 33.03424 curveto
-53.6695 33.13055 -53.44283 33.31477 -53.43246 33.32317 curveto
-53.07607 33.61037 lineto
-52.72052 33.89584 lineto
-52.36412 34.18132 lineto
-52.2531 34.26994 -52.12715 34.36998 -52.00858 34.46419 curveto
-51.889 34.55917 -51.76395 34.65852 -51.64957 34.7488 curveto
-51.62119 34.7712 -51.41199 34.93567 -51.29317 35.02908 curveto
-51.17467 35.12224 -50.97575 35.27864 -50.93762 35.30849 curveto
-50.82202 35.39899 -50.70012 35.49374 -50.58122 35.58618 curveto
-50.46278 35.67825 -50.34007 35.77365 -50.22568 35.86214 curveto
-49.86926 36.13722 lineto
-49.75081 36.2287 -49.57379 36.36537 -49.51373 36.41145 curveto
-49.15732 36.68307 lineto
-49.0385 36.7733 -48.88945 36.88649 -48.80092 36.95384 curveto
-48.6825 37.04393 -48.53351 37.15727 -48.44537 37.22375 curveto
-48.39816 37.25937 -48.2078 37.40201 -48.08896 37.49106 curveto
-47.73343 37.75749 lineto
-47.37701 38.0222 lineto
-47.02147 38.28519 lineto
-46.66248 38.54903 lineto
-46.30606 38.80942 lineto
-45.95053 39.06807 lineto
-45.59412 39.32585 lineto
-45.23857 39.58105 lineto
-44.88217 39.83537 lineto
-44.52663 40.08798 lineto
-44.17023 40.33885 lineto
-43.81468 40.58798 lineto
-43.45827 40.83626 lineto
-43.10274 41.08194 lineto
-42.74632 41.32675 lineto
-42.38992 41.56984 lineto
-42.03178 41.81291 lineto
-41.67537 42.05254 lineto
-41.31982 42.29044 lineto
-40.96342 42.5266 lineto
-40.60788 42.76103 lineto
-40.4935 42.83607 -40.37036 42.91629 -40.25148 42.99373 curveto
-40.13272 43.07109 -40.00732 43.15279 -39.89507 43.22557 curveto
-39.53952 43.45482 lineto
-39.18312 43.68233 lineto
-39.06465 43.75795 -38.8924 43.86792 -38.82758 43.90897 curveto
-38.72165 43.97606 -38.59009 44.0585 -38.47118 44.13303 curveto
-38.35274 44.20724 -38.21722 44.29218 -38.11563 44.35535 curveto
-38.08086 44.37697 -37.87804 44.50244 -37.75922 44.57594 curveto
-37.64073 44.64923 -37.45587 44.7636 -37.40369 44.79567 curveto
-37.04468 45.01453 lineto
-36.68828 45.22992 lineto
-36.33273 45.4436 lineto
-35.97632 45.65553 lineto
-35.62079 45.86575 lineto
-35.51358 45.92879 -35.38324 46.00485 -35.26437 46.07423 curveto
-35.14597 46.14334 -35.02039 46.21663 -34.90883 46.28098 curveto
-34.86885 46.30403 -34.67125 46.41713 -34.55243 46.48514 curveto
-34.43394 46.55295 -34.24237 46.6626 -34.19688 46.68843 curveto
-34.09746 46.74487 -33.95938 46.82239 -33.84048 46.88911 curveto
-33.72171 46.95578 -33.56183 47.04553 -33.48407 47.08894 curveto
-33.12852 47.28618 lineto
-32.77213 47.48169 lineto
-32.41658 47.6746 lineto
-32.05759 47.86838 lineto
-31.70204 48.05782 lineto
-31.34563 48.24554 lineto
-30.9901 48.43153 lineto
-30.63368 48.61578 lineto
-30.27728 48.79832 lineto
-29.92174 48.97826 lineto
-29.56532 49.15645 lineto
-29.2098 49.33293 lineto
-28.85338 49.50768 lineto
-28.49783 49.67982 lineto
-28.14143 49.85023 lineto
-27.78589 50.01892 lineto
-27.42949 50.18588 lineto
-27.07048 50.35197 lineto
-26.71494 50.5146 lineto
-26.65477 50.54184 -26.47737 50.62137 -26.35854 50.67464 curveto
-26.24005 50.72775 -26.05943 50.80873 -26.00299 50.83382 curveto
-25.64658 50.99039 lineto
-25.29105 51.14438 lineto
-24.93463 51.29749 lineto
-24.57909 51.44801 lineto
-24.22269 51.5968 lineto
-23.86627 51.743 lineto
-23.51074 51.88747 lineto
-23.15433 52.0302 lineto
-22.79878 52.17035 lineto
-22.44238 52.30875 lineto
-22.3463 52.34569 -22.20366 52.39998 -22.08424 52.44543 curveto
-21.96552 52.49063 -21.8339 52.54073 -21.72784 52.58038 curveto
-21.37143 52.71187 lineto
-21.01588 52.84163 lineto
-20.65948 52.96967 lineto
-20.30394 53.09596 lineto
-19.94754 53.21967 lineto
-19.592 53.34164 lineto
-19.23558 53.46101 lineto
-18.88005 53.5778 lineto
-18.52364 53.69373 lineto
-18.16809 53.80704 lineto
-17.81169 53.91777 lineto
-17.45528 54.02676 lineto
-17.09715 54.13403 lineto
-16.74074 54.23871 lineto
-16.3852 54.34166 lineto
-16.0288 54.442 lineto
-15.67325 54.54062 lineto
-15.31685 54.63664 lineto
-14.96043 54.73007 lineto
-14.60489 54.82176 lineto
-14.24849 54.91173 lineto
-13.89294 54.9991 lineto
-13.53654 55.08475 lineto
-13.181 55.16779 lineto
-12.82458 55.24825 lineto
-12.46904 55.32697 lineto
-12.11005 55.40482 lineto
-11.75363 55.47922 lineto
-11.3981 55.55101 lineto
-11.04169 55.62108 lineto
-10.68614 55.68857 lineto
-10.32974 55.7543 lineto
-9.9742 55.81746 lineto
-9.6178 55.87888 lineto
-9.26225 55.9377 lineto
-8.90584 55.9948 lineto
-8.54944 56.04929 lineto
-8.1939 56.10207 lineto
-7.8375 56.15224 lineto
-7.48195 56.19981 lineto
-7.37103 56.21426 -7.24263 56.23051 -7.12294 56.24567 curveto
-7.00447 56.26067 -6.88196 56.27617 -6.76741 56.28978 curveto
-6.68709 56.29932 -6.52982 56.31705 -6.411 56.33044 curveto
-6.2922 56.34384 -6.12885 56.36226 -6.0546 56.37024 curveto
-5.69905 56.40657 lineto
-5.34264 56.44116 lineto
-4.9871 56.47404 lineto
-4.9231 56.47961 -4.74951 56.49376 -4.63069 56.50345 curveto
-4.51219 56.5131 -4.34619 56.52664 -4.27515 56.532 curveto
-4.20259 56.53746 -4.03755 56.54887 -3.91875 56.55708 curveto
-3.80025 56.56528 -3.62808 56.57718 -3.5632 56.58131 curveto
-3.2068 56.60207 lineto
-2.85126 56.6211 lineto
-2.49484 56.6384 lineto
-2.4264 56.64134 -2.25552 56.64775 -2.13585 56.65224 curveto
-2.01733 56.6567 -1.84834 56.66304 -1.7803 56.66522 curveto
-1.4239 56.67473 lineto
-1.06836 56.68253 lineto
-0.71194 56.68858 lineto
-0.3564 56.69203 lineto
0 56.6929 lineto stroke
 1 1 1 setrgbcolor 0.49814
 0 dtransform exch truncate exch idtransform pop setlinewidth [] 0 setdash
newpath -178.10564 0 moveto
-178.10564 -56.6929 lineto stroke
 0 0.49814 dtransform truncate idtransform setlinewidth pop
newpath -179.63643 -52.99733 moveto
-178.10564 -56.6929 lineto
-176.57484 -52.99733 lineto
 closepath
gsave fill grestore stroke
newpath -178.10564 -56.6929 moveto
0 -56.6929 lineto stroke
newpath -3.69586 -58.22382 moveto
0 -56.6929 lineto
-3.69586 -55.16199 lineto
 closepath
gsave fill grestore stroke
newpath 178.10564 -56.6929 moveto
0 -56.6929 lineto stroke
newpath 3.69586 -55.16199 moveto
0 -56.6929 lineto
3.69586 -58.22382 lineto
 closepath
gsave fill grestore stroke
 0.49814 0 dtransform exch truncate exch idtransform pop setlinewidth
newpath 178.10564 0 moveto
178.10564 -56.6929 lineto stroke
 0 0.49814 dtransform truncate idtransform setlinewidth pop
newpath 176.57484 -52.99733 moveto
178.10564 -56.6929 lineto
179.63643 -52.99733 lineto
 closepath
gsave fill grestore stroke
-184.90514 5.8269 moveto
(-) eufm10 9.96265 fshow
-177.37344 5.8269 moveto
(\031) eurm10 9.96265 fshow
 0 3 dtransform truncate idtransform setlinewidth pop
newpath -178.10564 0 moveto 0 0 rlineto stroke
175.07204 5 moveto
(\031) eurm10 9.96265 fshow
newpath 178.10564 0 moveto 0 0 rlineto stroke
-16.01309 -66.61328 moveto
(-) eufm10 9.96265 fshow
-8.4814 -66.61328 moveto
(1) cmr10 9.96265 fshow
newpath 0 -56.6929 moveto 0 0 rlineto stroke
3.49998 60.19289 moveto
(1) cmr10 9.96265 fshow
newpath 0 56.6929 moveto 0 0 rlineto stroke
93.74873 10.86238 moveto
(\031) eurm7 6.97385 fshow
 0 0.3985 dtransform truncate idtransform setlinewidth pop 0 setlinecap
newpath 93.74873 9.49748 moveto
98.97214 9.49748 lineto stroke
94.37483 3.49998 moveto
(2) cmr7 6.97385 fshow
-107.69943 6.93709 moveto
(-) eufm10 9.96265 fshow
-98.97214 10.86238 moveto
(\031) eurm7 6.97385 fshow
newpath -98.97214 9.49748 moveto
-93.74873 9.49748 lineto stroke
-98.34613 3.49998 moveto
(2) cmr7 6.97385 fshow
grestore
grestore
grestore
grestore
grestore
grestore
grestore
showpage
%%EOF
