%!PS
%%BoundingBox: -256 -256 256 256 
%%HiResBoundingBox: -255.36742 -255.36742 255.36742 255.36742 
%%Creator: MetaPost 2.02
%%CreationDate: 2024.01.06:1112
%%Pages: 1
%*Font: cmr10 9.96265 9.96265 30:8
%*Font: cmsy7 6.97385 6.97385 70:8
%*Font: cmr7 6.97385 6.97385 31:fc
%*Font: eufm10 9.96265 9.96265 2d:8
%*Font: eurm10 9.96265 9.96265 19:8
%*Font: eurm7 6.97385 6.97385 19:8
%%BeginProlog
%%EndProlog
%%Page: 1 1
 1 1 1 setrgbcolor 0 0.5 dtransform truncate idtransform setlinewidth pop
 [] 0 setdash 1 setlinecap 1 setlinejoin 10 setmiterlimit
newpath -255.11742 0 moveto
255.11742 0 lineto stroke
newpath 251.42029 -1.53143 moveto
255.11742 0 lineto
251.42029 1.53143 lineto
 closepath
gsave fill grestore stroke
 0.5 0 dtransform exch truncate exch idtransform pop setlinewidth
newpath 0 -255.11742 moveto
0 255.11742 lineto stroke
 0 0.5 dtransform truncate idtransform setlinewidth pop
newpath 1.53143 251.42029 moveto
0 255.11742 lineto
-1.53143 251.42029 lineto
 closepath
gsave fill grestore stroke
 1 0.7 0.7 setrgbcolor 0 1.3 dtransform truncate idtransform setlinewidth pop
newpath 212.59839 0 moveto
212.59839 56.3871 190.19536 110.458 150.32668 150.32668 curveto
110.458 190.19536 56.3871 212.59839 0 212.59839 curveto
-56.3871 212.59839 -110.458 190.19536 -150.32668 150.32668 curveto
-190.19536 110.458 -212.59839 56.3871 -212.59839 0 curveto
-212.59839 -56.3871 -190.19536 -110.458 -150.32668 -150.32668 curveto
-110.458 -190.19536 -56.3871 -212.59839 0 -212.59839 curveto
56.3871 -212.59839 110.458 -190.19536 150.32668 -150.32668 curveto
190.19536 -110.458 212.59839 -56.3871 212.59839 0 curveto closepath stroke
 0 0.5 dtransform truncate idtransform setlinewidth pop
 [3 3 ] 0 setdash
newpath 212.59839 0 moveto
106.2992 184.11612 lineto
0 0 lineto stroke
newpath 106.2992 184.11612 moveto
-106.30008 184.11612 lineto
0 0 lineto stroke
newpath -106.2992 184.11612 moveto
-212.59927 0 lineto
0 0 lineto stroke
newpath -212.59839 0 moveto
-106.2992 -184.11612 lineto
0 0 lineto stroke
newpath -106.2992 -184.11612 moveto
106.30008 -184.11612 lineto
0 0 lineto stroke
newpath 106.2992 -184.11612 moveto
212.59927 0 lineto
0 0 lineto stroke
 0.5 0 dtransform exch truncate exch idtransform pop setlinewidth
newpath 106.2992 -184.11612 moveto
106.2992 184.11612 lineto stroke
newpath -106.2992 -184.11612 moveto
-106.2992 184.11612 lineto stroke
 1 1 1 setrgbcolor
216.09837 -9.92038 moveto
(0) cmr10 9.96265 fshow
 0 3 dtransform truncate idtransform setlinewidth pop [] 0 setdash
newpath 212.59839 0 moveto 0 0 rlineto stroke
 1 0.7 0.7 setrgbcolor
110.99467 -7.99419 moveto
(1) cmr7 6.97385 fshow
 0 0.3985 dtransform truncate idtransform setlinewidth pop 0 setlinecap
newpath 110.99467 -9.35909 moveto
114.96597 -9.35909 lineto stroke
110.99467 -15.35658 moveto
(2) cmr7 6.97385 fshow
-102.79921 -11.91948 moveto
(-) eufm10 9.96265 fshow
-94.07191 -7.99419 moveto
(1) cmr7 6.97385 fshow
newpath -94.07191 -9.35909 moveto
-90.10071 -9.35909 lineto stroke
-94.07191 -15.35658 moveto
(2) cmr7 6.97385 fshow
 1 1 1 setrgbcolor
-222.16557 -8.07278 moveto
(\031) eurm10 9.96265 fshow
 0 3 dtransform truncate idtransform setlinewidth pop 1 setlinecap
newpath -212.59839 0 moveto 0 0 rlineto stroke
 1 0.7 0.7 setrgbcolor
110.99467 194.9785 moveto
(\031) eurm7 6.97385 fshow
 0 0.3985 dtransform truncate idtransform setlinewidth pop 0 setlinecap
newpath 110.99467 193.6136 moveto
116.21808 193.6136 lineto stroke
111.62077 187.6161 moveto
(3) cmr7 6.97385 fshow
-120.18938 194.9785 moveto
(2) cmr7 6.97385 fshow
-116.21808 194.9785 moveto
(\031) eurm7 6.97385 fshow
newpath -120.18938 193.6136 moveto
-110.99467 193.6136 lineto stroke
-117.57767 187.6161 moveto
(3) cmr7 6.97385 fshow
-128.91658 -196.0356 moveto
(-) eufm10 9.96265 fshow
-120.18929 -192.1103 moveto
(2) cmr7 6.97385 fshow
-116.21808 -192.1103 moveto
(\031) eurm7 6.97385 fshow
newpath -120.18929 -193.4752 moveto
-110.99467 -193.4752 lineto stroke
-117.57758 -199.4727 moveto
(3) cmr7 6.97385 fshow
109.79918 -194.7493 moveto
(-) eufm10 9.96265 fshow
118.52647 -190.824 moveto
(\031) eurm7 6.97385 fshow
newpath 118.52647 -192.1889 moveto
123.74988 -192.1889 lineto stroke
119.15248 -198.1864 moveto
(3) cmr7 6.97385 fshow
-15.20819 179.93274 moveto
(p) cmsy7 6.97385 fshow
 0 0.3417 dtransform truncate idtransform setlinewidth pop
newpath -8.66669 180.10355 moveto
-4.69548 180.10355 lineto stroke
-8.66669 174.19514 moveto
(3) cmr7 6.97385 fshow
 0 0.3985 dtransform truncate idtransform setlinewidth pop
newpath -15.20819 172.70284 moveto
-4.69548 172.70284 lineto stroke
-11.9374 166.70534 moveto
(2) cmr7 6.97385 fshow
-23.93549 -177.17903 moveto
(-) eufm10 9.96265 fshow
-15.20819 -167.38873 moveto
(p) cmsy7 6.97385 fshow
 0 0.3417 dtransform truncate idtransform setlinewidth pop
newpath -8.66678 -167.21793 moveto
-4.69548 -167.21793 lineto stroke
-8.66678 -173.12633 moveto
(3) cmr7 6.97385 fshow
 0 0.3985 dtransform truncate idtransform setlinewidth pop
newpath -15.20819 -174.61864 moveto
-4.69548 -174.61864 lineto stroke
-11.93748 -180.61613 moveto
(2) cmr7 6.97385 fshow
 1 0.5 0 setrgbcolor 0 0.5 dtransform truncate idtransform setlinewidth pop
 [3 3 ] 0 setdash 1 setlinecap
newpath 0 212.59839 moveto
184.11612 106.2992 lineto
0 0 lineto stroke
newpath -184.11612 106.2992 moveto
0 212.59927 lineto
0 0 lineto stroke
newpath -184.11612 -106.2992 moveto
-184.11612 106.30008 lineto
0 0 lineto stroke
newpath 0 -212.59839 moveto
-184.11612 -106.2992 lineto
0 0 lineto stroke
newpath 184.11612 -106.2992 moveto
0 -212.59927 lineto
0 0 lineto stroke
newpath 184.11612 106.2992 moveto
184.11612 -106.30008 lineto
0 0 lineto stroke
newpath -184.11612 106.2992 moveto
184.11612 106.2992 lineto stroke
newpath -184.11612 -106.2992 moveto
184.11612 -106.2992 lineto stroke
188.8116 117.16158 moveto
(\031) eurm7 6.97385 fshow
 0 0.3985 dtransform truncate idtransform setlinewidth pop [] 0 setdash
 0 setlinecap
newpath 188.8116 115.79668 moveto
194.035 115.79668 lineto stroke
189.4377 109.79918 moveto
(6) cmr7 6.97385 fshow
 1 1 1 setrgbcolor
4.69548 223.46165 moveto
(\031) eurm7 6.97385 fshow
newpath 4.69548 222.09676 moveto
9.91888 222.09676 lineto stroke
5.32158 216.09926 moveto
(2) cmr7 6.97385 fshow
 0 3 dtransform truncate idtransform setlinewidth pop 1 setlinecap
newpath 0 212.59927 moveto 0 0 rlineto stroke
 1 0.5 0 setrgbcolor
-198.0063 117.16246 moveto
(5) cmr7 6.97385 fshow
-194.035 117.16246 moveto
(\031) eurm7 6.97385 fshow
 0 0.3985 dtransform truncate idtransform setlinewidth pop 0 setlinecap
newpath -198.0063 115.79756 moveto
-188.8116 115.79756 lineto stroke
-195.39459 109.80006 moveto
(6) cmr7 6.97385 fshow
-206.7335 -118.21867 moveto
(-) eufm10 9.96265 fshow
-198.00621 -114.29338 moveto
(5) cmr7 6.97385 fshow
-194.035 -114.29338 moveto
(\031) eurm7 6.97385 fshow
newpath -198.00621 -115.65828 moveto
-188.8116 -115.65828 lineto stroke
-195.3945 -121.65578 moveto
(6) cmr7 6.97385 fshow
-18.64618 -223.23245 moveto
(-) eufm10 9.96265 fshow
-9.91888 -219.30716 moveto
(\031) eurm7 6.97385 fshow
newpath -9.91888 -220.67206 moveto
-4.69548 -220.67206 lineto stroke
-9.29288 -226.66956 moveto
(2) cmr7 6.97385 fshow
187.6161 -116.93326 moveto
(-) eufm10 9.96265 fshow
196.3434 -113.00797 moveto
(\031) eurm7 6.97385 fshow
newpath 196.3434 -114.37286 moveto
201.5668 -114.37286 lineto stroke
196.9694 -120.37036 moveto
(6) cmr7 6.97385 fshow
168.90793 -4.18338 moveto
(p) cmsy7 6.97385 fshow
 0 0.3417 dtransform truncate idtransform setlinewidth pop
newpath 175.44943 -4.01257 moveto
179.42064 -4.01257 lineto stroke
175.44943 -9.92097 moveto
(3) cmr7 6.97385 fshow
 0 0.3985 dtransform truncate idtransform setlinewidth pop
newpath 168.90793 -11.41328 moveto
179.42064 -11.41328 lineto stroke
172.17873 -17.41078 moveto
(2) cmr7 6.97385 fshow
-180.61613 -13.97368 moveto
(-) eufm10 9.96265 fshow
-171.88884 -4.18338 moveto
(p) cmsy7 6.97385 fshow
 0 0.3417 dtransform truncate idtransform setlinewidth pop
newpath -165.34743 -4.01257 moveto
-161.37613 -4.01257 lineto stroke
-165.34743 -9.92097 moveto
(3) cmr7 6.97385 fshow
 0 0.3985 dtransform truncate idtransform setlinewidth pop
newpath -171.88884 -11.41328 moveto
-161.37613 -11.41328 lineto stroke
-168.61813 -17.41078 moveto
(2) cmr7 6.97385 fshow
-8.6668 98.30501 moveto
(1) cmr7 6.97385 fshow
newpath -8.6668 96.94011 moveto
-4.6955 96.94011 lineto stroke
-8.6668 90.94261 moveto
(2) cmr7 6.97385 fshow
-17.39398 -118.21867 moveto
(-) eufm10 9.96265 fshow
-8.66669 -114.29338 moveto
(1) cmr7 6.97385 fshow
newpath -8.66669 -115.65828 moveto
-4.69548 -115.65828 lineto stroke
-8.66669 -121.65578 moveto
(2) cmr7 6.97385 fshow
 0 1 1 setrgbcolor 0 0.5 dtransform truncate idtransform setlinewidth pop
 [3 3 ] 0 setdash 1 setlinecap
newpath 150.32993 -150.32993 moveto
150.32993 150.32993 lineto
0 0 lineto stroke
newpath 150.32993 150.32993 moveto
-150.32993 150.32993 lineto
0 0 lineto stroke
newpath -150.32993 150.32993 moveto
-150.32993 -150.32993 lineto
0 0 lineto stroke
newpath -150.32993 -150.32993 moveto
150.32993 -150.32993 lineto
0 0 lineto stroke
155.0254 161.1923 moveto
(\031) eurm7 6.97385 fshow
 0 0.3985 dtransform truncate idtransform setlinewidth pop [] 0 setdash
 0 setlinecap
newpath 155.0254 159.82741 moveto
160.24881 159.82741 lineto stroke
155.6515 153.82991 moveto
(4) cmr7 6.97385 fshow
 1 1 1 setrgbcolor
4.69548 223.46077 moveto
(\031) eurm7 6.97385 fshow
newpath 4.69548 222.09587 moveto
9.91888 222.09587 lineto stroke
5.32158 216.09837 moveto
(2) cmr7 6.97385 fshow
 0 3 dtransform truncate idtransform setlinewidth pop 1 setlinecap
newpath 0 212.59839 moveto 0 0 rlineto stroke
 0 1 1 setrgbcolor
-164.22011 161.1923 moveto
(3) cmr7 6.97385 fshow
-160.24881 161.1923 moveto
(\031) eurm7 6.97385 fshow
 0 0.3985 dtransform truncate idtransform setlinewidth pop 0 setlinecap
newpath -164.22011 159.82741 moveto
-155.0254 159.82741 lineto stroke
-161.6084 153.82991 moveto
(4) cmr7 6.97385 fshow
 1 1 1 setrgbcolor
-222.16557 -8.07278 moveto
(\031) eurm10 9.96265 fshow
 0 3 dtransform truncate idtransform setlinewidth pop 1 setlinecap
newpath -212.59839 0 moveto 0 0 rlineto stroke
 0 1 1 setrgbcolor
-172.94731 -162.2494 moveto
(-) eufm10 9.96265 fshow
-164.22002 -158.32411 moveto
(3) cmr7 6.97385 fshow
-160.24881 -158.32411 moveto
(\031) eurm7 6.97385 fshow
 0 0.3985 dtransform truncate idtransform setlinewidth pop 0 setlinecap
newpath -164.22002 -159.68901 moveto
-155.0254 -159.68901 lineto stroke
-161.6083 -165.68651 moveto
(4) cmr7 6.97385 fshow
 1 1 1 setrgbcolor
-18.64618 -223.23157 moveto
(-) eufm10 9.96265 fshow
-9.91888 -219.30627 moveto
(\031) eurm7 6.97385 fshow
newpath -9.91888 -220.67117 moveto
-4.69548 -220.67117 lineto stroke
-9.29288 -226.66867 moveto
(2) cmr7 6.97385 fshow
 0 1 1 setrgbcolor
153.82991 -160.9631 moveto
(-) eufm10 9.96265 fshow
162.5572 -157.03781 moveto
(\031) eurm7 6.97385 fshow
newpath 162.5572 -158.40271 moveto
167.78061 -158.40271 lineto stroke
163.18321 -164.4002 moveto
(4) cmr7 6.97385 fshow
135.12173 16.72739 moveto
(p) cmsy7 6.97385 fshow
 0 0.3417 dtransform truncate idtransform setlinewidth pop
newpath 141.66324 16.8982 moveto
145.63445 16.8982 lineto stroke
141.66324 10.98979 moveto
(2) cmr7 6.97385 fshow
 0 0.3985 dtransform truncate idtransform setlinewidth pop
newpath 135.12173 9.49748 moveto
145.63445 9.49748 lineto stroke
138.39253 3.49998 moveto
(2) cmr7 6.97385 fshow
-146.82994 6.93709 moveto
(-) eufm10 9.96265 fshow
-138.10265 16.72739 moveto
(p) cmsy7 6.97385 fshow
 0 0.3417 dtransform truncate idtransform setlinewidth pop
newpath -131.56123 16.8982 moveto
-127.58994 16.8982 lineto stroke
-131.56123 10.98979 moveto
(2) cmr7 6.97385 fshow
 0 0.3985 dtransform truncate idtransform setlinewidth pop
newpath -138.10265 9.49748 moveto
-127.58994 9.49748 lineto stroke
-134.83194 3.49998 moveto
(2) cmr7 6.97385 fshow
4.69548 146.14655 moveto
(p) cmsy7 6.97385 fshow
 0 0.3417 dtransform truncate idtransform setlinewidth pop
newpath 11.23698 146.31735 moveto
15.20819 146.31735 lineto stroke
11.23698 140.40895 moveto
(2) cmr7 6.97385 fshow
 0 0.3985 dtransform truncate idtransform setlinewidth pop
newpath 4.69548 138.91664 moveto
15.20819 138.91664 lineto stroke
7.96628 132.91914 moveto
(2) cmr7 6.97385 fshow
3.49998 -143.39284 moveto
(-) eufm10 9.96265 fshow
12.22728 -133.60254 moveto
(p) cmsy7 6.97385 fshow
 0 0.3417 dtransform truncate idtransform setlinewidth pop
newpath 18.76869 -133.43173 moveto
22.73999 -133.43173 lineto stroke
18.76869 -139.34013 moveto
(2) cmr7 6.97385 fshow
 0 0.3985 dtransform truncate idtransform setlinewidth pop
newpath 12.22728 -140.83244 moveto
22.73999 -140.83244 lineto stroke
15.49799 -146.82994 moveto
(2) cmr7 6.97385 fshow
showpage
%%EOF
