%!PS
%%BoundingBox: -335 -125 335 125 
%%HiResBoundingBox: -334.69814 -124.01573 334.69814 124.01573 
%%Creator: MetaPost 2.02
%%CreationDate: 2024.01.06:1112
%%Pages: 1
%*Font: cmsy10 9.96265 9.96265 00:80000000400000000000000000008
%*Font: cmmi10 9.96265 9.96265 4f:80000000006
%*Font: eurm10 9.96265 9.96265 0b:8002000000000083204000130004
%%BeginProlog
%%EndProlog
%%Page: 1 1
gsave newpath -347.24405 -124.01573 moveto
-347.24405 124.01573 lineto
347.24405 124.01573 lineto
347.24405 -124.01573 lineto
 closepath clip
gsave newpath -347.24405 -124.01573 moveto
-347.24405 124.01573 lineto
347.24405 124.01573 lineto
347.24405 -124.01573 lineto
 closepath clip
gsave newpath -347.24405 -124.01573 moveto
-347.24405 124.01573 lineto
347.24405 124.01573 lineto
347.24405 -124.01573 lineto
 closepath clip
gsave newpath -347.24405 -124.01573 moveto
-347.24405 124.01573 lineto
347.24405 124.01573 lineto
347.24405 -124.01573 lineto
 closepath clip
gsave newpath -347.24405 -124.01573 moveto
-347.24405 124.01573 lineto
347.24405 124.01573 lineto
347.24405 -124.01573 lineto
 closepath clip
gsave newpath -347.24405 -124.01573 moveto
-347.24405 124.01573 lineto
347.24405 124.01573 lineto
347.24405 -124.01573 lineto
 closepath clip
gsave newpath -347.24405 -124.01573 moveto
-347.24405 124.01573 lineto
347.24405 124.01573 lineto
347.24405 -124.01573 lineto
 closepath clip
gsave newpath -347.24405 -124.01573 moveto
-347.24405 124.01573 lineto
347.24405 124.01573 lineto
347.24405 -124.01573 lineto
 closepath clip
gsave newpath -66.78963 -212.5984 moveto
66.78963 -212.5984 lineto
66.78963 212.5984 lineto
-66.78963 212.5984 lineto
 closepath clip
 1 0.5 0 setrgbcolor
newpath -66.78963 -212.5984 moveto
66.78963 -212.5984 lineto
66.78963 212.5984 lineto
-66.78963 212.5984 lineto
 closepath fill
grestore
 1 1 1 setrgbcolor 0 1.1 dtransform truncate idtransform setlinewidth pop
 [] 0 setdash 1 setlinecap 1 setlinejoin 10 setmiterlimit
newpath -297.63779 0 moveto
297.63779 0 lineto stroke
newpath 293.94543 -1.52946 moveto
297.63779 0 lineto
293.94543 1.52946 lineto
 closepath
gsave fill grestore stroke
 1.1 0 dtransform exch truncate exch idtransform pop setlinewidth
newpath 0 -88.58267 moveto
0 88.58267 lineto stroke
 0 1.1 dtransform truncate idtransform setlinewidth pop
newpath 1.53113 84.8863 moveto
0 88.58267 lineto
-1.53113 84.8863 lineto
 closepath
gsave fill grestore stroke
291.95619 -9.2895 moveto
(x) cmmi10 9.96265 fshow
-10.2419 84.57187 moveto
(y) cmmi10 9.96265 fshow
 1 0.7 0.7 setrgbcolor 0 1.5 dtransform truncate idtransform setlinewidth pop
newpath -66.78963 59.63219 moveto
-66.52264 59.14667 lineto
-66.25566 58.65141 lineto
-65.9887 58.14752 lineto
-65.72171 57.63388 lineto
-65.45473 57.1116 lineto
-65.18742 56.58066 lineto
-64.91849 56.03568 lineto
-64.6515 55.48636 lineto
-64.38454 54.92839 lineto
-64.11755 54.36177 lineto
-63.85057 53.7865 lineto
-63.58359 53.20259 lineto
-63.31628 52.6111 lineto
-63.0493 52.01096 lineto
-62.78232 51.40218 lineto
-62.51534 50.78473 lineto
-62.24837 50.1608 lineto
-61.98138 49.52823 lineto
-61.7144 48.887 lineto
-61.44742 48.23927 lineto
-61.17816 47.57858 lineto
-60.91118 46.91464 lineto
-60.64421 46.24422 lineto
-60.37723 45.56622 lineto
-60.11024 44.88066 lineto
-59.84326 44.18861 lineto
-59.57628 43.48898 lineto
-59.3093 42.78288 lineto
-59.04233 42.07028 lineto
-58.77534 41.35011 lineto
-58.50804 40.62454 lineto
-58.24106 39.89247 lineto
-57.97408 39.15285 lineto
-57.70709 38.40889 lineto
-57.43817 37.65196 lineto
-57.17119 36.89503 lineto
-56.9042 36.1316 lineto
-56.63722 35.36386 lineto
-56.36992 34.58963 lineto
-56.10294 33.80998 lineto
-55.83595 33.02495 lineto
-55.56897 32.23448 lineto
-55.302 31.43971 lineto
-55.03502 30.63953 lineto
-54.76804 29.83502 lineto
-54.50105 29.0251 lineto
-54.23407 28.21086 lineto
-53.96709 27.39229 lineto
-53.69785 26.56291 lineto
-53.43086 25.73569 lineto
-53.16388 24.90414 lineto
-52.8969 24.06935 lineto
-52.62991 23.23024 lineto
-52.36293 22.38788 lineto
-52.09596 21.5412 lineto
-52.0547 21.41003 -51.91795 20.97458 -51.82898 20.69127 curveto
-51.73979 20.40727 -51.63303 20.06732 -51.56168 19.83919 curveto
-51.2947 18.98277 lineto
-51.02771 18.12419 lineto
-50.76073 17.26237 lineto
-50.49374 16.39731 lineto
-50.22676 15.53008 lineto
-49.95784 14.6542 lineto
-49.69054 13.78157 lineto
-49.42355 12.90785 lineto
-49.15657 12.03197 lineto
-48.88959 11.15393 lineto
-48.6226 10.27373 lineto
-48.35564 9.39244 lineto
-48.08865 8.51007 lineto
-47.82167 7.62555 lineto
-47.55469 6.73994 lineto
-47.2877 5.85324 lineto
-47.02072 4.96547 lineto
-46.75342 4.0777 lineto
-46.48643 3.18884 lineto
-46.43242 3.00882 -46.30714 2.59123 -46.21751 2.29242 curveto
-46.20839 2.26201 -46.03952 1.69913 -45.95053 1.40248 curveto
-45.68355 0.51256 lineto
-45.59454 0.21591 -45.46945 -0.20108 -45.41656 -0.37738 curveto
-45.32759 -0.67403 -45.1986 -1.1041 -45.1496 -1.26732 curveto
-45.11324 -1.38843 -44.97139 -1.86061 -44.88228 -2.15726 curveto
-44.88028 -2.1639 -44.7043 -2.74983 -44.61531 -3.04611 curveto
-44.34833 -3.93497 lineto
-44.25934 -4.23125 -44.12859 -4.66663 -44.08134 -4.82382 curveto
-43.81436 -5.7116 lineto
-43.54738 -6.59828 lineto
-43.2804 -7.4839 lineto
-43.01341 -8.36734 lineto
-42.74644 -9.2508 lineto
-42.47719 -10.13965 lineto
-42.2102 -11.01985 lineto
-41.94322 -11.89789 lineto
-41.67624 -12.77377 lineto
-41.40927 -13.64856 lineto
-41.14229 -14.5212 lineto
-41.06061 -14.78758 -40.96436 -15.10081 -40.8753 -15.3906 curveto
-40.78636 -15.68004 -40.6881 -15.99976 -40.60832 -16.2589 curveto
-40.34134 -17.12396 lineto
-40.26762 -17.3621 -40.16321 -17.69853 -40.07404 -17.98578 curveto
-39.98508 -18.27235 -39.87523 -18.62627 -39.80705 -18.84544 curveto
-39.54007 -19.70186 lineto
-39.2731 -20.55502 lineto
-39.00612 -21.40495 lineto
-38.73718 -22.25813 lineto
-38.4702 -23.10156 lineto
-38.20323 -23.94176 lineto
-38.15411 -24.09569 -38.02509 -24.4983 -37.93591 -24.77655 curveto
-37.84697 -25.05411 -37.70792 -25.48799 -37.66895 -25.60918 curveto
-37.40196 -26.43639 lineto
-37.13498 -27.26036 lineto
-36.868 -28.08002 lineto
-36.60101 -28.89534 lineto
-36.33403 -29.70526 lineto
-36.06705 -30.51085 lineto
-35.80008 -31.31212 lineto
-35.5331 -32.10797 lineto
-35.2658 -32.89842 lineto
-34.99686 -33.68996 lineto
-34.72987 -34.47069 lineto
-34.4629 -35.246 lineto
-34.19592 -36.01482 lineto
-33.92894 -36.77824 lineto
-33.66196 -37.53625 lineto
-33.39465 -38.28886 lineto
-33.12767 -39.0339 lineto
-32.86069 -39.77461 lineto
-32.5937 -40.50775 lineto
-32.32674 -41.2344 lineto
-32.05975 -41.95566 lineto
-31.79277 -42.66934 lineto
-31.52383 -43.38193 lineto
-31.25653 -44.08264 lineto
-30.98955 -44.77577 lineto
-30.72258 -45.46242 lineto
-30.4556 -46.1415 lineto
-30.18861 -46.813 lineto
-29.92163 -47.47694 lineto
-29.65465 -48.13438 lineto
-29.38766 -48.78427 lineto
-29.12068 -49.42549 lineto
-28.85371 -50.05916 lineto
-28.58641 -50.68524 lineto
-28.31943 -51.30377 lineto
-28.05244 -51.91364 lineto
-27.78351 -52.52026 lineto
-27.51654 -53.11284 lineto
-27.24956 -53.69783 lineto
-26.98257 -54.27419 lineto
-26.71559 -54.84297 lineto
-26.44829 -55.40201 lineto
-26.1813 -55.95241 lineto
-25.91432 -56.49416 lineto
-25.64734 -57.02725 lineto
-25.38037 -57.55061 lineto
-25.11339 -58.06642 lineto
-24.8464 -58.5714 lineto
-24.57942 -59.06773 lineto
-24.31244 -59.5554 lineto
-24.04318 -60.0366 lineto
-23.77621 -60.50482 lineto
-23.50923 -60.9633 lineto
-23.24225 -61.41205 lineto
-22.97527 -61.85107 lineto
-22.70828 -62.28036 lineto
-22.4413 -62.701 lineto
-22.17432 -63.11082 lineto
-21.90735 -63.50984 lineto
-21.64005 -63.90019 lineto
-21.37306 -64.27974 lineto
-21.10608 -64.64957 lineto
-20.8391 -65.00856 lineto
-20.57211 -65.35783 lineto
-20.30319 -65.69954 lineto
-20.03621 -66.02826 lineto
-19.7689 -66.34618 lineto
-19.50192 -66.65327 lineto
-19.23494 -66.95064 lineto
-18.96796 -67.23718 lineto
-18.70097 -67.51292 lineto
-18.434 -67.77785 lineto
-18.16702 -68.03305 lineto
-17.90004 -68.27635 lineto
-17.63306 -68.50992 lineto
-17.36607 -68.73158 lineto
-17.09909 -68.94353 lineto
-16.83179 -69.14357 lineto
-16.56287 -69.33498 lineto
-16.29588 -69.51338 lineto
-16.0289 -69.681 lineto
-15.76192 -69.83778 lineto
-15.49493 -69.98268 lineto
-15.22795 -70.11786 lineto
-14.96065 -70.24112 lineto
-14.69368 -70.35358 lineto
-14.4267 -70.45523 lineto
-14.15971 -70.54498 lineto
-13.89273 -70.62392 lineto
-13.80418 -70.64838 -13.71523 -70.67128 -13.62575 -70.69205 curveto
-13.53714 -70.7126 -13.44807 -70.7311 -13.35876 -70.74828 curveto
-13.27005 -70.76535 -13.18109 -70.78116 -13.09178 -70.79477 curveto
-13.00232 -70.80841 -12.91254 -70.81985 -12.82254 -70.82938 curveto
-12.55556 -70.85208 lineto
-12.28857 -70.86397 lineto
-12.02159 -70.86505 lineto
-11.75461 -70.85532 lineto
-11.66547 -70.85014 -11.57645 -70.84297 -11.48764 -70.8337 curveto
-11.39842 -70.82437 -11.30945 -70.81293 -11.22066 -70.80017 curveto
-11.13141 -70.78735 -11.04236 -70.77322 -10.95367 -70.75693 curveto
-10.86429 -70.7405 -10.77533 -70.72188 -10.68669 -70.70177 curveto
-10.59729 -70.68149 -10.50822 -70.65967 -10.41971 -70.63582 curveto
-10.3301 -70.61166 -10.24106 -70.58542 -10.1524 -70.55795 curveto
-9.88542 -70.47037 lineto
-9.61844 -70.37088 lineto
-9.35146 -70.2595 lineto
-9.08253 -70.13731 lineto
-8.81555 -70.00432 lineto
-8.54857 -69.86049 lineto
-8.2816 -69.70479 lineto
-8.01428 -69.53934 lineto
-7.74731 -69.362 lineto
-7.48033 -69.17493 lineto
-7.21335 -68.97597 lineto
-6.94637 -68.76619 lineto
-6.67938 -68.5456 lineto
-6.4124 -68.3142 lineto
-6.14542 -68.07198 lineto
-5.87845 -67.82002 lineto
-5.61147 -67.55618 lineto
-5.34221 -67.27936 lineto
-5.07523 -66.99496 lineto
-4.80824 -66.69977 lineto
-4.54128 -66.39375 lineto
-4.27429 -66.07692 lineto
-4.00731 -65.75035 lineto
-3.74033 -65.41298 lineto
-3.47334 -65.06587 lineto
-3.20604 -64.70795 lineto
-2.93906 -64.3403 lineto
-2.67207 -63.96184 lineto
-2.40509 -63.57364 lineto
-2.13812 -63.17462 lineto
-1.87114 -62.76697 lineto
-1.6022 -62.34525 lineto
-1.3349 -61.91704 lineto
-1.06792 -61.48018 lineto
-0.80095 -61.0325 lineto
-0.53397 -60.5751 lineto
-0.26698 -60.10797 lineto
0 -59.63219 lineto
0.26698 -59.14667 lineto
0.53397 -58.65141 lineto
0.80095 -58.14752 lineto
1.06792 -57.63388 lineto
1.3349 -57.1116 lineto
1.6022 -56.58066 lineto
1.87114 -56.03568 lineto
2.13812 -55.48636 lineto
2.40509 -54.92839 lineto
2.67207 -54.36177 lineto
2.93906 -53.7865 lineto
3.20604 -53.20259 lineto
3.47334 -52.6111 lineto
3.74033 -52.01096 lineto
4.00731 -51.40218 lineto
4.27429 -50.78473 lineto
4.54128 -50.1608 lineto
4.80824 -49.52823 lineto
5.07523 -48.887 lineto
5.34221 -48.23927 lineto
5.61147 -47.57858 lineto
5.87845 -46.91464 lineto
6.14542 -46.24422 lineto
6.4124 -45.56622 lineto
6.67938 -44.88066 lineto
6.94637 -44.18861 lineto
7.21335 -43.48898 lineto
7.48033 -42.78288 lineto
7.74731 -42.07028 lineto
8.01428 -41.35011 lineto
8.2816 -40.62454 lineto
8.54857 -39.89247 lineto
8.81555 -39.15285 lineto
9.08253 -38.40889 lineto
9.35146 -37.65196 lineto
9.61844 -36.89503 lineto
9.88542 -36.1316 lineto
10.1524 -35.36386 lineto
10.41971 -34.58963 lineto
10.68669 -33.80998 lineto
10.95367 -33.02495 lineto
11.22066 -32.23448 lineto
11.48764 -31.43971 lineto
11.75461 -30.63953 lineto
12.02159 -29.83502 lineto
12.28857 -29.0251 lineto
12.55556 -28.21086 lineto
12.82254 -27.39229 lineto
13.09178 -26.56291 lineto
13.35876 -25.73569 lineto
13.62575 -24.90414 lineto
13.89273 -24.06935 lineto
14.15971 -23.23024 lineto
14.4267 -22.38788 lineto
14.69368 -21.5412 lineto
14.73161 -21.42061 14.87167 -20.97458 14.96065 -20.69127 curveto
15.04984 -20.40727 15.15872 -20.06052 15.22795 -19.83919 curveto
15.49493 -18.98277 lineto
15.76192 -18.12419 lineto
16.0289 -17.26237 lineto
16.29588 -16.39731 lineto
16.56287 -15.53008 lineto
16.83179 -14.6542 lineto
17.09909 -13.78157 lineto
17.36607 -12.90785 lineto
17.63306 -12.03197 lineto
17.90004 -11.15393 lineto
18.16702 -10.27373 lineto
18.434 -9.39244 lineto
18.70097 -8.51007 lineto
18.96796 -7.62555 lineto
19.23494 -6.73994 lineto
19.50192 -5.85324 lineto
19.7689 -4.96547 lineto
20.03621 -4.0777 lineto
20.30319 -3.18884 lineto
20.35782 -3.00677 20.48248 -2.59123 20.57211 -2.29242 curveto
20.59438 -2.2182 20.7501 -1.69913 20.8391 -1.40248 curveto
21.10608 -0.51256 lineto
21.19508 -0.21591 21.32129 0.20479 21.37306 0.37738 curveto
21.46204 0.67403 21.58392 1.08035 21.64005 1.26732 curveto
21.6834 1.41171 21.81824 1.86061 21.90735 2.15726 curveto
22.17432 3.04611 lineto
22.4413 3.93497 lineto
22.53029 4.23125 22.65971 4.66222 22.70828 4.82382 curveto
22.97527 5.7116 lineto
23.24225 6.59828 lineto
23.50923 7.4839 lineto
23.77621 8.36734 lineto
24.04318 9.2508 lineto
24.31244 10.13965 lineto
24.57942 11.01985 lineto
24.8464 11.89789 lineto
25.11339 12.77377 lineto
25.38037 13.64856 lineto
25.64734 14.5212 lineto
25.72836 14.78548 25.82527 15.10081 25.91432 15.3906 curveto
26.00328 15.68004 26.10272 16.00365 26.1813 16.2589 curveto
26.44829 17.12396 lineto
26.52222 17.3628 26.62642 17.69853 26.71559 17.98578 curveto
26.80455 18.27235 26.91429 18.62592 26.98257 18.84544 curveto
27.24956 19.70186 lineto
27.51654 20.55502 lineto
27.78351 21.40495 lineto
28.05244 22.25813 lineto
28.31943 23.10156 lineto
28.58641 23.94176 lineto
28.63687 24.09987 28.76454 24.4983 28.85371 24.77655 curveto
28.94266 25.05411 29.07863 25.47836 29.12068 25.60918 curveto
29.38766 26.43639 lineto
29.65465 27.26036 lineto
29.92163 28.08002 lineto
30.18861 28.89534 lineto
30.4556 29.70526 lineto
30.72258 30.51085 lineto
30.98955 31.31212 lineto
31.25653 32.10797 lineto
31.52383 32.89842 lineto
31.79277 33.68996 lineto
32.05975 34.47069 lineto
32.32674 35.246 lineto
32.5937 36.01482 lineto
32.86069 36.77824 lineto
33.12767 37.53625 lineto
33.39497 38.28886 lineto
33.66196 39.0339 lineto
33.92894 39.77461 lineto
34.19592 40.50775 lineto
34.4629 41.2344 lineto
34.72987 41.95566 lineto
34.99686 42.66934 lineto
35.2658 43.38193 lineto
35.5331 44.08264 lineto
35.80008 44.77577 lineto
36.06705 45.46242 lineto
36.33403 46.1415 lineto
36.60101 46.813 lineto
36.868 47.47694 lineto
37.13498 48.13438 lineto
37.40196 48.78427 lineto
37.66895 49.42549 lineto
37.93591 50.05916 lineto
38.20323 50.68524 lineto
38.4702 51.30377 lineto
38.73718 51.91364 lineto
39.00612 52.52026 lineto
39.2731 53.11284 lineto
39.54007 53.69783 lineto
39.80705 54.27419 lineto
40.07404 54.84297 lineto
40.34134 55.40201 lineto
40.60832 55.95241 lineto
40.8753 56.49416 lineto
41.14229 57.02725 lineto
41.40927 57.55061 lineto
41.67624 58.06642 lineto
41.94322 58.5714 lineto
42.2102 59.06773 lineto
42.47719 59.5554 lineto
42.74644 60.0366 lineto
43.01341 60.50482 lineto
43.2804 60.9633 lineto
43.54738 61.41205 lineto
43.81436 61.85107 lineto
44.08134 62.28036 lineto
44.34833 62.701 lineto
44.61531 63.11082 lineto
44.88228 63.50984 lineto
45.1496 63.90019 lineto
45.41656 64.27974 lineto
45.68355 64.64957 lineto
45.95053 65.00856 lineto
46.21751 65.35783 lineto
46.48643 65.69954 lineto
46.75342 66.02826 lineto
47.02072 66.34618 lineto
47.2877 66.65327 lineto
47.55469 66.95064 lineto
47.82167 67.23718 lineto
48.08865 67.51292 lineto
48.35564 67.77785 lineto
48.6226 68.03305 lineto
48.88959 68.27635 lineto
49.15657 68.50992 lineto
49.42355 68.73158 lineto
49.69054 68.94353 lineto
49.95784 69.14357 lineto
50.22676 69.33498 lineto
50.49374 69.51338 lineto
50.76073 69.681 lineto
51.02771 69.83778 lineto
51.2947 69.98268 lineto
51.56168 70.11786 lineto
51.82898 70.24112 lineto
52.09596 70.35358 lineto
52.36293 70.45523 lineto
52.62991 70.54498 lineto
52.8969 70.62392 lineto
52.98544 70.64838 53.0744 70.67128 53.16388 70.69205 curveto
53.25249 70.7126 53.34155 70.7311 53.43086 70.74828 curveto
53.51958 70.76535 53.60854 70.78116 53.69785 70.79477 curveto
53.78731 70.80841 53.87709 70.81985 53.96709 70.82938 curveto
54.23407 70.85208 lineto
54.50105 70.86397 lineto
54.76804 70.86505 lineto
55.03502 70.85532 lineto
55.12416 70.85014 55.2132 70.84297 55.302 70.8337 curveto
55.39122 70.82437 55.48018 70.81293 55.56897 70.80017 curveto
55.65822 70.78735 55.74727 70.77322 55.83595 70.75693 curveto
55.92534 70.7405 56.0143 70.72188 56.10294 70.70177 curveto
56.19234 70.68149 56.2814 70.65967 56.36992 70.63582 curveto
56.45953 70.61166 56.54857 70.58542 56.63722 70.55795 curveto
56.9042 70.47037 lineto
57.17119 70.37088 lineto
57.43817 70.2595 lineto
57.70709 70.13731 lineto
57.97408 70.00432 lineto
58.24106 69.86049 lineto
58.50804 69.70479 lineto
58.77534 69.53934 lineto
59.04233 69.362 lineto
59.3093 69.17493 lineto
59.57628 68.97597 lineto
59.84326 68.76619 lineto
60.11024 68.5456 lineto
60.37723 68.3142 lineto
60.64421 68.07198 lineto
60.91118 67.82002 lineto
61.17816 67.55618 lineto
61.44742 67.27936 lineto
61.7144 66.99496 lineto
61.98138 66.69977 lineto
62.24837 66.39375 lineto
62.51534 66.07692 lineto
62.78232 65.75035 lineto
63.0493 65.41298 lineto
63.31628 65.06587 lineto
63.58359 64.70795 lineto
63.85057 64.3403 lineto
64.11755 63.96184 lineto
64.38454 63.57364 lineto
64.6515 63.17462 lineto
64.91849 62.76697 lineto
65.18742 62.34525 lineto
65.45473 61.91704 lineto
65.72171 61.48018 lineto
65.9887 61.0325 lineto
66.25566 60.5751 lineto
66.52264 60.10797 lineto
66.78963 59.63219 lineto stroke
 0 1 1 setrgbcolor [0 2.5 ] 1.25 setdash
newpath -200.36888 59.63219 moveto
-200.1019 59.14667 lineto
-199.83493 58.65141 lineto
-199.56795 58.14752 lineto
-199.30096 57.63388 lineto
-199.03398 57.1116 lineto
-198.76668 56.58066 lineto
-198.49774 56.03568 lineto
-198.23077 55.48636 lineto
-197.96379 54.92839 lineto
-197.69681 54.36177 lineto
-197.42982 53.7865 lineto
-197.16284 53.20259 lineto
-196.89554 52.6111 lineto
-196.62856 52.01096 lineto
-196.36157 51.40218 lineto
-196.0946 50.78473 lineto
-195.82762 50.1608 lineto
-195.56064 49.52823 lineto
-195.29366 48.887 lineto
-195.02667 48.23927 lineto
-194.75742 47.57858 lineto
-194.49045 46.91464 lineto
-194.22346 46.24422 lineto
-193.95648 45.56622 lineto
-193.6895 44.88066 lineto
-193.42252 44.18861 lineto
-193.15553 43.48898 lineto
-192.88857 42.78288 lineto
-192.62158 42.07028 lineto
-192.3546 41.35011 lineto
-192.0873 40.62454 lineto
-191.82031 39.89247 lineto
-191.55333 39.15285 lineto
-191.28635 38.40889 lineto
-191.01743 37.65196 lineto
-190.75044 36.89503 lineto
-190.48346 36.1316 lineto
-190.21648 35.36386 lineto
-189.94917 34.58963 lineto
-189.68219 33.80998 lineto
-189.4152 33.02495 lineto
-189.14824 32.23448 lineto
-188.88126 31.43971 lineto
-188.61427 30.63953 lineto
-188.34729 29.83502 lineto
-188.0803 29.0251 lineto
-187.81332 28.21086 lineto
-187.54634 27.39229 lineto
-187.2771 26.56291 lineto
-187.01012 25.73569 lineto
-186.74313 24.90414 lineto
-186.47615 24.06935 lineto
-186.20917 23.23024 lineto
-185.9422 22.38788 lineto
-185.67522 21.5412 lineto
-185.63336 21.40811 -185.49721 20.97458 -185.40823 20.69127 curveto
-185.31905 20.40727 -185.21172 20.0655 -185.14093 19.83919 curveto
-184.87395 18.98277 lineto
-184.60696 18.12419 lineto
-184.33998 17.26237 lineto
-184.073 16.39731 lineto
-183.80602 15.53008 lineto
-183.5371 14.6542 lineto
-183.26979 13.78157 lineto
-183.0028 12.90785 lineto
-182.73582 12.03197 lineto
-182.46884 11.15393 lineto
-182.20187 10.27373 lineto
-181.93489 9.39244 lineto
-181.66791 8.51007 lineto
-181.40092 7.62555 lineto
-181.13394 6.73994 lineto
-180.86696 5.85324 lineto
-180.59998 4.96547 lineto
-180.33267 4.0777 lineto
-180.06569 3.18884 lineto
-180.00926 3.0008 -179.8864 2.59123 -179.79677 2.29242 curveto
-179.74382 2.1159 -179.61877 1.69913 -179.52979 1.40248 curveto
-179.2628 0.51256 lineto
-179.17381 0.21591 -179.07704 -0.10664 -178.99583 -0.37738 curveto
-178.90686 -0.67403 -178.79416 -1.04974 -178.72885 -1.26732 curveto
-178.67473 -1.4476 -178.55066 -1.86061 -178.46155 -2.15726 curveto
-178.44487 -2.21277 -178.28355 -2.74983 -178.19456 -3.04611 curveto
-177.92758 -3.93497 lineto
-177.8386 -4.23126 -177.713 -4.64943 -177.6606 -4.82382 curveto
-177.39362 -5.7116 lineto
-177.12663 -6.59828 lineto
-176.85965 -7.4839 lineto
-176.85442 -7.50127 -176.68167 -8.07286 -176.59268 -8.36734 curveto
-176.5037 -8.66182 -176.33557 -9.21815 -176.3257 -9.2508 curveto
-176.05644 -10.13965 lineto
-175.78946 -11.01985 lineto
-175.52248 -11.89789 lineto
-175.25551 -12.77377 lineto
-174.98853 -13.64856 lineto
-174.72154 -14.5212 lineto
-174.64005 -14.78703 -174.54361 -15.10081 -174.45456 -15.3906 curveto
-174.36562 -15.68004 -174.26704 -16.0008 -174.18758 -16.2589 curveto
-173.9206 -17.12396 lineto
-173.84688 -17.36212 -173.74246 -17.69853 -173.65329 -17.98578 curveto
-173.56433 -18.27235 -173.45448 -18.62625 -173.3863 -18.84544 curveto
-173.11932 -19.70186 lineto
-172.85236 -20.55502 lineto
-172.58537 -21.40495 lineto
-172.31644 -22.25813 lineto
-172.04947 -23.10156 lineto
-171.78249 -23.94176 lineto
-171.73021 -24.10558 -171.60435 -24.4983 -171.51518 -24.77655 curveto
-171.42624 -25.05411 -171.29214 -25.47249 -171.2482 -25.60918 curveto
-170.98122 -26.43639 lineto
-170.71423 -27.26036 lineto
-170.44725 -28.08002 lineto
-170.18027 -28.89534 lineto
-169.91328 -29.70526 lineto
-169.64632 -30.51085 lineto
-169.37933 -31.31212 lineto
-169.11235 -32.10797 lineto
-168.84505 -32.89842 lineto
-168.57611 -33.68996 lineto
-168.30914 -34.47069 lineto
-168.04216 -35.246 lineto
-167.77518 -36.01482 lineto
-167.5082 -36.77824 lineto
-167.24121 -37.53625 lineto
-166.9739 -38.28886 lineto
-166.70692 -39.0339 lineto
-166.43994 -39.77461 lineto
-166.17297 -40.50775 lineto
-165.90599 -41.2344 lineto
-165.639 -41.95566 lineto
-165.37202 -42.66934 lineto
-165.1031 -43.38193 lineto
-164.83578 -44.08264 lineto
-164.56882 -44.77577 lineto
-164.30183 -45.46242 lineto
-164.03485 -46.1415 lineto
-163.76787 -46.813 lineto
-163.50089 -47.47694 lineto
-163.2339 -48.13438 lineto
-162.96692 -48.78427 lineto
-162.69995 -49.42549 lineto
-162.43297 -50.05916 lineto
-162.16566 -50.68524 lineto
-161.89868 -51.30377 lineto
-161.6317 -51.91364 lineto
-161.36278 -52.52026 lineto
-161.0958 -53.11284 lineto
-160.82881 -53.69783 lineto
-160.56183 -54.27419 lineto
-160.29485 -54.84297 lineto
-160.02754 -55.40201 lineto
-159.76056 -55.95241 lineto
-159.49358 -56.49416 lineto
-159.22661 -57.02725 lineto
-158.95963 -57.55061 lineto
-158.69264 -58.06642 lineto
-158.42566 -58.5714 lineto
-158.15868 -59.06773 lineto
-157.8917 -59.5554 lineto
-157.62245 -60.0366 lineto
-157.35547 -60.50482 lineto
-157.08849 -60.9633 lineto
-156.8215 -61.41205 lineto
-156.55452 -61.85107 lineto
-156.28754 -62.28036 lineto
-156.02055 -62.701 lineto
-155.75359 -63.11082 lineto
-155.4866 -63.50984 lineto
-155.2193 -63.90019 lineto
-154.95232 -64.27974 lineto
-154.68533 -64.64957 lineto
-154.41835 -65.00856 lineto
-154.15137 -65.35783 lineto
-153.88245 -65.69954 lineto
-153.61546 -66.02826 lineto
-153.34816 -66.34618 lineto
-153.08118 -66.65327 lineto
-152.8142 -66.95064 lineto
-152.54721 -67.23718 lineto
-152.28024 -67.51292 lineto
-152.01326 -67.77785 lineto
-151.74628 -68.03305 lineto
-151.4793 -68.27635 lineto
-151.21231 -68.50992 lineto
-150.94533 -68.73158 lineto
-150.67834 -68.94353 lineto
-150.41104 -69.14357 lineto
-150.14212 -69.33498 lineto
-149.87514 -69.51338 lineto
-149.60815 -69.681 lineto
-149.34117 -69.83778 lineto
-149.07419 -69.98268 lineto
-148.80722 -70.11786 lineto
-148.53992 -70.24112 lineto
-148.27293 -70.35358 lineto
-148.00595 -70.45523 lineto
-147.73897 -70.54498 lineto
-147.47198 -70.62392 lineto
-147.38344 -70.64838 -147.29448 -70.67128 -147.205 -70.69205 curveto
-147.1164 -70.7126 -147.02733 -70.7311 -146.93802 -70.74828 curveto
-146.8493 -70.76535 -146.76036 -70.78116 -146.67105 -70.79477 curveto
-146.58159 -70.80841 -146.49179 -70.81985 -146.4018 -70.82938 curveto
-146.13481 -70.85208 lineto
-145.86783 -70.86397 lineto
-145.60085 -70.86505 lineto
-145.33388 -70.85532 lineto
-145.24474 -70.85014 -145.1557 -70.84297 -145.0669 -70.8337 curveto
-144.97768 -70.82437 -144.8887 -70.81293 -144.79991 -70.80017 curveto
-144.71066 -70.78735 -144.62161 -70.77322 -144.53293 -70.75693 curveto
-144.44354 -70.7405 -144.35458 -70.72188 -144.26595 -70.70177 curveto
-144.17654 -70.68149 -144.08748 -70.65967 -143.99896 -70.63582 curveto
-143.90935 -70.61166 -143.82031 -70.58542 -143.73166 -70.55795 curveto
-143.46468 -70.47037 lineto
-143.1977 -70.37088 lineto
-142.93073 -70.2595 lineto
-142.66179 -70.13731 lineto
-142.3948 -70.00432 lineto
-142.12784 -69.86049 lineto
-141.86086 -69.70479 lineto
-141.59355 -69.53934 lineto
-141.32657 -69.362 lineto
-141.05959 -69.17493 lineto
-140.7926 -68.97597 lineto
-140.52562 -68.76619 lineto
-140.25864 -68.5456 lineto
-139.99165 -68.3142 lineto
-139.72469 -68.07198 lineto
-139.4577 -67.82002 lineto
-139.19072 -67.55618 lineto
-138.92146 -67.27936 lineto
-138.65448 -66.99496 lineto
-138.38751 -66.69977 lineto
-138.12053 -66.39375 lineto
-137.85355 -66.07692 lineto
-137.58656 -65.75035 lineto
-137.31958 -65.41298 lineto
-137.0526 -65.06587 lineto
-136.7853 -64.70795 lineto
-136.51831 -64.3403 lineto
-136.25133 -63.96184 lineto
-135.98436 -63.57364 lineto
-135.71738 -63.17462 lineto
-135.4504 -62.76697 lineto
-135.18147 -62.34525 lineto
-134.91415 -61.91704 lineto
-134.64719 -61.48018 lineto
-134.3802 -61.0325 lineto
-134.11322 -60.5751 lineto
-133.84624 -60.10797 lineto
-133.57925 -59.63219 lineto
-133.31227 -59.14667 lineto
-133.04529 -58.65141 lineto
-132.77832 -58.14752 lineto
-132.51134 -57.63388 lineto
-132.24435 -57.1116 lineto
-131.97705 -56.58066 lineto
-131.70811 -56.03568 lineto
-131.44115 -55.48636 lineto
-131.17416 -54.92839 lineto
-130.90718 -54.36177 lineto
-130.6402 -53.7865 lineto
-130.37321 -53.20259 lineto
-130.10591 -52.6111 lineto
-129.83893 -52.01096 lineto
-129.57195 -51.40218 lineto
-129.30496 -50.78473 lineto
-129.038 -50.1608 lineto
-128.77101 -49.52823 lineto
-128.50403 -48.887 lineto
-128.23705 -48.23927 lineto
-127.96779 -47.57858 lineto
-127.70082 -46.91464 lineto
-127.43384 -46.24422 lineto
-127.16685 -45.56622 lineto
-126.89987 -44.88066 lineto
-126.63289 -44.18861 lineto
-126.3659 -43.48898 lineto
-126.09892 -42.78288 lineto
-125.83195 -42.07028 lineto
-125.56497 -41.35011 lineto
-125.29767 -40.62454 lineto
-125.03069 -39.89247 lineto
-124.7637 -39.15285 lineto
-124.49672 -38.40889 lineto
-124.2278 -37.65196 lineto
-123.96082 -36.89503 lineto
-123.69383 -36.1316 lineto
-123.42685 -35.36386 lineto
-123.15955 -34.58963 lineto
-122.89256 -33.80998 lineto
-122.62558 -33.02495 lineto
-122.3586 -32.23448 lineto
-122.09163 -31.43971 lineto
-121.82465 -30.63953 lineto
-121.55766 -29.83502 lineto
-121.29068 -29.0251 lineto
-121.0237 -28.21086 lineto
-120.75671 -27.39229 lineto
-120.48747 -26.56291 lineto
-120.22049 -25.73569 lineto
-119.9535 -24.90414 lineto
-119.68652 -24.06935 lineto
-119.41954 -23.23024 lineto
-119.15256 -22.38788 lineto
-118.88559 -21.5412 lineto
-118.84433 -21.41003 -118.70758 -20.97458 -118.6186 -20.69127 curveto
-118.52942 -20.40727 -118.42265 -20.06732 -118.3513 -19.83919 curveto
-118.08432 -18.98277 lineto
-117.81734 -18.12419 lineto
-117.55035 -17.26237 lineto
-117.28337 -16.39731 lineto
-117.01639 -15.53008 lineto
-116.74747 -14.6542 lineto
-116.48016 -13.78157 lineto
-116.21318 -12.90785 lineto
-115.9462 -12.03197 lineto
-115.67921 -11.15393 lineto
-115.41223 -10.27373 lineto
-115.14526 -9.39244 lineto
-114.87828 -8.51007 lineto
-114.6113 -7.62555 lineto
-114.34431 -6.73994 lineto
-114.07733 -5.85324 lineto
-113.81035 -4.96547 lineto
-113.54305 -4.0777 lineto
-113.27606 -3.18884 lineto
-113.2219 -3.00835 -113.09677 -2.59123 -113.00714 -2.29242 curveto
-112.99413 -2.24905 -112.82915 -1.69913 -112.74016 -1.40248 curveto
-112.47318 -0.51256 lineto
-112.38417 -0.21591 -112.25883 0.20189 -112.20619 0.37738 curveto
-112.11722 0.67403 -111.98761 1.10611 -111.93922 1.26732 curveto
-111.88495 1.44814 -111.76103 1.86061 -111.67192 2.15726 curveto
-111.6515 2.22522 -111.49393 2.74983 -111.40494 3.04611 curveto
-111.13795 3.93497 lineto
-111.04897 4.23126 -110.92305 4.65053 -110.87097 4.82382 curveto
-110.60399 5.7116 lineto
-110.337 6.59828 lineto
-110.07002 7.4839 lineto
-110.06473 7.50145 -109.89204 8.07286 -109.80305 8.36734 curveto
-109.71407 8.66182 -109.54588 9.21834 -109.53607 9.2508 curveto
-109.26682 10.13965 lineto
-108.99983 11.01985 lineto
-108.73285 11.89789 lineto
-108.46587 12.77377 lineto
-108.1989 13.64856 lineto
-107.93192 14.5212 lineto
-107.85023 14.78758 -107.75398 15.10081 -107.66493 15.3906 curveto
-107.57599 15.68004 -107.47772 15.99976 -107.39795 16.2589 curveto
-107.13097 17.12396 lineto
-107.05725 17.3621 -106.95284 17.69853 -106.86366 17.98578 curveto
-106.7747 18.27235 -106.66486 18.62627 -106.59668 18.84544 curveto
-106.3297 19.70186 lineto
-106.06273 20.55502 lineto
-105.79575 21.40495 lineto
-105.52681 22.25813 lineto
-105.25983 23.10156 lineto
-104.99286 23.94176 lineto
-104.94052 24.10574 -104.81473 24.4983 -104.72556 24.77655 curveto
-104.63661 25.05411 -104.50172 25.47499 -104.45857 25.60918 curveto
-104.19159 26.43639 lineto
-103.9246 27.26036 lineto
-103.65762 28.08002 lineto
-103.39064 28.89534 lineto
-103.12366 29.70526 lineto
-102.85669 30.51085 lineto
-102.5897 31.31212 lineto
-102.32272 32.10797 lineto
-102.05542 32.89842 lineto
-101.78648 33.68996 lineto
-101.5195 34.47069 lineto
-101.25253 35.246 lineto
-100.98555 36.01482 lineto
-100.71857 36.77824 lineto
-100.45158 37.53625 lineto
-100.18428 38.28886 lineto
-99.9173 39.0339 lineto
-99.65031 39.77461 lineto
-99.38333 40.50775 lineto
-99.11636 41.2344 lineto
-98.84938 41.95566 lineto
-98.5824 42.66934 lineto
-98.31346 43.38193 lineto
-98.04616 44.08264 lineto
-97.77919 44.77577 lineto
-97.5122 45.46242 lineto
-97.24522 46.1415 lineto
-96.97824 46.813 lineto
-96.71126 47.47694 lineto
-96.44427 48.13438 lineto
-96.17729 48.78427 lineto
-95.91032 49.42549 lineto
-95.64334 50.05916 lineto
-95.37604 50.68524 lineto
-95.10905 51.30377 lineto
-94.84207 51.91364 lineto
-94.57314 52.52026 lineto
-94.30617 53.11284 lineto
-94.03918 53.69783 lineto
-93.7722 54.27419 lineto
-93.50522 54.84297 lineto
-93.23792 55.40201 lineto
-92.97093 55.95241 lineto
-92.70395 56.49416 lineto
-92.43697 57.02725 lineto
-92.17 57.55061 lineto
-91.90302 58.06642 lineto
-91.63603 58.5714 lineto
-91.36905 59.06773 lineto
-91.10207 59.5554 lineto
-90.83282 60.0366 lineto
-90.56584 60.50482 lineto
-90.29886 60.9633 lineto
-90.03188 61.41205 lineto
-89.7649 61.85107 lineto
-89.49791 62.28036 lineto
-89.23093 62.701 lineto
-88.96396 63.11082 lineto
-88.69698 63.50984 lineto
-88.42967 63.90019 lineto
-88.16269 64.27974 lineto
-87.8957 64.64957 lineto
-87.62872 65.00856 lineto
-87.36174 65.35783 lineto
-87.09282 65.69954 lineto
-86.82584 66.02826 lineto
-86.55853 66.34618 lineto
-86.29155 66.65327 lineto
-86.02457 66.95064 lineto
-85.75758 67.23718 lineto
-85.4906 67.51292 lineto
-85.22363 67.77785 lineto
-84.95665 68.03305 lineto
-84.68967 68.27635 lineto
-84.42268 68.50992 lineto
-84.1557 68.73158 lineto
-83.88872 68.94353 lineto
-83.62141 69.14357 lineto
-83.3525 69.33498 lineto
-83.08551 69.51338 lineto
-82.81853 69.681 lineto
-82.55154 69.83778 lineto
-82.28456 69.98268 lineto
-82.0176 70.11786 lineto
-81.75027 70.24112 lineto
-81.4833 70.35358 lineto
-81.21632 70.45523 lineto
-80.94934 70.54498 lineto
-80.68236 70.62392 lineto
-80.59381 70.64838 -80.50485 70.67128 -80.41537 70.69205 curveto
-80.32677 70.7126 -80.2377 70.7311 -80.14839 70.74828 curveto
-80.05968 70.76535 -79.97073 70.78116 -79.88142 70.79477 curveto
-79.79196 70.80841 -79.70216 70.81985 -79.61217 70.82938 curveto
-79.34518 70.85208 lineto
-79.0782 70.86397 lineto
-78.81122 70.86505 lineto
-78.54424 70.85532 lineto
-78.4551 70.85014 -78.36607 70.84297 -78.27727 70.8337 curveto
-78.18805 70.82437 -78.09908 70.81293 -78.01028 70.80017 curveto
-77.92104 70.78735 -77.83199 70.77322 -77.7433 70.75693 curveto
-77.65392 70.7405 -77.56496 70.72188 -77.47632 70.70177 curveto
-77.38692 70.68149 -77.29785 70.65967 -77.20934 70.63582 curveto
-77.11972 70.61166 -77.03069 70.58542 -76.94203 70.55795 curveto
-76.67505 70.47037 lineto
-76.40807 70.37088 lineto
-76.1411 70.2595 lineto
-75.87216 70.13731 lineto
-75.60518 70.00432 lineto
-75.3382 69.86049 lineto
-75.07123 69.70479 lineto
-74.80391 69.53934 lineto
-74.53694 69.362 lineto
-74.26996 69.17493 lineto
-74.00298 68.97597 lineto
-73.736 68.76619 lineto
-73.46901 68.5456 lineto
-73.20203 68.3142 lineto
-72.93506 68.07198 lineto
-72.66808 67.82002 lineto
-72.4011 67.55618 lineto
-72.13184 67.27936 lineto
-71.86485 66.99496 lineto
-71.59787 66.69977 lineto
-71.3309 66.39375 lineto
-71.06392 66.07692 lineto
-70.79694 65.75035 lineto
-70.52995 65.41298 lineto
-70.26297 65.06587 lineto
-69.99567 64.70795 lineto
-69.72868 64.3403 lineto
-69.4617 63.96184 lineto
-69.19473 63.57364 lineto
-68.92775 63.17462 lineto
-68.66077 62.76697 lineto
-68.39183 62.34525 lineto
-68.12453 61.91704 lineto
-67.85754 61.48018 lineto
-67.59058 61.0325 lineto
-67.3236 60.5751 lineto
-67.05661 60.10797 lineto
-66.78963 59.63219 lineto stroke
 0.8 0.8 0.8 setrgbcolor [1.5 1.5 ] 0 setdash
newpath 66.78963 59.63219 moveto
67.05661 59.14667 lineto
67.3236 58.65141 lineto
67.59058 58.14752 lineto
67.85754 57.63388 lineto
68.12453 57.1116 lineto
68.39183 56.58066 lineto
68.66077 56.03568 lineto
68.92775 55.48636 lineto
69.19473 54.92839 lineto
69.4617 54.36177 lineto
69.72868 53.7865 lineto
69.99567 53.20259 lineto
70.26297 52.6111 lineto
70.52995 52.01096 lineto
70.79694 51.40218 lineto
71.06392 50.78473 lineto
71.3309 50.1608 lineto
71.59787 49.52823 lineto
71.86485 48.887 lineto
72.13184 48.23927 lineto
72.4011 47.57858 lineto
72.66808 46.91464 lineto
72.93506 46.24422 lineto
73.20203 45.56622 lineto
73.46901 44.88066 lineto
73.736 44.18861 lineto
74.00298 43.48898 lineto
74.26996 42.78288 lineto
74.53694 42.07028 lineto
74.80391 41.35011 lineto
75.07123 40.62454 lineto
75.3382 39.89247 lineto
75.60518 39.15285 lineto
75.87216 38.40889 lineto
76.1411 37.65196 lineto
76.40807 36.89503 lineto
76.67505 36.1316 lineto
76.94203 35.36386 lineto
77.20934 34.58963 lineto
77.47632 33.80998 lineto
77.7433 33.02495 lineto
78.01028 32.23448 lineto
78.27727 31.43971 lineto
78.54424 30.63953 lineto
78.81122 29.83502 lineto
79.0782 29.0251 lineto
79.34518 28.21086 lineto
79.61217 27.39229 lineto
79.88142 26.56291 lineto
80.14839 25.73569 lineto
80.41537 24.90414 lineto
80.68236 24.06935 lineto
80.94934 23.23024 lineto
81.21632 22.38788 lineto
81.4833 21.5412 lineto
81.51443 21.44221 81.6613 20.97458 81.75027 20.69127 curveto
81.83946 20.40727 81.94994 20.05553 82.0176 19.83919 curveto
82.28456 18.98277 lineto
82.55154 18.12419 lineto
82.81853 17.26237 lineto
83.08551 16.39731 lineto
83.3525 15.53008 lineto
83.62141 14.6542 lineto
83.88872 13.78157 lineto
84.1557 12.90785 lineto
84.42268 12.03197 lineto
84.68967 11.15393 lineto
84.95665 10.27373 lineto
85.22363 9.39244 lineto
85.4906 8.51007 lineto
85.75758 7.62555 lineto
86.02457 6.73994 lineto
86.29155 5.85324 lineto
86.55853 4.96547 lineto
86.82584 4.0777 lineto
87.09282 3.18884 lineto
87.14749 3.00665 87.27211 2.59123 87.36174 2.29242 curveto
87.38496 2.215 87.53973 1.69913 87.62872 1.40248 curveto
87.8957 0.51256 lineto
87.98471 0.21591 88.11101 -0.20508 88.16269 -0.37738 curveto
88.25166 -0.67403 88.37357 -1.08043 88.42967 -1.26732 curveto
88.4865 -1.4566 88.60786 -1.86061 88.69698 -2.15726 curveto
88.75873 -2.3628 88.87497 -2.74983 88.96396 -3.04611 curveto
89.05295 -3.34239 89.2006 -3.83403 89.23093 -3.93497 curveto
89.31992 -4.23126 89.43292 -4.60754 89.49791 -4.82382 curveto
89.7649 -5.7116 lineto
90.03188 -6.59828 lineto
90.29886 -7.4839 lineto
90.30104 -7.49115 90.47685 -8.07286 90.56584 -8.36734 curveto
90.83282 -9.2508 lineto
91.10207 -10.13965 lineto
91.36905 -11.01985 lineto
91.63603 -11.89789 lineto
91.90302 -12.77377 lineto
92.17 -13.64856 lineto
92.43697 -14.5212 lineto
92.51799 -14.78549 92.6149 -15.10081 92.70395 -15.3906 curveto
92.79291 -15.68004 92.89235 -16.00365 92.97093 -16.2589 curveto
93.23792 -17.12396 lineto
93.31184 -17.3628 93.41605 -17.69853 93.50522 -17.98578 curveto
93.59418 -18.27235 93.70392 -18.62592 93.7722 -18.84544 curveto
94.03918 -19.70186 lineto
94.30617 -20.55502 lineto
94.57314 -21.40495 lineto
94.84207 -22.25813 lineto
95.10905 -23.10156 lineto
95.37604 -23.94176 lineto
95.42882 -24.10715 95.55417 -24.4983 95.64334 -24.77655 curveto
95.73228 -25.05411 95.86673 -25.47357 95.91032 -25.60918 curveto
96.17729 -26.43639 lineto
96.44427 -27.26036 lineto
96.71126 -28.08002 lineto
96.97824 -28.89534 lineto
97.24522 -29.70526 lineto
97.5122 -30.51085 lineto
97.77919 -31.31212 lineto
98.04616 -32.10797 lineto
98.31346 -32.89842 lineto
98.5824 -33.68996 lineto
98.84938 -34.47069 lineto
99.11636 -35.246 lineto
99.38333 -36.01482 lineto
99.65031 -36.77824 lineto
99.9173 -37.53625 lineto
100.1846 -38.28886 lineto
100.45158 -39.0339 lineto
100.71857 -39.77461 lineto
100.98555 -40.50775 lineto
101.25253 -41.2344 lineto
101.5195 -41.95566 lineto
101.78648 -42.66934 lineto
102.05542 -43.38193 lineto
102.32272 -44.08264 lineto
102.5897 -44.77577 lineto
102.85669 -45.46242 lineto
103.12366 -46.1415 lineto
103.39064 -46.813 lineto
103.65762 -47.47694 lineto
103.9246 -48.13438 lineto
104.19159 -48.78427 lineto
104.45857 -49.42549 lineto
104.72556 -50.05916 lineto
104.99286 -50.68524 lineto
105.25983 -51.30377 lineto
105.52681 -51.91364 lineto
105.79575 -52.52026 lineto
106.06273 -53.11284 lineto
106.3297 -53.69783 lineto
106.59668 -54.27419 lineto
106.86366 -54.84297 lineto
107.13097 -55.40201 lineto
107.39795 -55.95241 lineto
107.66493 -56.49416 lineto
107.93192 -57.02725 lineto
108.1989 -57.55061 lineto
108.46587 -58.06642 lineto
108.73285 -58.5714 lineto
108.99983 -59.06773 lineto
109.26682 -59.5554 lineto
109.53607 -60.0366 lineto
109.80305 -60.50482 lineto
110.07002 -60.9633 lineto
110.337 -61.41205 lineto
110.60399 -61.85107 lineto
110.87097 -62.28036 lineto
111.13795 -62.701 lineto
111.40494 -63.11082 lineto
111.67192 -63.50984 lineto
111.93922 -63.90019 lineto
112.20619 -64.27974 lineto
112.47318 -64.64957 lineto
112.74016 -65.00856 lineto
113.00714 -65.35783 lineto
113.27606 -65.69954 lineto
113.54305 -66.02826 lineto
113.81035 -66.34618 lineto
114.07733 -66.65327 lineto
114.34431 -66.95064 lineto
114.6113 -67.23718 lineto
114.87828 -67.51292 lineto
115.14526 -67.77785 lineto
115.41223 -68.03305 lineto
115.67921 -68.27635 lineto
115.9462 -68.50992 lineto
116.21318 -68.73158 lineto
116.48016 -68.94353 lineto
116.74747 -69.14357 lineto
117.01639 -69.33498 lineto
117.28337 -69.51338 lineto
117.55035 -69.681 lineto
117.81734 -69.83778 lineto
118.08432 -69.98268 lineto
118.3513 -70.11786 lineto
118.6186 -70.24112 lineto
118.88559 -70.35358 lineto
119.15256 -70.45523 lineto
119.41954 -70.54498 lineto
119.68652 -70.62392 lineto
119.77507 -70.64838 119.86403 -70.67128 119.9535 -70.69205 curveto
120.04211 -70.7126 120.13118 -70.7311 120.22049 -70.74828 curveto
120.3092 -70.76535 120.39816 -70.78116 120.48747 -70.79477 curveto
120.57693 -70.80841 120.66672 -70.81985 120.75671 -70.82938 curveto
121.0237 -70.85208 lineto
121.29068 -70.86397 lineto
121.55766 -70.86505 lineto
121.82465 -70.85532 lineto
121.91379 -70.85014 122.00282 -70.84297 122.09163 -70.8337 curveto
122.18085 -70.82437 122.2698 -70.81293 122.3586 -70.80017 curveto
122.44785 -70.78735 122.5369 -70.77322 122.62558 -70.75693 curveto
122.71497 -70.7405 122.80392 -70.72188 122.89256 -70.70177 curveto
122.98196 -70.68149 123.07103 -70.65967 123.15955 -70.63582 curveto
123.24916 -70.61166 123.3382 -70.58542 123.42685 -70.55795 curveto
123.69383 -70.47037 lineto
123.96082 -70.37088 lineto
124.2278 -70.2595 lineto
124.49672 -70.13731 lineto
124.7637 -70.00432 lineto
125.03069 -69.86049 lineto
125.29767 -69.70479 lineto
125.56497 -69.53934 lineto
125.83195 -69.362 lineto
126.09892 -69.17493 lineto
126.3659 -68.97597 lineto
126.63289 -68.76619 lineto
126.89987 -68.5456 lineto
127.16685 -68.3142 lineto
127.43384 -68.07198 lineto
127.70082 -67.82002 lineto
127.96779 -67.55618 lineto
128.23705 -67.27936 lineto
128.50403 -66.99496 lineto
128.77101 -66.69977 lineto
129.038 -66.39375 lineto
129.30496 -66.07692 lineto
129.57195 -65.75035 lineto
129.83893 -65.41298 lineto
130.10591 -65.06587 lineto
130.37321 -64.70795 lineto
130.6402 -64.3403 lineto
130.90718 -63.96184 lineto
131.17416 -63.57364 lineto
131.44115 -63.17462 lineto
131.70811 -62.76697 lineto
131.97705 -62.34525 lineto
132.24435 -61.91704 lineto
132.51134 -61.48018 lineto
132.77832 -61.0325 lineto
133.04529 -60.5751 lineto
133.31227 -60.10797 lineto
133.57925 -59.63219 lineto
133.84624 -59.14667 lineto
134.11322 -58.65141 lineto
134.3802 -58.14752 lineto
134.64719 -57.63388 lineto
134.91415 -57.1116 lineto
135.18147 -56.58066 lineto
135.4504 -56.03568 lineto
135.71738 -55.48636 lineto
135.98436 -54.92839 lineto
136.25133 -54.36177 lineto
136.51831 -53.7865 lineto
136.7853 -53.20259 lineto
137.0526 -52.6111 lineto
137.31958 -52.01096 lineto
137.58656 -51.40218 lineto
137.85355 -50.78473 lineto
138.12053 -50.1608 lineto
138.38751 -49.52823 lineto
138.65448 -48.887 lineto
138.92146 -48.23927 lineto
139.19072 -47.57858 lineto
139.4577 -46.91464 lineto
139.72469 -46.24422 lineto
139.99165 -45.56622 lineto
140.25864 -44.88066 lineto
140.52562 -44.18861 lineto
140.7926 -43.48898 lineto
141.05959 -42.78288 lineto
141.32657 -42.07028 lineto
141.59355 -41.35011 lineto
141.86086 -40.62454 lineto
142.12784 -39.89247 lineto
142.3948 -39.15285 lineto
142.66179 -38.40889 lineto
142.93073 -37.65196 lineto
143.1977 -36.89503 lineto
143.46468 -36.1316 lineto
143.73166 -35.36386 lineto
143.99896 -34.58963 lineto
144.26595 -33.80998 lineto
144.53293 -33.02495 lineto
144.79991 -32.23448 lineto
145.0669 -31.43971 lineto
145.33388 -30.63953 lineto
145.60085 -29.83502 lineto
145.86783 -29.0251 lineto
146.13481 -28.21086 lineto
146.4018 -27.39229 lineto
146.67105 -26.56291 lineto
146.93802 -25.73569 lineto
147.205 -24.90414 lineto
147.47198 -24.06935 lineto
147.73897 -23.23024 lineto
148.00595 -22.38788 lineto
148.27293 -21.5412 lineto
148.31354 -21.41211 148.45094 -20.97458 148.53992 -20.69127 curveto
148.6291 -20.40727 148.73645 -20.06548 148.80722 -19.83919 curveto
149.07419 -18.98277 lineto
149.34117 -18.12419 lineto
149.60815 -17.26237 lineto
149.87514 -16.39731 lineto
150.14212 -15.53008 lineto
150.41104 -14.6542 lineto
150.67834 -13.78157 lineto
150.94533 -12.90785 lineto
151.21231 -12.03197 lineto
151.4793 -11.15393 lineto
151.74628 -10.27373 lineto
152.01326 -9.39244 lineto
152.28024 -8.51007 lineto
152.54721 -7.62555 lineto
152.8142 -6.73994 lineto
153.08118 -5.85324 lineto
153.34816 -4.96547 lineto
153.61546 -4.0777 lineto
153.88245 -3.18884 lineto
153.9371 -3.00671 154.06174 -2.59123 154.15137 -2.29242 curveto
154.17459 -2.215 154.32936 -1.69913 154.41835 -1.40248 curveto
154.68533 -0.51256 lineto
154.77434 -0.21591 154.90063 0.20508 154.95232 0.37738 curveto
155.04129 0.67403 155.1632 1.08043 155.2193 1.26732 curveto
155.27612 1.4566 155.39749 1.86061 155.4866 2.15726 curveto
155.54836 2.3628 155.6646 2.74983 155.75359 3.04611 curveto
155.84258 3.34239 155.99023 3.83403 156.02055 3.93497 curveto
156.10954 4.23126 156.22255 4.60754 156.28754 4.82382 curveto
156.55452 5.7116 lineto
156.8215 6.59828 lineto
157.08849 7.4839 lineto
157.09067 7.49115 157.26648 8.07286 157.35547 8.36734 curveto
157.62245 9.2508 lineto
157.8917 10.13965 lineto
158.15868 11.01985 lineto
158.42566 11.89789 lineto
158.69264 12.77377 lineto
158.95963 13.64856 lineto
159.22661 14.5212 lineto
159.31061 14.7952 159.40453 15.10081 159.49358 15.3906 curveto
159.58252 15.68004 159.67763 15.9895 159.76056 16.2589 curveto
160.02754 17.12396 lineto
160.1014 17.36253 160.20567 17.69853 160.29485 17.98578 curveto
160.3838 18.27235 160.49364 18.62622 160.56183 18.84544 curveto
160.82881 19.70186 lineto
161.0958 20.55502 lineto
161.36278 21.40495 lineto
161.6317 22.25813 lineto
161.89868 23.10156 lineto
162.16566 23.94176 lineto
162.21844 24.10715 162.3438 24.4983 162.43297 24.77655 curveto
162.52191 25.05411 162.6564 25.47372 162.69995 25.60918 curveto
162.96692 26.43639 lineto
163.2339 27.26036 lineto
163.50089 28.08002 lineto
163.76787 28.89534 lineto
164.03485 29.70526 lineto
164.30183 30.51085 lineto
164.56882 31.31212 lineto
164.83578 32.10797 lineto
165.1031 32.89842 lineto
165.37202 33.68996 lineto
165.639 34.47069 lineto
165.90599 35.246 lineto
166.17297 36.01482 lineto
166.43994 36.77824 lineto
166.70692 37.53625 lineto
166.97423 38.28886 lineto
167.24121 39.0339 lineto
167.5082 39.77461 lineto
167.77518 40.50775 lineto
168.04216 41.2344 lineto
168.30914 41.95566 lineto
168.57611 42.66934 lineto
168.84505 43.38193 lineto
169.11235 44.08264 lineto
169.37933 44.77577 lineto
169.64632 45.46242 lineto
169.91328 46.1415 lineto
170.18027 46.813 lineto
170.44725 47.47694 lineto
170.71423 48.13438 lineto
170.98122 48.78427 lineto
171.2482 49.42549 lineto
171.51518 50.05916 lineto
171.78249 50.68524 lineto
172.04947 51.30377 lineto
172.31644 51.91364 lineto
172.58537 52.52026 lineto
172.85236 53.11284 lineto
173.11932 53.69783 lineto
173.3863 54.27419 lineto
173.65329 54.84297 lineto
173.9206 55.40201 lineto
174.18758 55.95241 lineto
174.45456 56.49416 lineto
174.72154 57.02725 lineto
174.98853 57.55061 lineto
175.25551 58.06642 lineto
175.52248 58.5714 lineto
175.78946 59.06773 lineto
176.05644 59.5554 lineto
176.3257 60.0366 lineto
176.59268 60.50482 lineto
176.85965 60.9633 lineto
177.12663 61.41205 lineto
177.39362 61.85107 lineto
177.6606 62.28036 lineto
177.92758 62.701 lineto
178.19456 63.11082 lineto
178.46155 63.50984 lineto
178.72885 63.90019 lineto
178.99583 64.27974 lineto
179.2628 64.64957 lineto
179.52979 65.00856 lineto
179.79677 65.35783 lineto
180.06569 65.69954 lineto
180.33267 66.02826 lineto
180.59998 66.34618 lineto
180.86696 66.65327 lineto
181.13394 66.95064 lineto
181.40092 67.23718 lineto
181.66791 67.51292 lineto
181.93489 67.77785 lineto
182.20187 68.03305 lineto
182.46884 68.27635 lineto
182.73582 68.50992 lineto
183.0028 68.73158 lineto
183.26979 68.94353 lineto
183.5371 69.14357 lineto
183.80602 69.33498 lineto
184.073 69.51338 lineto
184.33998 69.681 lineto
184.60696 69.83778 lineto
184.87395 69.98268 lineto
185.14093 70.11786 lineto
185.40823 70.24112 lineto
185.67522 70.35358 lineto
185.9422 70.45523 lineto
186.20917 70.54498 lineto
186.47615 70.62392 lineto
186.5647 70.64838 186.65366 70.67128 186.74313 70.69205 curveto
186.83174 70.7126 186.9208 70.7311 187.01012 70.74828 curveto
187.09883 70.76535 187.18779 70.78116 187.2771 70.79477 curveto
187.36656 70.80841 187.45634 70.81985 187.54634 70.82938 curveto
187.81332 70.85208 lineto
188.0803 70.86397 lineto
188.34729 70.86505 lineto
188.61427 70.85532 lineto
188.70341 70.85014 188.79245 70.84297 188.88126 70.8337 curveto
188.97047 70.82437 189.05945 70.81293 189.14824 70.80017 curveto
189.23749 70.78735 189.32654 70.77322 189.4152 70.75693 curveto
189.5046 70.7405 189.59355 70.72188 189.68219 70.70177 curveto
189.77159 70.68149 189.86066 70.65967 189.94917 70.63582 curveto
190.03879 70.61166 190.12782 70.58542 190.21648 70.55795 curveto
190.48346 70.47037 lineto
190.75044 70.37088 lineto
191.01743 70.2595 lineto
191.28635 70.13731 lineto
191.55333 70.00432 lineto
191.82031 69.86049 lineto
192.0873 69.70479 lineto
192.3546 69.53934 lineto
192.62158 69.362 lineto
192.88857 69.17493 lineto
193.15553 68.97597 lineto
193.42252 68.76619 lineto
193.6895 68.5456 lineto
193.95648 68.3142 lineto
194.22346 68.07198 lineto
194.49045 67.82002 lineto
194.75742 67.55618 lineto
195.02667 67.27936 lineto
195.29366 66.99496 lineto
195.56064 66.69977 lineto
195.82762 66.39375 lineto
196.0946 66.07692 lineto
196.36157 65.75035 lineto
196.62856 65.41298 lineto
196.89554 65.06587 lineto
197.16284 64.70795 lineto
197.42982 64.3403 lineto
197.69681 63.96184 lineto
197.96379 63.57364 lineto
198.23077 63.17462 lineto
198.49774 62.76697 lineto
198.76668 62.34525 lineto
199.03398 61.91704 lineto
199.30096 61.48018 lineto
199.56795 61.0325 lineto
199.83493 60.5751 lineto
200.1019 60.10797 lineto
200.36888 59.63219 lineto stroke
 0 0.79001 0.34001 setrgbcolor [3 3 ] 0 setdash
newpath -333.94814 59.63219 moveto
-333.68117 59.14667 lineto
-333.41418 58.65141 lineto
-333.1472 58.14752 lineto
-332.88022 57.63388 lineto
-332.61324 57.1116 lineto
-332.34593 56.58066 lineto
-332.07701 56.03568 lineto
-331.81003 55.48636 lineto
-331.54305 54.92839 lineto
-331.27606 54.36177 lineto
-331.00908 53.7865 lineto
-330.7421 53.20259 lineto
-330.4748 52.6111 lineto
-330.20781 52.01096 lineto
-329.94084 51.40218 lineto
-329.67386 50.78473 lineto
-329.40688 50.1608 lineto
-329.1399 49.52823 lineto
-328.87291 48.887 lineto
-328.60593 48.23927 lineto
-328.33669 47.57858 lineto
-328.0697 46.91464 lineto
-327.80272 46.24422 lineto
-327.53574 45.56622 lineto
-327.26875 44.88066 lineto
-327.00177 44.18861 lineto
-326.7348 43.48898 lineto
-326.46782 42.78288 lineto
-326.20084 42.07028 lineto
-325.93385 41.35011 lineto
-325.66655 40.62454 lineto
-325.39957 39.89247 lineto
-325.13258 39.15285 lineto
-324.8656 38.40889 lineto
-324.59668 37.65196 lineto
-324.3297 36.89503 lineto
-324.06271 36.1316 lineto
-323.79573 35.36386 lineto
-323.52843 34.58963 lineto
-323.26144 33.80998 lineto
-322.99448 33.02495 lineto
-322.7275 32.23448 lineto
-322.46051 31.43971 lineto
-322.19353 30.63953 lineto
-321.92654 29.83502 lineto
-321.65956 29.0251 lineto
-321.39258 28.21086 lineto
-321.12561 27.39229 lineto
-320.85635 26.56291 lineto
-320.58937 25.73569 lineto
-320.32239 24.90414 lineto
-320.0554 24.06935 lineto
-319.78844 23.23024 lineto
-319.52145 22.38788 lineto
-319.25447 21.5412 lineto
-319.21278 21.40865 -319.07646 20.97458 -318.98749 20.69127 curveto
-318.8983 20.40727 -318.79112 20.066 -318.72018 19.83919 curveto
-318.4532 18.98277 lineto
-318.18622 18.12419 lineto
-317.91924 17.26237 lineto
-317.65225 16.39731 lineto
-317.38528 15.53008 lineto
-317.11635 14.6542 lineto
-316.84904 13.78157 lineto
-316.58206 12.90785 lineto
-316.31508 12.03197 lineto
-316.04811 11.15393 lineto
-315.78113 10.27373 lineto
-315.51414 9.39244 lineto
-315.24716 8.51007 lineto
-314.98018 7.62555 lineto
-314.7132 6.73994 lineto
-314.44621 5.85324 lineto
-314.17924 4.96547 lineto
-313.91193 4.0777 lineto
-313.64496 3.18884 lineto
-313.60217 3.04626 -313.46567 2.59123 -313.37602 2.29242 curveto
-313.10904 1.40248 lineto
-312.84207 0.51256 lineto
-312.75308 0.21591 -312.57869 -0.36539 -312.57509 -0.37738 curveto
-312.4861 -0.67403 -312.36166 -1.08888 -312.3081 -1.26732 curveto
-312.25392 -1.44781 -312.12991 -1.86061 -312.0408 -2.15726 curveto
-312.02266 -2.21767 -311.86281 -2.74983 -311.77382 -3.04611 curveto
-311.50684 -3.93497 lineto
-311.41785 -4.23126 -311.29213 -4.64983 -311.23985 -4.82382 curveto
-310.97287 -5.7116 lineto
-310.70589 -6.59828 lineto
-310.43892 -7.4839 lineto
-310.43478 -7.4976 -310.26093 -8.07286 -310.17194 -8.36734 curveto
-309.90495 -9.2508 lineto
-309.6357 -10.13965 lineto
-309.36871 -11.01985 lineto
-309.10175 -11.89789 lineto
-308.83476 -12.77377 lineto
-308.56778 -13.64856 lineto
-308.3008 -14.5212 lineto
-308.21927 -14.78711 -308.12286 -15.10081 -308.03381 -15.3906 curveto
-307.94487 -15.68004 -307.84636 -16.00058 -307.76683 -16.2589 curveto
-307.49985 -17.12396 lineto
-307.42535 -17.36461 -307.32172 -17.69853 -307.23254 -17.98578 curveto
-307.14359 -18.27235 -307.03409 -18.62512 -306.96556 -18.84544 curveto
-306.6986 -19.70186 lineto
-306.43161 -20.55502 lineto
-306.16463 -21.40495 lineto
-305.8957 -22.25813 lineto
-305.62872 -23.10156 lineto
-305.36174 -23.94176 lineto
-305.30945 -24.10564 -305.18361 -24.4983 -305.09444 -24.77655 curveto
-305.0055 -25.05411 -304.8712 -25.47314 -304.82745 -25.60918 curveto
-304.56047 -26.43639 lineto
-304.29349 -27.26036 lineto
-304.0265 -28.08002 lineto
-303.75952 -28.89534 lineto
-303.49255 -29.70526 lineto
-303.22557 -30.51085 lineto
-302.95859 -31.31212 lineto
-302.6916 -32.10797 lineto
-302.4243 -32.89842 lineto
-302.15538 -33.68996 lineto
-301.8884 -34.47069 lineto
-301.62141 -35.246 lineto
-301.35443 -36.01482 lineto
-301.08745 -36.77824 lineto
-300.82047 -37.53625 lineto
-300.55316 -38.28886 lineto
-300.28618 -39.0339 lineto
-300.0192 -39.77461 lineto
-299.75223 -40.50775 lineto
-299.48524 -41.2344 lineto
-299.21826 -41.95566 lineto
-298.95128 -42.66934 lineto
-298.68236 -43.38193 lineto
-298.41505 -44.08264 lineto
-298.14807 -44.77577 lineto
-297.88109 -45.46242 lineto
-297.6141 -46.1415 lineto
-297.34712 -46.813 lineto
-297.08014 -47.47694 lineto
-296.81316 -48.13438 lineto
-296.54619 -48.78427 lineto
-296.2792 -49.42549 lineto
-296.01222 -50.05916 lineto
-295.74492 -50.68524 lineto
-295.47794 -51.30377 lineto
-295.21095 -51.91364 lineto
-294.94203 -52.52026 lineto
-294.67505 -53.11284 lineto
-294.40807 -53.69783 lineto
-294.14108 -54.27419 lineto
-293.8741 -54.84297 lineto
-293.6068 -55.40201 lineto
-293.33981 -55.95241 lineto
-293.07285 -56.49416 lineto
-292.80586 -57.02725 lineto
-292.53888 -57.55061 lineto
-292.2719 -58.06642 lineto
-292.00491 -58.5714 lineto
-291.73793 -59.06773 lineto
-291.47095 -59.5554 lineto
-291.2017 -60.0366 lineto
-290.93472 -60.50482 lineto
-290.66774 -60.9633 lineto
-290.40076 -61.41205 lineto
-290.13377 -61.85107 lineto
-289.86679 -62.28036 lineto
-289.59982 -62.701 lineto
-289.33284 -63.11082 lineto
-289.06586 -63.50984 lineto
-288.79855 -63.90019 lineto
-288.53157 -64.27974 lineto
-288.26459 -64.64957 lineto
-287.9976 -65.00856 lineto
-287.73062 -65.35783 lineto
-287.4617 -65.69954 lineto
-287.19472 -66.02826 lineto
-286.92741 -66.34618 lineto
-286.66043 -66.65327 lineto
-286.39345 -66.95064 lineto
-286.12648 -67.23718 lineto
-285.8595 -67.51292 lineto
-285.59251 -67.77785 lineto
-285.32553 -68.03305 lineto
-285.05855 -68.27635 lineto
-284.79156 -68.50992 lineto
-284.52458 -68.73158 lineto
-284.25761 -68.94353 lineto
-283.9903 -69.14357 lineto
-283.72137 -69.33498 lineto
-283.45439 -69.51338 lineto
-283.18741 -69.681 lineto
-282.92043 -69.83778 lineto
-282.65346 -69.98268 lineto
-282.38647 -70.11786 lineto
-282.11917 -70.24112 lineto
-281.85219 -70.35358 lineto
-281.5852 -70.45523 lineto
-281.31822 -70.54498 lineto
-281.05124 -70.62392 lineto
-280.96269 -70.64838 -280.87373 -70.67128 -280.78426 -70.69205 curveto
-280.69566 -70.7126 -280.6066 -70.7311 -280.51729 -70.74828 curveto
-280.42857 -70.76535 -280.33961 -70.78116 -280.2503 -70.79477 curveto
-280.16084 -70.80841 -280.07104 -70.81985 -279.98105 -70.82938 curveto
-279.71407 -70.85208 lineto
-279.44708 -70.86397 lineto
-279.18011 -70.86505 lineto
-278.91313 -70.85532 lineto
-278.82399 -70.85014 -278.73495 -70.84297 -278.64615 -70.8337 curveto
-278.55693 -70.82437 -278.46796 -70.81293 -278.37917 -70.80017 curveto
-278.28992 -70.78735 -278.20087 -70.77322 -278.11218 -70.75693 curveto
-278.0228 -70.7405 -277.93384 -70.72188 -277.8452 -70.70177 curveto
-277.7558 -70.68149 -277.66673 -70.65967 -277.57822 -70.63582 curveto
-277.4886 -70.61166 -277.39957 -70.58542 -277.31091 -70.55795 curveto
-277.04393 -70.47037 lineto
-276.77696 -70.37088 lineto
-276.50998 -70.2595 lineto
-276.24104 -70.13731 lineto
-275.97406 -70.00432 lineto
-275.70709 -69.86049 lineto
-275.44011 -69.70479 lineto
-275.1728 -69.53934 lineto
-274.90582 -69.362 lineto
-274.63884 -69.17493 lineto
-274.37186 -68.97597 lineto
-274.10487 -68.76619 lineto
-273.83789 -68.5456 lineto
-273.57092 -68.3142 lineto
-273.30394 -68.07198 lineto
-273.03696 -67.82002 lineto
-272.76997 -67.55618 lineto
-272.50072 -67.27936 lineto
-272.23375 -66.99496 lineto
-271.96677 -66.69977 lineto
-271.69978 -66.39375 lineto
-271.4328 -66.07692 lineto
-271.16582 -65.75035 lineto
-270.89883 -65.41298 lineto
-270.63185 -65.06587 lineto
-270.36455 -64.70795 lineto
-270.09756 -64.3403 lineto
-269.8306 -63.96184 lineto
-269.56361 -63.57364 lineto
-269.29663 -63.17462 lineto
-269.02965 -62.76697 lineto
-268.76073 -62.34525 lineto
-268.49342 -61.91704 lineto
-268.22644 -61.48018 lineto
-267.95946 -61.0325 lineto
-267.69247 -60.5751 lineto
-267.42549 -60.10797 lineto
-267.15851 -59.63219 lineto
-266.89153 -59.14667 lineto
-266.62456 -58.65141 lineto
-266.35757 -58.14752 lineto
-266.09059 -57.63388 lineto
-265.82361 -57.1116 lineto
-265.5563 -56.58066 lineto
-265.28738 -56.03568 lineto
-265.0204 -55.48636 lineto
-264.75342 -54.92839 lineto
-264.48643 -54.36177 lineto
-264.21945 -53.7865 lineto
-263.95247 -53.20259 lineto
-263.68517 -52.6111 lineto
-263.41818 -52.01096 lineto
-263.1512 -51.40218 lineto
-262.88423 -50.78473 lineto
-262.61725 -50.1608 lineto
-262.35027 -49.52823 lineto
-262.08328 -48.887 lineto
-261.8163 -48.23927 lineto
-261.54706 -47.57858 lineto
-261.28008 -46.91464 lineto
-261.01309 -46.24422 lineto
-260.74611 -45.56622 lineto
-260.47913 -44.88066 lineto
-260.21214 -44.18861 lineto
-259.94516 -43.48898 lineto
-259.67819 -42.78288 lineto
-259.41121 -42.07028 lineto
-259.14423 -41.35011 lineto
-258.87692 -40.62454 lineto
-258.60994 -39.89247 lineto
-258.34296 -39.15285 lineto
-258.07597 -38.40889 lineto
-257.80705 -37.65196 lineto
-257.54007 -36.89503 lineto
-257.27309 -36.1316 lineto
-257.0061 -35.36386 lineto
-256.7388 -34.58963 lineto
-256.47182 -33.80998 lineto
-256.20483 -33.02495 lineto
-255.93787 -32.23448 lineto
-255.67088 -31.43971 lineto
-255.4039 -30.63953 lineto
-255.13692 -29.83502 lineto
-254.86993 -29.0251 lineto
-254.60295 -28.21086 lineto
-254.33598 -27.39229 lineto
-254.06673 -26.56291 lineto
-253.79974 -25.73569 lineto
-253.53276 -24.90414 lineto
-253.26578 -24.06935 lineto
-252.9988 -23.23024 lineto
-252.73183 -22.38788 lineto
-252.46484 -21.5412 lineto
-252.42299 -21.40813 -252.28683 -20.97458 -252.19786 -20.69127 curveto
-252.10867 -20.40727 -252.00134 -20.0655 -251.93056 -19.83919 curveto
-251.66357 -18.98277 lineto
-251.39659 -18.12419 lineto
-251.12961 -17.26237 lineto
-250.86263 -16.39731 lineto
-250.59566 -15.53008 lineto
-250.32672 -14.6542 lineto
-250.05942 -13.78157 lineto
-249.79243 -12.90785 lineto
-249.52545 -12.03197 lineto
-249.25847 -11.15393 lineto
-248.9915 -10.27373 lineto
-248.72452 -9.39244 lineto
-248.45753 -8.51007 lineto
-248.19055 -7.62555 lineto
-247.92357 -6.73994 lineto
-247.65659 -5.85324 lineto
-247.38962 -4.96547 lineto
-247.1223 -4.0777 lineto
-246.85533 -3.18884 lineto
-246.79909 -3.00137 -246.67604 -2.59123 -246.5864 -2.29242 curveto
-246.53514 -2.12154 -246.4084 -1.69913 -246.31941 -1.40248 curveto
-246.05243 -0.51256 lineto
-245.96344 -0.21591 -245.868 0.10219 -245.78546 0.37738 curveto
-245.69649 0.67403 -245.5839 1.04942 -245.51848 1.26732 curveto
-245.46434 1.44765 -245.34029 1.86061 -245.25117 2.15726 curveto
-245.23407 2.21419 -245.07318 2.74983 -244.98419 3.04611 curveto
-244.71721 3.93497 lineto
-244.62822 4.23126 -244.50261 4.64948 -244.45023 4.82382 curveto
-244.18324 5.7116 lineto
-243.91626 6.59828 lineto
-243.64929 7.4839 lineto
-243.64537 7.49689 -243.4713 8.07286 -243.38231 8.36734 curveto
-243.11533 9.2508 lineto
-242.84607 10.13965 lineto
-242.57909 11.01985 lineto
-242.3121 11.89789 lineto
-242.04514 12.77377 lineto
-241.77815 13.64856 lineto
-241.51117 14.5212 lineto
-241.42969 14.78697 -241.33324 15.10081 -241.24419 15.3906 curveto
-241.15524 15.68004 -241.05664 16.00085 -240.9772 16.2589 curveto
-240.71022 17.12396 lineto
-240.63571 17.36467 -240.53209 17.69853 -240.44292 17.98578 curveto
-240.35396 18.27235 -240.24446 18.6251 -240.17593 18.84544 curveto
-239.90897 19.70186 lineto
-239.64198 20.55502 lineto
-239.375 21.40495 lineto
-239.10606 22.25813 lineto
-238.8391 23.10156 lineto
-238.57211 23.94176 lineto
-238.51984 24.10559 -238.39398 24.4983 -238.30481 24.77655 curveto
-238.21587 25.05411 -238.08179 25.47249 -238.03783 25.60918 curveto
-237.77084 26.43639 lineto
-237.50386 27.26036 lineto
-237.23688 28.08002 lineto
-236.9699 28.89534 lineto
-236.70293 29.70526 lineto
-236.43594 30.51085 lineto
-236.16896 31.31212 lineto
-235.90198 32.10797 lineto
-235.63467 32.89842 lineto
-235.36574 33.68996 lineto
-235.09877 34.47069 lineto
-234.83179 35.246 lineto
-234.5648 36.01482 lineto
-234.29782 36.77824 lineto
-234.03084 37.53625 lineto
-233.76353 38.28886 lineto
-233.49655 39.0339 lineto
-233.22957 39.77461 lineto
-232.9626 40.50775 lineto
-232.69562 41.2344 lineto
-232.42863 41.95566 lineto
-232.16165 42.66934 lineto
-231.89273 43.38193 lineto
-231.62543 44.08264 lineto
-231.35844 44.77577 lineto
-231.09146 45.46242 lineto
-230.82448 46.1415 lineto
-230.5575 46.813 lineto
-230.29051 47.47694 lineto
-230.02353 48.13438 lineto
-229.75656 48.78427 lineto
-229.48958 49.42549 lineto
-229.2226 50.05916 lineto
-228.95529 50.68524 lineto
-228.68831 51.30377 lineto
-228.42133 51.91364 lineto
-228.1524 52.52026 lineto
-227.88542 53.11284 lineto
-227.61844 53.69783 lineto
-227.35146 54.27419 lineto
-227.08447 54.84297 lineto
-226.81717 55.40201 lineto
-226.55019 55.95241 lineto
-226.2832 56.49416 lineto
-226.01624 57.02725 lineto
-225.74925 57.55061 lineto
-225.48227 58.06642 lineto
-225.21529 58.5714 lineto
-224.9483 59.06773 lineto
-224.68132 59.5554 lineto
-224.41208 60.0366 lineto
-224.1451 60.50482 lineto
-223.87811 60.9633 lineto
-223.61113 61.41205 lineto
-223.34415 61.85107 lineto
-223.07716 62.28036 lineto
-222.8102 62.701 lineto
-222.54321 63.11082 lineto
-222.27623 63.50984 lineto
-222.00893 63.90019 lineto
-221.74194 64.27974 lineto
-221.47496 64.64957 lineto
-221.20798 65.00856 lineto
-220.941 65.35783 lineto
-220.67207 65.69954 lineto
-220.40509 66.02826 lineto
-220.13779 66.34618 lineto
-219.8708 66.65327 lineto
-219.60382 66.95064 lineto
-219.33684 67.23718 lineto
-219.06987 67.51292 lineto
-218.80289 67.77785 lineto
-218.5359 68.03305 lineto
-218.26892 68.27635 lineto
-218.00194 68.50992 lineto
-217.73495 68.73158 lineto
-217.46797 68.94353 lineto
-217.20067 69.14357 lineto
-216.93175 69.33498 lineto
-216.66476 69.51338 lineto
-216.39778 69.681 lineto
-216.1308 69.83778 lineto
-215.86383 69.98268 lineto
-215.59685 70.11786 lineto
-215.32954 70.24112 lineto
-215.06256 70.35358 lineto
-214.79558 70.45523 lineto
-214.5286 70.54498 lineto
-214.26161 70.62392 lineto
-214.17307 70.64838 -214.0841 70.67128 -213.99463 70.69205 curveto
-213.90604 70.7126 -213.81697 70.7311 -213.72766 70.74828 curveto
-213.63895 70.76535 -213.54999 70.78116 -213.46068 70.79477 curveto
-213.37122 70.80841 -213.28142 70.81985 -213.19142 70.82938 curveto
-212.92444 70.85208 lineto
-212.65746 70.86397 lineto
-212.39047 70.86505 lineto
-212.1235 70.85532 lineto
-212.03436 70.85014 -211.94533 70.84297 -211.85652 70.8337 curveto
-211.7673 70.82437 -211.67833 70.81293 -211.58954 70.80017 curveto
-211.50029 70.78735 -211.41124 70.77322 -211.32256 70.75693 curveto
-211.23317 70.7405 -211.14421 70.72188 -211.05557 70.70177 curveto
-210.96617 70.68149 -210.8771 70.65967 -210.78859 70.63582 curveto
-210.69897 70.61166 -210.60994 70.58542 -210.52129 70.55795 curveto
-210.2543 70.47037 lineto
-209.98734 70.37088 lineto
-209.72035 70.2595 lineto
-209.45142 70.13731 lineto
-209.18443 70.00432 lineto
-208.91747 69.86049 lineto
-208.65048 69.70479 lineto
-208.38318 69.53934 lineto
-208.1162 69.362 lineto
-207.84921 69.17493 lineto
-207.58223 68.97597 lineto
-207.31525 68.76619 lineto
-207.04826 68.5456 lineto
-206.7813 68.3142 lineto
-206.51431 68.07198 lineto
-206.24733 67.82002 lineto
-205.98035 67.55618 lineto
-205.71109 67.27936 lineto
-205.4441 66.99496 lineto
-205.17714 66.69977 lineto
-204.91016 66.39375 lineto
-204.64317 66.07692 lineto
-204.37619 65.75035 lineto
-204.1092 65.41298 lineto
-203.84222 65.06587 lineto
-203.57492 64.70795 lineto
-203.30794 64.3403 lineto
-203.04097 63.96184 lineto
-202.77399 63.57364 lineto
-202.507 63.17462 lineto
-202.24002 62.76697 lineto
-201.9711 62.34525 lineto
-201.70378 61.91704 lineto
-201.43681 61.48018 lineto
-201.16983 61.0325 lineto
-200.90285 60.5751 lineto
-200.63586 60.10797 lineto
-200.36888 59.63219 lineto stroke
 1 0.5 0 setrgbcolor [0 1.25 ] 0.625 setdash
newpath 200.36888 59.63219 moveto
200.63586 59.14667 lineto
200.90285 58.65141 lineto
201.16983 58.14752 lineto
201.43681 57.63388 lineto
201.70378 57.1116 lineto
201.9711 56.58066 lineto
202.24002 56.03568 lineto
202.507 55.48636 lineto
202.77399 54.92839 lineto
203.04097 54.36177 lineto
203.30794 53.7865 lineto
203.57492 53.20259 lineto
203.84222 52.6111 lineto
204.1092 52.01096 lineto
204.37619 51.40218 lineto
204.64317 50.78473 lineto
204.91016 50.1608 lineto
205.17714 49.52823 lineto
205.4441 48.887 lineto
205.71109 48.23927 lineto
205.98035 47.57858 lineto
206.24733 46.91464 lineto
206.51431 46.24422 lineto
206.7813 45.56622 lineto
207.04826 44.88066 lineto
207.31525 44.18861 lineto
207.58223 43.48898 lineto
207.84921 42.78288 lineto
208.1162 42.07028 lineto
208.38318 41.35011 lineto
208.65048 40.62454 lineto
208.91747 39.89247 lineto
209.18443 39.15285 lineto
209.45142 38.40889 lineto
209.72035 37.65196 lineto
209.98734 36.89503 lineto
210.2543 36.1316 lineto
210.52129 35.36386 lineto
210.78859 34.58963 lineto
211.05557 33.80998 lineto
211.32256 33.02495 lineto
211.58954 32.23448 lineto
211.85652 31.43971 lineto
212.1235 30.63953 lineto
212.39047 29.83502 lineto
212.65746 29.0251 lineto
212.92444 28.21086 lineto
213.19142 27.39229 lineto
213.46068 26.56291 lineto
213.72766 25.73569 lineto
213.99463 24.90414 lineto
214.26161 24.06935 lineto
214.5286 23.23024 lineto
214.79558 22.38788 lineto
215.06256 21.5412 lineto
215.10468 21.4073 215.24057 20.97458 215.32954 20.69127 curveto
215.41873 20.40727 215.5259 20.06604 215.59685 19.83919 curveto
215.86383 18.98277 lineto
216.1308 18.12419 lineto
216.39778 17.26237 lineto
216.66476 16.39731 lineto
216.93175 15.53008 lineto
217.20067 14.6542 lineto
217.46797 13.78157 lineto
217.73495 12.90785 lineto
218.00194 12.03197 lineto
218.26892 11.15393 lineto
218.5359 10.27373 lineto
218.80289 9.39244 lineto
219.06987 8.51007 lineto
219.33684 7.62555 lineto
219.60382 6.73994 lineto
219.8708 5.85324 lineto
220.13779 4.96547 lineto
220.40509 4.0777 lineto
220.67207 3.18884 lineto
220.72673 3.00671 220.85136 2.59123 220.941 2.29242 curveto
220.96402 2.21565 221.11899 1.69913 221.20798 1.40248 curveto
221.47496 0.51256 lineto
221.56396 0.21591 221.69022 -0.20494 221.74194 -0.37738 curveto
221.83092 -0.67403 221.9528 -1.08037 222.00893 -1.26732 curveto
222.06235 -1.44527 222.18712 -1.86061 222.27623 -2.15726 curveto
222.27698 -2.15976 222.45422 -2.74983 222.54321 -3.04611 curveto
222.8102 -3.93497 lineto
222.89919 -4.23125 223.03537 -4.68471 223.07716 -4.82382 curveto
223.34415 -5.7116 lineto
223.61113 -6.59828 lineto
223.87811 -7.4839 lineto
223.88022 -7.49088 224.0561 -8.07286 224.1451 -8.36734 curveto
224.41208 -9.2508 lineto
224.68132 -10.13965 lineto
224.9483 -11.01985 lineto
225.21529 -11.89789 lineto
225.48227 -12.77377 lineto
225.74925 -13.64856 lineto
226.01624 -14.5212 lineto
226.10023 -14.7952 226.19415 -15.10081 226.2832 -15.3906 curveto
226.37215 -15.68004 226.46725 -15.9895 226.55019 -16.2589 curveto
226.81717 -17.12396 lineto
226.89102 -17.36253 226.9953 -17.69853 227.08447 -17.98578 curveto
227.17343 -18.27235 227.28326 -18.62622 227.35146 -18.84544 curveto
227.61844 -19.70186 lineto
227.88542 -20.55502 lineto
228.1524 -21.40495 lineto
228.42133 -22.25813 lineto
228.68831 -23.10156 lineto
228.95529 -23.94176 lineto
229.00745 -24.1052 229.13342 -24.4983 229.2226 -24.77655 curveto
229.31154 -25.05411 229.44579 -25.47299 229.48958 -25.60918 curveto
229.75656 -26.43639 lineto
230.02353 -27.26036 lineto
230.29051 -28.08002 lineto
230.5575 -28.89534 lineto
230.82448 -29.70526 lineto
231.09146 -30.51085 lineto
231.35844 -31.31212 lineto
231.62543 -32.10797 lineto
231.89273 -32.89842 lineto
232.16165 -33.68996 lineto
232.42863 -34.47069 lineto
232.69562 -35.246 lineto
232.9626 -36.01482 lineto
233.22957 -36.77824 lineto
233.49655 -37.53625 lineto
233.76385 -38.28886 lineto
234.03084 -39.0339 lineto
234.29782 -39.77461 lineto
234.5648 -40.50775 lineto
234.83179 -41.2344 lineto
235.09877 -41.95566 lineto
235.36574 -42.66934 lineto
235.63467 -43.38193 lineto
235.90198 -44.08264 lineto
236.16896 -44.77577 lineto
236.43594 -45.46242 lineto
236.70293 -46.1415 lineto
236.9699 -46.813 lineto
237.23688 -47.47694 lineto
237.50386 -48.13438 lineto
237.77084 -48.78427 lineto
238.03783 -49.42549 lineto
238.30481 -50.05916 lineto
238.57211 -50.68524 lineto
238.8391 -51.30377 lineto
239.10606 -51.91364 lineto
239.375 -52.52026 lineto
239.64198 -53.11284 lineto
239.90897 -53.69783 lineto
240.17593 -54.27419 lineto
240.44292 -54.84297 lineto
240.71022 -55.40201 lineto
240.9772 -55.95241 lineto
241.24419 -56.49416 lineto
241.51117 -57.02725 lineto
241.77815 -57.55061 lineto
242.04514 -58.06642 lineto
242.3121 -58.5714 lineto
242.57909 -59.06773 lineto
242.84607 -59.5554 lineto
243.11533 -60.0366 lineto
243.38231 -60.50482 lineto
243.64929 -60.9633 lineto
243.91626 -61.41205 lineto
244.18324 -61.85107 lineto
244.45023 -62.28036 lineto
244.71721 -62.701 lineto
244.98419 -63.11082 lineto
245.25117 -63.50984 lineto
245.51848 -63.90019 lineto
245.78546 -64.27974 lineto
246.05243 -64.64957 lineto
246.31941 -65.00856 lineto
246.5864 -65.35783 lineto
246.85533 -65.69954 lineto
247.1223 -66.02826 lineto
247.38962 -66.34618 lineto
247.65659 -66.65327 lineto
247.92357 -66.95064 lineto
248.19055 -67.23718 lineto
248.45753 -67.51292 lineto
248.72452 -67.77785 lineto
248.9915 -68.03305 lineto
249.25847 -68.27635 lineto
249.52545 -68.50992 lineto
249.79243 -68.73158 lineto
250.05942 -68.94353 lineto
250.32672 -69.14357 lineto
250.59566 -69.33498 lineto
250.86263 -69.51338 lineto
251.12961 -69.681 lineto
251.39659 -69.83778 lineto
251.66357 -69.98268 lineto
251.93056 -70.11786 lineto
252.19786 -70.24112 lineto
252.46484 -70.35358 lineto
252.73183 -70.45523 lineto
252.9988 -70.54498 lineto
253.26578 -70.62392 lineto
253.35432 -70.64838 253.44328 -70.67128 253.53276 -70.69205 curveto
253.62137 -70.7126 253.71043 -70.7311 253.79974 -70.74828 curveto
253.88846 -70.76535 253.97742 -70.78116 254.06673 -70.79477 curveto
254.15619 -70.80841 254.24599 -70.81985 254.33598 -70.82938 curveto
254.60295 -70.85208 lineto
254.86993 -70.86397 lineto
255.13692 -70.86505 lineto
255.4039 -70.85532 lineto
255.49304 -70.85014 255.58208 -70.84297 255.67088 -70.8337 curveto
255.7601 -70.82437 255.84908 -70.81293 255.93787 -70.80017 curveto
256.02711 -70.78735 256.11617 -70.77322 256.20483 -70.75693 curveto
256.29422 -70.7405 256.38318 -70.72188 256.47182 -70.70177 curveto
256.56122 -70.68149 256.65028 -70.65967 256.7388 -70.63582 curveto
256.82841 -70.61166 256.91745 -70.58542 257.0061 -70.55795 curveto
257.27309 -70.47037 lineto
257.54007 -70.37088 lineto
257.80705 -70.2595 lineto
258.07597 -70.13731 lineto
258.34296 -70.00432 lineto
258.60994 -69.86049 lineto
258.87692 -69.70479 lineto
259.14423 -69.53934 lineto
259.41121 -69.362 lineto
259.67819 -69.17493 lineto
259.94516 -68.97597 lineto
260.21214 -68.76619 lineto
260.47913 -68.5456 lineto
260.74611 -68.3142 lineto
261.01309 -68.07198 lineto
261.28008 -67.82002 lineto
261.54706 -67.55618 lineto
261.8163 -67.27936 lineto
262.08328 -66.99496 lineto
262.35027 -66.69977 lineto
262.61725 -66.39375 lineto
262.88423 -66.07692 lineto
263.1512 -65.75035 lineto
263.41818 -65.41298 lineto
263.68517 -65.06587 lineto
263.95247 -64.70795 lineto
264.21945 -64.3403 lineto
264.48643 -63.96184 lineto
264.75342 -63.57364 lineto
265.0204 -63.17462 lineto
265.28738 -62.76697 lineto
265.5563 -62.34525 lineto
265.82361 -61.91704 lineto
266.09059 -61.48018 lineto
266.35757 -61.0325 lineto
266.62456 -60.5751 lineto
266.89153 -60.10797 lineto
267.15851 -59.63219 lineto
267.42549 -59.14667 lineto
267.69247 -58.65141 lineto
267.95946 -58.14752 lineto
268.22644 -57.63388 lineto
268.49342 -57.1116 lineto
268.76073 -56.58066 lineto
269.02965 -56.03568 lineto
269.29663 -55.48636 lineto
269.56361 -54.92839 lineto
269.8306 -54.36177 lineto
270.09756 -53.7865 lineto
270.36455 -53.20259 lineto
270.63185 -52.6111 lineto
270.89883 -52.01096 lineto
271.16582 -51.40218 lineto
271.4328 -50.78473 lineto
271.69978 -50.1608 lineto
271.96677 -49.52823 lineto
272.23375 -48.887 lineto
272.50072 -48.23927 lineto
272.76997 -47.57858 lineto
273.03696 -46.91464 lineto
273.30394 -46.24422 lineto
273.57092 -45.56622 lineto
273.83789 -44.88066 lineto
274.10487 -44.18861 lineto
274.37186 -43.48898 lineto
274.63884 -42.78288 lineto
274.90582 -42.07028 lineto
275.1728 -41.35011 lineto
275.44011 -40.62454 lineto
275.70709 -39.89247 lineto
275.97406 -39.15285 lineto
276.24104 -38.40889 lineto
276.50998 -37.65196 lineto
276.77696 -36.89503 lineto
277.04393 -36.1316 lineto
277.31091 -35.36386 lineto
277.57822 -34.58963 lineto
277.8452 -33.80998 lineto
278.11218 -33.02495 lineto
278.37917 -32.23448 lineto
278.64615 -31.43971 lineto
278.91313 -30.63953 lineto
279.18011 -29.83502 lineto
279.44708 -29.0251 lineto
279.71407 -28.21086 lineto
279.98105 -27.39229 lineto
280.2503 -26.56291 lineto
280.51729 -25.73569 lineto
280.78426 -24.90414 lineto
281.05124 -24.06935 lineto
281.31822 -23.23024 lineto
281.5852 -22.38788 lineto
281.85219 -21.5412 lineto
281.8943 -21.4073 282.0302 -20.97458 282.11917 -20.69127 curveto
282.20836 -20.40727 282.31552 -20.06604 282.38647 -19.83919 curveto
282.65346 -18.98277 lineto
282.92043 -18.12419 lineto
283.18741 -17.26237 lineto
283.45439 -16.39731 lineto
283.72137 -15.53008 lineto
283.9903 -14.6542 lineto
284.25761 -13.78157 lineto
284.52458 -12.90785 lineto
284.79156 -12.03197 lineto
285.05855 -11.15393 lineto
285.32553 -10.27373 lineto
285.59251 -9.39244 lineto
285.8595 -8.51007 lineto
286.12648 -7.62555 lineto
286.39345 -6.73994 lineto
286.66043 -5.85324 lineto
286.92741 -4.96547 lineto
287.19472 -4.0777 lineto
287.4617 -3.18884 lineto
287.51636 -3.00668 287.64099 -2.59123 287.73062 -2.29242 curveto
287.75368 -2.21559 287.90862 -1.69913 287.9976 -1.40248 curveto
288.26459 -0.51256 lineto
288.35359 -0.21591 288.47984 0.20494 288.53157 0.37738 curveto
288.62054 0.67403 288.74243 1.08037 288.79855 1.26732 curveto
288.85197 1.44527 288.97675 1.86061 289.06586 2.15726 curveto
289.0666 2.15976 289.24385 2.74983 289.33284 3.04611 curveto
289.59982 3.93497 lineto
289.68881 4.23125 289.825 4.68471 289.86679 4.82382 curveto
290.13377 5.7116 lineto
290.40076 6.59828 lineto
290.66774 7.4839 lineto
290.66985 7.49088 290.84573 8.07286 290.93472 8.36734 curveto
291.2017 9.2508 lineto
291.47095 10.13965 lineto
291.73793 11.01985 lineto
292.00491 11.89789 lineto
292.2719 12.77377 lineto
292.53888 13.64856 lineto
292.80586 14.5212 lineto
292.8847 14.77834 292.9838 15.10081 293.07285 15.3906 curveto
293.16179 15.68004 293.26353 16.01111 293.33981 16.2589 curveto
293.6068 17.12396 lineto
293.68074 17.36287 293.78493 17.69853 293.8741 17.98578 curveto
293.96306 18.27235 294.0726 18.62526 294.14108 18.84544 curveto
294.40807 19.70186 lineto
294.67505 20.55502 lineto
294.94203 21.40495 lineto
295.21095 22.25813 lineto
295.47794 23.10156 lineto
295.74492 23.94176 lineto
295.79707 24.1052 295.92305 24.4983 296.01222 24.77655 curveto
296.10117 25.05411 296.23541 25.47299 296.2792 25.60918 curveto
296.54619 26.43639 lineto
296.81316 27.26036 lineto
297.08014 28.08002 lineto
297.34712 28.89534 lineto
297.6141 29.70526 lineto
297.88109 30.51085 lineto
298.14807 31.31212 lineto
298.41505 32.10797 lineto
298.68236 32.89842 lineto
298.95128 33.68996 lineto
299.21826 34.47069 lineto
299.48524 35.246 lineto
299.75223 36.01482 lineto
300.0192 36.77824 lineto
300.28618 37.53625 lineto
300.55348 38.28886 lineto
300.82047 39.0339 lineto
301.08745 39.77461 lineto
301.35443 40.50775 lineto
301.62141 41.2344 lineto
301.8884 41.95566 lineto
302.15538 42.66934 lineto
302.4243 43.38193 lineto
302.6916 44.08264 lineto
302.95859 44.77577 lineto
303.22557 45.46242 lineto
303.49255 46.1415 lineto
303.75952 46.813 lineto
304.0265 47.47694 lineto
304.29349 48.13438 lineto
304.56047 48.78427 lineto
304.82745 49.42549 lineto
305.09444 50.05916 lineto
305.36174 50.68524 lineto
305.62872 51.30377 lineto
305.8957 51.91364 lineto
306.16463 52.52026 lineto
306.43161 53.11284 lineto
306.6986 53.69783 lineto
306.96556 54.27419 lineto
307.23254 54.84297 lineto
307.49985 55.40201 lineto
307.76683 55.95241 lineto
308.03381 56.49416 lineto
308.3008 57.02725 lineto
308.56778 57.55061 lineto
308.83476 58.06642 lineto
309.10175 58.5714 lineto
309.36871 59.06773 lineto
309.6357 59.5554 lineto
309.90495 60.0366 lineto
310.17194 60.50482 lineto
310.43892 60.9633 lineto
310.70589 61.41205 lineto
310.97287 61.85107 lineto
311.23985 62.28036 lineto
311.50684 62.701 lineto
311.77382 63.11082 lineto
312.0408 63.50984 lineto
312.3081 63.90019 lineto
312.57509 64.27974 lineto
312.84207 64.64957 lineto
313.10904 65.00856 lineto
313.37602 65.35783 lineto
313.64496 65.69954 lineto
313.91193 66.02826 lineto
314.17924 66.34618 lineto
314.44621 66.65327 lineto
314.7132 66.95064 lineto
314.98018 67.23718 lineto
315.24716 67.51292 lineto
315.51414 67.77785 lineto
315.78113 68.03305 lineto
316.04811 68.27635 lineto
316.31508 68.50992 lineto
316.58206 68.73158 lineto
316.84904 68.94353 lineto
317.11635 69.14357 lineto
317.38528 69.33498 lineto
317.65225 69.51338 lineto
317.91924 69.681 lineto
318.18622 69.83778 lineto
318.4532 69.98268 lineto
318.72018 70.11786 lineto
318.98749 70.24112 lineto
319.25447 70.35358 lineto
319.52145 70.45523 lineto
319.78844 70.54498 lineto
320.0554 70.62392 lineto
320.14395 70.64838 320.23291 70.67128 320.32239 70.69205 curveto
320.411 70.7126 320.50006 70.7311 320.58937 70.74828 curveto
320.67809 70.76535 320.76704 70.78116 320.85635 70.79477 curveto
320.94582 70.80841 321.03561 70.81985 321.12561 70.82938 curveto
321.39258 70.85208 lineto
321.65956 70.86397 lineto
321.92654 70.86505 lineto
322.19353 70.85532 lineto
322.28267 70.85014 322.3717 70.84297 322.46051 70.8337 curveto
322.54973 70.82437 322.6387 70.81293 322.7275 70.80017 curveto
322.81674 70.78735 322.90579 70.77322 322.99448 70.75693 curveto
323.08386 70.74051 323.17282 70.72188 323.26144 70.70177 curveto
323.35085 70.68147 323.43991 70.65967 323.52843 70.63582 curveto
323.61804 70.61166 323.70708 70.58542 323.79573 70.55795 curveto
324.06271 70.47037 lineto
324.3297 70.37088 lineto
324.59668 70.2595 lineto
324.8656 70.13731 lineto
325.13258 70.00432 lineto
325.39957 69.86049 lineto
325.66655 69.70479 lineto
325.93385 69.53934 lineto
326.20084 69.362 lineto
326.46782 69.17493 lineto
326.7348 68.97597 lineto
327.00177 68.76619 lineto
327.26875 68.5456 lineto
327.53574 68.3142 lineto
327.80272 68.07198 lineto
328.0697 67.82002 lineto
328.33669 67.55618 lineto
328.60593 67.27936 lineto
328.87291 66.99496 lineto
329.1399 66.69977 lineto
329.40688 66.39375 lineto
329.67386 66.07692 lineto
329.94084 65.75035 lineto
330.20781 65.41298 lineto
330.4748 65.06587 lineto
330.7421 64.70795 lineto
331.00908 64.3403 lineto
331.27606 63.96184 lineto
331.54305 63.57364 lineto
331.81003 63.17462 lineto
332.07701 62.76697 lineto
332.34593 62.34525 lineto
332.61324 61.91704 lineto
332.88022 61.48018 lineto
333.1472 61.0325 lineto
333.41418 60.5751 lineto
333.68117 60.10797 lineto
333.94814 59.63219 lineto stroke
 1 1 1 setrgbcolor 0 1.3 dtransform truncate idtransform setlinewidth pop
 [] 0 setdash
newpath 0 0 moveto
21.25984 0 lineto stroke
newpath 17.56448 -1.5307 moveto
21.25984 0 lineto
17.56448 1.5307 lineto
 closepath
gsave fill grestore stroke
 1.3 0 dtransform exch truncate exch idtransform pop setlinewidth
newpath 0 0 moveto
0 70.86613 lineto stroke
 0 1.3 dtransform truncate idtransform setlinewidth pop
newpath 1.5307 67.17078 moveto
0 70.86613 lineto
-1.5307 67.17078 lineto
 closepath
gsave fill grestore stroke
-14.965 37.98352 moveto
(\000) cmsy10 9.96265 fshow
-14.9626 37.98352 moveto
(!) cmsy10 9.96265 fshow
-11.63629 31.09932 moveto
(j) eurm10 9.96265 fshow
5.64743 -8.6662 moveto
(\000) cmsy10 9.96265 fshow
5.64983 -8.6662 moveto
(!) cmsy10 9.96265 fshow
8.83673 -15.5504 moveto
(i) eurm10 9.96265 fshow
 0 1 1 setrgbcolor 0 0.49814 dtransform truncate idtransform setlinewidth pop
newpath 16.6975 -15.09215 moveto
150.27675 -15.09215 lineto stroke
newpath 146.5821 -16.62256 moveto
150.27675 -15.09215 lineto
146.5821 -13.56174 lineto
 closepath
gsave fill grestore stroke
75.49586 -10.09215 moveto
(T) eurm10 9.96265 fshow
81.51326 -3.20795 moveto
(\000) cmsy10 9.96265 fshow
81.51567 -3.20795 moveto
(!) cmsy10 9.96265 fshow
84.70256 -10.09215 moveto
(i) eurm10 9.96265 fshow
newpath -11.13176 -70.7872 moveto
122.4475 -70.7872 lineto stroke
newpath 118.75285 -72.31761 moveto
122.4475 -70.7872 lineto
118.75285 -69.25679 lineto
 closepath
gsave fill grestore stroke
47.66661 -65.7872 moveto
(T) eurm10 9.96265 fshow
53.684 -58.903 moveto
(\000) cmsy10 9.96265 fshow
53.68642 -58.903 moveto
(!) cmsy10 9.96265 fshow
56.8733 -65.7872 moveto
(i) eurm10 9.96265 fshow
newpath -205.9346 67.50969 moveto
-72.35535 67.50969 lineto stroke
newpath -76.04999 65.97928 moveto
-72.35535 67.50969 lineto
-76.04999 69.0401 lineto
 closepath
gsave fill grestore stroke
-147.13623 72.50969 moveto
(T) eurm10 9.96265 fshow
-141.11884 79.39389 moveto
(\000) cmsy10 9.96265 fshow
-141.11642 79.39389 moveto
(!) cmsy10 9.96265 fshow
-137.92953 72.50969 moveto
(i) eurm10 9.96265 fshow
newpath -166.97423 -38.28886 moveto
-33.39497 -38.28886 lineto stroke
newpath -37.08961 -39.81927 moveto
-33.39497 -38.28886 lineto
-37.08961 -36.75845 lineto
 closepath
gsave fill grestore stroke
-108.17586 -33.28886 moveto
(T) eurm10 9.96265 fshow
-102.15846 -26.40466 moveto
(\000) cmsy10 9.96265 fshow
-102.15605 -26.40466 moveto
(!) cmsy10 9.96265 fshow
-98.96916 -33.28886 moveto
(i) eurm10 9.96265 fshow
grestore
grestore
grestore
grestore
grestore
grestore
grestore
grestore
showpage
%%EOF
