%!PS
%%BoundingBox: -36 -36 171 171 
%%HiResBoundingBox: -35.43306 -35.43306 170.32828 170.32828 
%%Creator: MetaPost 2.02
%%CreationDate: 2024.01.06:1112
%%Pages: 1
%*Font: cmr10 9.96265 9.96265 2c:ae4000000000010431
%*Font: cmr7 6.97385 6.97385 31:fc
%*Font: eurm10 9.96265 9.96265 0b:8002000000000083200000000004
%*Font: eurm7 6.97385 6.97385 19:800000000000000000000001
%*Font: cmr8 7.97011 7.97011 63:82188
%*Font: cmr9 8.96638 8.96637 31:8
%*Font: cmex10 7.97014 9.96265 00:c
%*Font: cmr6 5.97758 5.97758 33:8
%*Font: eurm7 5.9776 6.97385 19:8
%%BeginProlog
%%EndProlog
%%Page: 1 1
gsave newpath -35.43306 -35.43306 moveto
-35.43306 212.59839 lineto
212.59839 212.59839 lineto
212.59839 -35.43306 lineto
 closepath clip
gsave newpath -35.43306 -35.43306 moveto
-35.43306 212.59839 lineto
212.59839 212.59839 lineto
212.59839 -35.43306 lineto
 closepath clip
 1 1 1 setrgbcolor 0 0.5 dtransform truncate idtransform setlinewidth pop
 [3 3 ] 0 setdash 1 setlinecap 1 setlinejoin 10 setmiterlimit
newpath -170.07828 0 moveto
170.07828 0 lineto stroke
 [] 0 setdash
newpath 166.38115 -1.53143 moveto
170.07828 0 lineto
166.38115 1.53143 lineto
 closepath
gsave fill grestore stroke
 0.5 0 dtransform exch truncate exch idtransform pop setlinewidth
 [3 3 ] 0 setdash
newpath 0 -170.07828 moveto
0 170.07828 lineto stroke
 0 0.5 dtransform truncate idtransform setlinewidth pop [] 0 setdash
newpath 1.53143 166.38115 moveto
0 170.07828 lineto
-1.53143 166.38115 lineto
 closepath
gsave fill grestore stroke
 [3 3 ] 0 setdash
newpath 141.73225 0 moveto
141.73225 37.5914 126.7969 73.63866 100.21779 100.21779 curveto
73.63866 126.7969 37.5914 141.73225 0 141.73225 curveto
-37.5914 141.73225 -73.63866 126.7969 -100.21779 100.21779 curveto
-126.7969 73.63866 -141.73225 37.5914 -141.73225 0 curveto
-141.73225 -37.5914 -126.7969 -73.63866 -100.21779 -100.21779 curveto
-73.63866 -126.7969 -37.5914 -141.73225 0 -141.73225 curveto
37.5914 -141.73225 73.63866 -126.7969 100.21779 -100.21779 curveto
126.7969 -73.63866 141.73225 -37.5914 141.73225 0 curveto closepath stroke
 0 1.2 dtransform truncate idtransform setlinewidth pop [] 0 setdash
newpath 0 0 moveto
70.86613 122.74408 lineto stroke
 1.2 0 dtransform exch truncate exch idtransform pop setlinewidth
newpath 70.86613 122.74408 moveto
70.86613 0 lineto stroke
 0 1.2 dtransform truncate idtransform setlinewidth pop
newpath 0 0 moveto
70.86613 0 lineto stroke
 0 0.5 dtransform truncate idtransform setlinewidth pop
newpath 70.86613 122.74408 moveto
141.73225 0 lineto stroke
newpath 28.34602 0 moveto
28.34602 10.12679 22.9438 19.48442 14.17409 24.54839 curveto stroke
newpath 18.09312 23.7481 moveto
16.8178 24.10388 15.50891 24.37259 14.17409 24.54839 curveto
14.99362 23.4802 15.72911 22.36465 16.37932 21.21129 curveto
 closepath
gsave fill grestore stroke
newpath 127.55818 24.54839 moveto
118.78807 19.48497 113.38625 10.1269 113.38625 0 curveto stroke
newpath 112.1195 3.79411 moveto
112.44917 2.51173 112.871 1.24388 113.38625 0 curveto
113.90149 1.24388 114.49974 2.43867 115.17343 3.57854 curveto
 closepath
gsave fill grestore stroke
newpath 65.86613 0 moveto
65.86613 5 lineto
70.86613 5 lineto stroke
27.45663 23.33838 moveto
(\031) eurm7 6.97385 fshow
 0 0.3985 dtransform truncate idtransform setlinewidth pop 0 setlinecap
newpath 27.45663 21.97348 moveto
32.68004 21.97348 lineto stroke
28.08273 15.97598 moveto
(3) cmr7 6.97385 fshow
108.91573 18.97473 moveto
(\013) eurm10 9.96265 fshow
-8.48128 -9.92038 moveto
(0) cmr10 9.96265 fshow
 0 3 dtransform truncate idtransform setlinewidth pop 1 setlinecap
newpath 0 0 moveto 0 0 rlineto stroke
145.23224 -10.38419 moveto
(I) eurm10 9.96265 fshow
newpath 141.73225 0 moveto 0 0 rlineto stroke
-7.50499 146.48753 moveto
(J) eurm10 9.96265 fshow
newpath 0 141.73225 moveto 0 0 rlineto stroke
 1 0.7 0.7 setrgbcolor
67.30447 -11.8842 moveto
(C) eurm10 9.96265 fshow
 1 1 1 setrgbcolor
74.36612 126.24406 moveto
(M) eurm10 9.96265 fshow
newpath 70.86613 122.74408 moveto 0 0 rlineto stroke
 1 0.75 0.75 setrgbcolor
22.01537 -7.70964 moveto
(cos) cmr8 7.97011 fshow
34.68196 -1.19804 moveto
(\000) cmex10 7.97014 fshow
39.52777 -4.56944 moveto
(\031) eurm7 5.9776 fshow
 0 0.3188 dtransform truncate idtransform setlinewidth pop 0 setlinecap
newpath 39.52777 -5.66135 moveto
44.00496 -5.66135 lineto stroke
39.93987 -10.45934 moveto
(3) cmr6 5.97758 fshow
45.20047 -1.19804 moveto
(\001) cmex10 7.97014 fshow
 1 0.5 0 setrgbcolor
gsave [0 1 -1 0 78.57578 48.42479 ] concat 0 0 moveto
(sin) cmr8 7.97011 fshow grestore
gsave [0 1 -1 0 72.06418 60.15039 ] concat 0 0 moveto
(\000) cmex10 7.97014 fshow grestore
gsave [0 1 -1 0 75.43558 64.99619 ] concat 0 0 moveto
(\031) eurm7 5.9776 fshow grestore
 0.3188 0 dtransform exch truncate exch idtransform pop setlinewidth
gsave newpath 76.52748 64.99619 moveto
76.52748 69.47339 lineto
[0 1 -1 0 0 0] concat stroke grestore
gsave [0 1 -1 0 81.32547 65.40839 ] concat 0 0 moveto
(3) cmr6 5.97758 fshow grestore
gsave [0 1 -1 0 72.06418 70.66899 ] concat 0 0 moveto
(\001) cmex10 7.97014 fshow grestore
 1 1 1 setrgbcolor
gsave [0.49998 0.86601 -0.86601 0.49998 31.87347 60.7669 ] concat 0 0 moveto
(1) cmr9 8.96638 fshow grestore
grestore
grestore
showpage
%%EOF
