%!PS
%%BoundingBox: -86 -226 319 99 
%%HiResBoundingBox: -85.28935 -225.60506 318.44946 98.04604 
%%Creator: MetaPost 2.02
%%CreationDate: 2024.01.06:1112
%%Pages: 1
%*Font: cmsy7 6.97385 6.97385 30:80000000000000008
%*Font: eurm10 9.96265 9.96265 0b:800200000000028329c000130004
%%BeginProlog
%%EndProlog
%%Page: 1 1
gsave newpath -297.63774 -467.71645 moveto
-297.63774 297.63774 lineto
467.71645 297.63774 lineto
467.71645 -467.71645 lineto
 closepath clip
gsave newpath -297.63774 -467.71645 moveto
-297.63774 297.63774 lineto
467.71645 297.63774 lineto
467.71645 -467.71645 lineto
 closepath clip
gsave newpath -297.63774 -467.71645 moveto
-297.63774 297.63774 lineto
467.71645 297.63774 lineto
467.71645 -467.71645 lineto
 closepath clip
gsave newpath -297.63774 -467.71645 moveto
-297.63774 297.63774 lineto
467.71645 297.63774 lineto
467.71645 -467.71645 lineto
 closepath clip
gsave newpath -297.63774 -467.71645 moveto
-297.63774 297.63774 lineto
467.71645 297.63774 lineto
467.71645 -467.71645 lineto
 closepath clip
gsave newpath -297.63774 -467.71645 moveto
-297.63774 297.63774 lineto
467.71645 297.63774 lineto
467.71645 -467.71645 lineto
 closepath clip
gsave newpath -297.63774 -467.71645 moveto
-297.63774 297.63774 lineto
467.71645 297.63774 lineto
467.71645 -467.71645 lineto
 closepath clip
gsave newpath -297.63774 -467.71645 moveto
-297.63774 297.63774 lineto
467.71645 297.63774 lineto
467.71645 -467.71645 lineto
 closepath clip
gsave newpath -297.63774 -467.71645 moveto
-297.63774 297.63774 lineto
467.71645 297.63774 lineto
467.71645 -467.71645 lineto
 closepath clip
gsave newpath -297.63774 -467.71645 moveto
-297.63774 297.63774 lineto
467.71645 297.63774 lineto
467.71645 -467.71645 lineto
 closepath clip
 1 1 1 setrgbcolor 0 0.5 dtransform truncate idtransform setlinewidth pop
 [] 0 setdash 1 setlinejoin 10 setmiterlimit
newpath 85.03935 0 moveto
85.03935 22.55484 76.07814 44.1832 60.13068 60.13068 curveto
44.1832 76.07814 22.55484 85.03935 0 85.03935 curveto
-22.55484 85.03935 -44.1832 76.07814 -60.13068 60.13068 curveto
-76.07814 44.1832 -85.03935 22.55484 -85.03935 0 curveto
-85.03935 -22.55484 -76.07814 -44.1832 -60.13068 -60.13068 curveto
-44.1832 -76.07814 -22.55484 -85.03935 0 -85.03935 curveto
22.55484 -85.03935 44.1832 -76.07814 60.13068 -60.13068 curveto
76.07814 -44.1832 85.03935 -22.55484 85.03935 0 curveto closepath stroke
 1 setlinecap
newpath 169.3806 97.79604 moveto
0 0 lineto
132.55867 -76.5362 lineto stroke
newpath 318.19946 -51.02283 moveto
148.81886 -148.81886 lineto
281.37753 -225.35506 lineto stroke
-13 -3.44211 moveto
(O) eurm10 9.96265 fshow
 0 3 dtransform truncate idtransform setlinewidth pop
newpath 0 0 moveto 0 0 rlineto stroke
69.80324 47.51968 moveto
(A) eurm10 9.96265 fshow
newpath 73.64384 42.51968 moveto 0 0 rlineto stroke
142.4704 90.03935 moveto
(R) eurm10 9.96265 fshow
149.3125 93.65575 moveto
(0) cmsy7 6.97385 fshow
newpath 147.2877 85.03935 moveto 0 0 rlineto stroke
68.44334 -54.40388 moveto
(M) eurm10 9.96265 fshow
newpath 73.64384 -42.51968 moveto 0 0 rlineto stroke
105.67337 -76.2734 moveto
(T) eurm10 9.96265 fshow
112.46567 -72.65701 moveto
(0) cmsy7 6.97385 fshow
newpath 110.46577 -63.77951 moveto 0 0 rlineto stroke
138.26967 -152.26097 moveto
(S) eurm10 9.96265 fshow
newpath 148.81886 -148.81886 moveto 0 0 rlineto stroke
293.07297 -58.77951 moveto
(R) eurm10 9.96265 fshow
newpath 296.10657 -63.77951 moveto 0 0 rlineto stroke
264.28464 -216.04048 moveto
(T) eurm10 9.96265 fshow
newpath 259.28464 -212.59837 moveto 0 0 rlineto stroke
 0 1 1 setrgbcolor 0 1.3 dtransform truncate idtransform setlinewidth pop
newpath 22.09416 -12.75604 moveto
26.65144 -4.86258 26.65144 4.86258 22.09416 12.75604 curveto stroke
 1 0.7 0.7 setrgbcolor [3 3 ] 0 setdash
newpath 73.64644 -42.51968 moveto
88.83722 -16.2084 88.83722 16.2084 73.64644 42.51968 curveto stroke
 0 1 1 setrgbcolor [] 0 setdash
newpath 170.91302 -161.5749 moveto
175.4703 -153.68144 175.4703 -143.95628 170.91302 -136.06282 curveto stroke
grestore
grestore
grestore
grestore
grestore
grestore
grestore
grestore
grestore
grestore
showpage
%%EOF
