%!PS
%%BoundingBox: 0 0 284 284 
%%HiResBoundingBox: 0 0 283.46451 283.46451 
%%Creator: MetaPost 2.02
%%CreationDate: 2024.01.06:1112
%%Pages: 1
%*Font: eufm10 9.96265 9.96265 28:d4
%*Font: eurm10 9.96265 9.96265 0b:800200000000028329c000130004
%%BeginProlog
%%EndProlog
%%Page: 1 1
gsave newpath 0 0 moveto
0 283.46451 lineto
283.46451 283.46451 lineto
283.46451 0 lineto
 closepath clip
gsave newpath 0 0 moveto
0 283.46451 lineto
283.46451 283.46451 lineto
283.46451 0 lineto
 closepath clip
gsave newpath 0 0 moveto
0 283.46451 lineto
283.46451 283.46451 lineto
283.46451 0 lineto
 closepath clip
gsave newpath 0 0 moveto
0 283.46451 lineto
283.46451 283.46451 lineto
283.46451 0 lineto
 closepath clip
gsave newpath 0 0 moveto
0 283.46451 lineto
283.46451 283.46451 lineto
283.46451 0 lineto
 closepath clip
gsave newpath 0 0 moveto
0 283.46451 lineto
283.46451 283.46451 lineto
283.46451 0 lineto
 closepath clip
gsave newpath 0 0 moveto
0 283.46451 lineto
283.46451 283.46451 lineto
283.46451 0 lineto
 closepath clip
gsave newpath 0 0 moveto
0 283.46451 lineto
283.46451 283.46451 lineto
283.46451 0 lineto
 closepath clip
gsave newpath 0 0 moveto
0 283.46451 lineto
283.46451 283.46451 lineto
283.46451 0 lineto
 closepath clip
gsave newpath 0 0 moveto
0 283.46451 lineto
283.46451 283.46451 lineto
283.46451 0 lineto
 closepath clip
gsave newpath 0 0 moveto
0 283.46451 lineto
283.46451 283.46451 lineto
283.46451 0 lineto
 closepath clip
 1 1 1 setrgbcolor 0.5 0 dtransform exch truncate exch idtransform pop setlinewidth
 [] 0 setdash 1 setlinecap 1 setlinejoin 10 setmiterlimit
newpath 141.73225 0 moveto
141.73225 283.46451 lineto stroke
 0 0.5 dtransform truncate idtransform setlinewidth pop
newpath 143.26338 279.76814 moveto
141.73225 283.46451 lineto
140.20113 279.76814 lineto
 closepath
gsave fill grestore stroke
newpath 0 141.73225 moveto
283.46451 141.73225 lineto stroke
newpath 279.76814 140.20113 moveto
283.46451 141.73225 lineto
279.76814 143.26338 lineto
 closepath
gsave fill grestore stroke
 0 1.1 dtransform truncate idtransform setlinewidth pop
newpath 255.11848 141.73225 moveto
255.11848 171.80548 243.17017 200.6434 221.90678 221.90678 curveto
200.6434 243.17017 171.80548 255.11848 141.73225 255.11848 curveto
111.65903 255.11848 82.8211 243.17017 61.55772 221.90678 curveto
40.29434 200.6434 28.34602 171.80548 28.34602 141.73225 curveto
28.34602 111.65903 40.29434 82.8211 61.55772 61.55772 curveto
82.8211 40.29434 111.65903 28.34602 141.73225 28.34602 curveto
171.80548 28.34602 200.6434 40.29434 221.90678 61.55772 curveto
243.17017 82.8211 255.11848 111.65903 255.11848 141.73225 curveto closepath stroke
243.42816 201.9217 moveto
(x) eurm10 9.96265 fshow
 0 3 dtransform truncate idtransform setlinewidth pop
newpath 239.92818 198.42172 moveto 0 0 rlineto stroke
16.76855 202.74742 moveto
(\031) eurm10 9.96265 fshow
25.04965 202.74742 moveto
(-) eufm10 9.96265 fshow
34.79526 202.74742 moveto
(x) eurm10 9.96265 fshow
newpath 43.53564 198.42053 moveto 0 0 rlineto stroke
16.76924 75.7346 moveto
(\031) eurm10 9.96265 fshow
25.05034 75.7346 moveto
(+) eufm10 9.96265 fshow
34.79594 75.7346 moveto
(x) eurm10 9.96265 fshow
newpath 43.53633 85.04279 moveto 0 0 rlineto stroke
243.42816 75.7346 moveto
(-) eufm10 9.96265 fshow
250.95985 75.7346 moveto
(x) eurm10 9.96265 fshow
newpath 239.92818 85.04279 moveto 0 0 rlineto stroke
 1 0.7 0.7 setrgbcolor 0 1.2 dtransform truncate idtransform setlinewidth pop
 [3 3 ] 0 setdash
newpath 239.92818 198.42172 moveto
43.53564 198.42053 lineto
43.53633 85.04279 lineto
239.92818 85.04279 lineto
 closepath stroke
grestore
grestore
grestore
grestore
grestore
grestore
grestore
grestore
grestore
grestore
grestore
showpage
%%EOF
