%!PS
%%BoundingBox: 0 0 296 296 
%%HiResBoundingBox: 0 0 295.05379 295.05379 
%%Creator: MetaPost 2.02
%%CreationDate: 2024.01.06:1112
%%Pages: 1
%*Font: cmr7 6.97385 6.97385 31:fc
%*Font: eufm10 9.96265 9.96265 28:d4
%*Font: eurm10 9.96265 9.96265 0b:800200000000028329c000130004
%*Font: eurm7 6.97385 6.97385 19:800000000000000000000001
%%BeginProlog
%%EndProlog
%%Page: 1 1
gsave newpath 0 0 moveto
0 340.15741 lineto
340.15741 340.15741 lineto
340.15741 0 lineto
 closepath clip
gsave newpath 0 0 moveto
0 340.15741 lineto
340.15741 340.15741 lineto
340.15741 0 lineto
 closepath clip
gsave newpath 0 0 moveto
0 340.15741 lineto
340.15741 340.15741 lineto
340.15741 0 lineto
 closepath clip
gsave newpath 0 0 moveto
0 340.15741 lineto
340.15741 340.15741 lineto
340.15741 0 lineto
 closepath clip
gsave newpath 0 0 moveto
0 340.15741 lineto
340.15741 340.15741 lineto
340.15741 0 lineto
 closepath clip
gsave newpath 0 0 moveto
0 340.15741 lineto
340.15741 340.15741 lineto
340.15741 0 lineto
 closepath clip
gsave newpath 0 0 moveto
0 340.15741 lineto
340.15741 340.15741 lineto
340.15741 0 lineto
 closepath clip
gsave newpath 0 0 moveto
0 340.15741 lineto
340.15741 340.15741 lineto
340.15741 0 lineto
 closepath clip
gsave newpath 0 0 moveto
0 340.15741 lineto
340.15741 340.15741 lineto
340.15741 0 lineto
 closepath clip
gsave newpath 0 0 moveto
0 340.15741 lineto
340.15741 340.15741 lineto
340.15741 0 lineto
 closepath clip
gsave newpath 0 0 moveto
0 340.15741 lineto
340.15741 340.15741 lineto
340.15741 0 lineto
 closepath clip
gsave newpath 0 0 moveto
0 340.15741 lineto
340.15741 340.15741 lineto
340.15741 0 lineto
 closepath clip
 1 1 1 setrgbcolor 0.5 0 dtransform exch truncate exch idtransform pop setlinewidth
 [] 0 setdash 1 setlinecap 1 setlinejoin 10 setmiterlimit
newpath 147.40189 0 moveto
147.40189 294.80379 lineto stroke
 0 0.5 dtransform truncate idtransform setlinewidth pop
newpath 148.93228 291.10919 moveto
147.40189 294.80379 lineto
145.87149 291.10919 lineto
 closepath
gsave fill grestore stroke
newpath 0 147.40189 moveto
294.80379 147.40189 lineto stroke
newpath 291.10919 145.87149 moveto
294.80379 147.40189 lineto
291.10919 148.93228 lineto
 closepath
gsave fill grestore stroke
 0 1.1 dtransform truncate idtransform setlinewidth pop
newpath 260.78769 147.40189 moveto
260.78769 177.475 248.83942 206.31282 227.57611 227.57611 curveto
206.31282 248.83942 177.475 260.78769 147.40189 260.78769 curveto
117.32877 260.78769 88.49095 248.83942 67.22766 227.57611 curveto
45.96436 206.31282 34.01608 177.475 34.01608 147.40189 curveto
34.01608 117.32877 45.96436 88.49095 67.22766 67.22766 curveto
88.49095 45.96436 117.32877 34.01608 147.40189 34.01608 curveto
177.475 34.01608 206.31282 45.96436 227.57611 67.22766 curveto
248.83942 88.49095 260.78769 117.32877 260.78769 147.40189 curveto closepath stroke
249.09743 207.59113 moveto
(x) eurm10 9.96265 fshow
 0 3 dtransform truncate idtransform setlinewidth pop
newpath 245.59744 204.09114 moveto 0 0 rlineto stroke
208.78545 256.4605 moveto
(\031) eurm7 6.97385 fshow
 0 0.3985 dtransform truncate idtransform setlinewidth pop 0 setlinecap
newpath 208.78545 255.0956 moveto
214.00885 255.0956 lineto stroke
209.41154 249.0981 moveto
(2) cmr7 6.97385 fshow
217.41824 252.5352 moveto
(-) eufm10 9.96265 fshow
227.16385 252.5352 moveto
(x) eurm10 9.96265 fshow
 0 3 dtransform truncate idtransform setlinewidth pop 1 setlinecap
newpath 204.08997 245.59811 moveto 0 0 rlineto stroke
63.59395 256.45982 moveto
(\031) eurm7 6.97385 fshow
 0 0.3985 dtransform truncate idtransform setlinewidth pop 0 setlinecap
newpath 63.59395 255.09492 moveto
68.81735 255.09492 lineto stroke
64.22005 249.09743 moveto
(2) cmr7 6.97385 fshow
72.22675 252.53453 moveto
(+) eufm10 9.96265 fshow
81.97235 252.53453 moveto
(x) eurm10 9.96265 fshow
 0 3 dtransform truncate idtransform setlinewidth pop 1 setlinecap
newpath 90.71263 245.59744 moveto 0 0 rlineto stroke
 0 1 1 setrgbcolor 0 1.2 dtransform truncate idtransform setlinewidth pop
 [3 3 ] 0 setdash
newpath 245.59715 147.40189 moveto
245.59744 204.09114 lineto
147.40189 204.09479 lineto stroke
 1 0.7 0.7 setrgbcolor
newpath 204.09479 147.40189 moveto
204.08997 245.59811 lineto
147.40189 245.59715 lineto stroke
 0 1 0 setrgbcolor
newpath 90.70898 147.40189 moveto
90.71263 245.59744 lineto
147.40189 245.59715 lineto stroke
 1 1 1 setrgbcolor 0 0.5 dtransform truncate idtransform setlinewidth pop
 [] 0 setdash
newpath 147.40189 147.40189 moveto
294.80377 294.80377 lineto stroke
grestore
grestore
grestore
grestore
grestore
grestore
grestore
grestore
grestore
grestore
grestore
grestore
showpage
%%EOF
