%!PS
%%BoundingBox: -137 -142 146 142 
%%HiResBoundingBox: -136.31262 -141.73225 145.76761 141.73225 
%%Creator: MetaPost 2.02
%%CreationDate: 2024.01.06:1112
%%Pages: 1
%*Font: cmr10 9.96265 9.96265 2c:ae40000010000504318
%*Font: eufm10 9.96265 9.96265 28:d4
%*Font: eurm10 9.96265 9.96265 0b:80020000000003c329c003130004
%%BeginProlog
%%EndProlog
%%Page: 1 1
gsave newpath -141.73225 -141.73225 moveto
-141.73225 141.73225 lineto
164.40907 141.73225 lineto
164.40907 -141.73225 lineto
 closepath clip
gsave newpath -141.73225 -141.73225 moveto
-141.73225 141.73225 lineto
164.40907 141.73225 lineto
164.40907 -141.73225 lineto
 closepath clip
gsave newpath -141.73225 -141.73225 moveto
-141.73225 141.73225 lineto
164.40907 141.73225 lineto
164.40907 -141.73225 lineto
 closepath clip
gsave newpath -141.73225 -141.73225 moveto
-141.73225 141.73225 lineto
164.40907 141.73225 lineto
164.40907 -141.73225 lineto
 closepath clip
gsave newpath -141.73225 -141.73225 moveto
-141.73225 141.73225 lineto
164.40907 141.73225 lineto
164.40907 -141.73225 lineto
 closepath clip
gsave newpath -141.73225 -141.73225 moveto
-141.73225 141.73225 lineto
164.40907 141.73225 lineto
164.40907 -141.73225 lineto
 closepath clip
gsave newpath -141.73225 -141.73225 moveto
-141.73225 141.73225 lineto
164.40907 141.73225 lineto
164.40907 -141.73225 lineto
 closepath clip
gsave newpath -141.73225 -141.73225 moveto
-141.73225 141.73225 lineto
164.40907 141.73225 lineto
164.40907 -141.73225 lineto
 closepath clip
gsave newpath -141.73225 -141.73225 moveto
-141.73225 141.73225 lineto
164.40907 141.73225 lineto
164.40907 -141.73225 lineto
 closepath clip
gsave newpath -141.73225 -141.73225 moveto
-141.73225 141.73225 lineto
164.40907 141.73225 lineto
164.40907 -141.73225 lineto
 closepath clip
gsave newpath -141.73225 -141.73225 moveto
-141.73225 141.73225 lineto
164.40907 141.73225 lineto
164.40907 -141.73225 lineto
 closepath clip
gsave newpath -141.73225 -141.73225 moveto
-141.73225 141.73225 lineto
164.40907 141.73225 lineto
164.40907 -141.73225 lineto
 closepath clip
gsave newpath -141.73225 -141.73225 moveto
-141.73225 141.73225 lineto
164.40907 141.73225 lineto
164.40907 -141.73225 lineto
 closepath clip
gsave newpath -141.73225 -141.73225 moveto
-141.73225 141.73225 lineto
164.40907 141.73225 lineto
164.40907 -141.73225 lineto
 closepath clip
gsave newpath -141.73225 -141.73225 moveto
-141.73225 141.73225 lineto
164.40907 141.73225 lineto
164.40907 -141.73225 lineto
 closepath clip
 1 1 1 setrgbcolor 0 0.5 dtransform truncate idtransform setlinewidth pop
 [] 0 setdash 1 setlinecap 1 setlinejoin 10 setmiterlimit
newpath -136.06262 0 moveto
136.06262 0 lineto stroke
newpath 132.36836 -1.53024 moveto
136.06262 0 lineto
132.36836 1.53024 lineto
 closepath
gsave fill grestore stroke
 0.5 0 dtransform exch truncate exch idtransform pop setlinewidth
newpath 0 -136.06262 moveto
0 136.06262 lineto stroke
 0 0.5 dtransform truncate idtransform setlinewidth pop
newpath 1.53024 132.36836 moveto
0 136.06262 lineto
-1.53024 132.36836 lineto
 closepath
gsave fill grestore stroke
 0 1 1 setrgbcolor
newpath 113.3858 0 moveto
113.3858 30.07312 101.43753 58.91093 80.17422 80.17422 curveto
58.91093 101.43753 30.07312 113.3858 0 113.3858 curveto
-30.07312 113.3858 -58.91093 101.43753 -80.17422 80.17422 curveto
-101.43753 58.91093 -113.3858 30.07312 -113.3858 0 curveto
-113.3858 -30.07312 -101.43753 -58.91093 -80.17422 -80.17422 curveto
-58.91093 -101.43753 -30.07312 -113.3858 0 -113.3858 curveto
30.07312 -113.3858 58.91093 -101.43753 80.17422 -80.17422 curveto
101.43753 -58.91093 113.3858 -30.07312 113.3858 0 curveto closepath stroke
 1 0.7 0.7 setrgbcolor
newpath 0 0 moveto
113.3858 113.3858 lineto stroke
 0 0.79001 0.34001 setrgbcolor
newpath 0 0 moveto
-113.3858 -113.3858 lineto stroke
 1 1 1 setrgbcolor 0.5 0 dtransform exch truncate exch idtransform pop setlinewidth
newpath 113.3858 -147.40189 moveto
113.3858 147.40189 lineto stroke
 0 0.5 dtransform truncate idtransform setlinewidth pop
newpath 22.67682 0 moveto
22.67682 6.01427 20.28763 11.78218 16.03485 16.03485 curveto stroke
newpath 19.58096 14.18436 moveto
18.4633 14.89966 17.27763 15.5201 16.03485 16.03485 curveto
16.54964 14.79207 16.94926 13.51495 17.23376 12.21884 curveto
 closepath
gsave fill grestore stroke
newpath 34.01608 0 moveto
34.01608 67.87653 -72.0476 23.94432 -24.05226 -24.05226 curveto stroke
newpath -27.69667 -22.40297 moveto
-26.5401 -22.9744 -25.32585 -23.52472 -24.05226 -24.05226 curveto
-24.57979 -22.77866 -25.04922 -21.53091 -25.46297 -20.30904 curveto
 closepath
gsave fill grestore stroke
-8.48128 3.49998 moveto
(0) cmr10 9.96265 fshow
 0 3 dtransform truncate idtransform setlinewidth pop
newpath 0 0 moveto 0 0 rlineto stroke
116.88579 -10.38419 moveto
(I) eurm10 9.96265 fshow
newpath 113.3858 0 moveto 0 0 rlineto stroke
-7.50499 118.14108 moveto
(J) eurm10 9.96265 fshow
newpath 0 113.3858 moveto 0 0 rlineto stroke
118.3858 110.89766 moveto
(tan) cmr10 9.96265 fshow
132.7763 110.89766 moveto
(\() eufm10 9.96265 fshow
136.65181 110.89766 moveto
(x) eurm10 9.96265 fshow
141.8921 110.89766 moveto
(\)) eufm10 9.96265 fshow
newpath 113.3858 113.3858 moveto 0 0 rlineto stroke
77.55582 85.17596 moveto
(x) eurm10 9.96265 fshow
-91.80952 -96.6538 moveto
(\031) eurm10 9.96265 fshow
-83.52843 -96.6538 moveto
(+) eufm10 9.96265 fshow
-73.78282 -96.6538 moveto
(x) eurm10 9.96265 fshow
grestore
grestore
grestore
grestore
grestore
grestore
grestore
grestore
grestore
grestore
grestore
grestore
grestore
grestore
grestore
showpage
%%EOF
