<?xml version="1.0" encoding="UTF-8" standalone="no"?>
<svg
   xmlns:dc="http://purl.org/dc/elements/1.1/"
   xmlns:cc="http://creativecommons.org/ns#"
   xmlns:rdf="http://www.w3.org/1999/02/22-rdf-syntax-ns#"
   xmlns:svg="http://www.w3.org/2000/svg"
   xmlns="http://www.w3.org/2000/svg"
   xmlns:xlink="http://www.w3.org/1999/xlink"
   xmlns:sodipodi="http://sodipodi.sourceforge.net/DTD/sodipodi-0.dtd"
   xmlns:inkscape="http://www.inkscape.org/namespaces/inkscape"
   width="403.7388pt"
   height="324.4107pt"
   viewBox="0 0 403.7388 324.4107"
   version="1.1"
   id="svg4419"
   sodipodi:docname="trigo-18.pdf_b.svg"
   inkscape:version="1.0.1 (3bc2e813f5, 2020-09-07)">
  <metadata
     id="metadata4423">
    <rdf:RDF>
      <cc:Work
         rdf:about="">
        <dc:format>image/svg+xml</dc:format>
        <dc:type
           rdf:resource="http://purl.org/dc/dcmitype/StillImage" />
        <dc:title></dc:title>
      </cc:Work>
    </rdf:RDF>
  </metadata>
  <sodipodi:namedview
     pagecolor="#ffffff"
     bordercolor="#666666"
     borderopacity="1"
     objecttolerance="10"
     gridtolerance="10"
     guidetolerance="10"
     inkscape:pageopacity="0"
     inkscape:pageshadow="2"
     inkscape:window-width="1918"
     inkscape:window-height="1044"
     id="namedview4421"
     showgrid="false"
     inkscape:zoom="1.3316453"
     inkscape:cx="116.71621"
     inkscape:cy="216.2738"
     inkscape:window-x="0"
     inkscape:window-y="34"
     inkscape:window-maximized="0"
     inkscape:current-layer="svg4419"
     inkscape:document-rotation="0" />
  <defs
     id="defs4346">
    <g
       id="g4341">
      <symbol
         overflow="visible"
         id="glyph0-0">
        <path
           style="stroke:none"
           d=""
           id="path4314" />
      </symbol>
      <symbol
         overflow="visible"
         id="glyph0-1">
        <path
           style="stroke:none"
           d="M 0.859375 -3.796875 C 0.859375 -1.828125 1.75 0.21875 4.203125 0.21875 C 6.078125 0.21875 7.609375 -0.640625 8.1875 -1.8125 C 8.671875 -2.78125 8.671875 -3.5625 8.671875 -4.34375 C 8.671875 -5.46875 8.421875 -6.703125 7.671875 -7.453125 C 7.03125 -8.109375 6.078125 -8.359375 5.1875 -8.359375 C 4.078125 -8.359375 2.828125 -8.125 2.0625 -7.3125 C 1.1875 -6.359375 0.859375 -5.34375 0.859375 -3.796875 Z M 1.96875 -4.15625 C 1.96875 -5.96875 2.734375 -7.890625 4.8125 -7.890625 C 6.828125 -7.890625 7.546875 -5.71875 7.546875 -4.015625 C 7.546875 -2.21875 6.8125 -0.28125 4.828125 -0.28125 C 4.359375 -0.28125 3.640625 -0.390625 2.921875 -1.1875 C 2.171875 -2.015625 1.96875 -3.03125 1.96875 -4.15625 Z M 1.96875 -4.15625 "
           id="path4317" />
      </symbol>
      <symbol
         overflow="visible"
         id="glyph0-2">
        <path
           style="stroke:none"
           d="M 6.40625 -0.90625 C 6.546875 -0.375 6.703125 0.125 7.09375 0.125 C 7.28125 0.125 7.453125 0.09375 7.640625 0.046875 L 8.875 -0.3125 L 8.875 -0.625 C 8.703125 -0.609375 8.515625 -0.578125 8.359375 -0.578125 C 8.03125 -0.578125 7.75 -0.6875 7.59375 -0.9375 C 7.15625 -1.65625 6.84375 -2.828125 6.578125 -3.796875 C 6.1875 -5.21875 5.640625 -7.140625 5.46875 -8.125 L 3.140625 -8.125 L 3.140625 -7.8125 L 4.21875 -7.625 C 4.328125 -7.609375 4.359375 -7.53125 4.359375 -7.5 C 4.359375 -7.453125 4.359375 -7.453125 4.34375 -7.40625 C 3.09375 -4.921875 1.71875 -2.484375 0.296875 -0.09375 L 0.328125 0.03125 L 1.421875 -0.203125 L 2.828125 -3.171875 C 2.84375 -3.21875 2.890625 -3.265625 2.9375 -3.265625 L 5.625 -3.265625 C 5.671875 -3.265625 5.734375 -3.203125 5.765625 -3.15625 Z M 4.5625 -6.84375 C 4.5625 -6.84375 4.609375 -6.890625 4.640625 -6.890625 C 4.671875 -6.890625 4.703125 -6.859375 4.71875 -6.84375 L 5.5625 -3.921875 C 5.5625 -3.90625 5.578125 -3.8125 5.578125 -3.8125 C 5.578125 -3.78125 5.5625 -3.734375 5.5 -3.734375 L 3.25 -3.734375 C 3.21875 -3.734375 3.171875 -3.78125 3.171875 -3.8125 C 3.171875 -3.828125 3.171875 -3.890625 3.171875 -3.921875 Z M 4.5625 -6.84375 "
           id="path4320" />
      </symbol>
      <symbol
         overflow="visible"
         id="glyph0-3">
        <path
           style="stroke:none"
           d="M 2.546875 -4.421875 C 2.546875 -4.484375 2.59375 -6.578125 2.625 -7.34375 C 2.625 -7.5625 2.671875 -7.65625 2.765625 -7.65625 L 3.234375 -7.65625 C 4.171875 -7.65625 5.234375 -7.40625 5.234375 -6.25 C 5.234375 -4.828125 3.96875 -4.25 2.65625 -4.25 C 2.5625 -4.25 2.546875 -4.34375 2.546875 -4.421875 Z M 3.84375 -3.953125 C 5.265625 -4.109375 6.40625 -4.78125 6.40625 -6.4375 C 6.40625 -7.546875 5.4375 -8.109375 3.984375 -8.109375 L 0.734375 -8.109375 L 0.65625 -8.046875 L 0.640625 -7.84375 C 0.75 -7.84375 1.5625 -7.6875 1.5625 -7.296875 C 1.5625 -6.625 1.609375 -5.421875 1.609375 -5.25 C 1.609375 -3.515625 1.59375 -1.765625 1.5 -0.03125 L 1.625 0.078125 L 2.625 -0.28125 C 2.5625 -1.421875 2.5625 -2.578125 2.5625 -3.734375 C 2.625 -3.734375 2.734375 -3.6875 2.796875 -3.625 C 3.140625 -3.28125 4.65625 -1.328125 5.765625 0.09375 L 6.953125 -0.21875 L 6.953125 -0.328125 L 3.8125 -3.859375 Z M 3.84375 -3.953125 "
           id="path4323" />
      </symbol>
      <symbol
         overflow="visible"
         id="glyph0-4">
        <path
           style="stroke:none"
           d="M 9.5625 -8.25 L 6.265625 -1.75 C 6.234375 -1.703125 6.171875 -1.65625 6.125 -1.65625 C 6.078125 -1.65625 6.015625 -1.765625 5.984375 -1.8125 C 5 -3.9375 3.875 -6.328125 3.21875 -8.25 L 1.109375 -8.25 L 1.03125 -8.15625 L 1 -7.90625 L 1.8125 -7.671875 C 2.03125 -7.609375 2.15625 -7.421875 2.15625 -7.203125 C 2.15625 -7.15625 2.15625 -7.109375 2.140625 -7.0625 C 1.8125 -4.703125 1.40625 -2.34375 0.9375 0 L 1.03125 0.03125 L 1.921875 -0.28125 C 2.015625 -1.34375 2.421875 -6.546875 2.671875 -6.546875 C 2.71875 -6.546875 2.765625 -6.484375 2.796875 -6.4375 C 3.546875 -4.90625 4.671875 -2.15625 5.5625 -0.015625 L 5.921875 -0.015625 L 9.34375 -6.640625 C 9.390625 -6.6875 9.4375 -6.734375 9.484375 -6.734375 C 9.53125 -6.734375 9.578125 -6.640625 9.578125 -6.546875 C 9.59375 -5.765625 9.6875 -2.828125 9.6875 -2.515625 L 9.6875 -0.34375 C 9.6875 -0.03125 10.09375 0.078125 10.453125 0.078125 C 10.921875 0.078125 11.546875 -0.140625 12.078125 -0.328125 L 12.078125 -0.625 C 11.859375 -0.59375 11.5625 -0.546875 11.40625 -0.546875 C 11.015625 -0.546875 10.75 -0.875 10.703125 -1.21875 C 10.5 -3.171875 10.5 -5.015625 10.5 -6.96875 C 10.5 -7.5 10.46875 -7.9375 10.796875 -8.109375 L 10.796875 -8.25 Z M 9.5625 -8.25 "
           id="path4326" />
      </symbol>
      <symbol
         overflow="visible"
         id="glyph0-5">
        <path
           style="stroke:none"
           d="M 6.84375 -8.234375 L 6.78125 -8.3125 C 5.71875 -8.265625 4.546875 -8.203125 3.640625 -8.203125 C 1.53125 -8.203125 1.53125 -8.296875 0.390625 -8.328125 L 0.3125 -8.25 L 0.3125 -7.671875 L 0.40625 -7.59375 C 1.734375 -7.640625 2.671875 -7.671875 2.96875 -7.671875 C 3.03125 -7.671875 3.078125 -7.65625 3.078125 -7.609375 C 3.078125 -7.25 3.09375 -5.515625 3.09375 -4.546875 C 3.09375 -3.03125 3.03125 -1.5 2.9375 0.015625 L 3.046875 0.125 L 4.25 -0.203125 C 4.15625 -1.65625 4.09375 -3.796875 4.09375 -5.234375 C 4.09375 -6.6875 4.078125 -7.703125 4.25 -7.703125 C 4.5 -7.703125 4.75 -7.671875 6.75 -7.578125 L 6.84375 -7.65625 Z M 6.84375 -8.234375 "
           id="path4329" />
      </symbol>
      <symbol
         overflow="visible"
         id="glyph0-6">
        <path
           style="stroke:none"
           d="M 5.734375 -7.25 C 5.21875 -8.234375 4.5 -8.390625 3.625 -8.390625 C 2.3125 -8.390625 1.09375 -7.609375 1.09375 -6.125 C 1.09375 -4.953125 1.828125 -4.375 3.28125 -3.75 C 4 -3.4375 4.71875 -2.796875 4.71875 -2.125 C 4.71875 -1.125 3.9375 -0.375 3.015625 -0.375 C 2.15625 -0.375 1.671875 -0.984375 1.421875 -1.8125 L 1.21875 -1.828125 L 0.53125 -1.046875 C 0.875 -0.171875 1.6875 0.171875 2.515625 0.171875 C 4.03125 0.171875 5.765625 -0.921875 5.765625 -2.5 C 5.765625 -3.453125 5.125 -4.09375 3.875 -4.65625 C 2.9375 -5.0625 2.046875 -5.609375 2.046875 -6.53125 C 2.046875 -7.3125 2.609375 -7.953125 3.375 -7.953125 C 4.1875 -7.953125 4.625 -7.40625 4.828125 -6.609375 L 4.984375 -6.578125 Z M 5.734375 -7.25 "
           id="path4332" />
      </symbol>
      <symbol
         overflow="visible"
         id="glyph1-0">
        <path
           style="stroke:none"
           d=""
           id="path4335" />
      </symbol>
      <symbol
         overflow="visible"
         id="glyph1-1">
        <path
           style="stroke:none"
           d="M 2.109375 -3.78125 C 2.15625 -3.875 2.1875 -3.9375 2.1875 -4.015625 C 2.1875 -4.28125 1.9375 -4.453125 1.71875 -4.453125 C 1.40625 -4.453125 1.3125 -4.171875 1.28125 -4.0625 L 0.265625 -0.625 C 0.234375 -0.53125 0.234375 -0.515625 0.234375 -0.5 C 0.234375 -0.4375 0.28125 -0.421875 0.359375 -0.390625 C 0.515625 -0.328125 0.53125 -0.328125 0.546875 -0.328125 C 0.5625 -0.328125 0.609375 -0.328125 0.671875 -0.46875 Z M 2.109375 -3.78125 "
           id="path4338" />
      </symbol>
    </g>
    <clipPath
       id="clip1">
      <path
         d="M 233 149 L 403.738281 149 L 403.738281 324.410156 L 233 324.410156 Z M 233 149 "
         id="path4343" />
    </clipPath>
  </defs>
  <g
     id="surface1">
    <path
       style="fill:none;stroke-width:0.5;stroke-linecap:butt;stroke-linejoin:round;stroke:#000000;stroke-opacity:1;stroke-miterlimit:10"
       d="M 85.038775 0.0009525 C 85.038775 22.55564 76.077838 44.184546 60.132525 60.129859 C 44.183306 76.079077 22.5544 85.040015 -0.0002875 85.040015 C -22.554975 85.040015 -44.183881 76.079077 -60.129194 60.129859 C -76.078412 44.184546 -85.03935 22.55564 -85.03935 0.0009525 C -85.03935 -22.553735 -76.078412 -44.182641 -60.129194 -60.13186 C -44.183881 -76.077173 -22.554975 -85.03811 -0.0002875 -85.03811 C 22.5544 -85.03811 44.183306 -76.077173 60.132525 -60.13186 C 76.077838 -44.182641 85.038775 -22.553735 85.038775 0.0009525 Z M 85.038775 0.0009525 "
       transform="matrix(1,0,0,-1,85.28935,98.80564)"
       id="path4348" />
    <path
       style="fill:none;stroke-width:0.5;stroke-linecap:round;stroke-linejoin:round;stroke:#000000;stroke-opacity:1;stroke-miterlimit:10"
       d="M 169.382525 97.797827 L -0.0002875 0.0009525 L 132.558306 -76.53811 "
       transform="matrix(1,0,0,-1,85.28935,98.80564)"
       id="path4350" />
    <g
       clip-path="url(#clip1)"
       clip-rule="nonzero"
       id="g4354">
      <path
         style="fill:none;stroke-width:0.5;stroke-linecap:round;stroke-linejoin:round;stroke:#000000;stroke-opacity:1;stroke-miterlimit:10"
         d="M 318.198931 -51.022485 L 148.820025 -148.81936 L 281.378619 -225.354516 "
         transform="matrix(1,0,0,-1,85.28935,98.80564)"
         id="path4352" />
    </g>
    <g
       style="fill:#000000;fill-opacity:1"
       id="g4358">
      <use
         xlink:href="#glyph0-1"
         x="70.68675"
         y="102.93854"
         id="use4356" />
    </g>
    <path
       style="fill:none;stroke-width:3;stroke-linecap:round;stroke-linejoin:round;stroke:#000000;stroke-opacity:1;stroke-miterlimit:10"
       d="M -0.0002875 0.0009525 L -0.0002875 0.0009525 "
       transform="matrix(1,0,0,-1,85.28935,98.80564)"
       id="path4360" />
    <g
       style="fill:#000000;fill-opacity:1"
       id="g4364">
      <use
         xlink:href="#glyph0-2"
         x="154.32725"
         y="51.28594"
         id="use4362" />
    </g>
    <path
       style="fill:none;stroke-width:3;stroke-linecap:round;stroke-linejoin:round;stroke:#000000;stroke-opacity:1;stroke-miterlimit:10"
       d="M 73.644244 42.520484 L 73.644244 42.520484 "
       transform="matrix(1,0,0,-1,85.28935,98.80564)"
       id="path4366" />
    <g
       style="fill:#000000;fill-opacity:1"
       id="g4370">
      <use
         xlink:href="#glyph0-3"
         x="227.06845"
         y="8.76624"
         id="use4368" />
    </g>
    <g
       style="fill:#000000;fill-opacity:1"
       id="g4374">
      <use
         xlink:href="#glyph1-1"
         x="235.29045"
         y="4.42784"
         id="use4372" />
    </g>
    <path
       style="fill:none;stroke-width:3;stroke-linecap:round;stroke-linejoin:round;stroke:#000000;stroke-opacity:1;stroke-miterlimit:10"
       d="M 147.288775 85.040015 L 147.288775 85.040015 "
       transform="matrix(1,0,0,-1,85.28935,98.80564)"
       id="path4376" />
    <g
       style="fill:#000000;fill-opacity:1"
       id="g4380">
      <use
         xlink:href="#glyph0-4"
         x="152.69175"
         y="154.59124"
         id="use4378" />
    </g>
    <path
       style="fill:none;stroke-width:3;stroke-linecap:round;stroke-linejoin:round;stroke:#000000;stroke-opacity:1;stroke-miterlimit:10"
       d="M 73.644244 -42.518579 L 73.644244 -42.518579 "
       transform="matrix(1,0,0,-1,85.28935,98.80564)"
       id="path4382" />
    <g
       style="fill:#000000;fill-opacity:1"
       id="g4386">
      <use
         xlink:href="#glyph0-5"
         x="190.27725"
         y="176.35144"
         id="use4384" />
    </g>
    <g
       style="fill:#000000;fill-opacity:1"
       id="g4390">
      <use
         xlink:href="#glyph1-1"
         x="198.43785"
         y="172.01304"
         id="use4388" />
    </g>
    <path
       style="fill:none;stroke-width:3;stroke-linecap:round;stroke-linejoin:round;stroke:#000000;stroke-opacity:1;stroke-miterlimit:10"
       d="M 110.464556 -63.780298 L 110.464556 -63.780298 "
       transform="matrix(1,0,0,-1,85.28935,98.80564)"
       id="path4392" />
    <g
       style="fill:#000000;fill-opacity:1"
       id="g4396">
      <use
         xlink:href="#glyph0-6"
         x="222.44705"
         y="251.75744"
         id="use4394" />
    </g>
    <path
       style="fill:none;stroke-width:3;stroke-linecap:round;stroke-linejoin:round;stroke:#000000;stroke-opacity:1;stroke-miterlimit:10"
       d="M 148.820025 -148.81936 L 148.820025 -148.81936 "
       transform="matrix(1,0,0,-1,85.28935,98.80564)"
       id="path4398" />
    <g
       style="fill:#000000;fill-opacity:1"
       id="g4402">
      <use
         xlink:href="#glyph0-3"
         x="377.75535"
         y="157.58514"
         id="use4400" />
    </g>
    <path
       style="fill:none;stroke-width:3;stroke-linecap:round;stroke-linejoin:round;stroke:#000000;stroke-opacity:1;stroke-miterlimit:10"
       d="M 296.105181 -63.780298 L 296.105181 -63.780298 "
       transform="matrix(1,0,0,-1,85.28935,98.80564)"
       id="path4404" />
    <g
       style="fill:#000000;fill-opacity:1"
       id="g4408">
      <use
         xlink:href="#glyph0-5"
         x="349.57395"
         y="315.53694"
         id="use4406" />
    </g>
    <path
       style="fill:none;stroke-width:3;stroke-linecap:round;stroke-linejoin:round;stroke:#000000;stroke-opacity:1;stroke-miterlimit:10"
       d="M 259.284869 -212.596704 L 259.284869 -212.596704 "
       transform="matrix(1,0,0,-1,85.28935,98.80564)"
       id="path4410" />
    <path
       style="fill:none;stroke-width:1.3;stroke-linecap:round;stroke-linejoin:round;stroke:#ff0000;stroke-opacity:1;stroke-miterlimit:10"
       d="M 22.093463 -12.75686 C 26.652056 -4.862329 26.652056 4.864234 22.093463 12.754859 "
       transform="matrix(1,0,0,-1,85.28935,98.80564)"
       id="path4412" />
    <path
       style="fill:none;stroke-width:1.3;stroke-linecap:round;stroke-linejoin:round;stroke:#004d4d;stroke-opacity:1;stroke-dasharray:3,3;stroke-miterlimit:10"
       d="M 73.64815 -42.518579 C 88.83565 -16.209985 88.83565 16.207984 73.64815 42.520484 "
       transform="matrix(1,0,0,-1,85.28935,98.80564)"
       id="path4414" />
    <path
       style="fill:none;stroke-width:1.3;stroke-linecap:round;stroke-linejoin:round;stroke:#ff0000;stroke-opacity:1;stroke-miterlimit:10"
       d="M 170.913775 -161.573266 C 175.468462 -153.682641 175.468462 -143.956079 170.913775 -136.061548 "
       transform="matrix(1,0,0,-1,85.28935,98.80564)"
       id="path4416" />
  </g>
</svg>
