<?xml version="1.0" encoding="UTF-8"?>
<svg xmlns="http://www.w3.org/2000/svg" xmlns:xlink="http://www.w3.org/1999/xlink" width="669.3963pt" height="248.0315pt" viewBox="0 0 669.3963 248.0315" version="1.1">
<defs>
<g>
<symbol overflow="visible" id="glyph0-0">
<path style="stroke:none;" d=""/>
</symbol>
<symbol overflow="visible" id="glyph0-1">
<path style="stroke:none;" d="M 3.328125 -3.015625 C 3.390625 -3.265625 3.625 -4.1875 4.3125 -4.1875 C 4.359375 -4.1875 4.609375 -4.1875 4.8125 -4.0625 C 4.53125 -4 4.34375 -3.765625 4.34375 -3.515625 C 4.34375 -3.359375 4.453125 -3.171875 4.71875 -3.171875 C 4.9375 -3.171875 5.25 -3.34375 5.25 -3.75 C 5.25 -4.265625 4.671875 -4.40625 4.328125 -4.40625 C 3.75 -4.40625 3.40625 -3.875 3.28125 -3.65625 C 3.03125 -4.3125 2.5 -4.40625 2.203125 -4.40625 C 1.171875 -4.40625 0.59375 -3.125 0.59375 -2.875 C 0.59375 -2.765625 0.703125 -2.765625 0.71875 -2.765625 C 0.796875 -2.765625 0.828125 -2.796875 0.84375 -2.875 C 1.1875 -3.9375 1.84375 -4.1875 2.1875 -4.1875 C 2.375 -4.1875 2.71875 -4.09375 2.71875 -3.515625 C 2.71875 -3.203125 2.546875 -2.546875 2.1875 -1.140625 C 2.03125 -0.53125 1.671875 -0.109375 1.234375 -0.109375 C 1.171875 -0.109375 0.953125 -0.109375 0.734375 -0.234375 C 0.984375 -0.296875 1.203125 -0.5 1.203125 -0.78125 C 1.203125 -1.046875 0.984375 -1.125 0.84375 -1.125 C 0.53125 -1.125 0.296875 -0.875 0.296875 -0.546875 C 0.296875 -0.09375 0.78125 0.109375 1.21875 0.109375 C 1.890625 0.109375 2.25 -0.59375 2.265625 -0.640625 C 2.390625 -0.28125 2.75 0.109375 3.34375 0.109375 C 4.375 0.109375 4.9375 -1.171875 4.9375 -1.421875 C 4.9375 -1.53125 4.859375 -1.53125 4.828125 -1.53125 C 4.734375 -1.53125 4.71875 -1.484375 4.6875 -1.421875 C 4.359375 -0.34375 3.6875 -0.109375 3.375 -0.109375 C 2.984375 -0.109375 2.828125 -0.421875 2.828125 -0.765625 C 2.828125 -0.984375 2.875 -1.203125 2.984375 -1.640625 Z M 3.328125 -3.015625 "/>
</symbol>
<symbol overflow="visible" id="glyph0-2">
<path style="stroke:none;" d="M 4.84375 -3.796875 C 4.890625 -3.9375 4.890625 -3.953125 4.890625 -4.03125 C 4.890625 -4.203125 4.75 -4.296875 4.59375 -4.296875 C 4.5 -4.296875 4.34375 -4.234375 4.25 -4.09375 C 4.234375 -4.03125 4.140625 -3.734375 4.109375 -3.546875 C 4.03125 -3.296875 3.96875 -3.015625 3.90625 -2.75 L 3.453125 -0.953125 C 3.421875 -0.8125 2.984375 -0.109375 2.328125 -0.109375 C 1.828125 -0.109375 1.71875 -0.546875 1.71875 -0.921875 C 1.71875 -1.375 1.890625 -2 2.21875 -2.875 C 2.375 -3.28125 2.421875 -3.390625 2.421875 -3.59375 C 2.421875 -4.03125 2.109375 -4.40625 1.609375 -4.40625 C 0.65625 -4.40625 0.296875 -2.953125 0.296875 -2.875 C 0.296875 -2.765625 0.390625 -2.765625 0.40625 -2.765625 C 0.515625 -2.765625 0.515625 -2.796875 0.5625 -2.953125 C 0.84375 -3.890625 1.234375 -4.1875 1.578125 -4.1875 C 1.65625 -4.1875 1.828125 -4.1875 1.828125 -3.875 C 1.828125 -3.625 1.71875 -3.359375 1.65625 -3.171875 C 1.25 -2.109375 1.078125 -1.546875 1.078125 -1.078125 C 1.078125 -0.1875 1.703125 0.109375 2.296875 0.109375 C 2.6875 0.109375 3.015625 -0.0625 3.296875 -0.34375 C 3.171875 0.171875 3.046875 0.671875 2.65625 1.203125 C 2.390625 1.53125 2.015625 1.828125 1.5625 1.828125 C 1.421875 1.828125 0.96875 1.796875 0.796875 1.40625 C 0.953125 1.40625 1.09375 1.40625 1.21875 1.28125 C 1.328125 1.203125 1.421875 1.0625 1.421875 0.875 C 1.421875 0.5625 1.15625 0.53125 1.0625 0.53125 C 0.828125 0.53125 0.5 0.6875 0.5 1.171875 C 0.5 1.671875 0.9375 2.046875 1.5625 2.046875 C 2.578125 2.046875 3.609375 1.140625 3.890625 0.015625 Z M 4.84375 -3.796875 "/>
</symbol>
<symbol overflow="visible" id="glyph1-0">
<path style="stroke:none;" d=""/>
</symbol>
<symbol overflow="visible" id="glyph1-1">
<path style="stroke:none;" d="M 8.421875 -2.828125 L 8.484375 -3.296875 L 0.640625 -3.296875 L 0.546875 -2.828125 Z M 8.421875 -2.828125 "/>
</symbol>
<symbol overflow="visible" id="glyph2-0">
<path style="stroke:none;" d=""/>
</symbol>
<symbol overflow="visible" id="glyph2-1">
<path style="stroke:none;" d="M 10.453125 -2.75 C 10 -2.203125 9.375 -1.25 9.078125 0 L 9.546875 0 C 9.921875 -1.5625 10.921875 -2.65625 11.28125 -2.984375 C 10.90625 -3.34375 9.921875 -4.421875 9.546875 -5.96875 L 9.078125 -5.96875 C 9.375 -4.734375 10 -3.796875 10.453125 -3.234375 L 1.09375 -3.234375 C 0.875 -3.234375 0.671875 -3.234375 0.671875 -2.984375 C 0.671875 -2.75 0.890625 -2.75 1.09375 -2.75 Z M 10.453125 -2.75 "/>
</symbol>
<symbol overflow="visible" id="glyph3-0">
<path style="stroke:none;" d=""/>
</symbol>
<symbol overflow="visible" id="glyph3-1">
<path style="stroke:none;" d="M 0.328125 -4.484375 C 0.625 -4.640625 1.046875 -4.875 1.234375 -4.875 C 1.65625 -4.875 1.75 -4.734375 1.75 -1.84375 C 1.75 -1.3125 1.71875 0.171875 1.515625 0.90625 C 1.34375 1.5 0.875 2.046875 -0.015625 2.5625 L 0.171875 2.765625 C 1.25 2.25 2.15625 1.53125 2.515625 0.484375 C 2.671875 0.078125 2.671875 -1.609375 2.671875 -1.84375 C 2.671875 -2.28125 2.671875 -4.28125 2.578125 -4.796875 C 2.546875 -5.1875 2.421875 -5.59375 1.859375 -5.59375 C 1.34375 -5.59375 0.65625 -5.078125 0.171875 -4.703125 Z M 2.015625 -8.15625 C 1.625 -8.15625 1.296875 -7.859375 1.296875 -7.46875 C 1.296875 -7.09375 1.578125 -6.75 1.96875 -6.75 C 2.390625 -6.75 2.703125 -7.109375 2.703125 -7.515625 C 2.703125 -7.90625 2.359375 -8.15625 2.015625 -8.15625 Z M 2.015625 -8.15625 "/>
</symbol>
<symbol overflow="visible" id="glyph3-2">
<path style="stroke:none;" d="M 2.578125 -4.6875 C 2.578125 -5.21875 2.375 -5.625 1.84375 -5.625 C 1.375 -5.625 0.703125 -5.15625 0.171875 -4.734375 L 0.328125 -4.515625 C 0.609375 -4.703125 1.015625 -4.90625 1.28125 -4.90625 C 1.59375 -4.90625 1.703125 -4.5 1.703125 -3.890625 L 1.625 -1.25 C 1.625 -0.0625 2.0625 0.09375 2.578125 0.09375 C 3.234375 0.09375 3.859375 -0.53125 4.265625 -1.0625 L 4.265625 -1.1875 L 4.109375 -1.3125 C 3.796875 -1.03125 3.46875 -0.78125 3.015625 -0.78125 C 2.59375 -0.78125 2.484375 -1.296875 2.484375 -2.171875 Z M 2.75 -7.46875 C 2.75 -7.828125 2.515625 -8.15625 2.109375 -8.15625 C 1.75 -8.15625 1.34375 -7.90625 1.34375 -7.5 C 1.34375 -7.109375 1.65625 -6.796875 2.03125 -6.796875 C 2.421875 -6.796875 2.71875 -7.078125 2.75 -7.46875 Z M 2.75 -7.46875 "/>
</symbol>
<symbol overflow="visible" id="glyph3-3">
<path style="stroke:none;" d="M 6.84375 -8.234375 L 6.78125 -8.3125 C 5.71875 -8.265625 4.546875 -8.203125 3.640625 -8.203125 C 1.53125 -8.203125 1.53125 -8.296875 0.390625 -8.328125 L 0.3125 -8.25 L 0.3125 -7.671875 L 0.40625 -7.59375 C 1.734375 -7.640625 2.671875 -7.671875 2.96875 -7.671875 C 3.03125 -7.671875 3.078125 -7.65625 3.078125 -7.609375 C 3.078125 -7.25 3.09375 -5.515625 3.09375 -4.546875 C 3.09375 -3.03125 3.03125 -1.5 2.9375 0.015625 L 3.046875 0.125 L 4.25 -0.203125 C 4.15625 -1.65625 4.09375 -3.796875 4.09375 -5.234375 C 4.09375 -6.6875 4.078125 -7.703125 4.25 -7.703125 C 4.5 -7.703125 4.75 -7.671875 6.75 -7.578125 L 6.84375 -7.65625 Z M 6.84375 -8.234375 "/>
</symbol>
</g>
<clipPath id="clip1">
  <path d="M 267.910156 0 L 401.488281 0 L 401.488281 248.03125 L 267.910156 248.03125 Z M 267.910156 0 "/>
</clipPath>
<clipPath id="clip2">
  <path d="M 534 52 L 669.394531 52 L 669.394531 196 L 534 196 Z M 534 52 "/>
</clipPath>
</defs>
<g id="surface1">
<g clip-path="url(#clip1)" clip-rule="nonzero">
<path style=" stroke:none;fill-rule:nonzero;fill:rgb(100%,50%,0%);fill-opacity:1;" d="M 267.910156 336.613281 L 401.488281 336.613281 L 401.488281 -88.582031 L 267.910156 -88.582031 Z M 267.910156 336.613281 "/>
</g>
<path style="fill:none;stroke-width:1.1;stroke-linecap:round;stroke-linejoin:round;stroke:rgb(100%,100%,100%);stroke-opacity:1;stroke-miterlimit:10;" d="M -297.639546 0.000145 L 297.637798 0.000145 " transform="matrix(1,0,0,-1,334.69814,124.01577)"/>
<path style="fill-rule:nonzero;fill:rgb(100%,100%,100%);fill-opacity:1;stroke-width:1.1;stroke-linecap:round;stroke-linejoin:round;stroke:rgb(100%,100%,100%);stroke-opacity:1;stroke-miterlimit:10;" d="M 293.946391 -1.531105 L 297.637798 0.000145 L 293.946391 1.531395 Z M 293.946391 -1.531105 " transform="matrix(1,0,0,-1,334.69814,124.01577)"/>
<path style="fill:none;stroke-width:1.1;stroke-linecap:round;stroke-linejoin:round;stroke:rgb(100%,100%,100%);stroke-opacity:1;stroke-miterlimit:10;" d="M 0.00107875 -88.581886 L 0.00107875 88.582176 " transform="matrix(1,0,0,-1,334.69814,124.01577)"/>
<path style="fill-rule:nonzero;fill:rgb(100%,100%,100%);fill-opacity:1;stroke-width:1.1;stroke-linecap:round;stroke-linejoin:round;stroke:rgb(100%,100%,100%);stroke-opacity:1;stroke-miterlimit:10;" d="M 1.532329 84.886864 L 0.00107875 88.582176 L -1.530171 84.886864 Z M 1.532329 84.886864 " transform="matrix(1,0,0,-1,334.69814,124.01577)"/>
<g style="fill:rgb(100%,100%,100%);fill-opacity:1;">
  <use xlink:href="#glyph0-1" x="626.65434" y="133.30527"/>
</g>
<g style="fill:rgb(100%,100%,100%);fill-opacity:1;">
  <use xlink:href="#glyph0-2" x="324.45624" y="39.44387"/>
</g>
<path style="fill:none;stroke-width:1.5;stroke-linecap:round;stroke-linejoin:round;stroke:rgb(100%,69.999695%,69.999695%);stroke-opacity:1;stroke-miterlimit:10;" d="M -66.787984 59.632958 L -66.522359 59.148583 L -66.256734 58.652489 L -65.987202 58.148583 L -65.721577 57.632958 L -65.455952 57.113426 L -65.186421 56.582176 L -64.91689 56.035301 L -64.651265 55.48452 L -64.38564 54.929833 L -64.116109 54.363426 L -63.850484 53.785301 L -63.584859 53.20327 L -63.315327 52.60952 L -63.049702 52.011864 L -62.784077 51.402489 L -62.514546 50.785301 L -62.248921 50.160301 L -61.983296 49.527489 L -61.713765 48.886864 L -61.44814 48.238426 L -61.178609 47.57827 L -60.912984 46.914208 L -60.643452 46.242333 L -60.377827 45.566551 L -60.108296 44.879051 L -59.842671 44.187645 L -59.577046 43.488426 L -59.307515 42.781395 L -59.04189 42.070458 L -58.776265 41.351708 L -58.506734 40.625145 L -58.241109 39.89077 L -57.975484 39.152489 L -57.705952 38.410301 L -57.436421 37.652489 L -57.170796 36.894676 L -56.905171 36.132958 L -56.63564 35.363426 L -56.370015 34.589989 L -56.10439 33.808739 L -55.834859 33.023583 L -55.569234 32.23452 L -55.303609 31.441551 L -55.034077 30.64077 L -54.768452 29.836083 L -54.502827 29.023583 L -54.233296 28.211083 L -53.967671 27.39077 L -53.69814 26.562645 L -53.432515 25.73452 L -53.162984 24.902489 L -52.897359 24.070458 L -52.631734 23.230614 L -52.362202 22.386864 L -52.096577 21.543114 C -52.053609 21.410301 -51.91689 20.972801 -51.827046 20.691551 C -51.741109 20.406395 -51.631734 20.066551 -51.561421 19.839989 L -51.295796 18.98452 L -51.026265 18.125145 L -50.495015 16.398583 L -50.225484 15.531395 L -49.955952 14.652489 L -49.690327 13.781395 L -49.424702 12.906395 L -49.155171 12.031395 L -48.623921 10.273583 L -48.35439 9.39077 L -48.088765 8.511864 L -47.82314 7.625145 L -47.553609 6.738426 L -47.022359 4.964989 L -46.752827 4.07827 L -46.487202 3.187645 C -46.432515 3.007958 -46.307515 2.589989 -46.217671 2.293114 C -46.209859 2.261864 -46.037984 1.699364 -45.952046 1.402489 L -45.682515 0.511864 C -45.592671 0.214989 -45.467671 -0.20298 -45.41689 -0.378761 C -45.327046 -0.675636 -45.19814 -1.105324 -45.151265 -1.26548 C -45.112202 -1.386574 -44.971577 -1.85923 -44.881734 -2.156105 C -44.881734 -2.163917 -44.705952 -2.749855 -44.616109 -3.04673 L -44.346577 -3.933449 C -44.26064 -4.230324 -44.127827 -4.667824 -44.080952 -4.824074 L -43.815327 -5.710792 L -43.545796 -6.597511 L -43.280171 -7.48423 L -43.014546 -8.367042 L -42.745015 -9.249855 L -42.475484 -10.14048 L -41.944234 -11.898292 L -41.674702 -12.773292 L -41.409077 -13.648292 L -41.143452 -14.519386 C -41.061421 -14.788917 -40.963765 -15.101417 -40.873921 -15.39048 C -40.787984 -15.679542 -40.686421 -15.999855 -40.608296 -16.257667 L -40.342671 -17.124855 C -40.268452 -17.363136 -40.162984 -17.699074 -40.07314 -17.98423 C -39.983296 -18.273292 -39.873921 -18.624855 -39.807515 -18.843605 L -39.54189 -19.70298 L -39.272359 -20.554542 L -39.006734 -21.406105 L -38.737202 -22.257667 L -38.471577 -23.101417 L -38.202046 -23.941261 C -38.155171 -24.097511 -38.026265 -24.499855 -37.936421 -24.777199 C -37.846577 -25.054542 -37.709859 -25.488136 -37.670796 -25.60923 L -37.401265 -26.437355 L -37.13564 -27.261574 L -36.866109 -28.081886 L -36.334859 -29.706886 L -36.065327 -30.511574 L -35.799702 -31.312355 L -35.534077 -32.10923 L -35.264546 -32.898292 L -34.995015 -33.691261 L -34.72939 -34.472511 L -34.463765 -35.245949 L -34.194234 -36.01548 L -33.928609 -36.777199 L -33.662984 -37.535011 L -33.393452 -38.288917 L -33.127827 -39.035011 L -32.862202 -39.773292 L -32.592671 -40.507667 L -32.327046 -41.23423 L -32.061421 -41.956886 L -31.79189 -42.667824 L -31.522359 -43.382667 L -31.256734 -44.081886 L -30.991109 -44.777199 L -30.721577 -45.460792 L -30.455952 -46.14048 L -30.190327 -46.812355 L -29.920796 -47.476417 L -29.655171 -48.132667 L -29.389546 -48.785011 L -29.120015 -49.425636 L -28.85439 -50.058449 L -28.584859 -50.683449 L -28.319234 -51.304542 L -28.053609 -51.913917 L -27.784077 -52.519386 L -27.518452 -53.113136 L -27.248921 -53.699074 L -26.983296 -54.273292 L -26.713765 -54.843605 L -26.44814 -55.402199 L -26.182515 -55.95298 L -25.912984 -56.495949 L -25.647359 -57.027199 L -25.381734 -57.550636 L -25.112202 -58.066261 L -24.846577 -58.570167 L -24.580952 -59.066261 L -24.311421 -59.554542 L -24.04189 -60.035011 L -23.776265 -60.503761 L -23.51064 -60.964699 L -23.241109 -61.413917 L -22.975484 -61.851417 L -22.709859 -62.281105 L -22.440327 -62.699074 L -22.174702 -63.10923 L -21.909077 -63.511574 L -21.639546 -63.898292 L -21.373921 -64.281105 L -21.10439 -64.648292 L -20.838765 -65.007667 L -20.57314 -65.35923 L -20.303609 -65.699074 L -20.037984 -66.027199 L -19.768452 -66.347511 L -19.502827 -66.652199 L -19.233296 -66.949074 L -18.967671 -67.238136 L -18.702046 -67.511574 L -18.432515 -67.777199 L -18.16689 -68.031105 L -17.901265 -68.277199 L -17.631734 -68.511574 L -17.366109 -68.730324 L -17.100484 -68.945167 L -16.830952 -69.144386 L -16.561421 -69.335792 L -16.295796 -69.511574 L -16.030171 -69.679542 L -15.76064 -69.839699 L -15.495015 -69.98423 L -15.22939 -70.117042 L -14.959859 -70.242042 L -14.694234 -70.355324 L -14.428609 -70.456886 L -14.159077 -70.54673 L -13.893452 -70.624855 C -13.803609 -70.648292 -13.713765 -70.67173 -13.623921 -70.691261 C -13.537984 -70.710792 -13.44814 -70.730324 -13.358296 -70.749855 C -13.268452 -70.76548 -13.182515 -70.781105 -13.092671 -70.792824 C -13.002827 -70.808449 -12.912984 -70.820167 -12.82314 -70.82798 L -12.553609 -70.851417 L -12.287984 -70.863136 L -12.022359 -70.863136 L -11.752827 -70.855324 C -11.66689 -70.851417 -11.577046 -70.843605 -11.487202 -70.831886 C -11.397359 -70.824074 -11.307515 -70.812355 -11.221577 -70.800636 C -11.131734 -70.788917 -11.04189 -70.773292 -10.952046 -70.757667 C -10.866109 -70.742042 -10.776265 -70.722511 -10.686421 -70.70298 C -10.596577 -70.679542 -10.506734 -70.660011 -10.420796 -70.636574 C -10.330952 -70.613136 -10.241109 -70.585792 -10.151265 -70.558449 L -9.88564 -70.468605 L -9.620015 -70.370949 L -9.350484 -70.257667 L -9.080952 -70.136574 L -8.815327 -70.003761 L -8.549702 -69.85923 L -8.280171 -69.70298 L -8.014546 -69.538917 L -7.748921 -69.363136 L -7.47939 -69.175636 L -7.213765 -68.976417 L -6.94814 -68.76548 L -6.678609 -68.54673 L -6.412984 -68.312355 L -6.147359 -68.070167 L -5.877827 -67.820167 L -5.612202 -67.554542 L -5.342671 -67.281105 L -5.077046 -66.995949 L -4.807515 -66.699074 L -4.54189 -66.394386 L -4.272359 -66.07798 L -4.006734 -65.749855 L -3.741109 -65.413917 L -3.471577 -65.066261 L -3.205952 -64.706886 L -2.940327 -64.339699 L -2.670796 -63.960792 L -2.405171 -63.574074 L -2.139546 -63.175636 L -1.870015 -62.76548 L -1.600484 -62.343605 L -1.334859 -61.917824 L -1.069234 -61.480324 L -0.799702 -61.031105 L -0.534077 -60.574074 L -0.268452 -60.10923 L 0.00107875 -59.632667 L 0.266704 -59.148292 L 0.532329 -58.652199 L 0.80186 -58.148292 L 1.067485 -57.632667 L 1.33311 -57.113136 L 1.602641 -56.581886 L 1.872173 -56.035011 L 2.137798 -55.488136 L 2.403423 -54.929542 L 2.672954 -54.363136 L 2.938579 -53.785011 L 3.204204 -53.20298 L 3.473735 -52.60923 L 3.73936 -52.011574 L 4.008891 -51.402199 L 4.274516 -50.785011 L 4.540141 -50.160011 L 4.809673 -49.527199 L 5.075298 -48.886574 L 5.340923 -48.238136 L 5.610454 -47.57798 L 5.879985 -46.913917 L 6.14561 -46.245949 L 6.411235 -45.566261 L 6.680766 -44.878761 L 6.946391 -44.187355 L 7.212016 -43.488136 L 7.481548 -42.781105 L 7.747173 -42.070167 L 8.012798 -41.351417 L 8.282329 -40.624855 L 8.547954 -39.894386 L 8.817485 -39.152199 L 9.08311 -38.410011 L 9.352641 -37.652199 L 9.618266 -36.894386 L 9.883891 -36.132667 L 10.153423 -35.363136 L 10.419048 -34.589699 L 10.688579 -33.808449 L 10.954204 -33.023292 L 11.219829 -32.23423 L 11.48936 -31.441261 L 11.754985 -30.64048 L 12.02061 -29.835792 L 12.290141 -29.023292 L 12.555766 -28.210792 L 12.821391 -27.39048 L 13.360454 -25.73423 L 13.891704 -24.070167 L 14.161235 -23.230324 L 14.692485 -21.542824 C 14.731548 -21.42173 14.872173 -20.976417 14.962016 -20.691261 C 15.047954 -20.406105 15.157329 -20.062355 15.227641 -19.839699 L 15.493266 -18.98423 L 15.762798 -18.124855 L 16.294048 -16.398292 L 16.563579 -15.531105 L 16.83311 -14.656105 L 17.36436 -12.906105 L 17.633891 -12.031105 L 18.165141 -10.273292 L 18.434673 -9.394386 L 18.700298 -8.511574 L 18.969829 -7.624855 L 19.501079 -5.851417 L 19.77061 -4.964699 L 20.036235 -4.07798 L 20.30186 -3.187355 C 20.356548 -3.007667 20.481548 -2.589699 20.571391 -2.292824 C 20.594829 -2.218605 20.751079 -1.699074 20.840923 -1.402199 L 21.106548 -0.511574 C 21.196391 -0.214699 21.321391 0.20327 21.372173 0.379051 C 21.462016 0.675926 21.58311 1.082176 21.641704 1.26577 C 21.684673 1.410301 21.817485 1.85952 21.907329 2.156395 L 22.172954 3.04702 L 22.442485 3.933739 C 22.528423 4.230614 22.661235 4.660301 22.70811 4.824364 L 22.973735 5.711083 L 23.243266 6.597801 L 23.508891 7.48452 L 23.774516 8.367333 L 24.044048 9.250145 L 24.313579 10.14077 L 24.844829 11.898583 L 25.11436 12.773583 L 25.379985 13.648583 L 25.64561 14.519676 C 25.727641 14.785301 25.825298 15.101708 25.915141 15.39077 C 26.004985 15.679833 26.102641 16.004051 26.180766 16.257958 L 26.446391 17.125145 C 26.52061 17.363426 26.626079 17.699364 26.715923 17.98452 C 26.805766 18.273583 26.915141 18.625145 26.981548 18.843895 L 27.251079 19.70327 L 27.782329 21.406395 L 28.05186 22.257958 L 28.317485 23.101708 L 28.587016 23.941551 C 28.637798 24.101708 28.762798 24.500145 28.852641 24.777489 C 28.942485 25.054833 29.079204 25.476708 29.122173 25.60952 L 29.387798 26.437645 L 29.653423 27.261864 L 29.922954 28.07827 L 30.188579 28.894676 L 30.454204 29.707176 L 30.723735 30.511864 L 30.98936 31.312645 L 31.254985 32.10952 L 31.524516 32.898583 L 31.794048 33.691551 L 32.325298 35.246239 L 32.594829 36.01577 L 32.860454 36.777489 L 33.126079 37.535301 L 33.39561 38.289208 L 33.661235 39.035301 L 33.930766 39.773583 L 34.196391 40.507958 L 34.462016 41.23452 L 34.731548 41.957176 L 34.997173 42.668114 L 35.266704 43.382958 L 35.532329 44.082176 L 35.80186 44.777489 L 36.067485 45.461083 L 36.33311 46.14077 L 36.602641 46.812645 L 36.868266 47.476708 L 37.133891 48.132958 L 37.403423 48.785301 L 37.669048 49.425926 L 37.934673 50.058739 L 38.204204 50.683739 L 38.469829 51.304833 L 38.735454 51.914208 L 39.004985 52.519676 L 39.274516 53.113426 L 39.540141 53.699364 L 39.805766 54.273583 L 40.075298 54.843895 L 40.340923 55.402489 L 40.606548 55.95327 L 40.876079 56.492333 L 41.141704 57.027489 L 41.407329 57.550926 L 41.67686 58.066551 L 41.942485 58.570458 L 42.212016 59.066551 L 42.477641 59.554833 L 42.747173 60.035301 L 43.012798 60.504051 L 43.282329 60.964989 L 43.547954 61.410301 L 43.813579 61.851708 L 44.08311 62.281395 L 44.348735 62.699364 L 44.61436 63.10952 L 44.883891 63.507958 L 45.149516 63.898583 L 45.415141 64.281395 L 45.684673 64.648583 L 45.950298 65.007958 L 46.215923 65.35952 L 46.485454 65.699364 L 46.754985 66.027489 L 47.02061 66.347801 L 47.286235 66.652489 L 47.555766 66.949364 L 47.821391 67.238426 L 48.087016 67.511864 L 48.356548 67.777489 L 48.622173 68.031395 L 48.887798 68.277489 L 49.157329 68.511864 L 49.422954 68.730614 L 49.692485 68.945458 L 49.95811 69.144676 L 50.227641 69.336083 L 50.493266 69.511864 L 50.758891 69.679833 L 51.028423 69.836083 L 51.294048 69.98452 L 51.563579 70.117333 L 51.829204 70.242333 L 52.094829 70.351708 L 52.36436 70.457176 L 52.629985 70.543114 L 52.89561 70.625145 C 52.985454 70.648583 53.075298 70.67202 53.165141 70.691551 C 53.251079 70.711083 53.340923 70.730614 53.430766 70.750145 C 53.52061 70.76577 53.610454 70.781395 53.696391 70.793114 C 53.786235 70.808739 53.876079 70.820458 53.965923 70.82827 L 54.235454 70.851708 L 54.501079 70.863426 L 54.766704 70.863426 L 55.036235 70.855614 C 55.126079 70.851708 55.212016 70.843895 55.30186 70.832176 C 55.391704 70.824364 55.481548 70.812645 55.567485 70.800926 C 55.657329 70.789208 55.747173 70.773583 55.837016 70.757958 C 55.92686 70.742333 56.012798 70.722801 56.102641 70.70327 C 56.192485 70.679833 56.282329 70.660301 56.368266 70.636864 C 56.45811 70.613426 56.547954 70.586083 56.637798 70.558739 L 56.903423 70.468895 L 57.172954 70.371239 L 57.438579 70.257958 L 57.70811 70.136864 L 57.973735 70.004051 L 58.23936 69.85952 L 58.508891 69.70327 L 58.774516 69.539208 L 59.044048 69.363426 L 59.309673 69.175926 L 59.575298 68.976708 L 59.844829 68.76577 L 60.110454 68.54702 L 60.376079 68.312645 L 60.64561 68.070458 L 60.911235 67.820458 L 61.17686 67.554833 L 61.446391 67.277489 L 61.715923 66.996239 L 61.981548 66.699364 L 62.247173 66.394676 L 62.516704 66.07827 L 62.782329 65.750145 L 63.047954 65.414208 L 63.317485 65.066551 L 63.58311 64.707176 L 63.848735 64.339989 L 64.118266 63.961083 L 64.383891 63.574364 L 64.653423 63.175926 L 64.919048 62.76577 L 65.188579 62.343895 L 65.454204 61.918114 L 65.719829 61.480614 L 65.98936 61.031395 L 66.254985 60.574364 L 66.524516 60.10952 L 66.790141 59.632958 " transform="matrix(1,0,0,-1,334.69814,124.01577)"/>
<path style="fill:none;stroke-width:1.5;stroke-linecap:round;stroke-linejoin:round;stroke:rgb(0%,100%,100%);stroke-opacity:1;stroke-dasharray:0,2.5;stroke-dashoffset:1.25;stroke-miterlimit:10;" d="M -200.370015 59.632958 L -200.100484 59.148583 L -199.834859 58.652489 L -199.569234 58.148583 L -199.299702 57.632958 L -199.034077 57.113426 L -198.768452 56.582176 L -198.498921 56.035301 L -198.22939 55.48452 L -197.963765 54.929833 L -197.69814 54.363426 L -197.428609 53.785301 L -197.162984 53.20327 L -196.897359 52.60952 L -196.627827 52.011864 L -196.362202 51.402489 L -196.092671 50.785301 L -195.827046 50.160301 L -195.561421 49.527489 L -195.29189 48.886864 L -195.026265 48.238426 L -194.756734 47.57827 L -194.491109 46.914208 L -194.221577 46.242333 L -193.955952 45.566551 L -193.690327 44.879051 L -193.420796 44.187645 L -193.155171 43.488426 L -192.889546 42.781395 L -192.620015 42.070458 L -192.35439 41.351708 L -192.088765 40.625145 L -191.819234 39.89077 L -191.553609 39.152489 L -191.287984 38.410301 L -190.748921 36.894676 L -190.483296 36.132958 L -190.217671 35.363426 L -189.94814 34.589989 L -189.682515 33.808739 L -189.41689 33.023583 L -189.147359 32.23452 L -188.881734 31.441551 L -188.616109 30.64077 L -188.346577 29.836083 L -188.080952 29.023583 L -187.811421 28.211083 L -187.545796 27.39077 L -187.276265 26.562645 L -187.01064 25.73452 L -186.745015 24.902489 L -186.475484 24.070458 L -186.209859 23.230614 L -185.940327 22.386864 L -185.674702 21.543114 C -185.631734 21.406395 -185.498921 20.972801 -185.409077 20.691551 C -185.319234 20.406395 -185.209859 20.066551 -185.139546 19.839989 L -184.873921 18.98452 L -184.608296 18.125145 L -184.338765 17.261864 L -184.07314 16.398583 L -183.807515 15.531395 L -183.537984 14.652489 L -183.268452 13.781395 L -182.737202 12.031395 L -182.467671 11.152489 L -182.202046 10.273583 L -181.936421 9.39077 L -181.66689 8.511864 L -181.13564 6.738426 L -180.866109 5.851708 L -180.600484 4.964989 L -180.330952 4.07827 L -180.065327 3.187645 C -180.01064 3.000145 -179.88564 2.589989 -179.795796 2.293114 C -179.745015 2.117333 -179.620015 1.699364 -179.530171 1.402489 L -179.264546 0.511864 C -179.174702 0.214989 -179.077046 -0.105324 -178.995015 -0.378761 C -178.905171 -0.675636 -178.795796 -1.050636 -178.72939 -1.26548 C -178.674702 -1.449074 -178.549702 -1.85923 -178.459859 -2.156105 C -178.444234 -2.214699 -178.284077 -2.749855 -178.194234 -3.04673 L -177.928609 -3.933449 C -177.838765 -4.230324 -177.713765 -4.648292 -177.659077 -4.824074 L -177.127827 -6.597511 L -176.858296 -7.48423 C -176.85439 -7.499855 -176.682515 -8.074074 -176.592671 -8.367042 C -176.502827 -8.660011 -176.334859 -9.218605 -176.327046 -9.249855 L -176.057515 -10.14048 L -175.787984 -11.019386 L -175.522359 -11.898292 L -175.256734 -12.773292 L -174.987202 -13.648292 L -174.721577 -14.519386 C -174.639546 -14.788917 -174.54189 -15.101417 -174.455952 -15.39048 C -174.366109 -15.679542 -174.268452 -15.999855 -174.186421 -16.257667 L -173.920796 -17.124855 C -173.846577 -17.363136 -173.741109 -17.699074 -173.655171 -17.98423 C -173.565327 -18.273292 -173.455952 -18.624855 -173.38564 -18.843605 L -173.120015 -19.70298 L -172.850484 -20.554542 L -172.584859 -21.406105 L -172.315327 -22.257667 L -172.049702 -23.101417 L -171.784077 -23.941261 C -171.72939 -24.105324 -171.60439 -24.499855 -171.514546 -24.777199 C -171.424702 -25.054542 -171.29189 -25.472511 -171.248921 -25.60923 L -170.97939 -26.437355 L -170.713765 -27.261574 L -170.44814 -28.081886 L -170.178609 -28.894386 L -169.912984 -29.706886 L -169.647359 -30.511574 L -169.377827 -31.312355 L -169.112202 -32.10923 L -168.846577 -32.898292 L -168.577046 -33.691261 L -168.307515 -34.472511 L -168.04189 -35.245949 L -167.776265 -36.01548 L -167.506734 -36.777199 L -167.241109 -37.535011 L -166.975484 -38.288917 L -166.705952 -39.035011 L -166.440327 -39.773292 L -166.174702 -40.507667 L -165.905171 -41.23423 L -165.639546 -41.956886 L -165.373921 -42.667824 L -165.10439 -43.382667 L -164.834859 -44.081886 L -164.569234 -44.777199 L -164.303609 -45.460792 L -164.034077 -46.14048 L -163.768452 -46.812355 L -163.502827 -47.476417 L -163.233296 -48.132667 L -162.967671 -48.785011 L -162.69814 -49.425636 L -162.432515 -50.058449 L -162.16689 -50.683449 L -161.897359 -51.304542 L -161.631734 -51.913917 L -161.362202 -52.519386 L -161.096577 -53.113136 L -160.827046 -53.699074 L -160.561421 -54.273292 L -160.295796 -54.843605 L -160.026265 -55.402199 L -159.76064 -55.95298 L -159.495015 -56.495949 L -159.225484 -57.027199 L -158.959859 -57.550636 L -158.694234 -58.066261 L -158.424702 -58.570167 L -158.159077 -59.066261 L -157.893452 -59.554542 L -157.623921 -60.035011 L -157.35439 -60.503761 L -157.088765 -60.964699 L -156.82314 -61.413917 L -156.553609 -61.851417 L -156.287984 -62.281105 L -156.022359 -62.699074 L -155.752827 -63.10923 L -155.487202 -63.511574 L -155.217671 -63.898292 L -154.952046 -64.281105 L -154.686421 -64.648292 L -154.41689 -65.007667 L -154.151265 -65.35923 L -153.881734 -65.699074 L -153.616109 -66.027199 L -153.346577 -66.347511 L -153.080952 -66.652199 L -152.815327 -66.949074 L -152.545796 -67.238136 L -152.280171 -67.511574 L -152.014546 -67.777199 L -151.745015 -68.031105 L -151.47939 -68.277199 L -151.213765 -68.511574 L -150.944234 -68.730324 L -150.678609 -68.945167 L -150.412984 -69.144386 L -150.143452 -69.335792 L -149.873921 -69.511574 L -149.608296 -69.679542 L -149.342671 -69.839699 L -149.07314 -69.98423 L -148.807515 -70.117042 L -148.537984 -70.242042 L -148.272359 -70.355324 L -148.006734 -70.456886 L -147.737202 -70.54673 L -147.471577 -70.624855 C -147.381734 -70.648292 -147.295796 -70.67173 -147.205952 -70.691261 C -147.116109 -70.710792 -147.026265 -70.730324 -146.936421 -70.749855 C -146.850484 -70.76548 -146.76064 -70.781105 -146.670796 -70.792824 C -146.580952 -70.808449 -146.491109 -70.820167 -146.401265 -70.82798 L -146.13564 -70.851417 L -145.866109 -70.863136 L -145.600484 -70.863136 L -145.334859 -70.855324 C -145.245015 -70.851417 -145.155171 -70.843605 -145.065327 -70.831886 C -144.97939 -70.824074 -144.889546 -70.812355 -144.799702 -70.800636 C -144.709859 -70.788917 -144.620015 -70.773292 -144.534077 -70.757667 C -144.444234 -70.742042 -144.35439 -70.722511 -144.264546 -70.70298 C -144.174702 -70.679542 -144.088765 -70.660011 -143.998921 -70.636574 C -143.909077 -70.613136 -143.819234 -70.585792 -143.733296 -70.558449 L -143.463765 -70.468605 L -143.19814 -70.370949 L -142.932515 -70.257667 L -142.662984 -70.136574 L -142.393452 -70.003761 L -142.127827 -69.85923 L -141.862202 -69.70298 L -141.592671 -69.538917 L -141.327046 -69.363136 L -141.061421 -69.175636 L -140.79189 -68.976417 L -140.526265 -68.76548 L -140.256734 -68.54673 L -139.991109 -68.312355 L -139.725484 -68.070167 L -139.455952 -67.820167 L -139.190327 -67.554542 L -138.920796 -67.281105 L -138.655171 -66.995949 L -138.38564 -66.699074 L -138.120015 -66.394386 L -137.85439 -66.07798 L -137.584859 -65.749855 L -137.319234 -65.413917 L -137.053609 -65.066261 L -136.784077 -64.706886 L -136.518452 -64.339699 L -136.252827 -63.960792 L -135.983296 -63.574074 L -135.717671 -63.175636 L -135.452046 -62.76548 L -135.182515 -62.343605 L -134.912984 -61.917824 L -134.647359 -61.480324 L -134.381734 -61.031105 L -134.112202 -60.574074 L -133.846577 -60.10923 L -133.580952 -59.632667 L -133.311421 -59.148292 L -133.045796 -58.652199 L -132.780171 -58.148292 L -132.51064 -57.632667 L -132.245015 -57.113136 L -131.975484 -56.581886 L -131.709859 -56.035011 L -131.440327 -55.488136 L -131.174702 -54.929542 L -130.909077 -54.363136 L -130.639546 -53.785011 L -130.373921 -53.20298 L -130.10439 -52.60923 L -129.838765 -52.011574 L -129.57314 -51.402199 L -129.303609 -50.785011 L -129.037984 -50.160011 L -128.772359 -49.527199 L -128.502827 -48.886574 L -128.237202 -48.238136 L -127.967671 -47.57798 L -127.702046 -46.913917 L -127.432515 -46.245949 L -127.16689 -45.566261 L -126.901265 -44.878761 L -126.631734 -44.187355 L -126.366109 -43.488136 L -126.100484 -42.781105 L -125.830952 -42.070167 L -125.565327 -41.351417 L -125.295796 -40.624855 L -125.030171 -39.894386 L -124.764546 -39.152199 L -124.495015 -38.410011 L -124.22939 -37.652199 L -123.959859 -36.894386 L -123.694234 -36.132667 L -123.428609 -35.363136 L -123.159077 -34.589699 L -122.893452 -33.808449 L -122.623921 -33.023292 L -122.358296 -32.23423 L -122.092671 -31.441261 L -121.82314 -30.64048 L -121.557515 -29.835792 L -121.29189 -29.023292 L -121.022359 -28.210792 L -120.756734 -27.39048 L -120.487202 -26.562355 L -120.221577 -25.73423 L -119.952046 -24.902199 L -119.686421 -24.070167 L -119.420796 -23.230324 L -119.151265 -22.386574 L -118.88564 -21.542824 C -118.842671 -21.410011 -118.705952 -20.976417 -118.620015 -20.691261 C -118.530171 -20.406105 -118.420796 -20.066261 -118.350484 -19.839699 L -118.084859 -18.98423 L -117.819234 -18.124855 L -117.549702 -17.261574 L -117.284077 -16.398292 L -117.014546 -15.531105 L -116.748921 -14.656105 L -116.47939 -13.781105 L -115.94814 -12.031105 L -115.678609 -11.152199 L -115.412984 -10.273292 L -115.143452 -9.394386 L -114.877827 -8.511574 L -114.612202 -7.624855 L -114.342671 -6.738136 L -113.811421 -4.964699 L -113.54189 -4.07798 L -113.276265 -3.187355 C -113.221577 -3.007667 -113.096577 -2.589699 -113.006734 -2.292824 C -112.995015 -2.249855 -112.830952 -1.699074 -112.741109 -1.402199 L -112.471577 -0.511574 C -112.38564 -0.214699 -112.26064 0.20327 -112.205952 0.379051 C -112.116109 0.675926 -111.987202 1.105614 -111.940327 1.26577 C -111.88564 1.449364 -111.76064 1.85952 -111.670796 2.156395 C -111.651265 2.226708 -111.495015 2.750145 -111.405171 3.04702 L -111.139546 3.933739 C -111.049702 4.230614 -110.924702 4.648583 -110.870015 4.824364 L -110.338765 6.597801 L -110.069234 7.48452 C -110.065327 7.500145 -109.893452 8.074364 -109.803609 8.367333 C -109.713765 8.660301 -109.545796 9.218895 -109.537984 9.250145 L -109.268452 10.14077 L -108.998921 11.019676 L -108.733296 11.898583 L -108.467671 12.773583 L -108.19814 13.648583 L -107.932515 14.519676 C -107.850484 14.789208 -107.752827 15.101708 -107.662984 15.39077 C -107.577046 15.679833 -107.47939 16.000145 -107.397359 16.257958 L -107.131734 17.125145 C -107.057515 17.363426 -106.952046 17.699364 -106.862202 17.98452 C -106.776265 18.273583 -106.662984 18.625145 -106.596577 18.843895 L -106.330952 19.70327 L -106.061421 20.554833 L -105.795796 21.406395 L -105.526265 22.257958 L -105.26064 23.101708 L -104.991109 23.941551 C -104.940327 24.105614 -104.815327 24.500145 -104.725484 24.777489 C -104.63564 25.054833 -104.502827 25.476708 -104.459859 25.60952 L -104.190327 26.437645 L -103.924702 27.261864 L -103.659077 28.07827 L -103.389546 28.894676 L -103.123921 29.707176 L -102.858296 30.511864 L -102.588765 31.312645 L -102.32314 32.10952 L -102.053609 32.898583 L -101.787984 33.691551 L -101.518452 34.468895 L -101.252827 35.246239 L -100.987202 36.01577 L -100.717671 36.777489 L -100.452046 37.535301 L -100.182515 38.289208 L -99.91689 39.035301 L -99.651265 39.773583 L -99.381734 40.507958 L -99.116109 41.23452 L -98.850484 41.957176 L -98.580952 42.668114 L -98.315327 43.382958 L -98.045796 44.082176 L -97.780171 44.777489 L -97.51064 45.461083 L -97.245015 46.14077 L -96.97939 46.812645 L -96.709859 47.476708 L -96.444234 48.132958 L -96.178609 48.785301 L -95.909077 49.425926 L -95.643452 50.058739 L -95.377827 50.683739 L -95.108296 51.304833 L -94.842671 51.914208 L -94.57314 52.519676 L -94.307515 53.113426 L -94.037984 53.699364 L -93.772359 54.273583 L -93.506734 54.843895 L -93.237202 55.402489 L -92.971577 55.95327 L -92.702046 56.492333 L -92.436421 57.027489 L -92.170796 57.550926 L -91.901265 58.066551 L -91.63564 58.570458 L -91.370015 59.066551 L -91.100484 59.554833 L -90.830952 60.035301 L -90.565327 60.504051 L -90.299702 60.964989 L -90.030171 61.410301 L -89.764546 61.851708 L -89.498921 62.281395 L -89.22939 62.699364 L -88.963765 63.10952 L -88.69814 63.507958 L -88.428609 63.898583 L -88.162984 64.281395 L -87.897359 64.648583 L -87.627827 65.007958 L -87.362202 65.35952 L -87.092671 65.699364 L -86.827046 66.027489 L -86.557515 66.347801 L -86.29189 66.652489 L -86.026265 66.949364 L -85.756734 67.238426 L -85.491109 67.511864 L -85.225484 67.777489 L -84.955952 68.031395 L -84.690327 68.277489 L -84.420796 68.511864 L -84.155171 68.730614 L -83.889546 68.945458 L -83.620015 69.144676 L -83.35439 69.336083 L -83.084859 69.511864 L -82.819234 69.679833 L -82.549702 69.836083 L -82.284077 69.98452 L -82.018452 70.117333 L -81.748921 70.242333 L -81.483296 70.351708 L -81.217671 70.457176 L -80.94814 70.543114 L -80.682515 70.625145 C -80.592671 70.648583 -80.506734 70.67202 -80.41689 70.691551 C -80.327046 70.711083 -80.237202 70.730614 -80.147359 70.750145 C -80.061421 70.76577 -79.971577 70.781395 -79.881734 70.793114 C -79.79189 70.808739 -79.702046 70.820458 -79.612202 70.82827 L -79.346577 70.851708 L -79.077046 70.863426 L -78.811421 70.863426 L -78.545796 70.855614 C -78.455952 70.851708 -78.366109 70.843895 -78.276265 70.832176 C -78.186421 70.824364 -78.100484 70.812645 -78.01064 70.800926 C -77.920796 70.789208 -77.830952 70.773583 -77.745015 70.757958 C -77.655171 70.742333 -77.565327 70.722801 -77.475484 70.70327 C -77.38564 70.679833 -77.299702 70.660301 -77.209859 70.636864 C -77.120015 70.613426 -77.030171 70.586083 -76.940327 70.558739 L -76.674702 70.468895 L -76.409077 70.371239 L -76.139546 70.257958 L -75.873921 70.136864 L -75.60439 70.004051 L -75.338765 69.85952 L -75.07314 69.70327 L -74.803609 69.539208 L -74.537984 69.363426 L -74.268452 69.175926 L -74.002827 68.976708 L -73.737202 68.76577 L -73.467671 68.54702 L -73.202046 68.312645 L -72.936421 68.070458 L -72.66689 67.820458 L -72.401265 67.554833 L -72.131734 67.277489 L -71.866109 66.996239 L -71.596577 66.699364 L -71.330952 66.394676 L -71.065327 66.07827 L -70.795796 65.750145 L -70.530171 65.414208 L -70.264546 65.066551 L -69.995015 64.707176 L -69.72939 64.339989 L -69.459859 63.961083 L -69.194234 63.574364 L -68.928609 63.175926 L -68.659077 62.76577 L -68.393452 62.343895 L -68.123921 61.918114 L -67.858296 61.480614 L -67.588765 61.031395 L -67.32314 60.574364 L -67.057515 60.10952 L -66.787984 59.632958 " transform="matrix(1,0,0,-1,334.69814,124.01577)"/>
<path style="fill:none;stroke-width:1.5;stroke-linecap:round;stroke-linejoin:round;stroke:rgb(79.998779%,79.998779%,79.998779%);stroke-opacity:1;stroke-dasharray:1.5,1.5;stroke-miterlimit:10;" d="M 66.790141 59.632958 L 67.055766 59.148583 L 67.325298 58.652489 L 67.590923 58.148583 L 67.856548 57.632958 L 68.126079 57.113426 L 68.391704 56.582176 L 68.661235 56.035301 L 68.92686 55.48452 L 69.196391 54.929833 L 69.462016 54.363426 L 69.727641 53.785301 L 69.997173 53.20327 L 70.262798 52.60952 L 70.528423 52.011864 L 70.797954 51.402489 L 71.063579 50.785301 L 71.329204 50.160301 L 71.598735 49.527489 L 71.86436 48.886864 L 72.129985 48.238426 L 72.399516 47.57827 L 72.669048 46.914208 L 72.934673 46.242333 L 73.200298 45.566551 L 73.469829 44.879051 L 73.735454 44.187645 L 74.001079 43.488426 L 74.27061 42.781395 L 74.536235 42.070458 L 74.805766 41.351708 L 75.071391 40.625145 L 75.337016 39.89077 L 75.606548 39.152489 L 75.872173 38.410301 L 76.141704 37.652489 L 76.407329 36.894676 L 76.67686 36.132958 L 76.942485 35.363426 L 77.20811 34.589989 L 77.477641 33.808739 L 77.743266 33.023583 L 78.008891 32.23452 L 78.278423 31.441551 L 78.544048 30.64077 L 78.809673 29.836083 L 79.079204 29.023583 L 79.344829 28.211083 L 79.610454 27.39077 L 80.149516 25.73452 L 80.680766 24.070458 L 80.950298 23.230614 L 81.481548 21.543114 C 81.512798 21.441551 81.661235 20.972801 81.751079 20.691551 C 81.840923 20.406395 81.950298 20.054833 82.016704 19.839989 L 82.286235 18.98452 L 82.55186 18.125145 L 82.817485 17.261864 L 83.087016 16.398583 L 83.352641 15.531395 L 83.622173 14.652489 L 83.887798 13.781395 L 84.157329 12.906395 L 84.422954 12.031395 L 84.688579 11.152489 L 84.95811 10.273583 L 85.223735 9.39077 L 85.48936 8.511864 L 85.758891 7.625145 L 86.290141 5.851708 L 86.559673 4.964989 L 86.825298 4.07827 L 87.090923 3.187645 C 87.14561 3.007958 87.27061 2.589989 87.360454 2.293114 C 87.383891 2.214989 87.540141 1.699364 87.629985 1.402489 L 87.89561 0.511864 C 87.985454 0.214989 88.110454 -0.206886 88.161235 -0.378761 C 88.251079 -0.675636 88.372173 -1.081886 88.430766 -1.26548 C 88.485454 -1.456886 88.606548 -1.85923 88.696391 -2.156105 C 88.758891 -2.363136 88.876079 -2.749855 88.962016 -3.04673 C 89.05186 -3.343605 89.200298 -3.835792 89.231548 -3.933449 C 89.321391 -4.230324 89.434673 -4.60923 89.497173 -4.824074 L 89.766704 -5.710792 L 90.297954 -7.48423 C 90.30186 -7.492042 90.477641 -8.074074 90.567485 -8.367042 L 90.83311 -9.249855 L 91.102641 -10.14048 L 91.368266 -11.019386 L 91.637798 -11.898292 L 92.169048 -13.648292 L 92.438579 -14.519386 C 92.516704 -14.785011 92.61436 -15.101417 92.704204 -15.39048 C 92.794048 -15.679542 92.891704 -16.003761 92.969829 -16.257667 L 93.23936 -17.124855 C 93.313579 -17.363136 93.415141 -17.699074 93.504985 -17.98423 C 93.594829 -18.273292 93.704204 -18.624855 93.77061 -18.843605 L 94.040141 -19.70298 L 94.571391 -21.406105 L 94.840923 -22.257667 L 95.110454 -23.101417 L 95.376079 -23.941261 C 95.430766 -24.105324 95.555766 -24.499855 95.641704 -24.777199 C 95.731548 -25.054542 95.868266 -25.472511 95.911235 -25.60923 L 96.17686 -26.437355 L 96.442485 -27.261574 L 96.712016 -28.081886 L 96.977641 -28.894386 L 97.247173 -29.706886 L 97.512798 -30.511574 L 97.778423 -31.312355 L 98.047954 -32.10923 L 98.313579 -32.898292 L 98.58311 -33.691261 L 98.848735 -34.472511 L 99.118266 -35.245949 L 99.383891 -36.01548 L 99.649516 -36.777199 L 99.919048 -37.535011 L 100.184673 -38.288917 L 100.450298 -39.035011 L 100.719829 -39.773292 L 100.985454 -40.507667 L 101.251079 -41.23423 L 101.52061 -41.956886 L 101.786235 -42.667824 L 102.055766 -43.382667 L 102.321391 -44.081886 L 102.590923 -44.777199 L 102.856548 -45.460792 L 103.122173 -46.14048 L 103.391704 -46.812355 L 103.657329 -47.476417 L 103.922954 -48.132667 L 104.192485 -48.785011 L 104.45811 -49.425636 L 104.723735 -50.058449 L 104.993266 -50.683449 L 105.258891 -51.304542 L 105.528423 -51.913917 L 105.794048 -52.519386 L 106.063579 -53.113136 L 106.329204 -53.699074 L 106.594829 -54.273292 L 106.86436 -54.843605 L 107.129985 -55.402199 L 107.399516 -55.95298 L 107.665141 -56.495949 L 107.930766 -57.027199 L 108.200298 -57.550636 L 108.465923 -58.066261 L 108.731548 -58.570167 L 109.001079 -59.066261 L 109.266704 -59.554542 L 109.536235 -60.035011 L 109.80186 -60.503761 L 110.071391 -60.964699 L 110.337016 -61.413917 L 110.602641 -61.851417 L 110.872173 -62.281105 L 111.137798 -62.699074 L 111.403423 -63.10923 L 111.672954 -63.511574 L 111.938579 -63.898292 L 112.20811 -64.281105 L 112.473735 -64.648292 L 112.73936 -65.007667 L 113.008891 -65.35923 L 113.274516 -65.699074 L 113.544048 -66.027199 L 113.809673 -66.347511 L 114.079204 -66.652199 L 114.344829 -66.949074 L 114.610454 -67.238136 L 114.879985 -67.511574 L 115.14561 -67.777199 L 115.411235 -68.031105 L 115.680766 -68.277199 L 115.946391 -68.511574 L 116.212016 -68.730324 L 116.481548 -68.945167 L 116.747173 -69.144386 L 117.016704 -69.335792 L 117.282329 -69.511574 L 117.55186 -69.679542 L 117.817485 -69.839699 L 118.08311 -69.98423 L 118.352641 -70.117042 L 118.618266 -70.242042 L 118.883891 -70.355324 L 119.153423 -70.456886 L 119.419048 -70.54673 L 119.684673 -70.624855 C 119.774516 -70.648292 119.86436 -70.67173 119.954204 -70.691261 C 120.044048 -70.710792 120.129985 -70.730324 120.219829 -70.749855 C 120.309673 -70.76548 120.399516 -70.781105 120.48936 -70.792824 C 120.575298 -70.808449 120.665141 -70.820167 120.754985 -70.82798 L 121.024516 -70.851417 L 121.290141 -70.863136 L 121.555766 -70.863136 L 121.825298 -70.855324 C 121.915141 -70.851417 122.001079 -70.843605 122.090923 -70.831886 C 122.180766 -70.824074 122.27061 -70.812355 122.360454 -70.800636 C 122.446391 -70.788917 122.536235 -70.773292 122.626079 -70.757667 C 122.715923 -70.742042 122.805766 -70.722511 122.891704 -70.70298 C 122.981548 -70.679542 123.071391 -70.660011 123.161235 -70.636574 C 123.251079 -70.613136 123.337016 -70.585792 123.42686 -70.558449 L 123.692485 -70.468605 L 123.962016 -70.370949 L 124.227641 -70.257667 L 124.497173 -70.136574 L 124.762798 -70.003761 L 125.032329 -69.85923 L 125.297954 -69.70298 L 125.563579 -69.538917 L 125.83311 -69.363136 L 126.098735 -69.175636 L 126.36436 -68.976417 L 126.633891 -68.76548 L 126.899516 -68.54673 L 127.165141 -68.312355 L 127.434673 -68.070167 L 127.700298 -67.820167 L 127.965923 -67.554542 L 128.235454 -67.281105 L 128.504985 -66.995949 L 128.77061 -66.699074 L 129.036235 -66.394386 L 129.305766 -66.07798 L 129.571391 -65.749855 L 129.837016 -65.413917 L 130.106548 -65.066261 L 130.372173 -64.706886 L 130.641704 -64.339699 L 130.907329 -63.960792 L 131.172954 -63.574074 L 131.442485 -63.175636 L 131.70811 -62.76548 L 131.977641 -62.343605 L 132.243266 -61.917824 L 132.512798 -61.480324 L 132.778423 -61.031105 L 133.044048 -60.574074 L 133.313579 -60.10923 L 133.579204 -59.632667 L 133.844829 -59.148292 L 134.11436 -58.652199 L 134.379985 -58.148292 L 134.64561 -57.632667 L 134.915141 -57.113136 L 135.180766 -56.581886 L 135.450298 -56.035011 L 135.715923 -55.488136 L 135.985454 -54.929542 L 136.251079 -54.363136 L 136.516704 -53.785011 L 136.786235 -53.20298 L 137.05186 -52.60923 L 137.321391 -52.011574 L 137.587016 -51.402199 L 137.852641 -50.785011 L 138.122173 -50.160011 L 138.387798 -49.527199 L 138.653423 -48.886574 L 138.922954 -48.238136 L 139.192485 -47.57798 L 139.45811 -46.913917 L 139.723735 -46.245949 L 139.993266 -45.566261 L 140.258891 -44.878761 L 140.524516 -44.187355 L 140.794048 -43.488136 L 141.059673 -42.781105 L 141.325298 -42.070167 L 141.594829 -41.351417 L 141.860454 -40.624855 L 142.126079 -39.894386 L 142.39561 -39.152199 L 142.661235 -38.410011 L 142.930766 -37.652199 L 143.196391 -36.894386 L 143.465923 -36.132667 L 143.731548 -35.363136 L 143.997173 -34.589699 L 144.266704 -33.808449 L 144.532329 -33.023292 L 144.80186 -32.23423 L 145.067485 -31.441261 L 145.33311 -30.64048 L 145.602641 -29.835792 L 146.133891 -28.210792 L 146.403423 -27.39048 L 146.672954 -26.562355 L 146.938579 -25.73423 L 147.204204 -24.902199 L 147.473735 -24.070167 L 147.73936 -23.230324 L 148.004985 -22.386574 L 148.274516 -21.542824 C 148.313579 -21.413917 148.450298 -20.976417 148.540141 -20.691261 C 148.629985 -20.406105 148.735454 -20.066261 148.805766 -19.839699 L 149.075298 -18.98423 L 149.340923 -18.124855 L 149.606548 -17.261574 L 149.876079 -16.398292 L 150.141704 -15.531105 L 150.411235 -14.656105 L 150.67686 -13.781105 L 150.946391 -12.906105 L 151.212016 -12.031105 L 151.477641 -11.152199 L 151.747173 -10.273292 L 152.012798 -9.394386 L 152.278423 -8.511574 L 152.547954 -7.624855 L 152.813579 -6.738136 L 153.08311 -5.851417 L 153.61436 -4.07798 L 153.883891 -3.187355 C 153.938579 -3.007667 154.063579 -2.589699 154.149516 -2.292824 C 154.172954 -2.214699 154.329204 -1.699074 154.419048 -1.402199 L 154.684673 -0.511574 C 154.774516 -0.214699 154.899516 0.20327 154.954204 0.379051 C 155.040141 0.675926 155.165141 1.082176 155.219829 1.26577 C 155.274516 1.457176 155.39561 1.85952 155.485454 2.156395 C 155.547954 2.363426 155.665141 2.750145 155.754985 3.04702 C 155.840923 3.343895 155.98936 3.832176 156.02061 3.933739 C 156.110454 4.230614 156.223735 4.605614 156.286235 4.824364 L 156.555766 5.711083 L 157.087016 7.48452 C 157.090923 7.492333 157.266704 8.074364 157.356548 8.367333 L 157.622173 9.250145 L 157.891704 10.14077 L 158.157329 11.019676 L 158.42686 11.898583 L 158.95811 13.648583 L 159.227641 14.519676 C 159.309673 14.79702 159.403423 15.101708 159.493266 15.39077 C 159.58311 15.679833 159.67686 15.988426 159.758891 16.257958 L 160.028423 17.125145 C 160.102641 17.363426 160.204204 17.699364 160.294048 17.98452 C 160.383891 18.273583 160.493266 18.625145 160.563579 18.843895 L 160.829204 19.70327 L 161.094829 20.554833 L 161.36436 21.406395 L 161.629985 22.257958 L 161.899516 23.101708 L 162.165141 23.941551 C 162.219829 24.105614 162.344829 24.500145 162.434673 24.777489 C 162.52061 25.054833 162.657329 25.472801 162.700298 25.60952 L 162.965923 26.437645 L 163.235454 27.261864 L 163.766704 28.894676 L 164.036235 29.707176 L 164.30186 30.511864 L 164.567485 31.312645 L 164.837016 32.10952 L 165.102641 32.898583 L 165.372173 33.691551 L 165.637798 34.468895 L 165.907329 35.246239 L 166.172954 36.01577 L 166.438579 36.777489 L 166.70811 37.535301 L 166.973735 38.289208 L 167.23936 39.035301 L 167.508891 39.773583 L 167.774516 40.507958 L 168.044048 41.23452 L 168.309673 41.957176 L 168.575298 42.668114 L 168.844829 43.382958 L 169.110454 44.082176 L 169.379985 44.777489 L 169.64561 45.461083 L 169.915141 46.14077 L 170.180766 46.812645 L 170.446391 47.476708 L 170.715923 48.132958 L 170.981548 48.785301 L 171.247173 49.425926 L 171.516704 50.058739 L 171.782329 50.683739 L 172.047954 51.304833 L 172.317485 51.914208 L 172.587016 52.519676 L 172.852641 53.113426 L 173.118266 53.699364 L 173.387798 54.273583 L 173.653423 54.843895 L 173.919048 55.402489 L 174.188579 55.95327 L 174.454204 56.492333 L 174.719829 57.027489 L 174.98936 57.550926 L 175.254985 58.066551 L 175.52061 58.570458 L 175.790141 59.066551 L 176.055766 59.554833 L 176.325298 60.035301 L 176.590923 60.504051 L 176.860454 60.964989 L 177.126079 61.410301 L 177.391704 61.851708 L 177.661235 62.281395 L 177.92686 62.699364 L 178.196391 63.10952 L 178.462016 63.507958 L 178.727641 63.898583 L 178.997173 64.281395 L 179.262798 64.648583 L 179.528423 65.007958 L 179.797954 65.35952 L 180.067485 65.699364 L 180.33311 66.027489 L 180.598735 66.347801 L 180.868266 66.652489 L 181.133891 66.949364 L 181.399516 67.238426 L 181.669048 67.511864 L 181.934673 67.777489 L 182.200298 68.031395 L 182.469829 68.277489 L 182.735454 68.511864 L 183.001079 68.730614 L 183.27061 68.945458 L 183.536235 69.144676 L 183.805766 69.336083 L 184.071391 69.511864 L 184.340923 69.679833 L 184.606548 69.836083 L 184.872173 69.98452 L 185.141704 70.117333 L 185.407329 70.242333 L 185.67686 70.351708 L 185.942485 70.457176 L 186.20811 70.543114 L 186.477641 70.625145 C 186.563579 70.648583 186.653423 70.67202 186.743266 70.691551 C 186.83311 70.711083 186.919048 70.730614 187.008891 70.750145 C 187.098735 70.76577 187.188579 70.781395 187.278423 70.793114 C 187.368266 70.808739 187.45811 70.820458 187.547954 70.82827 L 187.813579 70.851708 L 188.079204 70.863426 L 188.348735 70.863426 L 188.61436 70.855614 C 188.704204 70.851708 188.794048 70.843895 188.879985 70.832176 C 188.969829 70.824364 189.059673 70.812645 189.149516 70.800926 C 189.23936 70.789208 189.325298 70.773583 189.415141 70.757958 C 189.504985 70.742333 189.594829 70.722801 189.680766 70.70327 C 189.77061 70.679833 189.860454 70.660301 189.950298 70.636864 C 190.040141 70.613426 190.126079 70.586083 190.215923 70.558739 L 190.481548 70.468895 L 190.751079 70.371239 L 191.016704 70.257958 L 191.286235 70.136864 L 191.55186 70.004051 L 191.821391 69.85952 L 192.087016 69.70327 L 192.356548 69.539208 L 192.622173 69.363426 L 192.887798 69.175926 L 193.157329 68.976708 L 193.422954 68.76577 L 193.688579 68.54702 L 193.95811 68.312645 L 194.223735 68.070458 L 194.48936 67.820458 L 194.758891 67.554833 L 195.028423 67.277489 L 195.294048 66.996239 L 195.559673 66.699364 L 195.829204 66.394676 L 196.094829 66.07827 L 196.360454 65.750145 L 196.629985 65.414208 L 196.89561 65.066551 L 197.161235 64.707176 L 197.430766 64.339989 L 197.696391 63.961083 L 197.962016 63.574364 L 198.231548 63.175926 L 198.497173 62.76577 L 198.766704 62.343895 L 199.032329 61.918114 L 199.30186 61.480614 L 199.567485 61.031395 L 199.83311 60.574364 L 200.102641 60.10952 L 200.368266 59.632958 " transform="matrix(1,0,0,-1,334.69814,124.01577)"/>
<path style="fill:none;stroke-width:1.5;stroke-linecap:round;stroke-linejoin:round;stroke:rgb(0%,79.000854%,33.999634%);stroke-opacity:1;stroke-dasharray:3,3;stroke-miterlimit:10;" d="M -333.94814 59.632958 L -333.682515 59.148583 L -333.412984 58.652489 L -333.147359 58.148583 L -332.881734 57.632958 L -332.612202 57.113426 L -332.346577 56.582176 L -332.077046 56.035301 L -331.811421 55.48452 L -331.54189 54.929833 L -331.276265 54.363426 L -331.01064 53.785301 L -330.741109 53.20327 L -330.475484 52.60952 L -330.205952 52.011864 L -329.940327 51.402489 L -329.674702 50.785301 L -329.405171 50.160301 L -329.139546 49.527489 L -328.873921 48.886864 L -328.60439 48.238426 L -328.334859 47.57827 L -328.069234 46.914208 L -327.803609 46.242333 L -327.534077 45.566551 L -327.268452 44.879051 L -327.002827 44.187645 L -326.733296 43.488426 L -326.467671 42.781395 L -326.202046 42.070458 L -325.932515 41.351708 L -325.66689 40.625145 L -325.401265 39.89077 L -325.131734 39.152489 L -324.866109 38.410301 L -324.596577 37.652489 L -324.330952 36.894676 L -324.061421 36.132958 L -323.795796 35.363426 L -323.530171 34.589989 L -323.26064 33.808739 L -322.995015 33.023583 L -322.72939 32.23452 L -322.459859 31.441551 L -322.194234 30.64077 L -321.924702 29.836083 L -321.393452 28.211083 L -321.123921 27.39077 L -320.858296 26.562645 L -320.588765 25.73452 L -320.32314 24.902489 L -320.053609 24.070458 L -319.787984 23.230614 L -319.522359 22.386864 L -319.252827 21.543114 C -319.213765 21.410301 -319.077046 20.972801 -318.987202 20.691551 C -318.897359 20.406395 -318.79189 20.066551 -318.721577 19.839989 L -318.452046 18.98452 L -318.186421 18.125145 L -317.920796 17.261864 L -317.651265 16.398583 L -317.38564 15.531395 L -317.116109 14.652489 L -316.850484 13.781395 L -316.580952 12.906395 L -316.315327 12.031395 L -316.049702 11.152489 L -315.780171 10.273583 L -315.514546 9.39077 L -315.248921 8.511864 L -314.97939 7.625145 L -314.44814 5.851708 L -314.178609 4.964989 L -313.912984 4.07827 L -313.643452 3.187645 C -313.600484 3.04702 -313.463765 2.589989 -313.377827 2.293114 L -313.108296 1.402489 L -312.842671 0.511864 C -312.752827 0.214989 -312.577046 -0.367042 -312.57314 -0.378761 C -312.487202 -0.675636 -312.362202 -1.089699 -312.307515 -1.26548 C -312.252827 -1.449074 -312.131734 -1.85923 -312.04189 -2.156105 C -312.022359 -2.218605 -311.862202 -2.749855 -311.772359 -3.04673 L -311.506734 -3.933449 C -311.41689 -4.230324 -311.29189 -4.648292 -311.241109 -4.824074 L -310.971577 -5.710792 L -310.440327 -7.48423 C -310.436421 -7.495949 -310.26064 -8.074074 -310.170796 -8.367042 L -309.905171 -9.249855 L -309.63564 -10.14048 L -309.370015 -11.019386 L -309.100484 -11.898292 L -308.569234 -13.648292 L -308.299702 -14.519386 C -308.217671 -14.788917 -308.123921 -15.101417 -308.034077 -15.39048 C -307.944234 -15.679542 -307.846577 -15.999855 -307.768452 -16.257667 L -307.498921 -17.124855 C -307.424702 -17.363136 -307.32314 -17.699074 -307.233296 -17.98423 C -307.143452 -18.273292 -307.034077 -18.624855 -306.963765 -18.843605 L -306.69814 -19.70298 L -306.432515 -20.554542 L -306.162984 -21.406105 L -305.897359 -22.257667 L -305.627827 -23.101417 L -305.362202 -23.941261 C -305.307515 -24.105324 -305.182515 -24.499855 -305.092671 -24.777199 C -305.006734 -25.054542 -304.870015 -25.472511 -304.827046 -25.60923 L -304.561421 -26.437355 L -304.29189 -27.261574 L -304.026265 -28.081886 L -303.76064 -28.894386 L -303.491109 -29.706886 L -303.225484 -30.511574 L -302.959859 -31.312355 L -302.690327 -32.10923 L -302.424702 -32.898292 L -302.155171 -33.691261 L -301.889546 -34.472511 L -301.620015 -35.245949 L -301.35439 -36.01548 L -301.088765 -36.777199 L -300.819234 -37.535011 L -300.553609 -38.288917 L -300.287984 -39.035011 L -300.018452 -39.773292 L -299.752827 -40.507667 L -299.483296 -41.23423 L -299.217671 -41.956886 L -298.952046 -42.667824 L -298.682515 -43.382667 L -298.41689 -44.081886 L -298.147359 -44.777199 L -297.881734 -45.460792 L -297.612202 -46.14048 L -297.346577 -46.812355 L -297.080952 -47.476417 L -296.811421 -48.132667 L -296.545796 -48.785011 L -296.280171 -49.425636 L -296.01064 -50.058449 L -295.745015 -50.683449 L -295.47939 -51.304542 L -295.209859 -51.913917 L -294.940327 -52.519386 L -294.674702 -53.113136 L -294.409077 -53.699074 L -294.139546 -54.273292 L -293.873921 -54.843605 L -293.608296 -55.402199 L -293.338765 -55.95298 L -293.07314 -56.495949 L -292.807515 -57.027199 L -292.537984 -57.550636 L -292.272359 -58.066261 L -292.006734 -58.570167 L -291.737202 -59.066261 L -291.471577 -59.554542 L -291.202046 -60.035011 L -290.936421 -60.503761 L -290.66689 -60.964699 L -290.401265 -61.413917 L -290.13564 -61.851417 L -289.866109 -62.281105 L -289.600484 -62.699074 L -289.330952 -63.10923 L -289.065327 -63.511574 L -288.799702 -63.898292 L -288.530171 -64.281105 L -288.264546 -64.648292 L -287.998921 -65.007667 L -287.72939 -65.35923 L -287.459859 -65.699074 L -287.194234 -66.027199 L -286.928609 -66.347511 L -286.659077 -66.652199 L -286.393452 -66.949074 L -286.127827 -67.238136 L -285.858296 -67.511574 L -285.592671 -67.777199 L -285.327046 -68.031105 L -285.057515 -68.277199 L -284.79189 -68.511574 L -284.526265 -68.730324 L -284.256734 -68.945167 L -283.991109 -69.144386 L -283.721577 -69.335792 L -283.455952 -69.511574 L -283.186421 -69.679542 L -282.920796 -69.839699 L -282.655171 -69.98423 L -282.38564 -70.117042 L -282.120015 -70.242042 L -281.850484 -70.355324 L -281.584859 -70.456886 L -281.319234 -70.54673 L -281.049702 -70.624855 C -280.963765 -70.648292 -280.873921 -70.67173 -280.784077 -70.691261 C -280.694234 -70.710792 -280.608296 -70.730324 -280.518452 -70.749855 C -280.428609 -70.76548 -280.338765 -70.781105 -280.248921 -70.792824 C -280.159077 -70.808449 -280.069234 -70.820167 -279.97939 -70.82798 L -279.713765 -70.851417 L -279.44814 -70.863136 L -279.178609 -70.863136 L -278.912984 -70.855324 C -278.82314 -70.851417 -278.733296 -70.843605 -278.647359 -70.831886 C -278.557515 -70.824074 -278.467671 -70.812355 -278.377827 -70.800636 C -278.287984 -70.788917 -278.202046 -70.773292 -278.112202 -70.757667 C -278.022359 -70.742042 -277.932515 -70.722511 -277.846577 -70.70298 C -277.756734 -70.679542 -277.66689 -70.660011 -277.577046 -70.636574 C -277.487202 -70.613136 -277.401265 -70.585792 -277.311421 -70.558449 L -277.045796 -70.468605 L -276.776265 -70.370949 L -276.51064 -70.257667 L -276.241109 -70.136574 L -275.975484 -70.003761 L -275.705952 -69.85923 L -275.440327 -69.70298 L -275.174702 -69.538917 L -274.905171 -69.363136 L -274.639546 -69.175636 L -274.370015 -68.976417 L -274.10439 -68.76548 L -273.838765 -68.54673 L -273.569234 -68.312355 L -273.303609 -68.070167 L -273.037984 -67.820167 L -272.768452 -67.554542 L -272.498921 -67.281105 L -272.233296 -66.995949 L -271.967671 -66.699074 L -271.69814 -66.394386 L -271.432515 -66.07798 L -271.16689 -65.749855 L -270.897359 -65.413917 L -270.631734 -65.066261 L -270.366109 -64.706886 L -270.096577 -64.339699 L -269.830952 -63.960792 L -269.565327 -63.574074 L -269.295796 -63.175636 L -269.030171 -62.76548 L -268.76064 -62.343605 L -268.495015 -61.917824 L -268.225484 -61.480324 L -267.959859 -61.031105 L -267.694234 -60.574074 L -267.424702 -60.10923 L -267.159077 -59.632667 L -266.893452 -59.148292 L -266.623921 -58.652199 L -266.358296 -58.148292 L -266.088765 -57.632667 L -265.82314 -57.113136 L -265.557515 -56.581886 L -265.018452 -55.488136 L -264.752827 -54.929542 L -264.487202 -54.363136 L -264.217671 -53.785011 L -263.952046 -53.20298 L -263.686421 -52.60923 L -263.41689 -52.011574 L -263.151265 -51.402199 L -262.88564 -50.785011 L -262.616109 -50.160011 L -262.350484 -49.527199 L -262.084859 -48.886574 L -261.815327 -48.238136 L -261.545796 -47.57798 L -261.280171 -46.913917 L -261.014546 -46.245949 L -260.745015 -45.566261 L -260.47939 -44.878761 L -260.213765 -44.187355 L -259.944234 -43.488136 L -259.678609 -42.781105 L -259.412984 -42.070167 L -259.143452 -41.351417 L -258.877827 -40.624855 L -258.608296 -39.894386 L -258.077046 -38.410011 L -257.807515 -37.652199 L -257.54189 -36.894386 L -257.272359 -36.132667 L -257.006734 -35.363136 L -256.737202 -34.589699 L -256.471577 -33.808449 L -256.205952 -33.023292 L -255.936421 -32.23423 L -255.670796 -31.441261 L -255.405171 -30.64048 L -255.13564 -29.835792 L -254.60439 -28.210792 L -254.334859 -27.39048 L -254.065327 -26.562355 L -253.799702 -25.73423 L -253.534077 -24.902199 L -253.264546 -24.070167 L -252.998921 -23.230324 L -252.733296 -22.386574 L -252.463765 -21.542824 C -252.424702 -21.410011 -252.287984 -20.976417 -252.19814 -20.691261 C -252.108296 -20.406105 -252.002827 -20.066261 -251.928609 -19.839699 L -251.662984 -18.98423 L -251.397359 -18.124855 L -251.127827 -17.261574 L -250.862202 -16.398292 L -250.596577 -15.531105 L -250.057515 -13.781105 L -249.526265 -12.031105 L -249.256734 -11.152199 L -248.725484 -9.394386 L -248.455952 -8.511574 L -247.924702 -6.738136 L -247.655171 -5.851417 L -247.123921 -4.07798 L -246.85439 -3.187355 C -246.799702 -2.999855 -246.674702 -2.589699 -246.584859 -2.292824 C -246.534077 -2.120949 -246.409077 -1.699074 -246.319234 -1.402199 L -246.053609 -0.511574 C -245.963765 -0.214699 -245.866109 0.101708 -245.784077 0.379051 C -245.69814 0.675926 -245.584859 1.050926 -245.518452 1.26577 C -245.463765 1.449364 -245.338765 1.85952 -245.252827 2.156395 C -245.233296 2.214989 -245.07314 2.750145 -244.983296 3.04702 L -244.717671 3.933739 C -244.627827 4.230614 -244.502827 4.648583 -244.452046 4.824364 L -244.182515 5.711083 L -243.91689 6.597801 L -243.647359 7.48452 C -243.643452 7.496239 -243.471577 8.074364 -243.381734 8.367333 L -243.116109 9.250145 L -242.846577 10.14077 L -242.580952 11.019676 L -242.311421 11.898583 L -242.045796 12.773583 L -241.776265 13.648583 L -241.51064 14.519676 C -241.428609 14.785301 -241.334859 15.101708 -241.245015 15.39077 C -241.155171 15.679833 -241.057515 16.000145 -240.975484 16.257958 L -240.709859 17.125145 C -240.63564 17.363426 -240.530171 17.699364 -240.444234 17.98452 C -240.35439 18.273583 -240.245015 18.625145 -240.174702 18.843895 L -239.909077 19.70327 L -239.643452 20.554833 L -239.10439 22.257958 L -238.838765 23.101708 L -238.57314 23.941551 C -238.518452 24.105614 -238.393452 24.500145 -238.303609 24.777489 C -238.217671 25.054833 -238.080952 25.472801 -238.037984 25.60952 L -237.772359 26.437645 L -237.502827 27.261864 L -236.971577 28.894676 L -236.702046 29.707176 L -236.436421 30.511864 L -236.170796 31.312645 L -235.901265 32.10952 L -235.63564 32.898583 L -235.366109 33.691551 L -235.100484 34.468895 L -234.830952 35.246239 L -234.565327 36.01577 L -234.299702 36.777489 L -234.030171 37.535301 L -233.764546 38.289208 L -233.495015 39.035301 L -233.22939 39.773583 L -232.963765 40.507958 L -232.694234 41.23452 L -232.428609 41.957176 L -232.162984 42.668114 L -231.893452 43.382958 L -231.623921 44.082176 L -231.358296 44.777489 L -231.092671 45.461083 L -230.82314 46.14077 L -230.557515 46.812645 L -230.29189 47.476708 L -230.022359 48.132958 L -229.756734 48.785301 L -229.491109 49.425926 L -229.221577 50.058739 L -228.955952 50.683739 L -228.686421 51.304833 L -228.420796 51.914208 L -228.151265 52.519676 L -227.88564 53.113426 L -227.620015 53.699364 L -227.350484 54.273583 L -227.084859 54.843895 L -226.815327 55.402489 L -226.549702 55.95327 L -226.284077 56.492333 L -226.014546 57.027489 L -225.748921 57.550926 L -225.483296 58.066551 L -225.213765 58.570458 L -224.94814 59.066551 L -224.682515 59.554833 L -224.412984 60.035301 L -224.143452 60.504051 L -223.877827 60.964989 L -223.612202 61.410301 L -223.342671 61.851708 L -223.077046 62.281395 L -222.811421 62.699364 L -222.54189 63.10952 L -222.276265 63.507958 L -222.01064 63.898583 L -221.741109 64.281395 L -221.475484 64.648583 L -221.209859 65.007958 L -220.940327 65.35952 L -220.670796 65.699364 L -220.405171 66.027489 L -220.139546 66.347801 L -219.870015 66.652489 L -219.60439 66.949364 L -219.338765 67.238426 L -219.069234 67.511864 L -218.803609 67.777489 L -218.534077 68.031395 L -218.268452 68.277489 L -218.002827 68.511864 L -217.733296 68.730614 L -217.467671 68.945458 L -217.202046 69.144676 L -216.932515 69.336083 L -216.662984 69.511864 L -216.397359 69.679833 L -216.131734 69.836083 L -215.862202 69.98452 L -215.596577 70.117333 L -215.330952 70.242333 L -215.061421 70.351708 L -214.795796 70.457176 L -214.530171 70.543114 L -214.26064 70.625145 C -214.174702 70.648583 -214.084859 70.67202 -213.995015 70.691551 C -213.905171 70.711083 -213.815327 70.730614 -213.72939 70.750145 C -213.639546 70.76577 -213.549702 70.781395 -213.459859 70.793114 C -213.370015 70.808739 -213.280171 70.820458 -213.190327 70.82827 L -212.924702 70.851708 L -212.659077 70.863426 L -212.389546 70.863426 L -212.123921 70.855614 C -212.034077 70.851708 -211.944234 70.843895 -211.858296 70.832176 C -211.768452 70.824364 -211.678609 70.812645 -211.588765 70.800926 C -211.498921 70.789208 -211.412984 70.773583 -211.32314 70.757958 C -211.233296 70.742333 -211.143452 70.722801 -211.057515 70.70327 C -210.967671 70.679833 -210.877827 70.660301 -210.787984 70.636864 C -210.69814 70.613426 -210.608296 70.586083 -210.522359 70.558739 L -210.252827 70.468895 L -209.987202 70.371239 L -209.721577 70.257958 L -209.452046 70.136864 L -209.182515 70.004051 L -208.91689 69.85952 L -208.651265 69.70327 L -208.381734 69.539208 L -208.116109 69.363426 L -207.850484 69.175926 L -207.580952 68.976708 L -207.315327 68.76577 L -207.049702 68.54702 L -206.780171 68.312645 L -206.514546 68.070458 L -206.248921 67.820458 L -205.97939 67.554833 L -205.709859 67.277489 L -205.444234 66.996239 L -205.178609 66.699364 L -204.909077 66.394676 L -204.643452 66.07827 L -204.377827 65.750145 L -204.108296 65.414208 L -203.842671 65.066551 L -203.57314 64.707176 L -203.307515 64.339989 L -203.04189 63.961083 L -202.772359 63.574364 L -202.506734 63.175926 L -202.241109 62.76577 L -201.971577 62.343895 L -201.702046 61.918114 L -201.436421 61.480614 L -201.170796 61.031395 L -200.901265 60.574364 L -200.63564 60.10952 L -200.370015 59.632958 " transform="matrix(1,0,0,-1,334.69814,124.01577)"/>
<g clip-path="url(#clip2)" clip-rule="nonzero">
<path style="fill:none;stroke-width:1.5;stroke-linecap:round;stroke-linejoin:round;stroke:rgb(100%,50%,0%);stroke-opacity:1;stroke-dasharray:0,1.25;stroke-dashoffset:0.625;stroke-miterlimit:10;" d="M 200.368266 59.632958 L 200.637798 59.148583 L 200.903423 58.652489 L 201.169048 58.148583 L 201.438579 57.632958 L 201.704204 57.113426 L 201.969829 56.582176 L 202.23936 56.035301 L 202.508891 55.48452 L 202.774516 54.929833 L 203.040141 54.363426 L 203.309673 53.785301 L 203.575298 53.20327 L 203.840923 52.60952 L 204.110454 52.011864 L 204.376079 51.402489 L 204.641704 50.785301 L 204.911235 50.160301 L 205.17686 49.527489 L 205.442485 48.886864 L 205.712016 48.238426 L 205.981548 47.57827 L 206.247173 46.914208 L 206.512798 46.242333 L 206.782329 45.566551 L 207.047954 44.879051 L 207.313579 44.187645 L 207.58311 43.488426 L 207.848735 42.781395 L 208.11436 42.070458 L 208.383891 41.351708 L 208.649516 40.625145 L 208.919048 39.89077 L 209.184673 39.152489 L 209.450298 38.410301 L 209.719829 37.652489 L 209.985454 36.894676 L 210.254985 36.132958 L 210.52061 35.363426 L 210.790141 34.589989 L 211.055766 33.808739 L 211.321391 33.023583 L 211.590923 32.23452 L 211.856548 31.441551 L 212.122173 30.64077 L 212.391704 29.836083 L 212.922954 28.211083 L 213.192485 27.39077 L 213.462016 26.562645 L 213.727641 25.73452 L 213.993266 24.902489 L 214.262798 24.070458 L 214.528423 23.230614 L 214.794048 22.386864 L 215.063579 21.543114 C 215.106548 21.406395 215.23936 20.972801 215.329204 20.691551 C 215.419048 20.406395 215.524516 20.066551 215.598735 19.839989 L 215.86436 18.98452 L 216.129985 18.125145 L 216.399516 17.261864 L 216.665141 16.398583 L 216.930766 15.531395 L 217.200298 14.652489 L 217.469829 13.781395 L 218.001079 12.031395 L 218.27061 11.152489 L 218.536235 10.273583 L 218.80186 9.39077 L 219.071391 8.511864 L 219.602641 6.738426 L 219.872173 5.851708 L 220.403423 4.07827 L 220.672954 3.187645 C 220.727641 3.007958 220.852641 2.589989 220.942485 2.293114 C 220.965923 2.214989 221.118266 1.699364 221.20811 1.402489 L 221.473735 0.511864 C 221.563579 0.214989 221.688579 -0.206886 221.743266 -0.378761 C 221.829204 -0.675636 221.954204 -1.081886 222.008891 -1.26548 C 222.063579 -1.445167 222.188579 -1.85923 222.274516 -2.156105 C 222.278423 -2.160011 222.454204 -2.749855 222.544048 -3.04673 L 222.809673 -3.933449 C 222.899516 -4.230324 223.036235 -4.683449 223.075298 -4.824074 L 223.344829 -5.710792 L 223.610454 -6.597511 L 223.879985 -7.48423 C 223.879985 -7.492042 224.055766 -8.074074 224.14561 -8.367042 L 224.411235 -9.249855 L 224.680766 -10.14048 L 224.946391 -11.019386 L 225.215923 -11.898292 L 225.481548 -12.773292 L 225.751079 -13.648292 L 226.016704 -14.519386 C 226.098735 -14.79673 226.192485 -15.101417 226.282329 -15.39048 C 226.372173 -15.679542 226.465923 -15.988136 226.55186 -16.257667 L 226.817485 -17.124855 C 226.891704 -17.363136 226.997173 -17.699074 227.08311 -17.98423 C 227.172954 -18.273292 227.282329 -18.624855 227.352641 -18.843605 L 227.618266 -19.70298 L 227.883891 -20.554542 L 228.422954 -22.257667 L 228.688579 -23.101417 L 228.954204 -23.941261 C 229.008891 -24.105324 229.133891 -24.499855 229.223735 -24.777199 C 229.309673 -25.054542 229.446391 -25.472511 229.48936 -25.60923 L 229.754985 -26.437355 L 230.024516 -27.261574 L 230.290141 -28.081886 L 230.555766 -28.894386 L 230.825298 -29.706886 L 231.090923 -30.511574 L 231.356548 -31.312355 L 231.626079 -32.10923 L 231.891704 -32.898292 L 232.161235 -33.691261 L 232.42686 -34.472511 L 232.696391 -35.245949 L 232.962016 -36.01548 L 233.227641 -36.777199 L 233.497173 -37.535011 L 233.762798 -38.288917 L 234.032329 -39.035011 L 234.297954 -39.773292 L 234.563579 -40.507667 L 234.83311 -41.23423 L 235.098735 -41.956886 L 235.36436 -42.667824 L 235.633891 -43.382667 L 235.903423 -44.081886 L 236.169048 -44.777199 L 236.434673 -45.460792 L 236.704204 -46.14048 L 236.969829 -46.812355 L 237.235454 -47.476417 L 237.504985 -48.132667 L 237.77061 -48.785011 L 238.036235 -49.425636 L 238.305766 -50.058449 L 238.571391 -50.683449 L 238.840923 -51.304542 L 239.106548 -51.913917 L 239.376079 -52.519386 L 239.641704 -53.113136 L 239.907329 -53.699074 L 240.17686 -54.273292 L 240.442485 -54.843605 L 240.712016 -55.402199 L 240.977641 -55.95298 L 241.243266 -56.495949 L 241.512798 -57.027199 L 241.778423 -57.550636 L 242.044048 -58.066261 L 242.313579 -58.570167 L 242.579204 -59.066261 L 242.844829 -59.554542 L 243.11436 -60.035011 L 243.383891 -60.503761 L 243.649516 -60.964699 L 243.915141 -61.413917 L 244.184673 -61.851417 L 244.450298 -62.281105 L 244.715923 -62.699074 L 244.985454 -63.10923 L 245.251079 -63.511574 L 245.516704 -63.898292 L 245.786235 -64.281105 L 246.05186 -64.648292 L 246.317485 -65.007667 L 246.587016 -65.35923 L 246.856548 -65.699074 L 247.122173 -66.027199 L 247.387798 -66.347511 L 247.657329 -66.652199 L 247.922954 -66.949074 L 248.192485 -67.238136 L 248.45811 -67.511574 L 248.723735 -67.777199 L 248.993266 -68.031105 L 249.258891 -68.277199 L 249.524516 -68.511574 L 249.794048 -68.730324 L 250.059673 -68.945167 L 250.325298 -69.144386 L 250.594829 -69.335792 L 250.86436 -69.511574 L 251.129985 -69.679542 L 251.39561 -69.839699 L 251.665141 -69.98423 L 251.930766 -70.117042 L 252.196391 -70.242042 L 252.465923 -70.355324 L 252.731548 -70.456886 L 252.997173 -70.54673 L 253.266704 -70.624855 C 253.352641 -70.648292 253.442485 -70.67173 253.532329 -70.691261 C 253.622173 -70.710792 253.712016 -70.730324 253.797954 -70.749855 C 253.887798 -70.76548 253.977641 -70.781105 254.067485 -70.792824 C 254.157329 -70.808449 254.247173 -70.820167 254.337016 -70.82798 L 254.602641 -70.851417 L 254.868266 -70.863136 L 255.137798 -70.863136 L 255.403423 -70.855324 C 255.493266 -70.851417 255.58311 -70.843605 255.669048 -70.831886 C 255.758891 -70.824074 255.848735 -70.812355 255.938579 -70.800636 C 256.028423 -70.788917 256.11436 -70.773292 256.204204 -70.757667 C 256.294048 -70.742042 256.383891 -70.722511 256.473735 -70.70298 C 256.559673 -70.679542 256.649516 -70.660011 256.73936 -70.636574 C 256.829204 -70.613136 256.919048 -70.585792 257.004985 -70.558449 L 257.274516 -70.468605 L 257.540141 -70.370949 L 257.805766 -70.257667 L 258.075298 -70.136574 L 258.344829 -70.003761 L 258.610454 -69.85923 L 258.876079 -69.70298 L 259.14561 -69.538917 L 259.411235 -69.363136 L 259.67686 -69.175636 L 259.946391 -68.976417 L 260.212016 -68.76548 L 260.477641 -68.54673 L 260.747173 -68.312355 L 261.012798 -68.070167 L 261.278423 -67.820167 L 261.547954 -67.554542 L 261.817485 -67.281105 L 262.08311 -66.995949 L 262.348735 -66.699074 L 262.618266 -66.394386 L 262.883891 -66.07798 L 263.149516 -65.749855 L 263.419048 -65.413917 L 263.684673 -65.066261 L 263.954204 -64.706886 L 264.219829 -64.339699 L 264.485454 -63.960792 L 264.754985 -63.574074 L 265.02061 -63.175636 L 265.286235 -62.76548 L 265.555766 -62.343605 L 265.825298 -61.917824 L 266.090923 -61.480324 L 266.356548 -61.031105 L 266.626079 -60.574074 L 266.891704 -60.10923 L 267.157329 -59.632667 L 267.42686 -59.148292 L 267.692485 -58.652199 L 267.95811 -58.148292 L 268.227641 -57.632667 L 268.493266 -57.113136 L 268.758891 -56.581886 L 269.297954 -55.488136 L 269.563579 -54.929542 L 269.829204 -54.363136 L 270.098735 -53.785011 L 270.36436 -53.20298 L 270.629985 -52.60923 L 270.899516 -52.011574 L 271.165141 -51.402199 L 271.434673 -50.785011 L 271.700298 -50.160011 L 271.965923 -49.527199 L 272.235454 -48.886574 L 272.501079 -48.238136 L 272.77061 -47.57798 L 273.036235 -46.913917 L 273.305766 -46.245949 L 273.571391 -45.566261 L 273.837016 -44.878761 L 274.106548 -44.187355 L 274.372173 -43.488136 L 274.637798 -42.781105 L 274.907329 -42.070167 L 275.172954 -41.351417 L 275.438579 -40.624855 L 275.70811 -39.894386 L 276.23936 -38.410011 L 276.778423 -36.894386 L 277.044048 -36.132667 L 277.309673 -35.363136 L 277.579204 -34.589699 L 277.844829 -33.808449 L 278.110454 -33.023292 L 278.379985 -32.23423 L 278.64561 -31.441261 L 278.911235 -30.64048 L 279.180766 -29.835792 L 279.446391 -29.023292 L 279.715923 -28.210792 L 279.981548 -27.39048 L 280.251079 -26.562355 L 280.516704 -25.73423 L 280.782329 -24.902199 L 281.05186 -24.070167 L 281.317485 -23.230324 L 281.587016 -22.386574 L 281.852641 -21.542824 C 281.89561 -21.406105 282.028423 -20.976417 282.118266 -20.691261 C 282.20811 -20.406105 282.313579 -20.066261 282.387798 -19.839699 L 282.653423 -18.98423 L 282.919048 -18.124855 L 283.188579 -17.261574 L 283.454204 -16.398292 L 283.719829 -15.531105 L 284.258891 -13.781105 L 284.790141 -12.031105 L 285.059673 -11.152199 L 285.590923 -9.394386 L 285.860454 -8.511574 L 286.391704 -6.738136 L 286.661235 -5.851417 L 286.92686 -4.964699 L 287.196391 -4.07798 L 287.462016 -3.187355 C 287.516704 -3.007667 287.641704 -2.589699 287.731548 -2.292824 C 287.754985 -2.214699 287.907329 -1.699074 287.997173 -1.402199 L 288.262798 -0.511574 C 288.352641 -0.214699 288.481548 0.20327 288.532329 0.379051 C 288.622173 0.675926 288.743266 1.082176 288.797954 1.26577 C 288.852641 1.445458 288.977641 1.85952 289.067485 2.156395 C 289.067485 2.160301 289.243266 2.750145 289.33311 3.04702 L 289.598735 3.933739 C 289.688579 4.230614 289.825298 4.683739 289.868266 4.824364 L 290.399516 6.597801 L 290.669048 7.48452 C 290.669048 7.492333 290.844829 8.074364 290.934673 8.367333 L 291.200298 9.250145 L 291.469829 10.14077 L 291.73936 11.019676 L 292.004985 11.898583 L 292.27061 12.773583 L 292.540141 13.648583 L 292.805766 14.519676 C 292.883891 14.777489 292.985454 15.101708 293.071391 15.39077 C 293.161235 15.679833 293.262798 16.011864 293.340923 16.257958 L 293.606548 17.125145 C 293.680766 17.363426 293.786235 17.699364 293.872173 17.98452 C 293.962016 18.273583 294.071391 18.625145 294.141704 18.843895 L 294.407329 19.70327 L 294.67686 20.554833 L 294.942485 21.406395 L 295.212016 22.257958 L 295.477641 23.101708 L 295.743266 23.941551 C 295.797954 24.105614 295.922954 24.500145 296.012798 24.777489 C 296.102641 25.054833 296.235454 25.472801 296.278423 25.60952 L 296.547954 26.437645 L 296.813579 27.261864 L 297.079204 28.07827 L 297.348735 28.894676 L 297.61436 29.707176 L 297.879985 30.511864 L 298.149516 31.312645 L 298.415141 32.10952 L 298.680766 32.898583 L 298.950298 33.691551 L 299.219829 34.468895 L 299.485454 35.246239 L 299.751079 36.01577 L 300.02061 36.777489 L 300.286235 37.535301 L 300.55186 38.289208 L 300.821391 39.035301 L 301.087016 39.773583 L 301.352641 40.507958 L 301.622173 41.23452 L 301.887798 41.957176 L 302.157329 42.668114 L 302.422954 43.382958 L 302.692485 44.082176 L 302.95811 44.777489 L 303.223735 45.461083 L 303.493266 46.14077 L 303.758891 46.812645 L 304.028423 47.476708 L 304.294048 48.132958 L 304.559673 48.785301 L 304.829204 49.425926 L 305.094829 50.058739 L 305.360454 50.683739 L 305.629985 51.304833 L 305.89561 51.914208 L 306.165141 52.519676 L 306.430766 53.113426 L 306.700298 53.699364 L 306.965923 54.273583 L 307.231548 54.843895 L 307.501079 55.402489 L 307.766704 55.95327 L 308.032329 56.492333 L 308.30186 57.027489 L 308.567485 57.550926 L 308.83311 58.066551 L 309.102641 58.570458 L 309.368266 59.066551 L 309.633891 59.554833 L 309.903423 60.035301 L 310.172954 60.504051 L 310.438579 60.964989 L 310.704204 61.410301 L 310.973735 61.851708 L 311.23936 62.281395 L 311.504985 62.699364 L 311.774516 63.10952 L 312.040141 63.507958 L 312.309673 63.898583 L 312.575298 64.281395 L 312.840923 64.648583 L 313.110454 65.007958 L 313.376079 65.35952 L 313.64561 65.699364 L 313.911235 66.027489 L 314.180766 66.347801 L 314.446391 66.652489 L 314.712016 66.949364 L 314.981548 67.238426 L 315.247173 67.511864 L 315.512798 67.777489 L 315.782329 68.031395 L 316.047954 68.277489 L 316.313579 68.511864 L 316.58311 68.730614 L 316.848735 68.945458 L 317.118266 69.144676 L 317.383891 69.336083 L 317.653423 69.511864 L 317.919048 69.679833 L 318.184673 69.836083 L 318.454204 69.98452 L 318.719829 70.117333 L 318.98936 70.242333 L 319.254985 70.351708 L 319.52061 70.457176 L 319.790141 70.543114 L 320.055766 70.625145 C 320.14561 70.648583 320.231548 70.67202 320.321391 70.691551 C 320.411235 70.711083 320.501079 70.730614 320.590923 70.750145 C 320.67686 70.76577 320.766704 70.781395 320.856548 70.793114 C 320.946391 70.808739 321.036235 70.820458 321.126079 70.82827 L 321.391704 70.851708 L 321.661235 70.863426 L 321.92686 70.863426 L 322.192485 70.855614 C 322.282329 70.851708 322.372173 70.843895 322.462016 70.832176 C 322.547954 70.824364 322.637798 70.812645 322.727641 70.800926 C 322.817485 70.789208 322.907329 70.773583 322.993266 70.757958 C 323.08311 70.742333 323.172954 70.722801 323.262798 70.70327 C 323.352641 70.679833 323.438579 70.660301 323.528423 70.636864 C 323.618266 70.613426 323.70811 70.586083 323.794048 70.558739 L 324.063579 70.468895 L 324.329204 70.371239 L 324.594829 70.257958 L 324.86436 70.136864 L 325.133891 70.004051 L 325.399516 69.85952 L 325.665141 69.70327 L 325.934673 69.539208 L 326.200298 69.363426 L 326.465923 69.175926 L 326.735454 68.976708 L 327.001079 68.76577 L 327.27061 68.54702 L 327.536235 68.312645 L 327.80186 68.070458 L 328.071391 67.820458 L 328.337016 67.554833 L 328.606548 67.277489 L 328.872173 66.996239 L 329.141704 66.699364 L 329.407329 66.394676 L 329.672954 66.07827 L 329.942485 65.750145 L 330.20811 65.414208 L 330.473735 65.066551 L 330.743266 64.707176 L 331.008891 64.339989 L 331.274516 63.961083 L 331.544048 63.574364 L 331.809673 63.175926 L 332.075298 62.76577 L 332.344829 62.343895 L 332.61436 61.918114 L 332.879985 61.480614 L 333.14561 61.031395 L 333.415141 60.574364 L 333.680766 60.10952 L 333.946391 59.632958 " transform="matrix(1,0,0,-1,334.69814,124.01577)"/>
</g>
<path style="fill:none;stroke-width:1.3;stroke-linecap:round;stroke-linejoin:round;stroke:rgb(100%,100%,100%);stroke-opacity:1;stroke-miterlimit:10;" d="M 0.00107875 0.000145 L 21.258891 0.000145 " transform="matrix(1,0,0,-1,334.69814,124.01577)"/>
<path style="fill-rule:nonzero;fill:rgb(100%,100%,100%);fill-opacity:1;stroke-width:1.3;stroke-linecap:round;stroke-linejoin:round;stroke:rgb(100%,100%,100%);stroke-opacity:1;stroke-miterlimit:10;" d="M 17.563579 -1.531105 L 21.258891 0.000145 L 17.563579 1.531395 Z M 17.563579 -1.531105 " transform="matrix(1,0,0,-1,334.69814,124.01577)"/>
<path style="fill:none;stroke-width:1.3;stroke-linecap:round;stroke-linejoin:round;stroke:rgb(100%,100%,100%);stroke-opacity:1;stroke-miterlimit:10;" d="M 0.00107875 0.000145 L 0.00107875 70.867333 " transform="matrix(1,0,0,-1,334.69814,124.01577)"/>
<path style="fill-rule:nonzero;fill:rgb(100%,100%,100%);fill-opacity:1;stroke-width:1.3;stroke-linecap:round;stroke-linejoin:round;stroke:rgb(100%,100%,100%);stroke-opacity:1;stroke-miterlimit:10;" d="M 1.532329 67.17202 L 0.00107875 70.867333 L -1.530171 67.17202 Z M 1.532329 67.17202 " transform="matrix(1,0,0,-1,334.69814,124.01577)"/>
<g style="fill:rgb(100%,100%,100%);fill-opacity:1;">
  <use xlink:href="#glyph1-1" x="318.00044" y="85.51267"/>
</g>
<g style="fill:rgb(100%,100%,100%);fill-opacity:1;">
  <use xlink:href="#glyph2-1" x="317.74294" y="85.51267"/>
</g>
<g style="fill:rgb(100%,100%,100%);fill-opacity:1;">
  <use xlink:href="#glyph3-1" x="320.98654" y="93.77857"/>
</g>
<g style="fill:rgb(100%,100%,100%);fill-opacity:1;">
  <use xlink:href="#glyph1-1" x="339.47914" y="133.40177"/>
</g>
<g style="fill:rgb(100%,100%,100%);fill-opacity:1;">
  <use xlink:href="#glyph2-1" x="339.22164" y="133.40177"/>
</g>
<g style="fill:rgb(100%,100%,100%);fill-opacity:1;">
  <use xlink:href="#glyph3-2" x="342.29734" y="141.66767"/>
</g>
<path style="fill:none;stroke-width:0.49814;stroke-linecap:round;stroke-linejoin:round;stroke:rgb(0%,100%,100%);stroke-opacity:1;stroke-miterlimit:10;" d="M 16.696391 -15.093605 L 150.278423 -15.093605 " transform="matrix(1,0,0,-1,334.69814,124.01577)"/>
<path style="fill-rule:nonzero;fill:rgb(0%,100%,100%);fill-opacity:1;stroke-width:0.49814;stroke-linecap:round;stroke-linejoin:round;stroke:rgb(0%,100%,100%);stroke-opacity:1;stroke-miterlimit:10;" d="M 146.58311 -16.620949 L 150.278423 -15.093605 L 146.58311 -13.562355 Z M 146.58311 -16.620949 " transform="matrix(1,0,0,-1,334.69814,124.01577)"/>
<g style="fill:rgb(0%,100%,100%);fill-opacity:1;">
  <use xlink:href="#glyph3-3" x="408.72654" y="134.10787"/>
</g>
<g style="fill:rgb(0%,100%,100%);fill-opacity:1;">
  <use xlink:href="#glyph1-1" x="415.94624" y="125.84197"/>
</g>
<g style="fill:rgb(0%,100%,100%);fill-opacity:1;">
  <use xlink:href="#glyph2-1" x="415.68874" y="125.84197"/>
</g>
<g style="fill:rgb(0%,100%,100%);fill-opacity:1;">
  <use xlink:href="#glyph3-2" x="418.76444" y="134.10787"/>
</g>
<path style="fill:none;stroke-width:0.49814;stroke-linecap:round;stroke-linejoin:round;stroke:rgb(0%,100%,100%);stroke-opacity:1;stroke-miterlimit:10;" d="M -11.131734 -70.788917 L 122.446391 -70.788917 " transform="matrix(1,0,0,-1,334.69814,124.01577)"/>
<path style="fill-rule:nonzero;fill:rgb(0%,100%,100%);fill-opacity:1;stroke-width:0.49814;stroke-linecap:round;stroke-linejoin:round;stroke:rgb(0%,100%,100%);stroke-opacity:1;stroke-miterlimit:10;" d="M 118.751079 -72.316261 L 122.446391 -70.788917 L 118.751079 -69.257667 Z M 118.751079 -72.316261 " transform="matrix(1,0,0,-1,334.69814,124.01577)"/>
<g style="fill:rgb(0%,100%,100%);fill-opacity:1;">
  <use xlink:href="#glyph3-3" x="380.89724" y="189.80297"/>
</g>
<g style="fill:rgb(0%,100%,100%);fill-opacity:1;">
  <use xlink:href="#glyph1-1" x="388.11694" y="181.53707"/>
</g>
<g style="fill:rgb(0%,100%,100%);fill-opacity:1;">
  <use xlink:href="#glyph2-1" x="387.85944" y="181.53707"/>
</g>
<g style="fill:rgb(0%,100%,100%);fill-opacity:1;">
  <use xlink:href="#glyph3-2" x="390.93514" y="189.80297"/>
</g>
<path style="fill:none;stroke-width:0.49814;stroke-linecap:round;stroke-linejoin:round;stroke:rgb(0%,100%,100%);stroke-opacity:1;stroke-miterlimit:10;" d="M -205.936421 67.507958 L -72.35439 67.507958 " transform="matrix(1,0,0,-1,334.69814,124.01577)"/>
<path style="fill-rule:nonzero;fill:rgb(0%,100%,100%);fill-opacity:1;stroke-width:0.49814;stroke-linecap:round;stroke-linejoin:round;stroke:rgb(0%,100%,100%);stroke-opacity:1;stroke-miterlimit:10;" d="M -76.049702 65.980614 L -72.35439 67.507958 L -76.049702 69.039208 Z M -76.049702 65.980614 " transform="matrix(1,0,0,-1,334.69814,124.01577)"/>
<g style="fill:rgb(0%,100%,100%);fill-opacity:1;">
  <use xlink:href="#glyph3-3" x="186.09444" y="51.50607"/>
</g>
<g style="fill:rgb(0%,100%,100%);fill-opacity:1;">
  <use xlink:href="#glyph1-1" x="193.31414" y="43.24017"/>
</g>
<g style="fill:rgb(0%,100%,100%);fill-opacity:1;">
  <use xlink:href="#glyph2-1" x="193.05664" y="43.24017"/>
</g>
<g style="fill:rgb(0%,100%,100%);fill-opacity:1;">
  <use xlink:href="#glyph3-2" x="196.13234" y="51.50607"/>
</g>
<path style="fill:none;stroke-width:0.49814;stroke-linecap:round;stroke-linejoin:round;stroke:rgb(0%,100%,100%);stroke-opacity:1;stroke-miterlimit:10;" d="M -166.975484 -38.288917 L -33.393452 -38.288917 " transform="matrix(1,0,0,-1,334.69814,124.01577)"/>
<path style="fill-rule:nonzero;fill:rgb(0%,100%,100%);fill-opacity:1;stroke-width:0.49814;stroke-linecap:round;stroke-linejoin:round;stroke:rgb(0%,100%,100%);stroke-opacity:1;stroke-miterlimit:10;" d="M -37.088765 -39.820167 L -33.393452 -38.288917 L -37.088765 -36.757667 Z M -37.088765 -39.820167 " transform="matrix(1,0,0,-1,334.69814,124.01577)"/>
<g style="fill:rgb(0%,100%,100%);fill-opacity:1;">
  <use xlink:href="#glyph3-3" x="225.05484" y="157.30467"/>
</g>
<g style="fill:rgb(0%,100%,100%);fill-opacity:1;">
  <use xlink:href="#glyph1-1" x="232.27454" y="149.03867"/>
</g>
<g style="fill:rgb(0%,100%,100%);fill-opacity:1;">
  <use xlink:href="#glyph2-1" x="232.01704" y="149.03867"/>
</g>
<g style="fill:rgb(0%,100%,100%);fill-opacity:1;">
  <use xlink:href="#glyph3-2" x="235.09274" y="157.30467"/>
</g>
</g>
</svg>
