%!PS
%%BoundingBox: -188 -188 188 188 
%%HiResBoundingBox: -187.3361 -187.3361 187.3361 187.3361 
%%Creator: MetaPost 2.02
%%CreationDate: 2024.01.06:1112
%%Pages: 1
%*Font: cmsy7 6.97385 6.97385 70:8
%*Font: cmr7 6.97385 6.97385 31:fc
%*Font: eufm10 9.96265 9.96265 2d:8
%*Font: eurm10 9.96265 9.96265 19:8
%*Font: eurm7 6.97385 6.97385 19:8
%%BeginProlog
%%EndProlog
%%Page: 1 1
 1 1 1 setrgbcolor 0 0.5 dtransform truncate idtransform setlinewidth pop
 [] 0 setdash 1 setlinecap 1 setlinejoin 10 setmiterlimit
newpath -187.0861 0 moveto
187.0861 0 lineto stroke
newpath 183.38847 -1.53165 moveto
187.0861 0 lineto
183.38847 1.53165 lineto
 closepath
gsave fill grestore stroke
 0.5 0 dtransform exch truncate exch idtransform pop setlinewidth
newpath 0 -187.0861 moveto
0 187.0861 lineto stroke
 0 0.5 dtransform truncate idtransform setlinewidth pop
newpath 1.53165 183.38847 moveto
0 187.0861 lineto
-1.53165 183.38847 lineto
 closepath
gsave fill grestore stroke
 1 0.7 0.7 setrgbcolor 0 1.3 dtransform truncate idtransform setlinewidth pop
newpath 127.55904 0 moveto
127.55904 33.83226 114.11722 66.2748 90.196 90.196 curveto
66.2748 114.11722 33.83226 127.55904 0 127.55904 curveto
-33.83226 127.55904 -66.2748 114.11722 -90.196 90.196 curveto
-114.11722 66.2748 -127.55904 33.83226 -127.55904 0 curveto
-127.55904 -33.83226 -114.11722 -66.2748 -90.196 -90.196 curveto
-66.2748 -114.11722 -33.83226 -127.55904 0 -127.55904 curveto
33.83226 -127.55904 66.2748 -114.11722 90.196 -90.196 curveto
114.11722 -66.2748 127.55904 -33.83226 127.55904 0 curveto closepath stroke
 0 1 1 setrgbcolor 0 0.5 dtransform truncate idtransform setlinewidth pop
 [3 3 ] 0 setdash
newpath 110.24194 -110.24194 moveto
110.24194 110.24194 lineto
0 0 lineto stroke
newpath 110.24194 110.24194 moveto
-110.24194 110.24194 lineto
0 0 lineto stroke
newpath -110.24194 110.24194 moveto
-110.24194 -110.24194 lineto
0 0 lineto stroke
newpath -110.24194 -110.24194 moveto
110.24194 -110.24194 lineto
0 0 lineto stroke
114.93742 121.10432 moveto
(\031) eurm7 6.97385 fshow
 0 0.3985 dtransform truncate idtransform setlinewidth pop [] 0 setdash
 0 setlinecap
newpath 114.93742 119.73943 moveto
120.16083 119.73943 lineto stroke
115.56352 113.74193 moveto
(4) cmr7 6.97385 fshow
 1 1 1 setrgbcolor
4.69548 166.76787 moveto
(\031) eurm7 6.97385 fshow
newpath 4.69548 165.40297 moveto
9.91888 165.40297 lineto stroke
5.32158 159.40547 moveto
(2) cmr7 6.97385 fshow
 0 3 dtransform truncate idtransform setlinewidth pop 1 setlinecap
newpath 0 155.90549 moveto 0 0 rlineto stroke
 0 1 1 setrgbcolor
-124.13213 121.10432 moveto
(3) cmr7 6.97385 fshow
-120.16083 121.10432 moveto
(\031) eurm7 6.97385 fshow
 0 0.3985 dtransform truncate idtransform setlinewidth pop 0 setlinecap
newpath -124.13213 119.73943 moveto
-114.93742 119.73943 lineto stroke
-121.52042 113.74193 moveto
(4) cmr7 6.97385 fshow
 1 1 1 setrgbcolor
-165.47267 -8.07278 moveto
(\031) eurm10 9.96265 fshow
 0 3 dtransform truncate idtransform setlinewidth pop 1 setlinecap
newpath -155.90549 0 moveto 0 0 rlineto stroke
 0 1 1 setrgbcolor
-132.85933 -122.16142 moveto
(-) eufm10 9.96265 fshow
-124.13203 -118.23613 moveto
(3) cmr7 6.97385 fshow
-120.16083 -118.23613 moveto
(\031) eurm7 6.97385 fshow
 0 0.3985 dtransform truncate idtransform setlinewidth pop 0 setlinecap
newpath -124.13203 -119.60103 moveto
-114.93742 -119.60103 lineto stroke
-121.52032 -125.59853 moveto
(4) cmr7 6.97385 fshow
 1 1 1 setrgbcolor
-18.64618 -166.53867 moveto
(-) eufm10 9.96265 fshow
-9.91888 -162.61337 moveto
(\031) eurm7 6.97385 fshow
newpath -9.91888 -163.97827 moveto
-4.69548 -163.97827 lineto stroke
-9.29288 -169.97577 moveto
(2) cmr7 6.97385 fshow
 0 1 1 setrgbcolor
113.74193 -120.87512 moveto
(-) eufm10 9.96265 fshow
122.46922 -116.94983 moveto
(\031) eurm7 6.97385 fshow
newpath 122.46922 -118.31473 moveto
127.69263 -118.31473 lineto stroke
123.09523 -124.31223 moveto
(4) cmr7 6.97385 fshow
95.03375 16.72739 moveto
(p) cmsy7 6.97385 fshow
 0 0.3417 dtransform truncate idtransform setlinewidth pop
newpath 101.57526 16.8982 moveto
105.54646 16.8982 lineto stroke
101.57526 10.98979 moveto
(2) cmr7 6.97385 fshow
 0 0.3985 dtransform truncate idtransform setlinewidth pop
newpath 95.03375 9.49748 moveto
105.54646 9.49748 lineto stroke
98.30455 3.49998 moveto
(2) cmr7 6.97385 fshow
-106.74196 6.93709 moveto
(-) eufm10 9.96265 fshow
-98.01466 16.72739 moveto
(p) cmsy7 6.97385 fshow
 0 0.3417 dtransform truncate idtransform setlinewidth pop
newpath -91.47325 16.8982 moveto
-87.50195 16.8982 lineto stroke
-91.47325 10.98979 moveto
(2) cmr7 6.97385 fshow
 0 0.3985 dtransform truncate idtransform setlinewidth pop
newpath -98.01466 9.49748 moveto
-87.50195 9.49748 lineto stroke
-94.74396 3.49998 moveto
(2) cmr7 6.97385 fshow
4.69548 106.05856 moveto
(p) cmsy7 6.97385 fshow
 0 0.3417 dtransform truncate idtransform setlinewidth pop
newpath 11.23698 106.22937 moveto
15.20819 106.22937 lineto stroke
11.23698 100.32097 moveto
(2) cmr7 6.97385 fshow
 0 0.3985 dtransform truncate idtransform setlinewidth pop
newpath 4.69548 98.82866 moveto
15.20819 98.82866 lineto stroke
7.96628 92.83116 moveto
(2) cmr7 6.97385 fshow
3.49998 -103.30486 moveto
(-) eufm10 9.96265 fshow
12.22728 -93.51456 moveto
(p) cmsy7 6.97385 fshow
 0 0.3417 dtransform truncate idtransform setlinewidth pop
newpath 18.76869 -93.34375 moveto
22.73999 -93.34375 lineto stroke
18.76869 -99.25215 moveto
(2) cmr7 6.97385 fshow
 0 0.3985 dtransform truncate idtransform setlinewidth pop
newpath 12.22728 -100.74446 moveto
22.73999 -100.74446 lineto stroke
15.49799 -106.74196 moveto
(2) cmr7 6.97385 fshow
showpage
%%EOF
