<?xml version="1.0" encoding="UTF-8" standalone="no"?>
<svg
   xmlns:dc="http://purl.org/dc/elements/1.1/"
   xmlns:cc="http://creativecommons.org/ns#"
   xmlns:rdf="http://www.w3.org/1999/02/22-rdf-syntax-ns#"
   xmlns:svg="http://www.w3.org/2000/svg"
   xmlns="http://www.w3.org/2000/svg"
   xmlns:xlink="http://www.w3.org/1999/xlink"
   xmlns:sodipodi="http://sodipodi.sourceforge.net/DTD/sodipodi-0.dtd"
   xmlns:inkscape="http://www.inkscape.org/namespaces/inkscape"
   width="374.6722pt"
   height="374.6722pt"
   viewBox="0 0 374.6722 374.6722"
   version="1.1"
   id="svg1091"
   sodipodi:docname="trigo-3.pdf_b.svg"
   inkscape:version="1.0.1 (3bc2e813f5, 2020-09-07)">
  <metadata
     id="metadata1095">
    <rdf:RDF>
      <cc:Work
         rdf:about="">
        <dc:format>image/svg+xml</dc:format>
        <dc:type
           rdf:resource="http://purl.org/dc/dcmitype/StillImage" />
        <dc:title></dc:title>
      </cc:Work>
    </rdf:RDF>
  </metadata>
  <sodipodi:namedview
     pagecolor="#ffffff"
     bordercolor="#666666"
     borderopacity="1"
     objecttolerance="10"
     gridtolerance="10"
     guidetolerance="10"
     inkscape:pageopacity="0"
     inkscape:pageshadow="2"
     inkscape:window-width="1918"
     inkscape:window-height="1044"
     id="namedview1093"
     showgrid="false"
     inkscape:zoom="1.1530078"
     inkscape:cx="73.720227"
     inkscape:cy="249.78147"
     inkscape:window-x="0"
     inkscape:window-y="34"
     inkscape:window-maximized="0"
     inkscape:current-layer="svg1091"
     inkscape:document-rotation="0" />
  <defs
     id="defs900">
    <g
       id="g886">
      <symbol
         overflow="visible"
         id="glyph0-0">
        <path
           style="stroke:none"
           d=""
           id="path850" />
      </symbol>
      <symbol
         overflow="visible"
         id="glyph0-1">
        <path
           style="stroke:none"
           d="M 1.484375 -3.671875 C 1.015625 -3.671875 0.53125 -3.65625 0.390625 -3.203125 L 0.171875 -2.296875 L 0.328125 -2.21875 L 0.484375 -2.59375 C 0.65625 -3.0625 0.875 -3.140625 1.265625 -3.140625 L 1.84375 -3.140625 C 1.65625 -2.25 1.21875 -1.109375 0.6875 -0.1875 L 0.6875 -0.078125 L 1.125 0.046875 L 1.21875 -0.046875 C 1.5625 -1.0625 1.921875 -2.109375 2.140625 -3.140625 L 3.28125 -3.140625 L 3.328125 -3.09375 C 3.25 -2.453125 3.203125 -1.8125 3.203125 -1.171875 C 3.203125 -0.8125 3.21875 -0.3125 3.453125 -0.09375 C 3.546875 0 3.71875 0 3.875 0 C 4.203125 0 4.53125 -0.25 4.765625 -0.484375 L 4.6875 -0.609375 L 4.640625 -0.625 C 4.53125 -0.546875 4.40625 -0.5 4.25 -0.5 C 3.734375 -0.5 3.75 -1.53125 3.75 -2.25 C 3.75 -2.515625 3.78125 -2.8125 3.796875 -3.078125 L 3.859375 -3.140625 C 4.15625 -3.140625 4.453125 -3.234375 4.71875 -3.359375 L 5 -3.828125 L 4.9375 -3.890625 C 4.671875 -3.75 4.359375 -3.671875 4.0625 -3.671875 Z M 1.484375 -3.671875 "
           id="path853" />
      </symbol>
      <symbol
         overflow="visible"
         id="glyph1-0">
        <path
           style="stroke:none"
           d=""
           id="path856" />
      </symbol>
      <symbol
         overflow="visible"
         id="glyph1-1">
        <path
           style="stroke:none"
           d="M 4.390625 -1.234375 L 4.390625 -1.546875 L 3.453125 -1.546875 L 3.453125 -5.53125 L 2.96875 -5.53125 L 0.28125 -1.515625 L 0.28125 -1.234375 L 2.734375 -1.234375 C 2.734375 -1.234375 2.78125 -0.703125 2.609375 -0.515625 C 2.4375 -0.296875 2.1875 -0.234375 1.890625 -0.234375 L 1.890625 -0.015625 C 1.984375 -0.046875 2.953125 -0.078125 3.0625 -0.078125 C 3.171875 -0.078125 4.203125 -0.046875 4.3125 0.015625 L 4.3125 -0.234375 C 4.015625 -0.234375 3.75 -0.328125 3.578125 -0.515625 C 3.40625 -0.71875 3.453125 -1.234375 3.453125 -1.234375 Z M 2.71875 -1.546875 L 0.71875 -1.546875 L 2.71875 -4.5625 Z M 2.71875 -1.546875 "
           id="path859" />
      </symbol>
      <symbol
         overflow="visible"
         id="glyph1-2">
        <path
           style="stroke:none"
           d="M 3.765625 -4.0625 C 3.796875 -5.359375 2.6875 -5.53125 1.96875 -5.53125 C 0.90625 -5.5 0.375 -5.125 0.3125 -4.484375 C 0.21875 -3.53125 1.15625 -3.609375 1.359375 -3.796875 C 0.9375 -4.09375 0.984375 -5.1875 1.9375 -5.28125 C 2.765625 -5.34375 3.015625 -4.640625 2.9375 -4.140625 C 2.84375 -3.53125 2.390625 -2.625 1.65625 -1.859375 L 0.390625 -0.53125 L 0.390625 0 L 3.546875 0 C 3.515625 -0.3125 3.75 -1.4375 3.75 -1.4375 L 3.5 -1.4375 C 3.4375 -1.1875 3.3125 -0.71875 2.875 -0.671875 C 2.34375 -0.640625 0.8125 -0.625 0.8125 -0.625 L 2.5 -2.078125 C 2.828125 -2.375 3.734375 -3.28125 3.765625 -4.0625 Z M 3.765625 -4.0625 "
           id="path862" />
      </symbol>
      <symbol
         overflow="visible"
         id="glyph1-3">
        <path
           style="stroke:none"
           d="M 4.03125 -1.359375 C 4.109375 -2.640625 2.796875 -2.890625 2.171875 -2.90625 C 2.8125 -2.953125 3.828125 -3.4375 3.828125 -4.140625 C 3.828125 -5.171875 2.828125 -5.53125 2.09375 -5.53125 C 1.203125 -5.515625 0.546875 -5.125 0.5 -4.546875 C 0.4375 -3.75 1.1875 -3.921875 1.40625 -4.0625 C 1.03125 -4.53125 1.28125 -5.296875 2.109375 -5.265625 C 2.859375 -5.234375 3.046875 -4.59375 3.046875 -4.1875 C 3.046875 -3.4375 2.46875 -3.015625 1.46875 -3.09375 C 1.484375 -2.96875 1.5 -2.78125 1.4375 -2.65625 C 1.96875 -2.75 2.46875 -2.6875 2.75 -2.515625 C 3.09375 -2.28125 3.234375 -1.71875 3.1875 -1.3125 C 3.15625 -0.921875 2.9375 -0.140625 2.109375 -0.140625 C 1.328125 -0.140625 0.96875 -0.953125 1.3125 -1.390625 C 1.046875 -1.6875 0.34375 -1.625 0.390625 -0.90625 C 0.40625 -0.34375 1.046875 0.109375 2.09375 0.109375 C 2.90625 0.109375 3.984375 -0.375 4.03125 -1.359375 Z M 4.03125 -1.359375 "
           id="path865" />
      </symbol>
      <symbol
         overflow="visible"
         id="glyph2-0">
        <path
           style="stroke:none"
           d=""
           id="path868" />
      </symbol>
      <symbol
         overflow="visible"
         id="glyph2-1">
        <path
           style="stroke:none"
           d="M 2.21875 -5.5 C 1.53125 -5.5 0.796875 -5.484375 0.578125 -4.796875 L 0.25 -3.4375 L 0.5 -3.328125 L 0.71875 -3.890625 C 0.984375 -4.59375 1.296875 -4.703125 1.890625 -4.703125 L 2.765625 -4.703125 C 2.46875 -3.375 1.828125 -1.65625 1.03125 -0.28125 L 1.046875 -0.125 L 1.703125 0.0625 L 1.828125 -0.0625 C 2.359375 -1.59375 2.890625 -3.15625 3.21875 -4.703125 L 4.921875 -4.703125 L 5 -4.640625 C 4.875 -3.6875 4.8125 -2.71875 4.8125 -1.75 C 4.8125 -1.21875 4.828125 -0.46875 5.171875 -0.140625 C 5.3125 0 5.578125 0 5.8125 0 C 6.296875 0 6.796875 -0.375 7.15625 -0.71875 L 7.046875 -0.921875 L 6.96875 -0.9375 C 6.796875 -0.828125 6.59375 -0.75 6.390625 -0.75 C 5.609375 -0.75 5.625 -2.296875 5.625 -3.375 C 5.625 -3.78125 5.671875 -4.203125 5.703125 -4.625 L 5.78125 -4.703125 C 6.234375 -4.71875 6.6875 -4.859375 7.09375 -5.046875 L 7.5 -5.75 L 7.40625 -5.828125 C 7 -5.625 6.546875 -5.5 6.078125 -5.5 Z M 2.21875 -5.5 "
           id="path871" />
      </symbol>
      <symbol
         overflow="visible"
         id="glyph3-0">
        <path
           style="stroke:none"
           d=""
           id="path874" />
      </symbol>
      <symbol
         overflow="visible"
         id="glyph3-1">
        <path
           style="stroke:none"
           d="M 8.421875 -2.828125 L 8.484375 -3.296875 L 0.640625 -3.296875 L 0.546875 -2.828125 Z M 8.421875 -2.828125 "
           id="path877" />
      </symbol>
      <symbol
         overflow="visible"
         id="glyph4-0">
        <path
           style="stroke:none"
           d=""
           id="path880" />
      </symbol>
      <symbol
         overflow="visible"
         id="glyph4-1">
        <path
           style="stroke:none"
           d="M 3.28125 6.734375 L 1.78125 3.640625 C 1.734375 3.546875 1.703125 3.515625 1.640625 3.515625 C 1.609375 3.515625 1.59375 3.515625 1.515625 3.578125 L 0.703125 4.140625 C 0.59375 4.21875 0.59375 4.25 0.59375 4.28125 C 0.59375 4.328125 0.625 4.390625 0.703125 4.390625 C 0.734375 4.390625 0.75 4.390625 0.84375 4.3125 C 0.953125 4.25 1.109375 4.125 1.25 4.03125 L 2.921875 7.46875 C 2.984375 7.609375 3.015625 7.609375 3.09375 7.609375 C 3.234375 7.609375 3.265625 7.5625 3.328125 7.4375 L 7.171875 -0.03125 C 7.234375 -0.140625 7.234375 -0.15625 7.234375 -0.1875 C 7.234375 -0.28125 7.15625 -0.359375 7.046875 -0.359375 C 6.953125 -0.359375 6.921875 -0.296875 6.859375 -0.203125 Z M 3.28125 6.734375 "
           id="path883" />
      </symbol>
    </g>
    <clipPath
       id="clip1">
      <path
         d="M 0 187 L 374.671875 187 L 374.671875 188 L 0 188 Z M 0 187 "
         id="path888" />
    </clipPath>
    <clipPath
       id="clip2">
      <path
         d="M 370 185 L 374.671875 185 L 374.671875 189 L 370 189 Z M 370 185 "
         id="path891" />
    </clipPath>
    <clipPath
       id="clip3">
      <path
         d="M 370 185 L 374.671875 185 L 374.671875 190 L 370 190 Z M 370 185 "
         id="path894" />
    </clipPath>
    <clipPath
       id="clip4">
      <path
         d="M 187 0 L 188 0 L 188 374.671875 L 187 374.671875 Z M 187 0 "
         id="path897" />
    </clipPath>
  </defs>
  <g
     id="surface1">
    <g
       clip-path="url(#clip1)"
       clip-rule="nonzero"
       id="g904">
      <path
         style="fill:none;stroke-width:0.5;stroke-linecap:round;stroke-linejoin:round;stroke:#000000;stroke-opacity:1;stroke-miterlimit:10"
         d="M -187.0861 0.0001625 L 187.085775 0.0001625 "
         transform="matrix(1,0,0,-1,187.3361,187.3361)"
         id="path902" />
    </g>
    <g
       clip-path="url(#clip2)"
       clip-rule="nonzero"
       id="g908">
      <path
         style="stroke:none;fill-rule:nonzero;fill:#000000;fill-opacity:1"
         d="M 370.722656 188.867188 L 374.421875 187.335938 L 370.722656 185.804688 Z M 370.722656 188.867188 "
         id="path906" />
    </g>
    <g
       clip-path="url(#clip3)"
       clip-rule="nonzero"
       id="g912">
      <path
         style="fill:none;stroke-width:0.5;stroke-linecap:round;stroke-linejoin:round;stroke:#000000;stroke-opacity:1;stroke-miterlimit:10"
         d="M 183.386556 -1.531087 L 187.085775 0.0001625 L 183.386556 1.531413 Z M 183.386556 -1.531087 "
         transform="matrix(1,0,0,-1,187.3361,187.3361)"
         id="path910" />
    </g>
    <g
       clip-path="url(#clip4)"
       clip-rule="nonzero"
       id="g916">
      <path
         style="fill:none;stroke-width:0.5;stroke-linecap:round;stroke-linejoin:round;stroke:#000000;stroke-opacity:1;stroke-miterlimit:10"
         d="M -0.0001625 -187.085775 L -0.0001625 187.0861 "
         transform="matrix(1,0,0,-1,187.3361,187.3361)"
         id="path914" />
    </g>
    <path
       style="fill-rule:nonzero;fill:#000000;fill-opacity:1;stroke-width:0.5;stroke-linecap:round;stroke-linejoin:round;stroke:#000000;stroke-opacity:1;stroke-miterlimit:10"
       d="M 1.531087 183.386881 L -0.0001625 187.0861 L -1.531413 183.386881 Z M 1.531087 183.386881 "
       transform="matrix(1,0,0,-1,187.3361,187.3361)"
       id="path918" />
    <path
       style="fill:none;stroke-width:1.3;stroke-linecap:round;stroke-linejoin:round;stroke:#004d4d;stroke-opacity:1;stroke-miterlimit:10"
       d="M 127.558431 0.0001625 C 127.558431 33.832194 114.117025 66.2736 90.19515 90.195475 C 66.273275 114.11735 33.831869 127.558756 -0.0001625 127.558756 C -33.832194 127.558756 -66.2736 114.11735 -90.195475 90.195475 C -114.11735 66.2736 -127.558756 33.832194 -127.558756 0.0001625 C -127.558756 -33.831869 -114.11735 -66.273275 -90.195475 -90.19515 C -66.2736 -114.117025 -33.832194 -127.558431 -0.0001625 -127.558431 C 33.831869 -127.558431 66.273275 -114.117025 90.19515 -90.19515 C 114.117025 -66.273275 127.558431 -33.831869 127.558431 0.0001625 Z M 127.558431 0.0001625 "
       transform="matrix(1,0,0,-1,187.3361,187.3361)"
       id="path920" />
    <path
       style="fill:none;stroke-width:0.5;stroke-linecap:round;stroke-linejoin:round;stroke:#ff0000;stroke-opacity:1;stroke-dasharray:3,3;stroke-miterlimit:10"
       d="M 110.242025 -110.242025 L 110.242025 110.24235 L -0.0001625 0.0001625 "
       transform="matrix(1,0,0,-1,187.3361,187.3361)"
       id="path922" />
    <path
       style="fill:none;stroke-width:0.5;stroke-linecap:round;stroke-linejoin:round;stroke:#ff0000;stroke-opacity:1;stroke-dasharray:3,3;stroke-miterlimit:10"
       d="M 110.242025 110.24235 L -110.24235 110.24235 L -0.0001625 0.0001625 "
       transform="matrix(1,0,0,-1,187.3361,187.3361)"
       id="path924" />
    <path
       style="fill:none;stroke-width:0.5;stroke-linecap:round;stroke-linejoin:round;stroke:#ff0000;stroke-opacity:1;stroke-dasharray:3,3;stroke-miterlimit:10"
       d="M -110.24235 110.24235 L -110.24235 -110.242025 L -0.0001625 0.0001625 "
       transform="matrix(1,0,0,-1,187.3361,187.3361)"
       id="path926" />
    <path
       style="fill:none;stroke-width:0.5;stroke-linecap:round;stroke-linejoin:round;stroke:#ff0000;stroke-opacity:1;stroke-dasharray:3,3;stroke-miterlimit:10"
       d="M -110.24235 -110.242025 L 110.242025 -110.242025 L -0.0001625 0.0001625 "
       transform="matrix(1,0,0,-1,187.3361,187.3361)"
       id="path928" />
    <g
       style="fill:#ff0000;fill-opacity:1"
       id="g932">
      <use
         xlink:href="#glyph0-1"
         x="302.2735"
         y="64.7254"
         id="use930" />
    </g>
    <path
       style="fill:none;stroke-width:0.4782;stroke-linecap:butt;stroke-linejoin:round;stroke:#ff0000;stroke-opacity:1;stroke-miterlimit:10"
       d="M 114.937337 120.890788 L 119.792806 120.890788 "
       transform="matrix(1,0,0,-1,187.3361,187.3361)"
       id="path934" />
    <g
       style="fill:#ff0000;fill-opacity:1"
       id="g938">
      <use
         xlink:href="#glyph1-1"
         x="302.4355"
         y="73.5551"
         id="use936" />
    </g>
    <g
       style="fill:#000000;fill-opacity:1"
       id="g942">
      <use
         xlink:href="#glyph0-1"
         x="192.0316"
         y="19.1009"
         id="use940" />
    </g>
    <path
       style="fill:none;stroke-width:0.4782;stroke-linecap:butt;stroke-linejoin:round;stroke:#000000;stroke-opacity:1;stroke-miterlimit:10"
       d="M 4.69515 166.515788 L 9.550619 166.515788 "
       transform="matrix(1,0,0,-1,187.3361,187.3361)"
       id="path944" />
    <g
       style="fill:#000000;fill-opacity:1"
       id="g948">
      <use
         xlink:href="#glyph1-2"
         x="192.4044"
         y="27.9306"
         id="use946" />
    </g>
    <path
       style="fill:none;stroke-width:3;stroke-linecap:round;stroke-linejoin:round;stroke:#000000;stroke-opacity:1;stroke-miterlimit:10"
       d="M -0.0001625 155.906413 L -0.0001625 155.906413 "
       transform="matrix(1,0,0,-1,187.3361,187.3361)"
       id="path950" />
    <g
       style="fill:#ff0000;fill-opacity:1"
       id="g954">
      <use
         xlink:href="#glyph1-3"
         x="63.1941"
         y="64.7254"
         id="use952" />
    </g>
    <g
       style="fill:#ff0000;fill-opacity:1"
       id="g958">
      <use
         xlink:href="#glyph0-1"
         x="67.5447"
         y="64.7254"
         id="use956" />
    </g>
    <path
       style="fill:none;stroke-width:0.4782;stroke-linecap:butt;stroke-linejoin:round;stroke:#ff0000;stroke-opacity:1;stroke-miterlimit:10"
       d="M -124.140788 120.890788 L -114.937663 120.890788 "
       transform="matrix(1,0,0,-1,187.3361,187.3361)"
       id="path960" />
    <g
       style="fill:#ff0000;fill-opacity:1"
       id="g964">
      <use
         xlink:href="#glyph1-1"
         x="65.5313"
         y="73.5551"
         id="use962" />
    </g>
    <g
       style="fill:#000000;fill-opacity:1"
       id="g968">
      <use
         xlink:href="#glyph2-1"
         x="20.6495"
         y="196.3252"
         id="use966" />
    </g>
    <path
       style="fill:none;stroke-width:3;stroke-linecap:round;stroke-linejoin:round;stroke:#000000;stroke-opacity:1;stroke-miterlimit:10"
       d="M -155.906413 0.0001625 L -155.906413 0.0001625 "
       transform="matrix(1,0,0,-1,187.3361,187.3361)"
       id="path970" />
    <g
       style="fill:#ff0000;fill-opacity:1"
       id="g974">
      <use
         xlink:href="#glyph3-1"
         x="52.9578"
         y="311.3073"
         id="use972" />
    </g>
    <g
       style="fill:#ff0000;fill-opacity:1"
       id="g978">
      <use
         xlink:href="#glyph1-3"
         x="63.1941"
         y="306.6002"
         id="use976" />
    </g>
    <g
       style="fill:#ff0000;fill-opacity:1"
       id="g982">
      <use
         xlink:href="#glyph0-1"
         x="67.5447"
         y="306.6002"
         id="use980" />
    </g>
    <path
       style="fill:none;stroke-width:0.4782;stroke-linecap:butt;stroke-linejoin:round;stroke:#ff0000;stroke-opacity:1;stroke-miterlimit:10"
       d="M -124.140788 -120.984212 L -114.937663 -120.984212 "
       transform="matrix(1,0,0,-1,187.3361,187.3361)"
       id="path984" />
    <g
       style="fill:#ff0000;fill-opacity:1"
       id="g988">
      <use
         xlink:href="#glyph1-1"
         x="65.5313"
         y="315.4299"
         id="use986" />
    </g>
    <g
       style="fill:#000000;fill-opacity:1"
       id="g992">
      <use
         xlink:href="#glyph3-1"
         x="167.5502"
         y="355.1081"
         id="use990" />
    </g>
    <g
       style="fill:#000000;fill-opacity:1"
       id="g996">
      <use
         xlink:href="#glyph0-1"
         x="177.7865"
         y="350.4009"
         id="use994" />
    </g>
    <path
       style="fill:none;stroke-width:0.4782;stroke-linecap:butt;stroke-linejoin:round;stroke:#000000;stroke-opacity:1;stroke-miterlimit:10"
       d="M -9.550944 -164.784994 L -4.695475 -164.784994 "
       transform="matrix(1,0,0,-1,187.3361,187.3361)"
       id="path998" />
    <g
       style="fill:#000000;fill-opacity:1"
       id="g1002">
      <use
         xlink:href="#glyph1-2"
         x="178.1593"
         y="359.2307"
         id="use1000" />
    </g>
    <g
       style="fill:#ff0000;fill-opacity:1"
       id="g1006">
      <use
         xlink:href="#glyph3-1"
         x="301.078"
         y="309.4445"
         id="use1004" />
    </g>
    <g
       style="fill:#ff0000;fill-opacity:1"
       id="g1010">
      <use
         xlink:href="#glyph0-1"
         x="311.3143"
         y="304.7374"
         id="use1008" />
    </g>
    <path
       style="fill:none;stroke-width:0.4782;stroke-linecap:butt;stroke-linejoin:round;stroke:#ff0000;stroke-opacity:1;stroke-miterlimit:10"
       d="M 123.9764 -119.120931 L 128.831869 -119.120931 "
       transform="matrix(1,0,0,-1,187.3361,187.3361)"
       id="path1012" />
    <g
       style="fill:#ff0000;fill-opacity:1"
       id="g1016">
      <use
         xlink:href="#glyph1-1"
         x="311.4763"
         y="313.5671"
         id="use1014" />
    </g>
    <g
       style="fill:#ff0000;fill-opacity:1"
       id="g1020">
      <use
         xlink:href="#glyph4-1"
         x="281.7172"
         y="168.2154"
         id="use1018" />
    </g>
    <path
       style="fill:none;stroke-width:0.3587;stroke-linecap:butt;stroke-linejoin:round;stroke:#ff0000;stroke-opacity:1;stroke-miterlimit:10"
       d="M 101.437337 19.300944 L 105.546712 19.300944 "
       transform="matrix(1,0,0,-1,187.3361,187.3361)"
       id="path1022" />
    <g
       style="fill:#ff0000;fill-opacity:1"
       id="g1026">
      <use
         xlink:href="#glyph1-2"
         x="288.7742"
         y="175.0064"
         id="use1024" />
    </g>
    <path
       style="fill:none;stroke-width:0.4782;stroke-linecap:butt;stroke-linejoin:round;stroke:#ff0000;stroke-opacity:1;stroke-miterlimit:10"
       d="M 94.38265 10.609538 L 105.546712 10.609538 "
       transform="matrix(1,0,0,-1,187.3361,187.3361)"
       id="path1028" />
    <g
       style="fill:#ff0000;fill-opacity:1"
       id="g1032">
      <use
         xlink:href="#glyph1-2"
         x="285.2457"
         y="183.8361"
         id="use1030" />
    </g>
    <g
       style="fill:#ff0000;fill-opacity:1"
       id="g1036">
      <use
         xlink:href="#glyph3-1"
         x="80.5942"
         y="179.7135"
         id="use1034" />
    </g>
    <g
       style="fill:#ff0000;fill-opacity:1"
       id="g1040">
      <use
         xlink:href="#glyph4-1"
         x="90.8305"
         y="168.2154"
         id="use1038" />
    </g>
    <path
       style="fill:none;stroke-width:0.3587;stroke-linecap:butt;stroke-linejoin:round;stroke:#ff0000;stroke-opacity:1;stroke-miterlimit:10"
       d="M -89.449381 19.300944 L -85.340006 19.300944 "
       transform="matrix(1,0,0,-1,187.3361,187.3361)"
       id="path1042" />
    <g
       style="fill:#ff0000;fill-opacity:1"
       id="g1046">
      <use
         xlink:href="#glyph1-2"
         x="97.8875"
         y="175.0064"
         id="use1044" />
    </g>
    <path
       style="fill:none;stroke-width:0.4782;stroke-linecap:butt;stroke-linejoin:round;stroke:#ff0000;stroke-opacity:1;stroke-miterlimit:10"
       d="M -96.504069 10.609538 L -85.340006 10.609538 "
       transform="matrix(1,0,0,-1,187.3361,187.3361)"
       id="path1048" />
    <g
       style="fill:#ff0000;fill-opacity:1"
       id="g1052">
      <use
         xlink:href="#glyph1-2"
         x="94.3589"
         y="183.8361"
         id="use1050" />
    </g>
    <g
       style="fill:#ff0000;fill-opacity:1"
       id="g1056">
      <use
         xlink:href="#glyph4-1"
         x="192.0316"
         y="81.3114"
         id="use1054" />
    </g>
    <path
       style="fill:none;stroke-width:0.3587;stroke-linecap:butt;stroke-linejoin:round;stroke:#ff0000;stroke-opacity:1;stroke-miterlimit:10"
       d="M 11.753744 106.203288 L 15.859212 106.203288 "
       transform="matrix(1,0,0,-1,187.3361,187.3361)"
       id="path1058" />
    <g
       style="fill:#ff0000;fill-opacity:1"
       id="g1062">
      <use
         xlink:href="#glyph1-2"
         x="199.0886"
         y="88.1024"
         id="use1060" />
    </g>
    <path
       style="fill:none;stroke-width:0.4782;stroke-linecap:butt;stroke-linejoin:round;stroke:#ff0000;stroke-opacity:1;stroke-miterlimit:10"
       d="M 4.69515 97.515788 L 15.859212 97.515788 "
       transform="matrix(1,0,0,-1,187.3361,187.3361)"
       id="path1064" />
    <g
       style="fill:#ff0000;fill-opacity:1"
       id="g1068">
      <use
         xlink:href="#glyph1-2"
         x="195.5601"
         y="96.9321"
         id="use1066" />
    </g>
    <g
       style="fill:#ff0000;fill-opacity:1"
       id="g1072">
      <use
         xlink:href="#glyph3-1"
         x="190.8361"
         y="289.9554"
         id="use1070" />
    </g>
    <g
       style="fill:#ff0000;fill-opacity:1"
       id="g1076">
      <use
         xlink:href="#glyph4-1"
         x="201.0724"
         y="278.4573"
         id="use1074" />
    </g>
    <path
       style="fill:none;stroke-width:0.3587;stroke-linecap:butt;stroke-linejoin:round;stroke:#ff0000;stroke-opacity:1;stroke-miterlimit:10"
       d="M 20.792806 -90.941244 L 24.902181 -90.941244 "
       transform="matrix(1,0,0,-1,187.3361,187.3361)"
       id="path1078" />
    <g
       style="fill:#ff0000;fill-opacity:1"
       id="g1082">
      <use
         xlink:href="#glyph1-2"
         x="208.1294"
         y="285.2483"
         id="use1080" />
    </g>
    <path
       style="fill:none;stroke-width:0.4782;stroke-linecap:butt;stroke-linejoin:round;stroke:#ff0000;stroke-opacity:1;stroke-miterlimit:10"
       d="M 13.738119 -99.628744 L 24.902181 -99.628744 "
       transform="matrix(1,0,0,-1,187.3361,187.3361)"
       id="path1084" />
    <g
       style="fill:#ff0000;fill-opacity:1"
       id="g1088">
      <use
         xlink:href="#glyph1-2"
         x="204.6009"
         y="294.078"
         id="use1086" />
    </g>
  </g>
</svg>
