%!PS
%%BoundingBox: -179 -120 171 120 
%%HiResBoundingBox: -178.58316 -119.05544 170.8287 119.05544 
%%Creator: MetaPost 2.02
%%CreationDate: 2024.01.06:1112
%%Pages: 1
%*Font: cmmi10 9.96265 9.96265 4f:80000000006
%*Font: eufm10 9.96265 9.96265 28:d4
%*Font: eurm10 9.96265 9.96265 0b:8002000000000083200000100004
%%BeginProlog
%%EndProlog
%%Page: 1 1
gsave newpath -340.15741 -226.7716 moveto
-340.15741 226.7716 lineto
340.15741 226.7716 lineto
340.15741 -226.7716 lineto
 closepath clip
gsave newpath -340.15741 -226.7716 moveto
-340.15741 226.7716 lineto
340.15741 226.7716 lineto
340.15741 -226.7716 lineto
 closepath clip
gsave newpath -340.15741 -226.7716 moveto
-340.15741 226.7716 lineto
340.15741 226.7716 lineto
340.15741 -226.7716 lineto
 closepath clip
gsave newpath -340.15741 -226.7716 moveto
-340.15741 226.7716 lineto
340.15741 226.7716 lineto
340.15741 -226.7716 lineto
 closepath clip
gsave newpath -178.58316 -119.05544 moveto
-178.58316 119.05544 lineto
178.58316 119.05544 lineto
178.58316 -119.05544 lineto
 closepath clip
gsave newpath -255.11806 -170.0787 moveto
0 -170.0787 lineto
0 170.0787 lineto
-255.11806 170.0787 lineto
 closepath clip
 1 0.5 0 setrgbcolor
newpath -255.11806 -170.0787 moveto
0 -170.0787 lineto
0 170.0787 lineto
-255.11806 170.0787 lineto
 closepath fill
grestore
 1 1 1 setrgbcolor 0 1.1 dtransform truncate idtransform setlinewidth pop
 [] 0 setdash 1 setlinecap 1 setlinejoin 10 setmiterlimit
newpath -170.0787 0 moveto
170.0787 0 lineto stroke
newpath 166.38158 -1.53143 moveto
170.0787 0 lineto
166.38158 1.53143 lineto
 closepath
gsave fill grestore stroke
 1.1 0 dtransform exch truncate exch idtransform pop setlinewidth
newpath 0 -113.3858 moveto
0 113.3858 lineto stroke
 0 1.1 dtransform truncate idtransform setlinewidth pop
newpath 1.53079 109.69023 moveto
0 113.3858 lineto
-1.53079 109.69023 lineto
 closepath
gsave fill grestore stroke
-12.876 -9.07318 moveto
(O) cmmi10 9.96265 fshow
 0 2.98878 dtransform truncate idtransform setlinewidth pop
newpath 0 0 moveto 0 0 rlineto stroke
164.39711 -9.2895 moveto
(x) cmmi10 9.96265 fshow
-10.2419 109.375 moveto
(y) cmmi10 9.96265 fshow
 1 0.7 0.7 setrgbcolor 0 1.5 dtransform truncate idtransform setlinewidth pop
newpath 0 -56.6929 moveto
0.33997 -56.69463 lineto
0.67995 -56.69983 lineto
1.01991 -56.70934 lineto
1.35988 -56.72232 lineto
1.69986 -56.73788 lineto
2.03983 -56.75778 lineto
2.38239 -56.782 lineto
2.72237 -56.80882 lineto
3.06233 -56.83997 lineto
3.4023 -56.87457 lineto
3.74226 -56.91263 lineto
4.08224 -56.95415 lineto
4.42221 -56.99913 lineto
4.76218 -57.04758 lineto
5.10216 -57.10034 lineto
5.44212 -57.15657 lineto
5.78209 -57.21626 lineto
6.12207 -57.27855 lineto
6.46204 -57.34602 lineto
6.802 -57.41609 lineto
7.14458 -57.4905 lineto
7.48454 -57.56749 lineto
7.82451 -57.6488 lineto
8.16449 -57.73271 lineto
8.50446 -57.82095 lineto
8.84442 -57.91264 lineto
9.1844 -58.0078 lineto
9.52437 -58.10641 lineto
9.86433 -58.2085 lineto
10.2043 -58.31317 lineto
10.30612 -58.34534 10.43106 -58.3861 10.54428 -58.42303 curveto
10.65767 -58.46002 10.7884 -58.50267 10.88425 -58.53462 curveto
11.22421 -58.65054 lineto
11.5642 -58.77078 lineto
11.90675 -58.89449 lineto
12.24672 -59.01993 lineto
12.5867 -59.14882 lineto
12.68503 -59.18694 12.81345 -59.23795 12.92667 -59.28291 curveto
13.04007 -59.32796 13.17186 -59.38031 13.26663 -59.41872 curveto
13.60661 -59.55887 lineto
13.94658 -59.7016 lineto
14.28654 -59.8478 lineto
14.62653 -59.99832 lineto
14.96649 -60.15057 lineto
15.30646 -60.30627 lineto
15.64644 -60.46631 lineto
15.9864 -60.62895 lineto
16.32637 -60.79504 lineto
16.66895 -60.96545 lineto
16.77571 -61.01924 16.89569 -61.08058 17.00891 -61.13847 curveto
17.12236 -61.19647 17.24174 -61.2575 17.34888 -61.31322 curveto
17.68884 -61.49228 lineto
18.02882 -61.67395 lineto
18.36879 -61.85907 lineto
18.70876 -62.04765 lineto
19.04874 -62.2397 lineto
19.3887 -62.43347 lineto
19.72867 -62.6307 lineto
20.06865 -62.83228 lineto
20.18208 -62.89984 20.2964 -62.96793 20.40862 -63.03555 curveto
20.74858 -63.24231 lineto
21.08856 -63.45166 lineto
21.43112 -63.66618 lineto
21.77109 -63.88072 lineto
22.11107 -64.09872 lineto
22.19673 -64.1543 22.3378 -64.2468 22.45103 -64.32104 curveto
22.56439 -64.39537 22.7246 -64.50041 22.791 -64.54424 curveto
23.13097 -64.77087 lineto
23.20972 -64.82397 23.3577 -64.92474 23.47095 -65.00185 curveto
23.58432 -65.07904 23.74144 -65.18602 23.81091 -65.23369 curveto
24.15088 -65.46898 lineto
24.49086 -65.70688 lineto
24.83083 -65.94737 lineto
25.17079 -66.19131 lineto
25.51077 -66.43787 lineto
25.85074 -66.68613 lineto
26.1933 -66.93959 lineto
26.53328 -67.19392 lineto
26.87325 -67.44998 lineto
27.21321 -67.7095 lineto
27.55319 -67.97162 lineto
27.89316 -68.23546 lineto
28.23312 -68.5019 lineto
28.5731 -68.77094 lineto
28.91307 -69.04257 lineto
29.25304 -69.31593 lineto
29.33061 -69.37874 29.47975 -69.5004 29.593 -69.59276 curveto
29.70639 -69.68524 29.86284 -69.81285 29.93298 -69.87044 curveto
30.27295 -70.15158 lineto
30.3168 -70.18808 30.49962 -70.34071 30.61292 -70.43532 curveto
30.72716 -70.5307 30.88445 -70.66202 30.95549 -70.72166 curveto
31.29546 -71.00887 lineto
31.63542 -71.29866 lineto
31.9754 -71.59018 lineto
32.31537 -71.88431 lineto
32.65533 -72.18016 lineto
32.99532 -72.47774 lineto
33.08635 -72.5578 33.22203 -72.67778 33.33528 -72.77792 curveto
33.44867 -72.87819 33.5844 -72.99821 33.67525 -73.07896 curveto
34.01523 -73.3826 lineto
34.3552 -73.68797 lineto
34.46696 -73.78882 34.58194 -73.89316 34.69516 -73.99593 curveto
34.80853 -74.09882 34.9256 -74.20506 35.03514 -74.30476 curveto
35.3751 -74.61533 lineto
35.71767 -74.93106 lineto
36.05765 -75.24596 lineto
36.17102 -75.35086 36.34354 -75.51053 36.39761 -75.56084 curveto
36.73758 -75.87918 lineto
37.07755 -76.19925 lineto
37.19092 -76.30591 37.36298 -76.46777 37.41753 -76.51933 curveto
37.49872 -76.59607 37.64424 -76.73436 37.75749 -76.842 curveto
37.87088 -76.94977 38.01582 -77.08751 38.09746 -77.16553 curveto
38.11046 -77.17795 38.32413 -77.38293 38.43744 -77.49165 curveto
38.7774 -77.8178 lineto
39.11737 -78.14651 lineto
39.45735 -78.4761 lineto
39.79732 -78.80656 lineto
40.13728 -79.13875 lineto
40.2515 -79.25032 40.4408 -79.43523 40.47986 -79.47353 curveto
40.59235 -79.58383 40.70662 -79.6966 40.81982 -79.8083 curveto
40.93317 -79.92017 41.05112 -80.03654 41.15979 -80.14395 curveto
41.49977 -80.48045 lineto
41.83974 -80.81784 lineto
42.1797 -81.15608 lineto
42.18187 -81.15825 42.40636 -81.38272 42.51968 -81.49605 curveto
42.85965 -81.83601 lineto
43.19962 -82.17772 lineto
43.53958 -82.52028 lineto
43.65292 -82.63446 43.82771 -82.81053 43.87956 -82.86285 curveto
44.21953 -83.20628 lineto
44.33289 -83.32072 44.50636 -83.49583 44.5595 -83.54971 curveto
44.90207 -83.89833 lineto
45.24203 -84.2435 lineto
45.582 -84.58952 lineto
45.92198 -84.93642 lineto
46.03532 -85.05203 46.21458 -85.23488 46.26195 -85.2833 curveto
46.60191 -85.63106 lineto
46.9419 -85.97795 lineto
47.01437 -86.05205 47.16858 -86.21031 47.28186 -86.32657 curveto
47.36096 -86.40775 47.50848 -86.55899 47.62183 -86.67519 curveto
47.9618 -87.02382 lineto
48.07512 -87.14003 48.20688 -87.27516 48.30177 -87.37244 curveto
48.41512 -87.48862 48.56812 -87.64543 48.64174 -87.72105 curveto
48.9817 -88.07054 lineto
49.04813 -88.13876 49.20834 -88.30298 49.32169 -88.41916 curveto
49.66425 -88.77037 lineto
49.7776 -88.88655 49.92952 -89.04227 50.00421 -89.119 curveto
50.3442 -89.46849 lineto
50.68416 -89.81624 lineto
50.77596 -89.91017 50.91084 -90.04861 51.02412 -90.16486 curveto
51.3641 -90.51349 lineto
51.70407 -90.86124 lineto
52.04404 -91.20813 lineto
52.15733 -91.32379 52.32813 -91.49815 52.38402 -91.55502 curveto
52.72398 -91.90018 lineto
53.06395 -92.24622 lineto
53.40393 -92.59137 lineto
53.7439 -92.93567 lineto
53.85722 -93.05043 54.075 -93.271 54.08386 -93.27997 curveto
54.42644 -93.62599 lineto
54.7664 -93.96768 lineto
55.10637 -94.30852 lineto
55.21967 -94.42215 55.38858 -94.59157 55.44635 -94.64935 curveto
55.55467 -94.75769 55.67293 -94.8755 55.78632 -94.98846 curveto
55.89957 -95.10129 56.0174 -95.21869 56.12628 -95.3267 curveto
56.14882 -95.34908 56.35292 -95.55106 56.46625 -95.66322 curveto
56.80623 -95.99973 lineto
57.1462 -96.3345 lineto
57.48616 -96.66756 lineto
57.82614 -96.99974 lineto
58.1661 -97.3302 lineto
58.27939 -97.44038 58.46085 -97.6169 58.50607 -97.66064 curveto
58.6104 -97.76157 58.73259 -97.87878 58.84605 -97.98764 curveto
59.18861 -98.31638 lineto
59.52858 -98.64163 lineto
59.62709 -98.73537 59.75513 -98.8563 59.86856 -98.96344 curveto
59.98186 -99.07045 60.13431 -99.21445 60.20853 -99.28438 curveto
60.5485 -99.60359 lineto
60.88847 -99.92107 lineto
61.22844 -100.23682 lineto
61.5684 -100.54997 lineto
61.66443 -100.63799 61.79498 -100.75708 61.90839 -100.86052 curveto
62.02164 -100.96384 62.1522 -101.08293 62.24835 -101.17023 curveto
62.58832 -101.47733 lineto
62.92828 -101.78181 lineto
63.26826 -102.0846 lineto
63.60823 -102.38477 lineto
63.95079 -102.68495 lineto
64.29077 -102.97906 lineto
64.63074 -103.27147 lineto
64.9707 -103.56126 lineto
65.31068 -103.8476 lineto
65.31946 -103.85493 65.53732 -104.03676 65.65065 -104.13133 curveto
65.76384 -104.22578 65.90451 -104.34319 65.99062 -104.41422 curveto
66.3306 -104.6919 lineto
66.67056 -104.967 lineto
66.7748 -105.05078 66.89708 -105.14822 67.01053 -105.23862 curveto
67.12369 -105.32878 67.24345 -105.42421 67.35051 -105.50851 curveto
67.45354 -105.58965 67.57701 -105.68576 67.69048 -105.7741 curveto
67.80367 -105.86221 67.92795 -105.95895 68.03044 -106.03793 curveto
68.3704 -106.29745 lineto
68.71298 -106.55525 lineto
69.05295 -106.80698 lineto
69.39291 -107.05612 lineto
69.7329 -107.3018 lineto
70.07286 -107.54315 lineto
70.41283 -107.7819 lineto
70.51033 -107.84947 70.6393 -107.93732 70.7528 -108.01462 curveto
70.86604 -108.09174 71.00671 -108.18756 71.09277 -108.24559 curveto
71.43274 -108.47223 lineto
71.77272 -108.69455 lineto
72.11269 -108.91342 lineto
72.45265 -109.12535 lineto
72.79263 -109.3347 lineto
73.1326 -109.54059 lineto
73.47516 -109.74301 lineto
73.81514 -109.93852 lineto
74.1551 -110.13057 lineto
74.49507 -110.31828 lineto
74.59702 -110.37355 74.72157 -110.43968 74.83505 -110.49994 curveto
74.94818 -110.56001 75.07011 -110.62476 75.17502 -110.67902 curveto
75.51498 -110.85117 lineto
75.85495 -111.01898 lineto
76.19493 -111.18161 lineto
76.5349 -111.33992 lineto
76.87486 -111.49132 lineto
77.21484 -111.63837 lineto
77.55481 -111.77937 lineto
77.89478 -111.91692 lineto
78.23735 -112.04927 lineto
78.57732 -112.17471 lineto
78.91728 -112.29323 lineto
79.25726 -112.40741 lineto
79.59723 -112.51555 lineto
79.9372 -112.61763 lineto
80.27718 -112.71278 lineto
80.61714 -112.80362 lineto
80.9571 -112.88753 lineto
81.29709 -112.96625 lineto
81.63705 -113.03719 lineto
81.97702 -113.10207 lineto
82.31699 -113.16089 lineto
82.65697 -113.21365 lineto
82.99953 -113.25777 lineto
83.3395 -113.2967 lineto
83.67947 -113.32957 lineto
84.01944 -113.35379 lineto
84.3594 -113.37196 lineto
84.69939 -113.38234 lineto
85.03935 -113.3858 lineto
85.37932 -113.38234 lineto
85.7193 -113.3711 lineto
86.05927 -113.35294 lineto
86.39923 -113.32698 lineto
86.73921 -113.29324 lineto
87.07918 -113.25172 lineto
87.42174 -113.20328 lineto
87.76172 -113.14618 lineto
88.10168 -113.0813 lineto
88.44165 -113.00864 lineto
88.78162 -112.92732 lineto
89.1216 -112.83821 lineto
89.46156 -112.7396 lineto
89.80153 -112.6332 lineto
90.14151 -112.51987 lineto
90.48148 -112.39703 lineto
90.82144 -112.26468 lineto
91.16142 -112.12367 lineto
91.50139 -111.97488 lineto
91.84135 -111.81744 lineto
92.18393 -111.64702 lineto
92.5239 -111.47055 lineto
92.86386 -111.28543 lineto
93.20384 -111.08992 lineto
93.31781 -111.02322 93.43147 -110.95602 93.54381 -110.88663 curveto
93.65808 -110.81604 93.77094 -110.74321 93.88377 -110.67036 curveto
94.22375 -110.44804 lineto
94.56372 -110.21361 lineto
94.90369 -109.97052 lineto
95.24365 -109.7162 lineto
95.58363 -109.45322 lineto
95.9236 -109.17899 lineto
96.26357 -108.89612 lineto
96.60355 -108.60199 lineto
96.9461 -108.29663 lineto
97.28607 -107.98088 lineto
97.62605 -107.65475 lineto
97.96602 -107.31996 lineto
98.30598 -106.97221 lineto
98.64597 -106.61407 lineto
98.98593 -106.24382 lineto
99.3259 -105.86493 lineto
99.66588 -105.47392 lineto
100.00584 -105.07167 lineto
100.34581 -104.65643 lineto
100.68579 -104.23169 lineto
101.02576 -103.79483 lineto
101.36572 -103.34499 lineto
101.7083 -102.88045 lineto
102.04826 -102.409 lineto
102.38823 -101.92282 lineto
102.7282 -101.42628 lineto
103.06818 -100.91676 lineto
103.40814 -100.39598 lineto
103.74811 -99.86224 lineto
104.08809 -99.31639 lineto
104.42805 -98.75668 lineto
104.76802 -98.18488 lineto
105.108 -97.6001 lineto
105.44797 -97.00146 lineto
105.78793 -96.3916 lineto
106.12791 -95.76788 lineto
106.47047 -95.126 lineto
106.81044 -94.47548 lineto
107.15042 -93.80939 lineto
107.49039 -93.13116 lineto
107.83035 -92.43999 lineto
108.17032 -91.73323 lineto
108.5103 -91.01523 lineto
108.85027 -90.27992 lineto
109.19023 -89.53163 lineto
109.53021 -88.76952 lineto
109.87018 -87.99269 lineto
110.21014 -87.20201 lineto
110.55013 -86.39664 lineto
110.89009 -85.57655 lineto
111.23265 -84.73398 lineto
111.57263 -83.88362 lineto
111.9126 -83.0177 lineto
112.25256 -82.13705 lineto
112.59254 -81.24171 lineto
112.93251 -80.32994 lineto
113.27248 -79.40172 lineto
113.61246 -78.45967 lineto
113.95242 -77.50204 lineto
114.29239 -76.52625 lineto
114.63235 -75.53748 lineto
114.97234 -74.52795 lineto
115.3123 -73.5063 lineto
115.65227 -72.46736 lineto
115.99484 -71.40334 lineto
116.33481 -70.33066 lineto
116.67477 -69.24153 lineto
117.01476 -68.13512 lineto
117.35472 -67.0114 lineto
117.69469 -65.87297 lineto
118.03467 -64.71552 lineto
118.37463 -63.54248 lineto
118.7146 -62.34956 lineto
119.05458 -61.1402 lineto
119.39455 -59.91267 lineto
119.73451 -58.66785 lineto
120.0745 -57.40312 lineto
120.41446 -56.12196 lineto
120.75702 -54.81485 lineto
121.097 -53.49649 lineto
121.43697 -52.1591 lineto
121.77693 -50.80527 lineto
122.1169 -49.4324 lineto
122.45688 -48.03879 lineto
122.79684 -46.627 lineto
123.13681 -45.19878 lineto
123.47679 -43.74893 lineto
123.81676 -42.28006 lineto
124.15672 -40.79214 lineto
124.4967 -39.2852 lineto
124.83667 -37.75836 lineto
125.17664 -36.2125 lineto
125.51921 -34.63115 lineto
125.85918 -33.04375 lineto
126.19914 -31.43646 lineto
126.53912 -29.811 lineto
126.87909 -28.16046 lineto
127.21906 -26.49261 lineto
127.55904 -24.80315 lineto
127.899 -23.09291 lineto
128.23897 -21.36105 lineto
128.57893 -19.61102 lineto
128.91891 -17.8359 lineto
129.25888 -16.04004 lineto
129.59885 -14.2234 lineto
129.94142 -12.37303 lineto
130.28139 -10.5114 lineto
130.62135 -8.62903 lineto
130.96133 -6.72588 lineto
131.3013 -4.79938 lineto
131.64127 -2.85211 lineto
131.98125 -0.8815 lineto
132.32121 1.1142 lineto
132.66118 3.12894 lineto
133.00116 5.16704 lineto
133.34113 7.22935 lineto
133.68109 9.31589 lineto
134.02106 11.42145 lineto
134.36104 13.55298 lineto
134.7036 15.72775 lineto
135.04356 17.90685 lineto
135.38354 20.10843 lineto
135.72351 22.33424 lineto
136.06348 24.58429 lineto
136.40346 26.86028 lineto
136.74342 29.15875 lineto
137.08339 31.48317 lineto
137.42337 33.83183 lineto
137.76334 36.20644 lineto
138.1033 38.60439 lineto
138.44328 41.02744 lineto
138.78325 43.47557 lineto
139.12321 45.94966 lineto
139.46579 48.46786 lineto
139.80576 50.99213 lineto
140.14572 53.54494 lineto
140.4857 56.11937 lineto
140.82567 58.72235 lineto
141.16563 61.35127 lineto
141.5056 64.00876 lineto
141.84558 66.68959 lineto
142.18555 69.39725 lineto
142.52551 72.13258 lineto
142.8655 74.89388 lineto
143.20546 77.68457 lineto
143.54543 80.4995 lineto
143.8854 83.3447 lineto
144.22797 86.2366 lineto
144.56793 89.1363 lineto
144.90791 92.06367 lineto
145.24788 95.0196 lineto
145.58784 98.00148 lineto
145.92783 101.01277 lineto
146.26779 104.05089 lineto
146.60776 107.11754 lineto
146.94774 110.21707 lineto
147.2877 113.34082 lineto
147.62767 116.49571 lineto
147.96764 119.68088 lineto
148.30762 122.892 lineto
148.64758 126.13426 lineto
148.99014 129.4319 lineto
149.33012 132.73384 lineto
149.67009 136.06781 lineto
150.01006 139.42859 lineto
150.35004 142.82137 lineto
150.69 146.24443 lineto
151.02997 149.69604 lineto
151.36995 153.18053 lineto
151.70992 156.69615 lineto
152.04988 160.24292 lineto
152.38986 163.81822 lineto
152.72983 167.42728 lineto
153.0698 171.0666 lineto
153.40976 174.73535 lineto
153.75233 178.46811 lineto
154.0923 182.20346 lineto
154.43227 185.97081 lineto
154.77225 189.76932 lineto
155.11221 193.59982 lineto
155.45218 197.4658 lineto
155.79216 201.36378 lineto
156.13213 205.29378 lineto
156.47209 209.25577 lineto
156.81207 213.25064 lineto
157.15204 217.27925 lineto
157.492 221.3442 lineto
157.83199 225.4394 lineto
158.17195 229.5701 lineto
158.51451 233.76653 lineto
158.85449 237.96642 lineto
159.19446 242.20004 lineto
159.53442 246.4674 lineto
159.8744 250.76938 lineto
160.21437 255.10594 lineto
160.55434 259.47713 lineto
160.8943 263.88289 lineto
161.23428 268.3276 lineto
161.57425 272.80345 lineto
161.91422 277.31822 lineto
162.2542 281.8676 lineto
162.59416 286.45503 lineto
162.93413 291.07535 lineto
163.2767 295.76746 lineto
163.61667 300.4613 lineto
163.95663 305.19495 lineto
164.29662 309.96146 lineto
164.63658 314.7643 lineto
164.97655 319.60779 lineto
165.31653 324.49022 lineto
165.6565 329.40465 lineto
165.99646 334.35887 lineto
166.33644 339.35117 lineto
166.6764 344.38066 lineto
167.01637 349.44994 lineto
167.35634 354.55641 lineto
167.69632 359.69923 lineto
168.03888 364.92595 lineto
168.37885 370.14662 lineto
168.71883 375.40967 lineto
169.05879 380.70906 lineto
169.39876 386.05084 lineto
169.73874 391.43068 lineto
170.0787 396.85031 lineto stroke
 [0 2.5 ] 1.25 setdash
newpath -170.0787 396.85031 moveto
-169.73874 391.43068 lineto
-169.39876 386.05084 lineto
-169.05879 380.70906 lineto
-168.71883 375.40967 lineto
-168.37885 370.14662 lineto
-168.03888 364.92595 lineto
-167.69632 359.69923 lineto
-167.35634 354.55641 lineto
-167.01637 349.44994 lineto
-166.6764 344.38066 lineto
-166.33644 339.35117 lineto
-165.99646 334.35887 lineto
-165.6565 329.40465 lineto
-165.31653 324.49022 lineto
-164.97655 319.60779 lineto
-164.63658 314.7643 lineto
-164.29662 309.96146 lineto
-163.95663 305.19495 lineto
-163.61667 300.4613 lineto
-163.2767 295.76746 lineto
-162.93413 291.07535 lineto
-162.59416 286.45503 lineto
-162.2542 281.8676 lineto
-161.91422 277.31822 lineto
-161.57425 272.80345 lineto
-161.23428 268.3276 lineto
-160.8943 263.88289 lineto
-160.55434 259.47713 lineto
-160.21437 255.10594 lineto
-159.8744 250.76938 lineto
-159.53442 246.4674 lineto
-159.19446 242.20004 lineto
-158.85449 237.96642 lineto
-158.51451 233.76653 lineto
-158.17195 229.5701 lineto
-157.83199 225.4394 lineto
-157.492 221.3442 lineto
-157.15204 217.27925 lineto
-156.81207 213.25064 lineto
-156.47209 209.25577 lineto
-156.13213 205.29378 lineto
-155.79216 201.36378 lineto
-155.45218 197.4658 lineto
-155.11221 193.59982 lineto
-154.77225 189.76932 lineto
-154.43227 185.97081 lineto
-154.0923 182.20346 lineto
-153.75233 178.46811 lineto
-153.40976 174.73535 lineto
-153.0698 171.0666 lineto
-152.72983 167.42728 lineto
-152.38986 163.81822 lineto
-152.04988 160.24292 lineto
-151.70992 156.69615 lineto
-151.36995 153.18053 lineto
-151.02997 149.69604 lineto
-150.69 146.24443 lineto
-150.35004 142.82137 lineto
-150.01006 139.42859 lineto
-149.67009 136.06781 lineto
-149.33012 132.73384 lineto
-148.99014 129.4319 lineto
-148.64758 126.13426 lineto
-148.30762 122.892 lineto
-147.96764 119.68088 lineto
-147.62767 116.49571 lineto
-147.2877 113.34082 lineto
-146.94774 110.21707 lineto
-146.60776 107.11754 lineto
-146.26779 104.05089 lineto
-145.92783 101.01277 lineto
-145.58784 98.00148 lineto
-145.24788 95.0196 lineto
-144.90791 92.06367 lineto
-144.56793 89.1363 lineto
-144.22797 86.2366 lineto
-143.8854 83.3447 lineto
-143.54543 80.4995 lineto
-143.20546 77.68457 lineto
-142.8655 74.89388 lineto
-142.52551 72.13258 lineto
-142.18555 69.39725 lineto
-141.84558 66.68959 lineto
-141.5056 64.00876 lineto
-141.16563 61.35127 lineto
-140.82567 58.72235 lineto
-140.4857 56.11937 lineto
-140.14572 53.54494 lineto
-139.80576 50.99213 lineto
-139.46579 48.46786 lineto
-139.12321 45.94966 lineto
-138.78325 43.47557 lineto
-138.44328 41.02744 lineto
-138.1033 38.60439 lineto
-137.76334 36.20644 lineto
-137.42337 33.83183 lineto
-137.08339 31.48317 lineto
-136.74342 29.15875 lineto
-136.40346 26.86028 lineto
-136.06348 24.58429 lineto
-135.72351 22.33424 lineto
-135.38354 20.10843 lineto
-135.04356 17.90685 lineto
-134.7036 15.72775 lineto
-134.36104 13.55298 lineto
-134.02106 11.42145 lineto
-133.68109 9.31589 lineto
-133.34113 7.22935 lineto
-133.00116 5.16704 lineto
-132.66118 3.12894 lineto
-132.32121 1.1142 lineto
-131.98125 -0.8815 lineto
-131.64127 -2.85211 lineto
-131.3013 -4.79938 lineto
-130.96133 -6.72588 lineto
-130.62135 -8.62903 lineto
-130.28139 -10.5114 lineto
-129.94142 -12.37303 lineto
-129.59885 -14.2234 lineto
-129.25888 -16.04004 lineto
-128.91891 -17.8359 lineto
-128.57893 -19.61102 lineto
-128.23897 -21.36105 lineto
-127.899 -23.09291 lineto
-127.55904 -24.80315 lineto
-127.21906 -26.49261 lineto
-126.87909 -28.16046 lineto
-126.53912 -29.811 lineto
-126.19914 -31.43646 lineto
-125.85918 -33.04375 lineto
-125.51921 -34.63115 lineto
-125.17664 -36.2125 lineto
-124.83667 -37.75836 lineto
-124.4967 -39.2852 lineto
-124.15672 -40.79214 lineto
-123.81676 -42.28006 lineto
-123.47679 -43.74893 lineto
-123.13681 -45.19878 lineto
-122.79684 -46.627 lineto
-122.45688 -48.03879 lineto
-122.1169 -49.4324 lineto
-121.77693 -50.80527 lineto
-121.43697 -52.1591 lineto
-121.097 -53.49649 lineto
-120.75702 -54.81485 lineto
-120.41446 -56.12196 lineto
-120.0745 -57.40312 lineto
-119.73451 -58.66785 lineto
-119.39455 -59.91267 lineto
-119.05458 -61.1402 lineto
-118.7146 -62.34956 lineto
-118.37463 -63.54248 lineto
-118.03467 -64.71552 lineto
-117.69469 -65.87297 lineto
-117.35472 -67.0114 lineto
-117.01476 -68.13512 lineto
-116.67477 -69.24153 lineto
-116.33481 -70.33066 lineto
-115.99484 -71.40334 lineto
-115.65227 -72.46736 lineto
-115.3123 -73.5063 lineto
-114.97234 -74.52795 lineto
-114.63235 -75.53748 lineto
-114.29239 -76.52625 lineto
-113.95242 -77.50204 lineto
-113.61246 -78.45967 lineto
-113.27248 -79.40172 lineto
-112.93251 -80.32994 lineto
-112.59254 -81.24171 lineto
-112.25256 -82.13705 lineto
-111.9126 -83.0177 lineto
-111.57263 -83.88362 lineto
-111.23265 -84.73398 lineto
-110.89009 -85.57655 lineto
-110.55013 -86.39664 lineto
-110.21014 -87.20201 lineto
-109.87018 -87.99269 lineto
-109.53021 -88.76952 lineto
-109.19023 -89.53163 lineto
-108.85027 -90.27992 lineto
-108.5103 -91.01523 lineto
-108.17032 -91.73323 lineto
-107.83035 -92.43999 lineto
-107.49039 -93.13116 lineto
-107.15042 -93.80939 lineto
-106.81044 -94.47548 lineto
-106.47047 -95.126 lineto
-106.12791 -95.76788 lineto
-105.78793 -96.3916 lineto
-105.44797 -97.00146 lineto
-105.108 -97.6001 lineto
-104.76802 -98.18488 lineto
-104.42805 -98.75668 lineto
-104.08809 -99.31639 lineto
-103.74811 -99.86224 lineto
-103.40814 -100.39598 lineto
-103.06818 -100.91676 lineto
-102.7282 -101.42628 lineto
-102.38823 -101.92282 lineto
-102.04826 -102.409 lineto
-101.7083 -102.88045 lineto
-101.36572 -103.34499 lineto
-101.02576 -103.79483 lineto
-100.68579 -104.23169 lineto
-100.34581 -104.65643 lineto
-100.00584 -105.07167 lineto
-99.66588 -105.47392 lineto
-99.3259 -105.86493 lineto
-98.98593 -106.24382 lineto
-98.64597 -106.61407 lineto
-98.30598 -106.97221 lineto
-97.96602 -107.31996 lineto
-97.62605 -107.65475 lineto
-97.28607 -107.98088 lineto
-96.9461 -108.29663 lineto
-96.60355 -108.60199 lineto
-96.26357 -108.89612 lineto
-95.9236 -109.17899 lineto
-95.58363 -109.45322 lineto
-95.24365 -109.7162 lineto
-94.90369 -109.97052 lineto
-94.56372 -110.21361 lineto
-94.22375 -110.44804 lineto
-93.88377 -110.67036 lineto
-93.77094 -110.74321 -93.65808 -110.81604 -93.54381 -110.88663 curveto
-93.43147 -110.95602 -93.31781 -111.02322 -93.20384 -111.08992 curveto
-92.86386 -111.28543 lineto
-92.5239 -111.47055 lineto
-92.18393 -111.64702 lineto
-91.84135 -111.81744 lineto
-91.50139 -111.97488 lineto
-91.16142 -112.12367 lineto
-90.82144 -112.26468 lineto
-90.48148 -112.39703 lineto
-90.14151 -112.51987 lineto
-89.80153 -112.6332 lineto
-89.46156 -112.7396 lineto
-89.1216 -112.83821 lineto
-88.78162 -112.92732 lineto
-88.44165 -113.00864 lineto
-88.10168 -113.0813 lineto
-87.76172 -113.14618 lineto
-87.42174 -113.20328 lineto
-87.07918 -113.25172 lineto
-86.73921 -113.29324 lineto
-86.39923 -113.32698 lineto
-86.05927 -113.35294 lineto
-85.7193 -113.3711 lineto
-85.37932 -113.38234 lineto
-85.03935 -113.3858 lineto
-84.69939 -113.38234 lineto
-84.3594 -113.37196 lineto
-84.01944 -113.35379 lineto
-83.67947 -113.32957 lineto
-83.3395 -113.2967 lineto
-82.99953 -113.25777 lineto
-82.65697 -113.21365 lineto
-82.31699 -113.16089 lineto
-81.97702 -113.10207 lineto
-81.63705 -113.03719 lineto
-81.29709 -112.96625 lineto
-80.9571 -112.88753 lineto
-80.61714 -112.80362 lineto
-80.27718 -112.71278 lineto
-79.9372 -112.61763 lineto
-79.59723 -112.51555 lineto
-79.25726 -112.40741 lineto
-78.91728 -112.29323 lineto
-78.57732 -112.17471 lineto
-78.23735 -112.04927 lineto
-77.89478 -111.91692 lineto
-77.55481 -111.77937 lineto
-77.21484 -111.63837 lineto
-76.87486 -111.49132 lineto
-76.5349 -111.33992 lineto
-76.19493 -111.18161 lineto
-75.85495 -111.01898 lineto
-75.51498 -110.85117 lineto
-75.17502 -110.67902 lineto
-75.07019 -110.62479 -74.94818 -110.56001 -74.83505 -110.49994 curveto
-74.72157 -110.43968 -74.5969 -110.37347 -74.49507 -110.31828 curveto
-74.1551 -110.13057 lineto
-73.81514 -109.93852 lineto
-73.47516 -109.74301 lineto
-73.1326 -109.54059 lineto
-72.79263 -109.3347 lineto
-72.45265 -109.12535 lineto
-72.11269 -108.91342 lineto
-71.77272 -108.69455 lineto
-71.43274 -108.47223 lineto
-71.09277 -108.24559 lineto
-71.00677 -108.18759 -70.86604 -108.09174 -70.7528 -108.01462 curveto
-70.6393 -107.93732 -70.5103 -107.84946 -70.41283 -107.7819 curveto
-70.07286 -107.54315 lineto
-69.7329 -107.3018 lineto
-69.39291 -107.05612 lineto
-69.05295 -106.80698 lineto
-68.71298 -106.55525 lineto
-68.3704 -106.29745 lineto
-68.03044 -106.03793 lineto
-67.928 -105.959 -67.80367 -105.86221 -67.69048 -105.7741 curveto
-67.57701 -105.68576 -67.45348 -105.5896 -67.35051 -105.50851 curveto
-67.24338 -105.42415 -67.12369 -105.32878 -67.01053 -105.23862 curveto
-66.8971 -105.14822 -66.77486 -105.05083 -66.67056 -104.967 curveto
-66.3306 -104.6919 lineto
-65.99062 -104.41422 lineto
-65.90459 -104.34325 -65.76384 -104.22578 -65.65065 -104.13133 curveto
-65.53732 -104.03676 -65.31958 -103.85504 -65.31068 -103.8476 curveto
-64.9707 -103.56126 lineto
-64.63074 -103.27147 lineto
-64.29077 -102.97906 lineto
-63.95079 -102.68495 lineto
-63.60823 -102.38477 lineto
-63.26826 -102.0846 lineto
-62.92828 -101.78181 lineto
-62.58832 -101.47733 lineto
-62.24835 -101.17023 lineto
-62.15193 -101.08269 -62.02164 -100.96384 -61.90839 -100.86052 curveto
-61.79498 -100.75708 -61.66466 -100.63818 -61.5684 -100.54997 curveto
-61.22844 -100.23682 lineto
-60.88847 -99.92107 lineto
-60.5485 -99.60359 lineto
-60.20853 -99.28438 lineto
-60.1347 -99.21483 -59.98186 -99.07045 -59.86856 -98.96344 curveto
-59.75513 -98.8563 -59.62704 -98.73532 -59.52858 -98.64163 curveto
-59.18861 -98.31638 lineto
-58.84605 -97.98764 lineto
-58.73259 -97.87878 -58.61081 -97.76196 -58.50607 -97.66064 curveto
-58.46123 -97.61726 -58.27939 -97.44038 -58.1661 -97.3302 curveto
-57.82614 -96.99974 lineto
-57.48616 -96.66756 lineto
-57.1462 -96.3345 lineto
-56.80623 -95.99973 lineto
-56.46625 -95.66322 lineto
-56.35292 -95.55106 -56.15042 -95.35066 -56.12628 -95.3267 curveto
-56.01807 -95.21935 -55.89957 -95.10129 -55.78632 -94.98846 curveto
-55.67293 -94.8755 -55.55399 -94.757 -55.44635 -94.64935 curveto
-55.38828 -94.59126 -55.21967 -94.42215 -55.10637 -94.30852 curveto
-54.7664 -93.96768 lineto
-54.42644 -93.62599 lineto
-54.08386 -93.27997 lineto
-54.07684 -93.27287 -53.85722 -93.05043 -53.7439 -92.93567 curveto
-53.40393 -92.59137 lineto
-53.06395 -92.24622 lineto
-52.72398 -91.90018 lineto
-52.38402 -91.55502 lineto
-52.32799 -91.49802 -52.15733 -91.32379 -52.04404 -91.20813 curveto
-51.70407 -90.86124 lineto
-51.3641 -90.51349 lineto
-51.02412 -90.16486 lineto
-50.91084 -90.0486 -50.7766 -89.91083 -50.68416 -89.81624 curveto
-50.3442 -89.46849 lineto
-50.00421 -89.119 lineto
-49.92953 -89.04228 -49.7776 -88.88655 -49.66425 -88.77037 curveto
-49.32169 -88.41916 lineto
-49.20834 -88.30298 -49.04813 -88.13875 -48.9817 -88.07054 curveto
-48.64174 -87.72105 lineto
-48.56807 -87.6454 -48.41512 -87.48862 -48.30177 -87.37244 curveto
-48.2064 -87.27469 -48.07512 -87.14003 -47.9618 -87.02382 curveto
-47.62183 -86.67519 lineto
-47.50848 -86.55899 -47.36081 -86.4076 -47.28186 -86.32657 curveto
-47.16858 -86.21031 -47.01436 -86.05205 -46.9419 -85.97795 curveto
-46.60191 -85.63106 lineto
-46.26195 -85.2833 lineto
-46.21439 -85.23468 -46.03532 -85.05203 -45.92198 -84.93642 curveto
-45.582 -84.58952 lineto
-45.24203 -84.2435 lineto
-44.90207 -83.89833 lineto
-44.5595 -83.54971 lineto
-44.50645 -83.49593 -44.33289 -83.32072 -44.21953 -83.20628 curveto
-43.87956 -82.86285 lineto
-43.82683 -82.80963 -43.65292 -82.63446 -43.53958 -82.52028 curveto
-43.19962 -82.17772 lineto
-42.85965 -81.83601 lineto
-42.85904 -81.8354 -42.63301 -81.60938 -42.51968 -81.49605 curveto
-42.40636 -81.38272 -42.18898 -81.16533 -42.1797 -81.15608 curveto
-41.83974 -80.81784 lineto
-41.49977 -80.48045 lineto
-41.15979 -80.14395 lineto
-41.0507 -80.03615 -40.93317 -79.92017 -40.81982 -79.8083 curveto
-40.70662 -79.6966 -40.59244 -79.58391 -40.47986 -79.47353 curveto
-40.4437 -79.43806 -40.2515 -79.25032 -40.13728 -79.13875 curveto
-39.79732 -78.80656 lineto
-39.45735 -78.4761 lineto
-39.11737 -78.14651 lineto
-38.7774 -77.8178 lineto
-38.43744 -77.49165 lineto
-38.32413 -77.38293 -38.11043 -77.17792 -38.09746 -77.16553 curveto
-38.01456 -77.08629 -37.8709 -76.94977 -37.75749 -76.842 curveto
-37.64424 -76.73436 -37.50035 -76.59761 -37.41753 -76.51933 curveto
-37.36345 -76.46822 -37.19092 -76.30591 -37.07755 -76.19925 curveto
-36.73758 -75.87918 lineto
-36.39761 -75.56084 lineto
-36.34383 -75.51079 -36.17102 -75.35086 -36.05765 -75.24596 curveto
-35.71767 -74.93106 lineto
-35.3751 -74.61533 lineto
-35.03514 -74.30476 lineto
-34.92628 -74.20569 -34.80853 -74.09882 -34.69516 -73.99593 curveto
-34.58194 -73.89316 -34.46658 -73.78847 -34.3552 -73.68797 curveto
-34.01523 -73.3826 lineto
-33.67525 -73.07896 lineto
-33.58409 -72.99794 -33.44867 -72.87819 -33.33528 -72.77792 curveto
-33.22203 -72.67778 -33.08678 -72.55818 -32.99532 -72.47774 curveto
-32.65533 -72.18016 lineto
-32.31537 -71.88431 lineto
-31.9754 -71.59018 lineto
-31.63542 -71.29866 lineto
-31.29546 -71.00887 lineto
-30.95549 -70.72166 lineto
-30.88383 -70.66151 -30.72716 -70.5307 -30.61292 -70.43532 curveto
-30.49962 -70.34071 -30.31685 -70.18811 -30.27295 -70.15158 curveto
-29.93298 -69.87044 lineto
-29.86156 -69.81181 -29.70639 -69.68524 -29.593 -69.59276 curveto
-29.47975 -69.50038 -29.3315 -69.37946 -29.25304 -69.31593 curveto
-28.91307 -69.04257 lineto
-28.5731 -68.77094 lineto
-28.23312 -68.5019 lineto
-27.89316 -68.23546 lineto
-27.55319 -67.97162 lineto
-27.21321 -67.7095 lineto
-26.87325 -67.44998 lineto
-26.53328 -67.19392 lineto
-26.1933 -66.93959 lineto
-25.85074 -66.68613 lineto
-25.51077 -66.43787 lineto
-25.17079 -66.19131 lineto
-24.83083 -65.94737 lineto
-24.49086 -65.70688 lineto
-24.15088 -65.46898 lineto
-23.81091 -65.23369 lineto
-23.74246 -65.18672 -23.58432 -65.07904 -23.47095 -65.00185 curveto
-23.3577 -64.92474 -23.20857 -64.82321 -23.13097 -64.77087 curveto
-22.791 -64.54424 lineto
-22.72456 -64.5004 -22.56439 -64.39537 -22.45103 -64.32104 curveto
-22.3378 -64.2468 -22.19678 -64.15433 -22.11107 -64.09872 curveto
-21.77109 -63.88072 lineto
-21.43112 -63.66618 lineto
-21.08856 -63.45166 lineto
-20.74858 -63.24231 lineto
-20.40862 -63.03555 lineto
-20.2968 -62.96817 -20.18208 -62.89984 -20.06865 -62.83228 curveto
-19.72867 -62.6307 lineto
-19.3887 -62.43347 lineto
-19.04874 -62.2397 lineto
-18.70876 -62.04765 lineto
-18.36879 -61.85907 lineto
-18.02882 -61.67395 lineto
-17.68884 -61.49228 lineto
-17.34888 -61.31322 lineto
-17.2423 -61.2578 -17.12236 -61.19647 -17.00891 -61.13847 curveto
-16.89569 -61.0806 -16.77507 -61.01892 -16.66895 -60.96545 curveto
-16.32637 -60.79504 lineto
-15.9864 -60.62895 lineto
-15.64644 -60.46631 lineto
-15.30646 -60.30627 lineto
-14.96649 -60.15057 lineto
-14.62653 -59.99832 lineto
-14.28654 -59.8478 lineto
-13.94658 -59.7016 lineto
-13.60661 -59.55887 lineto
-13.26663 -59.41872 lineto
-13.17189 -59.38033 -13.04007 -59.32796 -12.92667 -59.28291 curveto
-12.81345 -59.23795 -12.68501 -59.18692 -12.5867 -59.14882 curveto
-12.24672 -59.01993 lineto
-11.90675 -58.89449 lineto
-11.5642 -58.77078 lineto
-11.22421 -58.65054 lineto
-10.88425 -58.53462 lineto
-10.78897 -58.50287 -10.65767 -58.46004 -10.54428 -58.42303 curveto
-10.43106 -58.3861 -10.30583 -58.34525 -10.2043 -58.31317 curveto
-9.86433 -58.2085 lineto
-9.52437 -58.10641 lineto
-9.1844 -58.0078 lineto
-8.84442 -57.91264 lineto
-8.50446 -57.82095 lineto
-8.16449 -57.73271 lineto
-7.82451 -57.6488 lineto
-7.48454 -57.56749 lineto
-7.14458 -57.4905 lineto
-6.802 -57.41609 lineto
-6.46204 -57.34602 lineto
-6.12207 -57.27855 lineto
-5.78209 -57.21626 lineto
-5.44212 -57.15657 lineto
-5.10216 -57.10034 lineto
-4.76218 -57.04758 lineto
-4.42221 -56.99913 lineto
-4.08224 -56.95415 lineto
-3.74226 -56.91263 lineto
-3.4023 -56.87457 lineto
-3.06233 -56.83997 lineto
-2.72237 -56.80882 lineto
-2.38239 -56.782 lineto
-2.03983 -56.75778 lineto
-1.69986 -56.73788 lineto
-1.35988 -56.72232 lineto
-1.01991 -56.70934 lineto
-0.67995 -56.69983 lineto
-0.33997 -56.69463 lineto
0 -56.6929 lineto stroke
 1 1 1 setrgbcolor 0.49814
 0 dtransform exch truncate exch idtransform pop setlinewidth [] 0 setdash
newpath -42.51968 0 moveto
-42.51968 -81.49605 lineto stroke
 0 0.49814 dtransform truncate idtransform setlinewidth pop
newpath -44.05061 -77.80014 moveto
-42.51968 -81.49605 lineto
-40.98875 -77.80014 lineto
 closepath
gsave fill grestore stroke
newpath -42.51968 -81.49605 moveto
0 -81.49605 lineto stroke
newpath -3.69536 -83.02675 moveto
0 -81.49605 lineto
-3.69536 -79.96535 lineto
 closepath
gsave fill grestore stroke
newpath 42.51968 -81.49605 moveto
0 -81.49605 lineto stroke
newpath 3.69536 -79.96535 moveto
0 -81.49605 lineto
3.69536 -83.02675 lineto
 closepath
gsave fill grestore stroke
 0.49814 0 dtransform exch truncate exch idtransform pop setlinewidth
newpath 42.51968 0 moveto
42.51968 -81.49605 lineto stroke
 0 0.49814 dtransform truncate idtransform setlinewidth pop
newpath 40.98875 -77.80014 moveto
42.51968 -81.49605 lineto
44.05061 -77.80014 lineto
 closepath
gsave fill grestore stroke
-48.90573 5.8269 moveto
(-) eufm10 9.96265 fshow
-41.37404 5.8269 moveto
(x) eurm10 9.96265 fshow
 0 3 dtransform truncate idtransform setlinewidth pop
newpath -42.51968 0 moveto 0 0 rlineto stroke
39.89954 5 moveto
(x) eurm10 9.96265 fshow
newpath 42.51968 0 moveto 0 0 rlineto stroke
-28.20729 -92.46303 moveto
(f) eurm10 9.96265 fshow
-24.023 -92.46303 moveto
(\() eufm10 9.96265 fshow
-20.14749 -92.46303 moveto
(-) eufm10 9.96265 fshow
-12.61578 -92.46303 moveto
(x) eurm10 9.96265 fshow
-7.3754 -92.46303 moveto
(\)) eufm10 9.96265 fshow
newpath 0 -81.49605 moveto 0 0 rlineto stroke
3.49998 -92.46303 moveto
(f) eurm10 9.96265 fshow
7.68428 -92.46303 moveto
(\() eufm10 9.96265 fshow
11.55978 -92.46303 moveto
(x) eurm10 9.96265 fshow
16.80008 -92.46303 moveto
(\)) eufm10 9.96265 fshow
newpath 0 -81.49605 moveto 0 0 rlineto stroke
grestore
grestore
grestore
grestore
grestore
showpage
%%EOF
