%!PS
%%BoundingBox: -120 -120 120 120 
%%HiResBoundingBox: -119.3048 -119.3048 119.3048 119.3048 
%%Creator: MetaPost 2.02
%%CreationDate: 2024.01.06:1112
%%Pages: 1
%*Font: cmr10 9.96265 9.96265 2c:ae4
%*Font: cmr7 6.97385 6.97385 31:fc
%*Font: eufm10 9.96265 9.96265 2b:a
%*Font: eurm10 9.96265 9.96265 19:8
%*Font: eurm7 6.97385 6.97385 19:8
%%BeginProlog
%%EndProlog
%%Page: 1 1
 1 1 1 setrgbcolor 0 0.5 dtransform truncate idtransform setlinewidth pop
 [] 0 setdash 1 setlinecap 1 setlinejoin 10 setmiterlimit
newpath -119.0548 0 moveto
119.0548 0 lineto stroke
newpath 115.3591 -1.53084 moveto
119.0548 0 lineto
115.3591 1.53084 lineto
 closepath
gsave fill grestore stroke
 0.5 0 dtransform exch truncate exch idtransform pop setlinewidth
newpath 0 -119.0548 moveto
0 119.0548 lineto stroke
 0 0.5 dtransform truncate idtransform setlinewidth pop
newpath 1.53084 115.3591 moveto
0 119.0548 lineto
-1.53084 115.3591 lineto
 closepath
gsave fill grestore stroke
 1 0.7 0.7 setrgbcolor 0 1.3 dtransform truncate idtransform setlinewidth pop
newpath 99.21259 0 moveto
99.21259 26.31398 88.75784 51.54707 70.15245 70.15245 curveto
51.54707 88.75784 26.31398 99.21259 0 99.21259 curveto
-26.31398 99.21259 -51.54707 88.75784 -70.15245 70.15245 curveto
-88.75784 51.54707 -99.21259 26.31398 -99.21259 0 curveto
-99.21259 -26.31398 -88.75784 -51.54707 -70.15245 -70.15245 curveto
-51.54707 -88.75784 -26.31398 -99.21259 0 -99.21259 curveto
26.31398 -99.21259 51.54707 -88.75784 70.15245 -70.15245 curveto
88.75784 -51.54707 99.21259 -26.31398 99.21259 0 curveto closepath stroke
 0 0.5 dtransform truncate idtransform setlinewidth pop
 [3 3 ] 0 setdash
newpath 49.6063 85.92085 moveto
0 0 lineto stroke
newpath -49.6067 85.92087 moveto
0 0 lineto stroke
newpath -99.213 0 moveto
0 0 lineto stroke
newpath -49.6063 -85.92085 moveto
0 0 lineto stroke
newpath 49.6067 -85.92087 moveto
0 0 lineto stroke
newpath 99.213 0 moveto
0 0 lineto stroke
 1 1 1 setrgbcolor
102.71257 -9.92038 moveto
(0) cmr10 9.96265 fshow
 0 3 dtransform truncate idtransform setlinewidth pop [] 0 setdash
newpath 99.21259 0 moveto 0 0 rlineto stroke
-108.77977 -8.07278 moveto
(\031) eurm10 9.96265 fshow
newpath -99.21259 0 moveto 0 0 rlineto stroke
 1 0.7 0.7 setrgbcolor
54.30177 96.78323 moveto
(\031) eurm7 6.97385 fshow
 0 0.3985 dtransform truncate idtransform setlinewidth pop 0 setlinecap
newpath 54.30177 95.41833 moveto
59.52518 95.41833 lineto stroke
54.92787 89.42084 moveto
(3) cmr7 6.97385 fshow
-63.49648 96.78323 moveto
(2) cmr7 6.97385 fshow
-59.52518 96.78323 moveto
(\031) eurm7 6.97385 fshow
newpath -63.49648 95.41833 moveto
-54.30177 95.41833 lineto stroke
-60.88477 89.42084 moveto
(3) cmr7 6.97385 fshow
-72.22368 -97.84033 moveto
(-) eufm10 9.96265 fshow
-63.49638 -93.91504 moveto
(2) cmr7 6.97385 fshow
-59.52518 -93.91504 moveto
(\031) eurm7 6.97385 fshow
newpath -63.49638 -95.27994 moveto
-54.30177 -95.27994 lineto stroke
-60.88467 -101.27744 moveto
(3) cmr7 6.97385 fshow
53.10628 -96.55403 moveto
(-) eufm10 9.96265 fshow
61.83357 -92.62874 moveto
(\031) eurm7 6.97385 fshow
newpath 61.83357 -93.99364 moveto
67.05698 -93.99364 lineto stroke
62.45958 -99.99113 moveto
(3) cmr7 6.97385 fshow
 1 0.5 0 setrgbcolor 0 0.5 dtransform truncate idtransform setlinewidth pop
 [3 3 ] 0 setdash 1 setlinecap
newpath 85.92085 49.6063 moveto
0 0 lineto stroke
 0.5 0 dtransform exch truncate exch idtransform pop setlinewidth
newpath 0 99.213 moveto
0 0 lineto stroke
 0 0.5 dtransform truncate idtransform setlinewidth pop
newpath -85.92087 49.6067 moveto
0 0 lineto stroke
newpath -85.92085 -49.6063 moveto
0 0 lineto stroke
 0.5 0 dtransform exch truncate exch idtransform pop setlinewidth
newpath 0 -99.213 moveto
0 0 lineto stroke
 0 0.5 dtransform truncate idtransform setlinewidth pop
newpath 85.92087 -49.6067 moveto
0 0 lineto stroke
90.61633 60.46867 moveto
(\031) eurm7 6.97385 fshow
 0 0.3985 dtransform truncate idtransform setlinewidth pop [] 0 setdash
 0 setlinecap
newpath 90.61633 59.10378 moveto
95.83974 59.10378 lineto stroke
91.24243 53.10628 moveto
(6) cmr7 6.97385 fshow
 1 1 1 setrgbcolor
4.69548 110.07538 moveto
(\031) eurm7 6.97385 fshow
newpath 4.69548 108.71048 moveto
9.91888 108.71048 lineto stroke
5.32158 102.71298 moveto
(2) cmr7 6.97385 fshow
 0 3 dtransform truncate idtransform setlinewidth pop 1 setlinecap
newpath 0 99.213 moveto 0 0 rlineto stroke
 1 0.5 0 setrgbcolor
-99.81105 60.46909 moveto
(5) cmr7 6.97385 fshow
-95.83975 60.46909 moveto
(\031) eurm7 6.97385 fshow
 0 0.3985 dtransform truncate idtransform setlinewidth pop 0 setlinecap
newpath -99.81105 59.10419 moveto
-90.61635 59.10419 lineto stroke
-97.19934 53.10669 moveto
(6) cmr7 6.97385 fshow
-108.53824 -61.52577 moveto
(-) eufm10 9.96265 fshow
-99.81094 -57.60048 moveto
(5) cmr7 6.97385 fshow
-95.83974 -57.60048 moveto
(\031) eurm7 6.97385 fshow
newpath -99.81094 -58.96538 moveto
-90.61633 -58.96538 lineto stroke
-97.19923 -64.96288 moveto
(6) cmr7 6.97385 fshow
-18.64618 -109.84618 moveto
(-) eufm10 9.96265 fshow
-9.91888 -105.92088 moveto
(\031) eurm7 6.97385 fshow
newpath -9.91888 -107.28578 moveto
-4.69548 -107.28578 lineto stroke
-9.29288 -113.28328 moveto
(2) cmr7 6.97385 fshow
89.42085 -60.23988 moveto
(-) eufm10 9.96265 fshow
98.14815 -56.31459 moveto
(\031) eurm7 6.97385 fshow
newpath 98.14815 -57.67949 moveto
103.37155 -57.67949 lineto stroke
98.77415 -63.67699 moveto
(6) cmr7 6.97385 fshow
 0 1 1 setrgbcolor 0 0.5 dtransform truncate idtransform setlinewidth pop
 [3 3 ] 0 setdash 1 setlinecap
newpath 70.15396 70.15396 moveto
0 0 lineto stroke
newpath -70.15396 70.15396 moveto
0 0 lineto stroke
newpath -70.15396 -70.15396 moveto
0 0 lineto stroke
newpath 70.15396 -70.15396 moveto
0 0 lineto stroke
74.84944 81.01634 moveto
(\031) eurm7 6.97385 fshow
 0 0.3985 dtransform truncate idtransform setlinewidth pop [] 0 setdash
 0 setlinecap
newpath 74.84944 79.65144 moveto
80.07285 79.65144 lineto stroke
75.47554 73.65395 moveto
(4) cmr7 6.97385 fshow
 1 1 1 setrgbcolor
4.69548 110.07497 moveto
(\031) eurm7 6.97385 fshow
newpath 4.69548 108.71007 moveto
9.91888 108.71007 lineto stroke
5.32158 102.71257 moveto
(2) cmr7 6.97385 fshow
 0 3 dtransform truncate idtransform setlinewidth pop 1 setlinecap
newpath 0 99.21259 moveto 0 0 rlineto stroke
 0 1 1 setrgbcolor
-84.04414 81.01634 moveto
(3) cmr7 6.97385 fshow
-80.07285 81.01634 moveto
(\031) eurm7 6.97385 fshow
 0 0.3985 dtransform truncate idtransform setlinewidth pop 0 setlinecap
newpath -84.04414 79.65144 moveto
-74.84944 79.65144 lineto stroke
-81.43243 73.65395 moveto
(4) cmr7 6.97385 fshow
 1 1 1 setrgbcolor
-108.77977 -8.07278 moveto
(\031) eurm10 9.96265 fshow
 0 3 dtransform truncate idtransform setlinewidth pop 1 setlinecap
newpath -99.21259 0 moveto 0 0 rlineto stroke
 0 1 1 setrgbcolor
-92.77135 -82.07344 moveto
(-) eufm10 9.96265 fshow
-84.04405 -78.14815 moveto
(3) cmr7 6.97385 fshow
-80.07285 -78.14815 moveto
(\031) eurm7 6.97385 fshow
 0 0.3985 dtransform truncate idtransform setlinewidth pop 0 setlinecap
newpath -84.04405 -79.51305 moveto
-74.84944 -79.51305 lineto stroke
-81.43234 -85.51054 moveto
(4) cmr7 6.97385 fshow
 1 1 1 setrgbcolor
-18.64618 -109.84576 moveto
(-) eufm10 9.96265 fshow
-9.91888 -105.92047 moveto
(\031) eurm7 6.97385 fshow
newpath -9.91888 -107.28537 moveto
-4.69548 -107.28537 lineto stroke
-9.29288 -113.28287 moveto
(2) cmr7 6.97385 fshow
 0 1 1 setrgbcolor
73.65395 -80.78714 moveto
(-) eufm10 9.96265 fshow
82.38124 -76.86185 moveto
(\031) eurm7 6.97385 fshow
newpath 82.38124 -78.22675 moveto
87.60464 -78.22675 lineto stroke
83.00725 -84.22424 moveto
(4) cmr7 6.97385 fshow
showpage
%%EOF
