<?xml version="1.0" encoding="UTF-8"?>
<svg xmlns="http://www.w3.org/2000/svg" xmlns:xlink="http://www.w3.org/1999/xlink" width="403.0699pt" height="153.0715pt" viewBox="0 0 403.0699 153.0715" version="1.1">
<defs>
<g>
<symbol overflow="visible" id="glyph0-0">
<path style="stroke:none;" d=""/>
</symbol>
<symbol overflow="visible" id="glyph0-1">
<path style="stroke:none;" d="M 3.328125 -3.015625 C 3.390625 -3.265625 3.625 -4.1875 4.3125 -4.1875 C 4.359375 -4.1875 4.609375 -4.1875 4.8125 -4.0625 C 4.53125 -4 4.34375 -3.765625 4.34375 -3.515625 C 4.34375 -3.359375 4.453125 -3.171875 4.71875 -3.171875 C 4.9375 -3.171875 5.25 -3.34375 5.25 -3.75 C 5.25 -4.265625 4.671875 -4.40625 4.328125 -4.40625 C 3.75 -4.40625 3.40625 -3.875 3.28125 -3.65625 C 3.03125 -4.3125 2.5 -4.40625 2.203125 -4.40625 C 1.171875 -4.40625 0.59375 -3.125 0.59375 -2.875 C 0.59375 -2.765625 0.703125 -2.765625 0.71875 -2.765625 C 0.796875 -2.765625 0.828125 -2.796875 0.84375 -2.875 C 1.1875 -3.9375 1.84375 -4.1875 2.1875 -4.1875 C 2.375 -4.1875 2.71875 -4.09375 2.71875 -3.515625 C 2.71875 -3.203125 2.546875 -2.546875 2.1875 -1.140625 C 2.03125 -0.53125 1.671875 -0.109375 1.234375 -0.109375 C 1.171875 -0.109375 0.953125 -0.109375 0.734375 -0.234375 C 0.984375 -0.296875 1.203125 -0.5 1.203125 -0.78125 C 1.203125 -1.046875 0.984375 -1.125 0.84375 -1.125 C 0.53125 -1.125 0.296875 -0.875 0.296875 -0.546875 C 0.296875 -0.09375 0.78125 0.109375 1.21875 0.109375 C 1.890625 0.109375 2.25 -0.59375 2.265625 -0.640625 C 2.390625 -0.28125 2.75 0.109375 3.34375 0.109375 C 4.375 0.109375 4.9375 -1.171875 4.9375 -1.421875 C 4.9375 -1.53125 4.859375 -1.53125 4.828125 -1.53125 C 4.734375 -1.53125 4.71875 -1.484375 4.6875 -1.421875 C 4.359375 -0.34375 3.6875 -0.109375 3.375 -0.109375 C 2.984375 -0.109375 2.828125 -0.421875 2.828125 -0.765625 C 2.828125 -0.984375 2.875 -1.203125 2.984375 -1.640625 Z M 3.328125 -3.015625 "/>
</symbol>
<symbol overflow="visible" id="glyph0-2">
<path style="stroke:none;" d="M 4.84375 -3.796875 C 4.890625 -3.9375 4.890625 -3.953125 4.890625 -4.03125 C 4.890625 -4.203125 4.75 -4.296875 4.59375 -4.296875 C 4.5 -4.296875 4.34375 -4.234375 4.25 -4.09375 C 4.234375 -4.03125 4.140625 -3.734375 4.109375 -3.546875 C 4.03125 -3.296875 3.96875 -3.015625 3.90625 -2.75 L 3.453125 -0.953125 C 3.421875 -0.8125 2.984375 -0.109375 2.328125 -0.109375 C 1.828125 -0.109375 1.71875 -0.546875 1.71875 -0.921875 C 1.71875 -1.375 1.890625 -2 2.21875 -2.875 C 2.375 -3.28125 2.421875 -3.390625 2.421875 -3.59375 C 2.421875 -4.03125 2.109375 -4.40625 1.609375 -4.40625 C 0.65625 -4.40625 0.296875 -2.953125 0.296875 -2.875 C 0.296875 -2.765625 0.390625 -2.765625 0.40625 -2.765625 C 0.515625 -2.765625 0.515625 -2.796875 0.5625 -2.953125 C 0.84375 -3.890625 1.234375 -4.1875 1.578125 -4.1875 C 1.65625 -4.1875 1.828125 -4.1875 1.828125 -3.875 C 1.828125 -3.625 1.71875 -3.359375 1.65625 -3.171875 C 1.25 -2.109375 1.078125 -1.546875 1.078125 -1.078125 C 1.078125 -0.1875 1.703125 0.109375 2.296875 0.109375 C 2.6875 0.109375 3.015625 -0.0625 3.296875 -0.34375 C 3.171875 0.171875 3.046875 0.671875 2.65625 1.203125 C 2.390625 1.53125 2.015625 1.828125 1.5625 1.828125 C 1.421875 1.828125 0.96875 1.796875 0.796875 1.40625 C 0.953125 1.40625 1.09375 1.40625 1.21875 1.28125 C 1.328125 1.203125 1.421875 1.0625 1.421875 0.875 C 1.421875 0.5625 1.15625 0.53125 1.0625 0.53125 C 0.828125 0.53125 0.5 0.6875 0.5 1.171875 C 0.5 1.671875 0.9375 2.046875 1.5625 2.046875 C 2.578125 2.046875 3.609375 1.140625 3.890625 0.015625 Z M 4.84375 -3.796875 "/>
</symbol>
<symbol overflow="visible" id="glyph1-0">
<path style="stroke:none;" d=""/>
</symbol>
<symbol overflow="visible" id="glyph1-1">
<path style="stroke:none;" d="M 8.421875 -2.828125 L 8.484375 -3.296875 L 0.640625 -3.296875 L 0.546875 -2.828125 Z M 8.421875 -2.828125 "/>
</symbol>
<symbol overflow="visible" id="glyph2-0">
<path style="stroke:none;" d=""/>
</symbol>
<symbol overflow="visible" id="glyph2-1">
<path style="stroke:none;" d="M 2.21875 -5.5 C 1.53125 -5.5 0.796875 -5.484375 0.578125 -4.796875 L 0.25 -3.4375 L 0.5 -3.328125 L 0.71875 -3.890625 C 0.984375 -4.59375 1.296875 -4.703125 1.890625 -4.703125 L 2.765625 -4.703125 C 2.46875 -3.375 1.828125 -1.65625 1.03125 -0.28125 L 1.046875 -0.125 L 1.703125 0.0625 L 1.828125 -0.0625 C 2.359375 -1.59375 2.890625 -3.15625 3.21875 -4.703125 L 4.921875 -4.703125 L 5 -4.640625 C 4.875 -3.6875 4.8125 -2.71875 4.8125 -1.75 C 4.8125 -1.21875 4.828125 -0.46875 5.171875 -0.140625 C 5.3125 0 5.578125 0 5.8125 0 C 6.296875 0 6.796875 -0.375 7.15625 -0.71875 L 7.046875 -0.921875 L 6.96875 -0.9375 C 6.796875 -0.828125 6.59375 -0.75 6.390625 -0.75 C 5.609375 -0.75 5.625 -2.296875 5.625 -3.375 C 5.625 -3.78125 5.671875 -4.203125 5.703125 -4.625 L 5.78125 -4.703125 C 6.234375 -4.71875 6.6875 -4.859375 7.09375 -5.046875 L 7.5 -5.75 L 7.40625 -5.828125 C 7 -5.625 6.546875 -5.5 6.078125 -5.5 Z M 2.21875 -5.5 "/>
</symbol>
<symbol overflow="visible" id="glyph2-2">
<path style="stroke:none;" d="M 5.46875 -8.546875 L 5.21875 -8.609375 L 5.078125 -8.578125 L 0.46875 2.03125 L 0.5 2.203125 L 0.890625 2.296875 L 5.53125 -8.421875 Z M 5.46875 -8.546875 "/>
</symbol>
<symbol overflow="visible" id="glyph3-0">
<path style="stroke:none;" d=""/>
</symbol>
<symbol overflow="visible" id="glyph3-1">
<path style="stroke:none;" d="M 5.640625 -6.078125 C 5.703125 -8.03125 4.03125 -8.296875 2.9375 -8.28125 C 1.359375 -8.25 0.546875 -7.6875 0.453125 -6.734375 C 0.3125 -5.296875 1.734375 -5.421875 2.03125 -5.703125 C 1.40625 -6.140625 1.46875 -7.765625 2.90625 -7.90625 C 4.140625 -8 4.515625 -6.953125 4.390625 -6.21875 C 4.265625 -5.28125 3.59375 -3.921875 2.46875 -2.78125 L 0.59375 -0.796875 L 0.59375 0 L 5.328125 0 C 5.28125 -0.453125 5.609375 -2.15625 5.609375 -2.15625 L 5.234375 -2.15625 C 5.140625 -1.78125 4.96875 -1.078125 4.296875 -1.015625 C 3.515625 -0.953125 1.203125 -0.9375 1.203125 -0.9375 L 3.734375 -3.109375 C 4.25 -3.546875 5.609375 -4.90625 5.640625 -6.078125 Z M 5.640625 -6.078125 "/>
</symbol>
<symbol overflow="visible" id="glyph3-2">
<path style="stroke:none;" d="M 4.328125 0.015625 L 4.328125 -0.34375 C 3.875 -0.359375 3.5 -0.46875 3.21875 -0.78125 C 2.96875 -1.078125 3.046875 -3.0625 3.0625 -4.59375 C 3.078125 -6.078125 3.140625 -8.4375 3.140625 -8.4375 C 2.6875 -8.140625 1.109375 -7.234375 0.65625 -7.0625 L 0.65625 -6.703125 L 1.9375 -7.09375 C 1.9375 -7.09375 1.953125 -5.1875 1.953125 -3.953125 C 1.953125 -2.703125 2.015625 -1.0625 1.765625 -0.78125 C 1.5 -0.46875 1.109375 -0.359375 0.6875 -0.34375 L 0.6875 -0.015625 C 0.828125 -0.078125 2.28125 -0.109375 2.4375 -0.109375 C 2.609375 -0.109375 4.15625 -0.0625 4.328125 0.015625 Z M 4.328125 0.015625 "/>
</symbol>
<symbol overflow="visible" id="glyph3-3">
<path style="stroke:none;" d="M 8.59375 -4.03125 C 8.640625 -6.640625 6.921875 -8.28125 4.578125 -8.3125 C 2.09375 -8.328125 0.53125 -6.640625 0.53125 -4.09375 C 0.53125 -1.625 2.265625 0.140625 4.53125 0.140625 C 6.984375 0.140625 8.546875 -1.59375 8.59375 -4.03125 Z M 7.15625 -4.0625 C 7.15625 -2.125 6.3125 -0.28125 4.53125 -0.28125 C 2.734375 -0.28125 1.90625 -2.203125 1.953125 -4.109375 C 1.96875 -5.984375 2.78125 -7.90625 4.578125 -7.90625 C 6.40625 -7.890625 7.15625 -5.875 7.15625 -4.0625 Z M 7.15625 -4.0625 "/>
</symbol>
</g>
<clipPath id="clip1">
  <path d="M 0 0 L 204.09375 0 L 204.09375 153.070312 L 0 153.070312 Z M 0 0 "/>
</clipPath>
<clipPath id="clip2">
  <path d="M 5 75 L 403.070312 75 L 403.070312 78 L 5 78 Z M 5 75 "/>
</clipPath>
<clipPath id="clip3">
  <path d="M 398 74 L 403.070312 74 L 403.070312 79 L 398 79 Z M 398 74 "/>
</clipPath>
</defs>
<g id="surface1">
<g clip-path="url(#clip1)" clip-rule="nonzero">
<path style=" stroke:none;fill-rule:nonzero;fill:rgb(100%,50%,0%);fill-opacity:1;" d="M -22.675781 246.613281 L 204.09375 246.613281 L 204.09375 -93.542969 L -22.675781 -93.542969 Z M -22.675781 246.613281 "/>
</g>
<g clip-path="url(#clip2)" clip-rule="nonzero">
<path style="fill:none;stroke-width:1.1;stroke-linecap:round;stroke-linejoin:round;stroke:rgb(100%,100%,100%);stroke-opacity:1;stroke-miterlimit:10;" d="M -198.426821 0.00057375 L 198.424741 0.00057375 " transform="matrix(1,0,0,-1,204.09479,76.53573)"/>
</g>
<path style=" stroke:none;fill-rule:nonzero;fill:rgb(100%,100%,100%);fill-opacity:1;" d="M 398.820312 78.066406 L 402.519531 76.535156 L 398.820312 75.003906 Z M 398.820312 78.066406 "/>
<g clip-path="url(#clip3)" clip-rule="nonzero">
<path style="fill:none;stroke-width:1.1;stroke-linecap:round;stroke-linejoin:round;stroke:rgb(100%,100%,100%);stroke-opacity:1;stroke-miterlimit:10;" d="M 194.725523 -1.530676 L 198.424741 0.00057375 L 194.725523 1.531824 Z M 194.725523 -1.530676 " transform="matrix(1,0,0,-1,204.09479,76.53573)"/>
</g>
<path style="fill:none;stroke-width:1.1;stroke-linecap:round;stroke-linejoin:round;stroke:rgb(100%,100%,100%);stroke-opacity:1;stroke-miterlimit:10;" d="M -0.00104 -70.866614 L -0.00104 70.867761 " transform="matrix(1,0,0,-1,204.09479,76.53573)"/>
<path style="fill-rule:nonzero;fill:rgb(100%,100%,100%);fill-opacity:1;stroke-width:1.1;stroke-linecap:round;stroke-linejoin:round;stroke:rgb(100%,100%,100%);stroke-opacity:1;stroke-miterlimit:10;" d="M 1.53021 67.168543 L -0.00104 70.867761 L -1.53229 67.168543 Z M 1.53021 67.168543 " transform="matrix(1,0,0,-1,204.09479,76.53573)"/>
<g style="fill:rgb(100%,100%,100%);fill-opacity:1;">
  <use xlink:href="#glyph0-1" x="396.83839" y="85.82523"/>
</g>
<g style="fill:rgb(100%,100%,100%);fill-opacity:1;">
  <use xlink:href="#glyph0-2" x="193.85289" y="9.68043"/>
</g>
<path style="fill:none;stroke-width:1.5;stroke-linecap:round;stroke-linejoin:round;stroke:rgb(100%,69.999695%,69.999695%);stroke-opacity:1;stroke-miterlimit:10;" d="M -0.00104 0.00057375 L 0.358335 0.356043 C 0.475523 0.47323 0.62396 0.621668 0.713804 0.711511 C 0.830991 0.832605 0.991148 0.992761 1.069273 1.06698 C 1.18646 1.188074 1.350523 1.34823 1.424741 1.422449 L 1.78021 1.777918 L 2.135679 2.137293 C 2.241148 2.238855 2.37396 2.375574 2.495054 2.492761 L 3.916929 3.914636 L 4.276304 4.270105 L 5.34271 5.336511 C 5.362241 5.356043 5.580991 5.570886 5.698179 5.688074 L 6.053648 6.043543 C 6.135679 6.125574 6.291929 6.277918 6.409116 6.399011 C 6.522398 6.508386 6.647398 6.633386 6.768491 6.750574 L 7.12396 7.102136 C 7.241148 7.22323 7.393491 7.371668 7.483335 7.461511 C 7.600523 7.578699 7.756773 7.734949 7.838804 7.813074 L 9.616148 9.570886 L 9.975523 9.922449 L 10.330991 10.274011 L 10.68646 10.621668 C 10.803648 10.738855 10.99896 10.930261 11.041929 10.97323 L 11.752866 11.668543 L 12.108335 12.020105 L 12.46771 12.367761 C 12.588804 12.484949 12.752866 12.645105 12.823179 12.715418 L 13.182554 13.063074 C 13.299741 13.176355 13.518491 13.391199 13.538023 13.406824 L 13.893491 13.75448 C 14.010679 13.867761 14.202085 14.055261 14.24896 14.09823 C 14.299741 14.149011 14.487241 14.328699 14.604429 14.445886 L 14.959898 14.78573 C 14.987241 14.813074 15.198179 15.016199 15.315366 15.12948 L 15.674741 15.47323 L 16.03021 15.81698 C 16.034116 15.820886 16.264585 16.043543 16.385679 16.156824 C 16.502866 16.270105 16.702085 16.461511 16.741148 16.496668 L 17.096616 16.840418 L 17.455991 17.180261 L 18.166929 17.859949 C 18.288023 17.969324 18.459898 18.133386 18.522398 18.195886 L 18.881773 18.531824 L 19.948179 19.539636 L 20.303648 19.871668 C 20.420835 19.984949 20.604429 20.152918 20.659116 20.203699 C 20.733335 20.274011 20.897398 20.426355 21.014585 20.53573 L 21.370054 20.867761 L 21.729429 21.199793 L 22.084898 21.527918 L 22.444273 21.859949 C 22.506773 21.922449 22.678648 22.078699 22.799741 22.188074 L 23.510679 22.844324 L 24.221616 23.492761 L 24.580991 23.81698 C 24.698179 23.922449 24.866148 24.074793 24.93646 24.137293 L 25.291929 24.461511 L 26.002866 25.102136 L 26.358335 25.418543 L 26.713804 25.738855 L 27.069273 26.055261 C 27.182554 26.152918 27.31146 26.266199 27.428648 26.371668 L 27.784116 26.688074 C 27.90521 26.789636 28.053648 26.922449 28.139585 27.000574 C 28.190366 27.043543 28.377866 27.207605 28.49896 27.313074 L 28.854429 27.625574 L 29.565366 28.242761 C 29.616148 28.28573 29.803648 28.449793 29.920835 28.551355 C 30.041929 28.652918 30.276304 28.856043 30.276304 28.859949 L 30.631773 29.164636 L 30.991148 29.469324 C 31.108335 29.570886 31.288023 29.72323 31.346616 29.774011 L 32.057554 30.375574 C 32.139585 30.445886 32.295835 30.578699 32.416929 30.680261 C 32.534116 30.777918 32.741148 30.953699 32.772398 30.977136 L 33.127866 31.274011 C 33.24896 31.375574 33.440366 31.53573 33.483335 31.570886 C 33.600523 31.668543 33.721616 31.770105 33.838804 31.867761 C 33.959898 31.965418 34.084898 32.06698 34.198179 32.16073 L 34.553648 32.453699 L 34.909116 32.742761 L 35.264585 33.03573 C 35.370054 33.117761 35.502866 33.227136 35.620054 33.324793 C 35.737241 33.418543 35.862241 33.520105 35.975523 33.609949 L 36.68646 34.180261 C 36.764585 34.242761 36.924741 34.371668 37.045835 34.465418 L 37.40521 34.750574 L 37.760679 35.027918 L 38.116148 35.309168 L 38.471616 35.586511 C 38.538023 35.637293 38.709898 35.770105 38.827085 35.863855 L 39.893491 36.684168 L 40.252866 36.953699 L 40.963804 37.492761 L 41.674741 38.024011 C 41.74896 38.074793 41.913023 38.195886 42.03021 38.28573 C 42.151304 38.371668 42.334898 38.508386 42.389585 38.547449 L 42.745054 38.809168 L 43.104429 39.06698 C 43.221616 39.152918 43.389585 39.274011 43.459898 39.324793 C 43.510679 39.363855 43.694273 39.496668 43.815366 39.582605 L 44.170835 39.836511 C 44.276304 39.91073 44.409116 40.00448 44.526304 40.086511 C 44.643491 40.172449 44.772398 40.262293 44.881773 40.340418 L 45.237241 40.586511 C 45.358335 40.672449 45.541929 40.801355 45.59271 40.836511 C 45.651304 40.875574 45.830991 41.000574 45.952085 41.082605 L 46.307554 41.328699 L 46.663023 41.570886 L 47.022398 41.813074 L 48.088804 42.527918 L 48.444273 42.762293 L 48.799741 42.992761 L 49.159116 43.227136 L 49.514585 43.453699 L 49.870054 43.684168 L 50.225523 43.91073 L 50.93646 44.356043 L 51.291929 44.574793 L 51.651304 44.797449 L 52.006773 45.016199 L 52.362241 45.231043 L 52.721616 45.44198 L 53.077085 45.656824 L 53.432554 45.863855 L 53.788023 46.074793 L 54.143491 46.281824 L 54.854429 46.688074 L 55.213804 46.887293 L 55.569273 47.090418 C 55.670835 47.145105 55.807554 47.219324 55.924741 47.28573 C 56.041929 47.352136 56.174741 47.422449 56.28021 47.481043 C 56.28021 47.481043 56.518491 47.609949 56.635679 47.676355 C 56.756773 47.738855 56.975523 47.859949 56.995054 47.867761 C 57.108335 47.930261 57.233335 47.996668 57.350523 48.059168 C 57.471616 48.121668 57.600523 48.188074 57.705991 48.246668 L 58.06146 48.430261 L 58.420835 48.613855 L 58.776304 48.797449 L 59.487241 49.156824 L 60.198179 49.508386 L 60.909116 49.852136 L 61.268491 50.020105 L 61.62396 50.184168 L 61.983335 50.352136 L 62.338804 50.516199 L 62.694273 50.676355 L 63.40521 50.988855 C 63.463804 51.016199 63.643491 51.094324 63.760679 51.145105 C 63.881773 51.195886 64.053648 51.270105 64.116148 51.297449 L 64.475523 51.449793 L 64.830991 51.59823 L 65.897398 52.031824 C 66.010679 52.074793 66.135679 52.125574 66.252866 52.168543 C 66.37396 52.215418 66.495054 52.266199 66.608335 52.309168 C 66.68646 52.340418 66.850523 52.399011 66.96771 52.445886 C 67.088804 52.488855 67.24896 52.551355 67.327085 52.578699 L 67.682554 52.711511 L 68.393491 52.969324 L 69.104429 53.219324 L 69.815366 53.461511 C 69.889585 53.484949 70.053648 53.539636 70.174741 53.578699 C 70.291929 53.617761 70.455991 53.668543 70.53021 53.69198 L 71.241148 53.918543 L 71.596616 54.027918 L 71.955991 54.133386 L 72.31146 54.238855 L 73.022398 54.44198 L 73.381773 54.539636 L 73.737241 54.637293 L 74.09271 54.731043 L 75.159116 55.000574 L 75.514585 55.086511 L 75.87396 55.168543 L 76.229429 55.246668 L 76.584898 55.328699 L 76.944273 55.402918 L 77.299741 55.481043 L 78.010679 55.621668 L 78.721616 55.75448 L 79.080991 55.81698 L 79.43646 55.87948 L 80.147398 55.996668 L 80.502866 56.047449 L 80.858335 56.102136 L 81.213804 56.152918 L 81.573179 56.199793 L 81.928648 56.246668 L 82.284116 56.289636 C 82.370054 56.301355 82.522398 56.31698 82.639585 56.328699 C 82.760679 56.344324 82.913023 56.359949 82.99896 56.371668 L 83.709898 56.44198 L 84.065366 56.47323 C 84.143491 56.481043 84.303648 56.492761 84.420835 56.50448 C 84.541929 56.512293 84.694273 56.524011 84.776304 56.531824 C 84.858335 56.539636 85.014585 56.547449 85.131773 56.555261 C 85.252866 56.56698 85.413023 56.574793 85.491148 56.582605 L 86.202085 56.621668 L 86.557554 56.637293 C 86.631773 56.641199 86.795835 56.649011 86.916929 56.652918 C 87.034116 56.656824 87.202085 56.664636 87.272398 56.664636 L 87.627866 56.676355 L 87.983335 56.684168 L 88.338804 56.688074 L 88.698179 56.69198 L 89.409116 56.69198 L 90.120054 56.684168 L 90.475523 56.676355 L 90.830991 56.664636 C 90.90521 56.664636 91.069273 56.656824 91.190366 56.652918 C 91.307554 56.649011 91.475523 56.641199 91.545835 56.637293 L 91.90521 56.621668 L 92.616148 56.582605 C 92.690366 56.574793 92.854429 56.56698 92.971616 56.555261 C 93.088804 56.547449 93.245054 56.539636 93.327085 56.531824 C 93.409116 56.524011 93.565366 56.512293 93.682554 56.50448 C 93.803648 56.492761 93.963804 56.481043 94.038023 56.47323 L 94.397398 56.44198 L 95.108335 56.371668 C 95.194273 56.359949 95.346616 56.344324 95.463804 56.328699 C 95.580991 56.31698 95.737241 56.301355 95.819273 56.289636 L 96.174741 56.246668 L 96.534116 56.199793 L 96.889585 56.152918 L 97.245054 56.102136 L 97.604429 56.047449 L 97.959898 55.996668 L 98.670835 55.87948 L 99.381773 55.75448 L 99.737241 55.688074 L 100.096616 55.621668 L 100.807554 55.481043 L 101.163023 55.402918 L 101.522398 55.328699 L 101.877866 55.246668 L 102.233335 55.168543 L 102.588804 55.086511 L 102.944273 55.000574 L 103.303648 54.91073 L 104.014585 54.731043 L 104.370054 54.637293 L 105.080991 54.44198 L 105.43646 54.340418 L 105.795835 54.238855 L 106.506773 54.027918 L 106.862241 53.918543 L 107.221616 53.805261 L 107.577085 53.69198 C 107.647398 53.668543 107.815366 53.617761 107.932554 53.578699 C 108.049741 53.539636 108.213804 53.484949 108.288023 53.461511 L 108.99896 53.219324 L 109.354429 53.094324 L 109.713804 52.969324 L 110.424741 52.711511 L 110.78021 52.578699 C 110.854429 52.551355 111.018491 52.488855 111.135679 52.445886 C 111.256773 52.399011 111.416929 52.336511 111.495054 52.309168 C 111.608335 52.266199 111.733335 52.215418 111.850523 52.168543 C 111.971616 52.125574 112.096616 52.074793 112.205991 52.031824 L 112.56146 51.887293 L 112.920835 51.742761 L 113.276304 51.59823 L 113.631773 51.449793 L 113.987241 51.297449 C 114.053648 51.270105 114.225523 51.195886 114.34271 51.145105 C 114.463804 51.094324 114.643491 51.016199 114.698179 50.988855 L 115.053648 50.832605 L 115.413023 50.676355 L 115.768491 50.516199 L 116.12396 50.352136 L 116.483335 50.184168 L 116.838804 50.020105 L 117.194273 49.852136 L 117.90521 49.508386 L 118.260679 49.332605 L 118.620054 49.156824 L 119.330991 48.797449 L 120.397398 48.246668 C 120.502866 48.19198 120.635679 48.121668 120.752866 48.059168 C 120.87396 47.996668 120.99896 47.930261 121.112241 47.867761 C 121.127866 47.859949 121.350523 47.738855 121.46771 47.676355 L 121.827085 47.481043 C 121.932554 47.422449 122.06146 47.352136 122.182554 47.28573 C 122.299741 47.219324 122.432554 47.145105 122.538023 47.090418 L 122.893491 46.887293 L 123.24896 46.688074 L 123.959898 46.281824 L 124.319273 46.074793 L 124.674741 45.863855 L 125.03021 45.656824 L 125.385679 45.44198 L 125.741148 45.231043 L 126.096616 45.016199 L 126.455991 44.797449 L 126.81146 44.574793 L 127.166929 44.356043 L 127.526304 44.133386 L 127.881773 43.91073 L 128.237241 43.684168 L 128.59271 43.453699 L 128.948179 43.227136 L 129.303648 42.992761 L 129.659116 42.762293 L 130.018491 42.527918 L 131.084898 41.813074 L 131.444273 41.570886 L 131.799741 41.328699 L 132.15521 41.082605 C 132.272398 41.000574 132.452085 40.87948 132.510679 40.836511 C 132.56146 40.801355 132.74896 40.672449 132.866148 40.586511 L 133.221616 40.340418 C 133.330991 40.262293 133.459898 40.172449 133.577085 40.086511 C 133.698179 40.00448 133.830991 39.91073 133.93646 39.836511 C 133.93646 39.836511 134.170835 39.664636 134.291929 39.582605 C 134.409116 39.496668 134.596616 39.363855 134.647398 39.324793 C 134.71771 39.274011 134.885679 39.152918 135.002866 39.06698 L 135.358335 38.809168 L 135.713804 38.547449 C 135.768491 38.508386 135.955991 38.371668 136.073179 38.28573 C 136.194273 38.195886 136.358335 38.074793 136.428648 38.024011 L 136.784116 37.758386 L 137.143491 37.492761 L 138.209898 36.684168 L 139.276304 35.863855 C 139.397398 35.770105 139.565366 35.637293 139.635679 35.586511 L 139.991148 35.309168 L 140.346616 35.027918 L 140.702085 34.750574 L 141.06146 34.465418 C 141.178648 34.371668 141.34271 34.238855 141.416929 34.180261 L 142.127866 33.609949 C 142.241148 33.520105 142.366148 33.418543 142.483335 33.324793 C 142.604429 33.227136 142.733335 33.121668 142.84271 33.03573 L 143.198179 32.742761 L 143.553648 32.453699 L 144.264585 31.867761 L 144.620054 31.570886 C 144.659116 31.539636 144.858335 31.375574 144.975523 31.274011 L 145.334898 30.977136 C 145.358335 30.957605 145.569273 30.777918 145.690366 30.680261 C 145.807554 30.578699 145.96771 30.44198 146.049741 30.375574 L 146.760679 29.774011 C 146.819273 29.72323 146.99896 29.570886 147.116148 29.469324 L 147.827085 28.859949 C 147.834898 28.852136 148.065366 28.652918 148.182554 28.551355 C 148.303648 28.449793 148.495054 28.28573 148.541929 28.242761 L 149.252866 27.625574 L 149.608335 27.313074 C 149.725523 27.207605 149.916929 27.043543 149.963804 27.000574 C 150.049741 26.926355 150.202085 26.789636 150.319273 26.688074 L 150.674741 26.371668 C 150.795835 26.266199 150.920835 26.156824 151.034116 26.055261 L 151.389585 25.738855 L 151.74896 25.418543 L 152.104429 25.102136 L 152.815366 24.461511 L 153.170835 24.137293 C 153.241148 24.074793 153.409116 23.922449 153.526304 23.81698 L 153.881773 23.492761 L 154.241148 23.168543 L 154.596616 22.844324 L 155.307554 22.188074 C 155.424741 22.078699 155.596616 21.922449 155.663023 21.859949 L 156.022398 21.527918 L 156.377866 21.199793 L 157.088804 20.53573 C 157.209898 20.426355 157.37396 20.270105 157.444273 20.203699 C 157.49896 20.156824 157.682554 19.984949 157.803648 19.871668 L 158.159116 19.539636 L 159.580991 18.195886 C 159.643491 18.137293 159.819273 17.969324 159.93646 17.859949 L 160.295835 17.520105 L 161.006773 16.840418 L 161.366148 16.496668 C 161.397398 16.469324 161.600523 16.270105 161.721616 16.156824 C 161.838804 16.043543 162.06146 15.832605 162.077085 15.81698 L 162.788023 15.12948 C 162.909116 15.016199 163.112241 14.820886 163.143491 14.78573 L 163.49896 14.445886 C 163.620054 14.328699 163.807554 14.145105 163.858335 14.09823 C 163.901304 14.059168 164.09271 13.867761 164.213804 13.75448 L 164.569273 13.406824 C 164.596616 13.37948 164.807554 13.176355 164.924741 13.063074 C 165.041929 12.945886 165.28021 12.719324 165.28021 12.715418 C 165.346616 12.652918 165.518491 12.484949 165.635679 12.367761 L 165.995054 12.020105 L 166.350523 11.668543 L 166.705991 11.320886 L 167.065366 10.97323 C 167.104429 10.930261 167.299741 10.738855 167.420835 10.621668 L 167.776304 10.274011 L 169.198179 8.867761 L 169.557554 8.516199 L 170.268491 7.813074 C 170.350523 7.731043 170.506773 7.578699 170.62396 7.461511 C 170.721616 7.359949 170.862241 7.22323 170.983335 7.102136 L 171.338804 6.750574 C 171.455991 6.633386 171.604429 6.488855 171.694273 6.399011 C 171.815366 6.277918 171.979429 6.113855 172.049741 6.043543 L 172.40521 5.688074 C 172.526304 5.570886 172.741148 5.359949 172.764585 5.336511 L 175.252866 2.84823 L 175.612241 2.492761 C 175.729429 2.375574 175.870054 2.238855 175.971616 2.137293 L 176.327085 1.777918 L 176.682554 1.422449 C 176.760679 1.344324 176.916929 1.188074 177.038023 1.06698 C 177.112241 0.992761 177.276304 0.832605 177.393491 0.711511 C 177.483335 0.621668 177.631773 0.47323 177.74896 0.356043 L 178.104429 0.00057375 " transform="matrix(1,0,0,-1,204.09479,76.53573)"/>
<path style="fill:none;stroke-width:1.5;stroke-linecap:round;stroke-linejoin:round;stroke:rgb(100%,69.999695%,69.999695%);stroke-opacity:1;stroke-dasharray:0,2.5;stroke-dashoffset:1.25;stroke-miterlimit:10;" d="M -178.106509 0.00057375 L -177.75104 -0.354895 C -177.629946 -0.475989 -177.481509 -0.624426 -177.395571 -0.710364 C -177.274477 -0.831457 -177.122134 -0.979895 -177.036196 -1.069739 C -176.919009 -1.186926 -176.758852 -1.347082 -176.680727 -1.425207 L -175.96979 -2.136145 C -175.868227 -2.237707 -175.731509 -2.374426 -175.610415 -2.49552 L -174.18854 -3.917395 L -173.829165 -4.268957 L -172.762759 -5.335364 C -172.739321 -5.358801 -172.524477 -5.569739 -172.40729 -5.690832 L -172.051821 -6.042395 C -171.977602 -6.116614 -171.81354 -6.280676 -171.696352 -6.397864 C -171.602602 -6.487707 -171.458071 -6.632239 -171.336977 -6.749426 L -170.981509 -7.104895 C -170.864321 -7.222082 -170.723696 -7.362707 -170.622134 -7.460364 C -170.504946 -7.577551 -170.352602 -7.729895 -170.266665 -7.811926 L -169.911196 -8.163489 L -169.555727 -8.518957 L -168.489321 -9.573645 L -168.129946 -9.921301 L -167.419009 -10.624426 C -167.301821 -10.737707 -167.106509 -10.93302 -167.06354 -10.972082 L -166.708071 -11.319739 L -166.352602 -11.671301 L -165.997134 -12.018957 L -165.637759 -12.37052 C -165.516665 -12.483801 -165.34479 -12.65177 -165.28229 -12.71427 C -165.278384 -12.718176 -165.044009 -12.948645 -164.922915 -13.061926 C -164.805727 -13.179114 -164.598696 -13.382239 -164.567446 -13.409582 L -164.211977 -13.753332 C -164.09479 -13.87052 -163.899477 -14.05802 -163.856509 -14.100989 C -163.809634 -14.147864 -163.618227 -14.327551 -163.50104 -14.444739 L -163.145571 -14.788489 C -163.110415 -14.819739 -162.90729 -15.015051 -162.790102 -15.132239 L -162.430727 -15.475989 L -162.075259 -15.815832 C -162.071352 -15.819739 -161.840884 -16.042395 -161.71979 -16.159582 C -161.602602 -16.272864 -161.383852 -16.479895 -161.364321 -16.499426 L -161.008852 -16.83927 L -160.649477 -17.179114 L -159.93854 -17.858801 C -159.817446 -17.972082 -159.641665 -18.140051 -159.583071 -18.194739 L -159.223696 -18.530676 L -158.868227 -18.87052 L -158.512759 -19.202551 L -158.15729 -19.538489 L -157.801821 -19.87052 C -157.684634 -19.983801 -157.497134 -20.155676 -157.446352 -20.206457 C -157.37604 -20.272864 -157.208071 -20.425207 -157.090884 -20.538489 L -156.735415 -20.87052 L -156.37604 -21.198645 L -155.665102 -21.862707 C -155.598696 -21.921301 -155.426821 -22.081457 -155.305727 -22.190832 L -154.950259 -22.515051 L -154.59479 -22.843176 L -153.528384 -23.815832 C -153.40729 -23.925207 -153.239321 -24.077551 -153.172915 -24.140051 L -152.81354 -24.460364 L -152.102602 -25.100989 L -151.747134 -25.417395 L -151.391665 -25.737707 L -151.036196 -26.054114 C -150.919009 -26.155676 -150.794009 -26.265051 -150.676821 -26.37052 L -150.321352 -26.686926 C -150.200259 -26.792395 -150.047915 -26.925207 -149.965884 -26.999426 C -149.915102 -27.042395 -149.727602 -27.210364 -149.606509 -27.311926 L -149.25104 -27.624426 L -148.540102 -28.241614 C -148.493227 -28.284582 -148.301821 -28.448645 -148.184634 -28.550207 C -148.06354 -28.655676 -147.833071 -28.854895 -147.829165 -28.858801 L -147.473696 -29.163489 L -147.114321 -29.468176 C -146.997134 -29.569739 -146.817446 -29.722082 -146.758852 -29.772864 L -146.403384 -30.073645 L -146.047915 -30.378332 C -145.96979 -30.444739 -145.809634 -30.577551 -145.68854 -30.679114 C -145.571352 -30.77677 -145.360415 -30.956457 -145.333071 -30.975989 L -144.977602 -31.272864 C -144.860415 -31.374426 -144.665102 -31.534582 -144.622134 -31.569739 L -144.266665 -31.866614 L -143.90729 -32.159582 L -143.196352 -32.74552 L -142.840884 -33.034582 C -142.731509 -33.124426 -142.602602 -33.225989 -142.485415 -33.323645 C -142.368227 -33.417395 -142.243227 -33.518957 -142.129946 -33.608801 L -141.774477 -33.893957 L -141.419009 -34.18302 C -141.34479 -34.241614 -141.180727 -34.37052 -141.059634 -34.46427 L -140.700259 -34.749426 L -140.34479 -35.030676 L -139.633852 -35.585364 C -139.567446 -35.636145 -139.395571 -35.768957 -139.278384 -35.862707 L -138.211977 -36.68302 L -137.852602 -36.952551 L -137.141665 -37.491614 L -136.430727 -38.022864 C -136.356509 -38.077551 -136.192446 -38.198645 -136.075259 -38.284582 C -135.954165 -38.374426 -135.774477 -38.507239 -135.715884 -38.550207 L -135.360415 -38.80802 L -135.00104 -39.069739 C -134.883852 -39.155676 -134.71979 -39.272864 -134.645571 -39.327551 C -134.59479 -39.362707 -134.411196 -39.49552 -134.290102 -39.581457 C -134.172915 -39.667395 -133.934634 -39.835364 -133.934634 -39.835364 C -133.829165 -39.909582 -133.696352 -40.003332 -133.579165 -40.08927 C -133.461977 -40.171301 -133.329165 -40.265051 -133.223696 -40.33927 L -132.868227 -40.58927 C -132.747134 -40.671301 -132.56354 -40.800207 -132.512759 -40.835364 C -132.450259 -40.878332 -132.274477 -40.999426 -132.153384 -41.081457 L -131.797915 -41.327551 L -131.442446 -41.569739 L -131.083071 -41.811926 L -130.727602 -42.054114 L -130.372134 -42.288489 L -130.016665 -42.52677 L -129.305727 -42.99552 L -128.950259 -43.225989 L -128.590884 -43.456457 L -127.879946 -43.909582 L -126.81354 -44.577551 L -126.454165 -44.796301 L -126.098696 -45.015051 L -125.743227 -45.229895 L -125.383852 -45.444739 L -124.672915 -45.866614 L -123.961977 -46.280676 L -122.895571 -46.890051 L -122.536196 -47.08927 C -122.434634 -47.147864 -122.297915 -47.222082 -122.180727 -47.284582 C -122.06354 -47.350989 -121.934634 -47.421301 -121.825259 -47.479895 L -121.46979 -47.675207 C -121.348696 -47.737707 -121.129946 -47.858801 -121.110415 -47.866614 C -121.00104 -47.929114 -120.872134 -47.99552 -120.754946 -48.05802 C -120.637759 -48.12052 -120.504946 -48.190832 -120.399477 -48.24552 L -120.044009 -48.43302 L -119.684634 -48.616614 L -119.329165 -48.800207 L -118.973696 -48.979895 L -117.90729 -49.507239 L -117.196352 -49.850989 L -116.836977 -50.018957 L -116.481509 -50.186926 L -116.122134 -50.350989 L -115.766665 -50.515051 L -115.055727 -50.835364 L -114.700259 -50.991614 C -114.641665 -51.015051 -114.461977 -51.093176 -114.34479 -51.143957 C -114.223696 -51.194739 -114.051821 -51.268957 -113.989321 -51.296301 L -113.629946 -51.448645 L -113.274477 -51.597082 L -112.208071 -52.030676 C -112.09479 -52.073645 -111.96979 -52.124426 -111.852602 -52.171301 C -111.731509 -52.218176 -111.610415 -52.265051 -111.497134 -52.30802 C -111.419009 -52.33927 -111.254946 -52.40177 -111.137759 -52.444739 C -111.016665 -52.491614 -110.856509 -52.554114 -110.778384 -52.581457 L -110.422915 -52.710364 L -110.067446 -52.843176 L -109.711977 -52.968176 L -109.356509 -53.097082 L -109.00104 -53.218176 L -108.645571 -53.343176 L -108.290102 -53.460364 C -108.215884 -53.483801 -108.051821 -53.538489 -107.930727 -53.577551 C -107.81354 -53.616614 -107.649477 -53.671301 -107.575259 -53.694739 L -107.21979 -53.80802 L -106.508852 -54.02677 L -106.149477 -54.132239 L -105.43854 -54.343176 L -105.083071 -54.440832 L -104.723696 -54.542395 L -103.65729 -54.823645 L -103.301821 -54.913489 L -102.590884 -55.085364 L -102.231509 -55.167395 L -101.87604 -55.249426 L -101.520571 -55.327551 L -101.161196 -55.405676 L -100.805727 -55.479895 L -100.09479 -55.62052 L -99.383852 -55.753332 L -98.672915 -55.878332 L -98.31354 -55.936926 L -97.958071 -55.99552 L -97.602602 -56.050207 L -96.891665 -56.15177 L -96.536196 -56.198645 L -96.176821 -56.24552 L -95.821352 -56.288489 C -95.735415 -56.300207 -95.583071 -56.315832 -95.465884 -56.331457 C -95.34479 -56.343176 -95.192446 -56.362707 -95.106509 -56.37052 L -94.040102 -56.475989 C -93.961977 -56.479895 -93.801821 -56.49552 -93.684634 -56.503332 C -93.56354 -56.515051 -93.411196 -56.52677 -93.329165 -56.530676 C -93.247134 -56.538489 -93.090884 -56.550207 -92.973696 -56.55802 C -92.852602 -56.565832 -92.692446 -56.577551 -92.614321 -56.581457 L -91.547915 -56.640051 C -91.473696 -56.640051 -91.309634 -56.647864 -91.18854 -56.65177 C -91.071352 -56.655676 -90.903384 -56.663489 -90.833071 -56.663489 L -90.477602 -56.675207 L -90.122134 -56.68302 L -89.766665 -56.686926 L -89.40729 -56.690832 L -89.051821 -56.694739 L -87.985415 -56.68302 L -87.629946 -56.675207 L -87.274477 -56.663489 C -87.200259 -56.663489 -87.036196 -56.655676 -86.915102 -56.65177 C -86.797915 -56.647864 -86.629946 -56.640051 -86.559634 -56.640051 L -86.200259 -56.62052 L -85.489321 -56.581457 C -85.415102 -56.577551 -85.25104 -56.565832 -85.133852 -56.55802 C -85.016665 -56.550207 -84.860415 -56.538489 -84.778384 -56.530676 C -84.696352 -56.52677 -84.540102 -56.515051 -84.422915 -56.503332 C -84.301821 -56.49552 -84.141665 -56.479895 -84.067446 -56.475989 L -83.708071 -56.440832 L -82.997134 -56.37052 C -82.911196 -56.362707 -82.758852 -56.343176 -82.641665 -56.331457 C -82.524477 -56.315832 -82.368227 -56.300207 -82.286196 -56.288489 L -81.930727 -56.24552 L -81.571352 -56.198645 L -81.215884 -56.15177 L -80.860415 -56.100989 L -80.50104 -56.050207 L -80.145571 -55.99552 L -79.434634 -55.878332 L -78.723696 -55.753332 L -78.368227 -55.686926 L -78.008852 -55.62052 L -77.297915 -55.479895 L -76.942446 -55.405676 L -76.583071 -55.327551 L -76.227602 -55.249426 L -75.516665 -55.085364 L -74.805727 -54.913489 L -74.450259 -54.823645 L -74.090884 -54.729895 L -73.379946 -54.542395 L -73.024477 -54.440832 L -72.669009 -54.343176 L -71.958071 -54.132239 L -71.598696 -54.02677 L -71.243227 -53.917395 L -70.883852 -53.80802 L -70.528384 -53.694739 C -70.458071 -53.671301 -70.290102 -53.616614 -70.172915 -53.577551 C -70.055727 -53.538489 -69.891665 -53.483801 -69.817446 -53.460364 L -69.461977 -53.343176 L -69.106509 -53.218176 L -68.75104 -53.097082 L -68.391665 -52.968176 L -68.036196 -52.843176 L -67.680727 -52.710364 L -67.325259 -52.581457 C -67.25104 -52.554114 -67.086977 -52.491614 -66.96979 -52.444739 C -66.848696 -52.40177 -66.68854 -52.33927 -66.610415 -52.30802 C -66.497134 -52.265051 -66.372134 -52.218176 -66.254946 -52.171301 C -66.133852 -52.124426 -66.008852 -52.073645 -65.899477 -52.030676 L -65.544009 -51.886145 L -65.184634 -51.741614 L -64.829165 -51.597082 L -64.473696 -51.448645 L -64.118227 -51.296301 C -64.051821 -51.268957 -63.879946 -51.194739 -63.762759 -51.143957 C -63.641665 -51.093176 -63.461977 -51.015051 -63.40729 -50.991614 L -63.051821 -50.835364 L -62.692446 -50.675207 L -62.336977 -50.515051 L -61.981509 -50.350989 L -61.622134 -50.186926 L -60.911196 -49.850989 L -60.200259 -49.507239 L -59.84479 -49.331457 L -59.485415 -49.155676 L -59.129946 -48.979895 L -58.774477 -48.800207 L -58.06354 -48.43302 L -57.708071 -48.24552 C -57.602602 -48.190832 -57.46979 -48.12052 -57.352602 -48.05802 C -57.231509 -47.99552 -57.106509 -47.929114 -56.993227 -47.866614 C -56.977602 -47.858801 -56.754946 -47.737707 -56.637759 -47.675207 C -56.516665 -47.608801 -56.28229 -47.483801 -56.278384 -47.479895 C -56.172915 -47.425207 -56.044009 -47.350989 -55.922915 -47.284582 C -55.805727 -47.222082 -55.669009 -47.143957 -55.567446 -47.08927 L -55.211977 -46.890051 L -54.145571 -46.280676 L -53.786196 -46.073645 L -53.430727 -45.866614 L -52.71979 -45.444739 L -52.008852 -45.015051 L -51.649477 -44.796301 L -51.294009 -44.577551 L -50.227602 -43.909582 L -49.868227 -43.68302 L -49.512759 -43.456457 L -48.801821 -42.99552 L -48.090884 -42.52677 L -47.731509 -42.288489 L -47.37604 -42.054114 L -47.020571 -41.811926 L -46.661196 -41.569739 L -46.305727 -41.327551 L -45.950259 -41.081457 C -45.833071 -40.999426 -45.653384 -40.878332 -45.59479 -40.835364 C -45.540102 -40.800207 -45.356509 -40.671301 -45.239321 -40.58927 L -44.883852 -40.33927 C -44.774477 -40.265051 -44.645571 -40.171301 -44.528384 -40.08927 C -44.40729 -40.003332 -44.278384 -39.913489 -44.169009 -39.835364 L -43.81354 -39.581457 C -43.696352 -39.49552 -43.508852 -39.362707 -43.458071 -39.327551 C -43.387759 -39.27677 -43.21979 -39.155676 -43.102602 -39.069739 L -42.747134 -38.80802 L -42.391665 -38.550207 C -42.336977 -38.511145 -42.149477 -38.374426 -42.03229 -38.284582 C -41.911196 -38.198645 -41.747134 -38.077551 -41.676821 -38.022864 L -41.321352 -37.757239 L -40.961977 -37.491614 L -39.895571 -36.68302 L -38.829165 -35.862707 C -38.708071 -35.768957 -38.540102 -35.640051 -38.46979 -35.585364 L -37.758852 -35.030676 L -37.403384 -34.749426 L -37.044009 -34.46427 C -36.926821 -34.37052 -36.762759 -34.241614 -36.68854 -34.18302 L -36.333071 -33.893957 L -35.977602 -33.608801 C -35.864321 -33.518957 -35.739321 -33.417395 -35.622134 -33.323645 C -35.50104 -33.225989 -35.368227 -33.12052 -35.262759 -33.034582 L -34.90729 -32.74552 L -34.196352 -32.159582 C -34.083071 -32.065832 -33.958071 -31.96427 -33.840884 -31.866614 C -33.71979 -31.768957 -33.602602 -31.667395 -33.485415 -31.569739 C -33.442446 -31.534582 -33.247134 -31.374426 -33.129946 -31.272864 L -32.770571 -30.975989 C -32.739321 -30.952551 -32.536196 -30.77677 -32.415102 -30.679114 C -32.297915 -30.577551 -32.141665 -30.444739 -32.055727 -30.378332 L -31.700259 -30.073645 L -31.34479 -29.772864 C -31.290102 -29.725989 -31.110415 -29.569739 -30.989321 -29.468176 L -30.278384 -28.858801 L -29.922915 -28.550207 C -29.801821 -28.448645 -29.610415 -28.284582 -29.56354 -28.241614 L -28.852602 -27.624426 L -28.497134 -27.311926 C -28.379946 -27.210364 -28.18854 -27.042395 -28.141665 -26.999426 C -28.051821 -26.921301 -27.903384 -26.792395 -27.786196 -26.686926 L -27.430727 -26.37052 C -27.309634 -26.265051 -27.184634 -26.155676 -27.071352 -26.054114 L -26.715884 -25.737707 L -26.360415 -25.417395 L -26.00104 -25.100989 L -24.934634 -24.140051 C -24.864321 -24.077551 -24.696352 -23.925207 -24.579165 -23.815832 L -24.223696 -23.491614 L -23.864321 -23.167395 L -23.508852 -22.843176 L -23.153384 -22.515051 L -22.797915 -22.190832 C -22.680727 -22.081457 -22.508852 -21.921301 -22.442446 -21.862707 C -22.442446 -21.858801 -22.204165 -21.640051 -22.083071 -21.530676 L -21.727602 -21.198645 L -21.372134 -20.87052 L -21.016665 -20.538489 C -20.895571 -20.425207 -20.731509 -20.272864 -20.661196 -20.206457 C -20.602602 -20.15177 -20.422915 -19.983801 -20.305727 -19.87052 L -19.946352 -19.538489 L -19.590884 -19.202551 L -19.235415 -18.87052 L -18.879946 -18.530676 L -18.524477 -18.194739 C -18.458071 -18.136145 -18.286196 -17.972082 -18.169009 -17.858801 L -17.81354 -17.518957 L -17.454165 -17.179114 L -17.098696 -16.83927 L -16.739321 -16.499426 C -16.692446 -16.452551 -16.504946 -16.272864 -16.383852 -16.159582 C -16.266665 -16.042395 -16.044009 -15.831457 -16.028384 -15.815832 L -15.672915 -15.475989 L -15.317446 -15.132239 C -15.196352 -15.015051 -14.981509 -14.80802 -14.961977 -14.788489 L -14.606509 -14.444739 C -14.485415 -14.327551 -14.297915 -14.147864 -14.247134 -14.100989 C -14.200259 -14.054114 -14.012759 -13.87052 -13.891665 -13.753332 L -13.536196 -13.409582 C -13.516665 -13.390051 -13.297915 -13.179114 -13.180727 -13.061926 L -12.825259 -12.71427 C -12.75104 -12.643957 -12.586977 -12.483801 -12.46979 -12.37052 L -12.110415 -12.018957 L -11.754946 -11.671301 L -11.399477 -11.319739 L -11.040102 -10.972082 C -10.997134 -10.929114 -10.805727 -10.737707 -10.684634 -10.624426 L -9.973696 -9.921301 L -9.618227 -9.573645 L -8.90729 -8.87052 L -8.547915 -8.518957 L -8.192446 -8.163489 L -7.836977 -7.811926 C -7.758852 -7.733801 -7.598696 -7.577551 -7.481509 -7.460364 C -7.403384 -7.382239 -7.243227 -7.222082 -7.122134 -7.104895 L -6.766665 -6.749426 C -6.649477 -6.632239 -6.524477 -6.511145 -6.411196 -6.397864 C -6.294009 -6.280676 -6.137759 -6.124426 -6.055727 -6.042395 L -5.700259 -5.690832 C -5.579165 -5.569739 -5.368227 -5.362707 -5.340884 -5.335364 L -4.274477 -4.268957 L -3.919009 -3.917395 L -2.852602 -2.850989 L -2.493227 -2.49552 C -2.37604 -2.374426 -2.239321 -2.237707 -2.137759 -2.136145 L -1.778384 -1.780676 L -1.422915 -1.425207 C -1.348696 -1.347082 -1.18854 -1.186926 -1.067446 -1.069739 C -0.993227 -0.991614 -0.829165 -0.831457 -0.711977 -0.710364 C -0.622134 -0.624426 -0.473696 -0.475989 -0.356509 -0.354895 L -0.00104 0.00057375 " transform="matrix(1,0,0,-1,204.09479,76.53573)"/>
<path style="fill:none;stroke-width:0.49814;stroke-linecap:round;stroke-linejoin:round;stroke:rgb(100%,100%,100%);stroke-opacity:1;stroke-miterlimit:10;" d="M -89.051821 0.00057375 L -89.051821 -56.694739 " transform="matrix(1,0,0,-1,204.09479,76.53573)"/>
<path style="fill-rule:nonzero;fill:rgb(100%,100%,100%);fill-opacity:1;stroke-width:0.49814;stroke-linecap:round;stroke-linejoin:round;stroke:rgb(100%,100%,100%);stroke-opacity:1;stroke-miterlimit:10;" d="M -90.583071 -52.99552 L -89.051821 -56.694739 L -87.520571 -52.99552 Z M -90.583071 -52.99552 " transform="matrix(1,0,0,-1,204.09479,76.53573)"/>
<path style="fill:none;stroke-width:0.49814;stroke-linecap:round;stroke-linejoin:round;stroke:rgb(100%,100%,100%);stroke-opacity:1;stroke-miterlimit:10;" d="M -89.051821 -56.694739 L -0.00104 -56.694739 " transform="matrix(1,0,0,-1,204.09479,76.53573)"/>
<path style="fill-rule:nonzero;fill:rgb(100%,100%,100%);fill-opacity:1;stroke-width:0.49814;stroke-linecap:round;stroke-linejoin:round;stroke:rgb(100%,100%,100%);stroke-opacity:1;stroke-miterlimit:10;" d="M -3.696352 -58.222082 L -0.00104 -56.694739 L -3.696352 -55.163489 Z M -3.696352 -58.222082 " transform="matrix(1,0,0,-1,204.09479,76.53573)"/>
<path style="fill:none;stroke-width:0.49814;stroke-linecap:round;stroke-linejoin:round;stroke:rgb(100%,100%,100%);stroke-opacity:1;stroke-miterlimit:10;" d="M 89.053648 56.69198 L -0.00104 56.69198 " transform="matrix(1,0,0,-1,204.09479,76.53573)"/>
<path style="fill-rule:nonzero;fill:rgb(100%,100%,100%);fill-opacity:1;stroke-width:0.49814;stroke-linecap:round;stroke-linejoin:round;stroke:rgb(100%,100%,100%);stroke-opacity:1;stroke-miterlimit:10;" d="M 3.694273 58.22323 L -0.00104 56.69198 L 3.694273 55.16073 Z M 3.694273 58.22323 " transform="matrix(1,0,0,-1,204.09479,76.53573)"/>
<path style="fill:none;stroke-width:0.49814;stroke-linecap:round;stroke-linejoin:round;stroke:rgb(100%,100%,100%);stroke-opacity:1;stroke-miterlimit:10;" d="M 89.053648 0.00057375 L 89.053648 56.69198 " transform="matrix(1,0,0,-1,204.09479,76.53573)"/>
<path style="fill-rule:nonzero;fill:rgb(100%,100%,100%);fill-opacity:1;stroke-width:0.49814;stroke-linecap:round;stroke-linejoin:round;stroke:rgb(100%,100%,100%);stroke-opacity:1;stroke-miterlimit:10;" d="M 90.584898 52.996668 L 89.053648 56.69198 L 87.522398 52.996668 Z M 90.584898 52.996668 " transform="matrix(1,0,0,-1,204.09479,76.53573)"/>
<g style="fill:rgb(100%,100%,100%);fill-opacity:1;">
  <use xlink:href="#glyph1-1" x="101.79599" y="68.54903"/>
</g>
<g style="fill:rgb(100%,100%,100%);fill-opacity:1;">
  <use xlink:href="#glyph2-1" x="110.83679" y="68.54903"/>
</g>
<g style="fill:rgb(100%,100%,100%);fill-opacity:1;">
  <use xlink:href="#glyph2-2" x="116.120944" y="68.54903"/>
</g>
<g style="fill:rgb(100%,100%,100%);fill-opacity:1;">
  <use xlink:href="#glyph3-1" x="122.12459" y="71.37843"/>
</g>
<path style="fill:none;stroke-width:3;stroke-linecap:round;stroke-linejoin:round;stroke:rgb(100%,100%,100%);stroke-opacity:1;stroke-miterlimit:10;" d="M -89.051821 0.00057375 L -89.051821 0.00057375 " transform="matrix(1,0,0,-1,204.09479,76.53573)"/>
<g style="fill:rgb(100%,100%,100%);fill-opacity:1;">
  <use xlink:href="#glyph2-1" x="284.42279" y="90.49583"/>
</g>
<g style="fill:rgb(100%,100%,100%);fill-opacity:1;">
  <use xlink:href="#glyph2-2" x="289.706944" y="90.49583"/>
</g>
<g style="fill:rgb(100%,100%,100%);fill-opacity:1;">
  <use xlink:href="#glyph3-1" x="295.71059" y="93.32523"/>
</g>
<path style="fill:none;stroke-width:3;stroke-linecap:round;stroke-linejoin:round;stroke:rgb(100%,100%,100%);stroke-opacity:1;stroke-miterlimit:10;" d="M 89.053648 0.00057375 L 89.053648 0.00057375 " transform="matrix(1,0,0,-1,204.09479,76.53573)"/>
<g style="fill:rgb(100%,100%,100%);fill-opacity:1;">
  <use xlink:href="#glyph1-1" x="207.59479" y="145.01183"/>
</g>
<g style="fill:rgb(100%,100%,100%);fill-opacity:1;">
  <use xlink:href="#glyph3-2" x="216.63559" y="145.01183"/>
</g>
<path style="fill:none;stroke-width:3;stroke-linecap:round;stroke-linejoin:round;stroke:rgb(100%,100%,100%);stroke-opacity:1;stroke-miterlimit:10;" d="M -0.00104 -56.694739 L -0.00104 -56.694739 " transform="matrix(1,0,0,-1,204.09479,76.53573)"/>
<g style="fill:rgb(100%,100%,100%);fill-opacity:1;">
  <use xlink:href="#glyph3-2" x="195.92009" y="31.62603"/>
</g>
<path style="fill:none;stroke-width:3;stroke-linecap:round;stroke-linejoin:round;stroke:rgb(100%,100%,100%);stroke-opacity:1;stroke-miterlimit:10;" d="M -0.00104 56.69198 L -0.00104 56.69198 " transform="matrix(1,0,0,-1,204.09479,76.53573)"/>
<g style="fill:rgb(100%,100%,100%);fill-opacity:1;">
  <use xlink:href="#glyph3-3" x="207.59479" y="85.72973"/>
</g>
<g style="fill:rgb(100%,100%,100%);fill-opacity:1;">
  <use xlink:href="#glyph1-1" x="17.82819" y="70.54123"/>
</g>
<g style="fill:rgb(100%,100%,100%);fill-opacity:1;">
  <use xlink:href="#glyph2-1" x="26.86899" y="70.54123"/>
</g>
<path style="fill:none;stroke-width:3;stroke-linecap:round;stroke-linejoin:round;stroke:rgb(100%,100%,100%);stroke-opacity:1;stroke-miterlimit:10;" d="M -178.106509 0.00057375 L -178.106509 0.00057375 " transform="matrix(1,0,0,-1,204.09479,76.53573)"/>
<g style="fill:rgb(100%,100%,100%);fill-opacity:1;">
  <use xlink:href="#glyph2-1" x="378.55989" y="87.02483"/>
</g>
<path style="fill:none;stroke-width:3;stroke-linecap:round;stroke-linejoin:round;stroke:rgb(100%,100%,100%);stroke-opacity:1;stroke-miterlimit:10;" d="M 178.104429 0.00057375 L 178.104429 0.00057375 " transform="matrix(1,0,0,-1,204.09479,76.53573)"/>
</g>
</svg>
