%!PS
%%BoundingBox: -179 -120 171 120 
%%HiResBoundingBox: -178.58316 -119.05544 170.8287 119.05544 
%%Creator: MetaPost 2.02
%%CreationDate: 2024.01.06:1112
%%Pages: 1
%*Font: cmr10 9.96265 9.96265 2c:ae40000010000504318
%*Font: cmmi10 9.96265 9.96265 4f:80000000006
%*Font: eufm10 9.96265 9.96265 28:d4
%*Font: eurm10 9.96265 9.96265 0b:8002000000000083200000100004
%%BeginProlog
%%EndProlog
%%Page: 1 1
gsave newpath -255.11806 -170.0787 moveto
-255.11806 170.0787 lineto
255.11806 170.0787 lineto
255.11806 -170.0787 lineto
 closepath clip
gsave newpath -255.11806 -170.0787 moveto
-255.11806 170.0787 lineto
255.11806 170.0787 lineto
255.11806 -170.0787 lineto
 closepath clip
gsave newpath -255.11806 -170.0787 moveto
-255.11806 170.0787 lineto
255.11806 170.0787 lineto
255.11806 -170.0787 lineto
 closepath clip
gsave newpath -255.11806 -170.0787 moveto
-255.11806 170.0787 lineto
255.11806 170.0787 lineto
255.11806 -170.0787 lineto
 closepath clip
gsave newpath -255.11806 -170.0787 moveto
-255.11806 170.0787 lineto
255.11806 170.0787 lineto
255.11806 -170.0787 lineto
 closepath clip
gsave newpath -178.58316 -119.05544 moveto
-178.58316 119.05544 lineto
178.58316 119.05544 lineto
178.58316 -119.05544 lineto
 closepath clip
gsave newpath -255.11806 -170.0787 moveto
0 -170.0787 lineto
0 170.0787 lineto
-255.11806 170.0787 lineto
 closepath clip
 1 0.5 0 setrgbcolor
newpath -255.11806 -170.0787 moveto
0 -170.0787 lineto
0 170.0787 lineto
-255.11806 170.0787 lineto
 closepath fill
grestore
 1 1 1 setrgbcolor 0 1.1 dtransform truncate idtransform setlinewidth pop
 [] 0 setdash 1 setlinecap 1 setlinejoin 10 setmiterlimit
newpath -170.0787 0 moveto
170.0787 0 lineto stroke
newpath 166.38158 -1.53143 moveto
170.0787 0 lineto
166.38158 1.53143 lineto
 closepath
gsave fill grestore stroke
 1.1 0 dtransform exch truncate exch idtransform pop setlinewidth
newpath 0 -113.3858 moveto
0 113.3858 lineto stroke
 0 1.1 dtransform truncate idtransform setlinewidth pop
newpath 1.53079 109.69023 moveto
0 113.3858 lineto
-1.53079 109.69023 lineto
 closepath
gsave fill grestore stroke
164.39711 -9.2895 moveto
(x) cmmi10 9.96265 fshow
-10.2419 109.375 moveto
(y) cmmi10 9.96265 fshow
 1 0.7 0.7 setrgbcolor 0 1.5 dtransform truncate idtransform setlinewidth pop
newpath 0 0 moveto
0.33997 0 lineto
0.4533 0 0.59558 0 0.67995 0 curveto
0.79327 0 0.94719 0 1.01991 0 curveto
1.13324 0 1.28795 0 1.35988 0 curveto
1.4732 0 1.62805 -0.00002 1.69986 0 curveto
1.81319 0.00002 1.968 0.00003 2.03983 0 curveto
2.154 -0.00005 2.31021 -0.00012 2.38239 0 curveto
2.72237 0.00087 lineto
2.77844 0.00096 2.949 0.0009 3.06233 0.00087 curveto
3.4023 0.00087 lineto
3.51563 0.00084 3.68507 0.00078 3.74226 0.00087 curveto
4.08224 0.00172 lineto
4.42221 0.00172 lineto
4.53372 0.0018 4.64885 0.0022 4.76218 0.0026 curveto
5.10216 0.00346 lineto
5.44212 0.00346 lineto
5.51266 0.00352 5.66876 0.00398 5.78209 0.00432 curveto
6.12207 0.00519 lineto
6.2354 0.00548 6.4503 0.00603 6.46204 0.00606 curveto
6.57536 0.0063 6.73354 0.00664 6.802 0.00693 curveto
7.14458 0.00865 lineto
7.48454 0.00952 lineto
7.82451 0.01125 lineto
8.16449 0.01212 lineto
8.50446 0.01384 lineto
8.61778 0.01442 8.84114 0.01555 8.84442 0.01556 curveto
9.1844 0.01817 lineto
9.52437 0.0199 lineto
9.86433 0.02249 lineto
10.2043 0.02422 lineto
10.21367 0.02428 10.43095 0.02594 10.54428 0.02681 curveto
10.88425 0.02942 lineto
11.22421 0.03287 lineto
11.5642 0.03546 lineto
11.6542 0.03621 11.79257 0.0377 11.90675 0.03893 curveto
12.24672 0.04239 lineto
12.36005 0.04347 12.50302 0.04486 12.5867 0.04585 curveto
12.92667 0.05017 lineto
13.26663 0.05363 lineto
13.27315 0.05371 13.49329 0.0565 13.60661 0.05795 curveto
13.71994 0.0594 13.94348 0.06224 13.94658 0.06229 curveto
14.28654 0.06747 lineto
14.62653 0.07181 lineto
14.96649 0.077 lineto
15.30646 0.08305 lineto
15.64644 0.08824 lineto
15.72772 0.08955 15.87308 0.09222 15.9864 0.0943 curveto
16.32637 0.10034 lineto
16.44057 0.10231 16.58525 0.10481 16.66895 0.1064 curveto
16.74931 0.10793 16.89558 0.11098 17.00891 0.11333 curveto
17.34888 0.12024 lineto
17.4622 0.1225 17.59918 0.12523 17.68884 0.12717 curveto
17.77435 0.12901 17.9155 0.13231 18.02882 0.13495 curveto
18.36879 0.14273 lineto
18.48212 0.14528 18.62221 0.14842 18.70876 0.15053 curveto
19.04874 0.15916 lineto
19.16206 0.16203 19.35529 0.1669 19.3887 0.16782 curveto
19.72867 0.17734 lineto
20.06865 0.18599 lineto
20.40862 0.19637 lineto
20.74858 0.20589 lineto
20.75536 0.20609 20.97523 0.2128 21.08856 0.21626 curveto
21.43112 0.22665 lineto
21.5098 0.22914 21.65776 0.2341 21.77109 0.2379 curveto
22.11107 0.24915 lineto
22.2244 0.25285 22.3547 0.25713 22.45103 0.26039 curveto
22.791 0.27249 lineto
23.13097 0.28548 lineto
23.47095 0.29758 lineto
23.81091 0.31142 lineto
24.15088 0.3244 lineto
24.49086 0.33824 lineto
24.57304 0.34174 24.7175 0.34802 24.83083 0.35295 curveto
25.17079 0.36765 lineto
25.28412 0.37251 25.42368 0.3785 25.51077 0.38235 curveto
25.85074 0.39793 lineto
26.1933 0.41437 lineto
26.30663 0.41986 26.45227 0.42691 26.53328 0.4308 curveto
26.6466 0.43623 26.80074 0.44363 26.87325 0.44724 curveto
26.89854 0.44849 27.09988 0.45876 27.21321 0.46454 curveto
27.55319 0.48184 lineto
27.89316 0.5 lineto
27.98119 0.50485 28.1198 0.51266 28.23312 0.51904 curveto
28.5731 0.53807 lineto
28.68643 0.54436 28.83203 0.55244 28.91307 0.5571 curveto
29.25304 0.577 lineto
29.36636 0.58357 29.54651 0.59404 29.593 0.5969 curveto
29.93298 0.61852 lineto
30.27295 0.63928 lineto
30.61292 0.6609 lineto
30.95549 0.6834 lineto
31.29546 0.70676 lineto
31.63542 0.72925 lineto
31.67754 0.73213 31.86208 0.74536 31.9754 0.75348 curveto
32.31537 0.7777 lineto
32.3155 0.77771 32.542 0.79442 32.65533 0.80278 curveto
32.99532 0.82787 lineto
33.33528 0.85382 lineto
33.44861 0.86243 33.6306 0.87624 33.67525 0.87978 curveto
34.01523 0.90746 lineto
34.3552 0.93427 lineto
34.43526 0.94073 34.58185 0.95319 34.69516 0.96281 curveto
35.03514 0.99136 lineto
35.14847 1.0008 35.28484 1.01213 35.3751 1.01991 curveto
35.44507 1.02596 35.60349 1.04004 35.71767 1.05019 curveto
35.831 1.06026 36.02678 1.07767 36.05765 1.08046 curveto
36.086 1.08302 36.28429 1.10121 36.39761 1.1116 curveto
36.73758 1.14275 lineto
37.07755 1.17476 lineto
37.41753 1.20763 lineto
37.53085 1.21858 37.73767 1.23857 37.75749 1.24051 curveto
38.09746 1.27425 lineto
38.43744 1.30884 lineto
38.7774 1.34431 lineto
39.11737 1.37978 lineto
39.23071 1.39146 39.38176 1.40704 39.45735 1.41525 curveto
39.79732 1.45331 lineto
39.81982 1.45583 40.02396 1.47812 40.13728 1.49051 curveto
40.47986 1.52856 lineto
40.81982 1.5675 lineto
41.15979 1.60728 lineto
41.27312 1.62054 41.4809 1.64485 41.49977 1.64708 curveto
41.83974 1.68774 lineto
42.1797 1.72926 lineto
42.51968 1.77165 lineto
42.85965 1.81491 lineto
43.19962 1.85815 lineto
43.53958 1.90228 lineto
43.87956 1.94727 lineto
44.21953 1.9931 lineto
44.33286 2.00836 44.51762 2.03323 44.5595 2.03896 curveto
44.65355 2.05182 44.78789 2.07059 44.90207 2.08653 curveto
45.0154 2.10237 45.17734 2.125 45.24203 2.13411 curveto
45.582 2.18256 lineto
45.92198 2.23187 lineto
46.26195 2.28204 lineto
46.60191 2.33308 lineto
46.71524 2.3501 46.93115 2.3825 46.9419 2.38412 curveto
47.28186 2.43602 lineto
47.62183 2.48878 lineto
47.9618 2.54329 lineto
48.30177 2.59692 lineto
48.64174 2.65228 lineto
48.9817 2.70851 lineto
49.32169 2.76561 lineto
49.66425 2.82271 lineto
50.00421 2.88153 lineto
50.3442 2.94122 lineto
50.45752 2.9611 50.63132 2.99158 50.68416 3.00092 curveto
51.02412 3.06146 lineto
51.3641 3.12288 lineto
51.41039 3.13138 51.59076 3.16495 51.70407 3.18604 curveto
52.04404 3.24919 lineto
52.38402 3.3132 lineto
52.72398 3.37808 lineto
53.06395 3.44382 lineto
53.17729 3.46565 53.34593 3.49814 53.40393 3.50957 curveto
53.48302 3.52516 53.6306 3.555 53.7439 3.57791 curveto
54.08386 3.64626 lineto
54.19809 3.66913 54.32172 3.69388 54.42644 3.71545 curveto
54.7664 3.78639 lineto
55.10637 3.85646 lineto
55.44635 3.92825 lineto
55.78632 4.00093 lineto
56.12628 4.07446 lineto
56.16771 4.08354 56.35294 4.1246 56.46625 4.14972 curveto
56.80623 4.22498 lineto
57.1462 4.3011 lineto
57.48616 4.3781 lineto
57.54318 4.39117 57.71283 4.43053 57.82614 4.45682 curveto
58.1661 4.53554 lineto
58.50607 4.61513 lineto
58.56418 4.6289 58.73274 4.6693 58.84605 4.69644 curveto
58.96025 4.7238 59.14107 4.76714 59.18861 4.77863 curveto
59.52858 4.86166 lineto
59.86856 4.94557 lineto
60.20853 5.03035 lineto
60.5485 5.116 lineto
60.88847 5.2025 lineto
61.22844 5.29074 lineto
61.34177 5.32014 61.55606 5.37573 61.5684 5.37897 curveto
61.58316 5.38283 61.79506 5.43895 61.90839 5.46895 curveto
62.24835 5.55891 lineto
62.58832 5.6506 lineto
62.92828 5.74316 lineto
63.26826 5.8366 lineto
63.30429 5.8466 63.49492 5.90001 63.60823 5.93175 curveto
63.72243 5.96375 63.9248 6.02043 63.95079 6.02777 curveto
64.29077 6.12466 lineto
64.63074 6.22241 lineto
64.9707 6.32103 lineto
65.31068 6.42052 lineto
65.65065 6.52173 lineto
65.76398 6.55547 65.98718 6.62192 65.99062 6.62294 curveto
66.09511 6.65428 66.21732 6.69144 66.3306 6.72588 curveto
66.44395 6.76035 66.5662 6.79752 66.67056 6.82968 curveto
66.67322 6.83049 66.8972 6.90004 67.01053 6.93523 curveto
67.35051 7.04077 lineto
67.45763 7.07426 67.5772 7.11214 67.69048 7.14803 curveto
67.80383 7.18394 67.92366 7.22191 68.03044 7.25616 curveto
68.05731 7.26479 68.2571 7.32939 68.3704 7.36603 curveto
68.71298 7.47676 lineto
69.05295 7.58835 lineto
69.39291 7.70168 lineto
69.50624 7.73944 69.71272 7.80824 69.7329 7.815 curveto
69.83893 7.85059 69.95958 7.89157 70.07286 7.93005 curveto
70.18623 7.96857 70.30696 8.00958 70.41283 8.04597 curveto
70.7528 8.16362 lineto
70.86613 8.20284 71.09196 8.28098 71.09277 8.28127 curveto
71.20184 8.31924 71.31947 8.36072 71.43274 8.40065 curveto
71.54611 8.44061 71.66466 8.4824 71.77272 8.52089 curveto
72.11269 8.64287 lineto
72.45265 8.7657 lineto
72.79263 8.8894 lineto
73.1326 9.01398 lineto
73.47516 9.14201 lineto
73.58847 9.18471 73.78738 9.25964 73.81514 9.27003 curveto
74.1551 9.3972 lineto
74.25604 9.43541 74.38184 9.48405 74.49507 9.52783 curveto
74.6084 9.57166 74.81017 9.64967 74.83505 9.65932 curveto
75.17502 9.79167 lineto
75.51498 9.9249 lineto
75.85495 10.05984 lineto
75.96829 10.1048 76.16537 10.18297 76.19493 10.1948 curveto
76.5349 10.33234 lineto
76.87486 10.47075 lineto
77.21484 10.61002 lineto
77.55481 10.75102 lineto
77.89478 10.8929 lineto
78.23735 11.03737 lineto
78.57732 11.18182 lineto
78.91728 11.32716 lineto
79.25726 11.47423 lineto
79.59723 11.62302 lineto
79.71057 11.67256 79.89427 11.75285 79.9372 11.7718 curveto
79.94772 11.77646 80.16385 11.87271 80.27718 11.92319 curveto
80.61714 12.07458 lineto
80.71161 12.11697 80.84386 12.17708 80.9571 12.22856 curveto
81.07048 12.28009 81.21313 12.34492 81.29709 12.3834 curveto
81.63705 12.53998 lineto
81.7504 12.59213 81.94315 12.68083 81.97702 12.69656 curveto
82.00536 12.70972 82.20367 12.80264 82.31699 12.85573 curveto
82.65697 13.01491 lineto
82.99953 13.17754 lineto
83.10512 13.22795 83.22618 13.28592 83.3395 13.34016 curveto
83.45291 13.39447 83.56792 13.44952 83.67947 13.50366 curveto
84.01944 13.66975 lineto
84.13277 13.72511 84.34752 13.83 84.3594 13.83585 curveto
84.36179 13.83702 84.58606 13.9483 84.69939 14.00453 curveto
84.81271 14.06076 85.03726 14.17218 85.03935 14.17323 curveto
85.37932 14.34451 lineto
85.49265 14.4016 85.71667 14.51445 85.7193 14.5158 curveto
86.05927 14.68967 lineto
86.1726 14.74759 86.37556 14.8513 86.39923 14.86354 curveto
86.73921 15.04088 lineto
87.07918 15.21736 lineto
87.42174 15.39816 lineto
87.76172 15.57895 lineto
87.8751 15.6391 88.03526 15.72408 88.10168 15.75975 curveto
88.14326 15.78207 88.32835 15.88254 88.44165 15.94402 curveto
88.78162 16.12827 lineto
88.86554 16.17393 89.00832 16.25217 89.1216 16.31425 curveto
89.235 16.3764 89.36826 16.44942 89.46156 16.50111 curveto
89.80153 16.69057 lineto
89.91487 16.7537 90.11725 16.86638 90.14151 16.88002 curveto
90.2098 16.91841 90.36823 17.0085 90.48148 17.07292 curveto
90.48529 17.07509 90.70811 17.20154 90.82144 17.26584 curveto
91.16142 17.45961 lineto
91.50139 17.65598 lineto
91.84135 17.85408 lineto
91.91548 17.89742 92.06975 17.98785 92.18393 18.05478 curveto
92.29733 18.12125 92.42122 18.19386 92.5239 18.25461 curveto
92.62312 18.31331 92.75061 18.38942 92.86386 18.45703 curveto
92.97723 18.52472 93.11272 18.6056 93.20384 18.66032 curveto
93.29599 18.71567 93.43053 18.79692 93.54381 18.86534 curveto
93.65721 18.93384 93.78473 19.01086 93.88377 19.07123 curveto
93.98317 19.1318 94.1105 19.21008 94.22375 19.27971 curveto
94.33713 19.34941 94.47217 19.43243 94.56372 19.48904 curveto
94.64952 19.5421 94.7904 19.62968 94.90369 19.70012 curveto
95.01709 19.77063 95.14615 19.85086 95.24365 19.91206 curveto
95.58363 20.1266 lineto
95.69698 20.19809 95.89755 20.32458 95.9236 20.34114 curveto
95.97798 20.37573 96.1503 20.48639 96.26357 20.55913 curveto
96.60355 20.77713 lineto
96.9461 20.99858 lineto
97.05371 21.06862 97.17282 21.14668 97.28607 21.22092 curveto
97.39944 21.29523 97.52145 21.3752 97.62605 21.44409 curveto
97.96602 21.669 lineto
98.30598 21.89566 lineto
98.64597 22.12404 lineto
98.98593 22.35329 lineto
99.3259 22.58426 lineto
99.66588 22.81696 lineto
99.76242 22.88333 99.89256 22.97318 100.00584 23.05139 curveto
100.11925 23.1297 100.24211 23.21452 100.34581 23.28668 curveto
100.45554 23.36304 100.57256 23.44514 100.68579 23.52458 curveto
100.79915 23.60411 100.92236 23.69057 101.02576 23.76334 curveto
101.36572 24.00383 lineto
101.7083 24.24864 lineto
101.8217 24.32956 101.99417 24.45264 102.04826 24.49171 curveto
102.38823 24.73914 lineto
102.7282 24.9848 lineto
103.06818 25.23482 lineto
103.40814 25.48395 lineto
103.74811 25.73741 lineto
104.08809 25.99002 lineto
104.1697 26.051 104.31483 26.16058 104.42805 26.24608 curveto
104.54141 26.33167 104.7174 26.46457 104.76802 26.50299 curveto
104.87138 26.58147 104.99477 26.67587 105.108 26.76251 curveto
105.22136 26.84926 105.35641 26.95259 105.44797 27.0229 curveto
105.78793 27.28502 lineto
106.12791 27.54886 lineto
106.47047 27.81616 lineto
106.81044 28.08347 lineto
107.15042 28.35251 lineto
107.49039 28.62413 lineto
107.60374 28.71463 107.79657 28.8686 107.83035 28.89577 curveto
107.8557 28.91615 108.05702 29.07913 108.17032 29.17085 curveto
108.5103 29.44595 lineto
108.5514 29.47935 108.73697 29.63104 108.85027 29.72363 curveto
108.9637 29.81635 109.11465 29.93973 109.19023 30.00218 curveto
109.53021 30.28506 lineto
109.87018 30.56708 lineto
109.91554 30.60486 110.09686 30.75677 110.21014 30.85168 curveto
110.32356 30.94672 110.47903 31.07698 110.55013 31.13715 curveto
110.57326 31.15672 110.7768 31.3303 110.89009 31.42694 curveto
111.23265 31.71848 lineto
111.57263 32.01 lineto
111.6606 32.08585 111.79933 32.20601 111.9126 32.30412 curveto
112.026 32.40236 112.15805 32.51674 112.25256 32.5991 curveto
112.33577 32.67163 112.47928 32.79742 112.59254 32.8967 curveto
112.70593 32.9961 112.84833 33.12091 112.93251 33.19514 curveto
112.99544 33.25064 113.1592 33.39578 113.27248 33.49619 curveto
113.3859 33.59671 113.53218 33.72638 113.61246 33.7981 curveto
113.63654 33.81961 113.83913 34.00165 113.95242 34.10345 curveto
114.29239 34.40883 lineto
114.36191 34.47151 114.51909 34.61407 114.63235 34.7168 curveto
114.74576 34.81966 114.8963 34.95619 114.97234 35.02562 curveto
115.07475 35.11914 115.19911 35.23367 115.3123 35.3379 curveto
115.42564 35.44228 115.59673 35.59984 115.65227 35.65106 curveto
115.99484 35.96854 lineto
116.33481 36.28688 lineto
116.67477 36.60435 lineto
116.74004 36.66568 116.90152 36.8188 117.01476 36.92616 curveto
117.12813 37.03366 117.30592 37.20226 117.35472 37.24884 curveto
117.69469 37.57497 lineto
118.03467 37.90022 lineto
118.10023 37.96324 118.26138 38.1193 118.37463 38.22896 curveto
118.48802 38.33876 118.65437 38.49983 118.7146 38.55855 curveto
119.05458 38.89159 lineto
119.16792 39.00258 119.37308 39.20348 119.39455 39.22464 curveto
119.41498 39.24478 119.62122 39.44952 119.73451 39.56201 curveto
120.0745 39.8994 lineto
120.11499 39.93979 120.30118 40.12659 120.41446 40.24023 curveto
120.75702 40.58366 lineto
121.097 40.9271 lineto
121.43697 41.27312 lineto
121.77693 41.62088 lineto
122.1169 41.97037 lineto
122.45688 42.32158 lineto
122.79684 42.67625 lineto
123.13681 43.03006 lineto
123.2158 43.11272 123.36359 43.2687 123.47679 43.3882 curveto
123.59013 43.50784 123.7807 43.709 123.81676 43.74721 curveto
123.85709 43.78995 124.04343 43.98824 124.15672 44.1088 curveto
124.27017 44.2295 124.41925 44.38815 124.4967 44.47127 curveto
124.83667 44.83804 lineto
125.17664 45.20398 lineto
125.51921 45.57596 lineto
125.85918 45.94879 lineto
125.9725 46.07278 126.19638 46.31772 126.19914 46.32077 curveto
126.53912 46.69794 lineto
126.87909 47.07338 lineto
127.21906 47.45488 lineto
127.55904 47.83464 lineto
127.899 48.21959 lineto
128.23897 48.60368 lineto
128.57893 48.99295 lineto
128.91891 49.38051 lineto
129.25888 49.77411 lineto
129.59885 50.16599 lineto
129.94142 50.56564 lineto
130.28139 50.96445 lineto
130.39473 51.09706 130.6002 51.33745 130.62135 51.36237 curveto
130.68484 51.43715 130.84811 51.63103 130.96133 51.76549 curveto
131.07469 51.90012 131.26363 52.1245 131.3013 52.16948 curveto
131.64127 52.57692 lineto
131.98125 52.9835 lineto
132.32121 53.39613 lineto
132.66118 53.80704 lineto
132.76582 53.93399 132.88803 54.0837 133.00116 54.22227 curveto
133.11456 54.36119 133.24814 54.52483 133.34113 54.63924 curveto
133.42097 54.73747 133.56784 54.91888 133.68109 55.05879 curveto
133.7945 55.19887 133.93712 55.37505 134.02106 55.47922 curveto
134.36104 55.90309 lineto
134.7036 56.33217 lineto
134.81705 56.47423 134.95688 56.6493 135.04356 56.75865 curveto
135.38354 57.18945 lineto
135.49687 57.33305 135.718 57.61324 135.72351 57.62025 curveto
135.75533 57.66078 135.9502 57.91031 136.06348 58.05537 curveto
136.40346 58.49051 lineto
136.74342 58.9291 lineto
137.08339 59.37029 lineto
137.42337 59.81406 lineto
137.53673 59.96196 137.72578 60.20862 137.76334 60.25783 curveto
137.76701 60.26265 137.98999 60.556 138.1033 60.70508 curveto
138.21677 60.85434 138.37616 61.06407 138.44328 61.15318 curveto
138.78325 61.60733 lineto
139.12321 62.05977 lineto
139.46579 62.51912 lineto
139.80576 62.97847 lineto
139.91914 63.13153 140.09811 63.37311 140.14572 63.43782 curveto
140.4857 63.90236 lineto
140.82567 64.36603 lineto
141.16563 64.8349 lineto
141.5056 65.30289 lineto
141.84558 65.77608 lineto
142.18555 66.24841 lineto
142.20477 66.27527 142.41222 66.56673 142.52551 66.72592 curveto
142.8655 67.20345 lineto
143.20546 67.68529 lineto
143.31879 67.8459 143.54321 68.16399 143.54543 68.16713 curveto
143.63931 68.30084 143.77225 68.4917 143.8854 68.65416 curveto
144.22797 69.14551 lineto
144.3415 69.30827 144.45651 69.47314 144.56793 69.63428 curveto
144.56824 69.63472 144.79459 69.96358 144.90791 70.12822 curveto
145.02124 70.29286 145.24422 70.61682 145.24788 70.62218 curveto
145.58784 71.12045 lineto
145.92783 71.61787 lineto
145.98714 71.70505 146.15456 71.95288 146.26779 72.12047 curveto
146.38115 72.28825 146.57097 72.56921 146.60776 72.62393 curveto
146.94774 73.13173 lineto
147.06107 73.301 147.2834 73.63306 147.2877 73.63953 curveto
147.62767 74.15164 lineto
147.741 74.32234 147.95668 74.64719 147.96764 74.66376 curveto
148.01656 74.73781 148.19437 75.00859 148.30762 75.18108 curveto
148.64758 75.69838 lineto
148.99014 76.22261 lineto
149.33012 76.74597 lineto
149.67009 77.27107 lineto
150.01006 77.79875 lineto
150.35004 78.32904 lineto
150.69 78.8628 lineto
150.80333 79.04042 151.02611 79.38959 151.02997 79.39568 curveto
151.36995 79.9346 lineto
151.70992 80.47267 lineto
151.76567 80.5613 151.93665 80.8348 152.04988 81.01593 curveto
152.16325 81.19728 152.3526 81.50015 152.38986 81.56006 curveto
152.72983 82.1085 lineto
153.0698 82.6561 lineto
153.17166 82.82095 153.29666 83.02505 153.40976 83.20975 curveto
153.75233 83.76857 lineto
153.86586 83.95357 153.99437 84.16296 154.0923 84.32394 curveto
154.43227 84.88538 lineto
154.77225 85.44594 lineto
154.83263 85.54582 154.99898 85.82248 155.11221 86.01082 curveto
155.22559 86.19937 155.4041 86.49626 155.45218 86.57657 curveto
155.50766 86.66925 155.6789 86.95659 155.79216 87.14665 curveto
155.90555 87.33693 156.07646 87.62373 156.13213 87.71759 curveto
156.16028 87.76506 156.3588 88.10109 156.47209 88.29286 curveto
156.58551 88.48485 156.75407 88.77019 156.81207 88.86899 curveto
157.15204 89.45032 lineto
157.492 90.0299 lineto
157.83199 90.61555 lineto
158.17195 91.20035 lineto
158.51451 91.79465 lineto
158.85449 92.38722 lineto
158.96794 92.58467 159.13142 92.8692 159.19446 92.97978 curveto
159.53442 93.57927 lineto
159.8744 94.17703 lineto
159.96333 94.33391 160.10121 94.5789 160.21437 94.77998 curveto
160.32777 94.98149 160.48015 95.25223 160.55434 95.38466 curveto
160.8943 95.99281 lineto
161.00766 96.19522 161.21538 96.56607 161.23428 96.60008 curveto
161.57425 97.21515 lineto
161.91422 97.82848 lineto
162.2542 98.44786 lineto
162.59416 99.06552 lineto
162.65584 99.17819 162.82094 99.4824 162.93413 99.69096 curveto
163.01068 99.83203 163.16246 100.11084 163.2767 100.32072 curveto
163.61667 100.94704 lineto
163.66626 101.03883 163.84337 101.36801 163.95663 101.57854 curveto
164.07002 101.78929 164.24507 102.11467 164.29662 102.21089 curveto
164.63658 102.84758 lineto
164.74994 103.05978 164.94777 103.43008 164.97655 103.48427 curveto
165.31653 104.12701 lineto
165.6565 104.76889 lineto
165.99646 105.4177 lineto
166.33644 106.06563 lineto
166.6764 106.71788 lineto
166.7898 106.93527 166.98239 107.30455 167.01637 107.37015 curveto
167.35634 108.03018 lineto
167.36363 108.04434 167.583 108.46849 167.69632 108.68764 curveto
168.03888 109.35373 lineto
168.37885 110.02243 lineto
168.71883 110.68767 lineto
168.77821 110.80429 168.94557 111.13515 169.05879 111.35896 curveto
169.17212 111.58301 169.38585 112.0055 169.39876 112.03111 curveto
169.48555 112.20331 169.62553 112.4826 169.73874 112.70845 curveto
170.0787 113.3858 lineto stroke
 [0 2.5 ] 1.25 setdash
newpath -170.0787 -113.3858 moveto
-169.73874 -112.70845 lineto
-169.62553 -112.4826 -169.48479 -112.2018 -169.39876 -112.03111 curveto
-169.38585 -112.00551 -169.17212 -111.58301 -169.05879 -111.35896 curveto
-168.94557 -111.13515 -168.77843 -110.80472 -168.71883 -110.68767 curveto
-168.37885 -110.02243 lineto
-168.03888 -109.35373 lineto
-167.69632 -108.68764 lineto
-167.583 -108.46849 -167.35992 -108.03714 -167.35634 -108.03018 curveto
-167.01637 -107.37015 lineto
-166.98363 -107.30693 -166.7898 -106.93527 -166.6764 -106.71788 curveto
-166.33644 -106.06563 lineto
-165.99646 -105.4177 lineto
-165.6565 -104.76889 lineto
-165.31653 -104.12701 lineto
-164.97655 -103.48427 lineto
-164.94788 -103.4303 -164.74994 -103.05978 -164.63658 -102.84758 curveto
-164.29662 -102.21089 lineto
-164.24341 -102.11156 -164.07002 -101.78929 -163.95663 -101.57854 curveto
-163.84337 -101.36801 -163.66812 -101.04227 -163.61667 -100.94704 curveto
-163.2767 -100.32072 lineto
-163.16246 -100.11084 -163.00891 -99.82877 -162.93413 -99.69096 curveto
-162.82094 -99.4824 -162.65565 -99.17784 -162.59416 -99.06552 curveto
-162.2542 -98.44786 lineto
-161.91422 -97.82848 lineto
-161.57425 -97.21515 lineto
-161.23428 -96.60008 lineto
-161.21643 -96.56798 -161.00766 -96.19522 -160.8943 -95.99281 curveto
-160.55434 -95.38466 lineto
-160.4799 -95.25179 -160.32777 -94.98149 -160.21437 -94.77998 curveto
-160.10121 -94.5789 -159.9635 -94.33421 -159.8744 -94.17703 curveto
-159.53442 -93.57927 lineto
-159.19446 -92.97978 lineto
-159.1316 -92.86952 -158.96794 -92.58467 -158.85449 -92.38722 curveto
-158.51451 -91.79465 lineto
-158.17195 -91.20035 lineto
-157.83199 -90.61555 lineto
-157.492 -90.0299 lineto
-157.15204 -89.45032 lineto
-156.81207 -88.86899 lineto
-156.75395 -88.76999 -156.58551 -88.48485 -156.47209 -88.29286 curveto
-156.3588 -88.10109 -156.16008 -87.76472 -156.13213 -87.71759 curveto
-156.07645 -87.62372 -155.90555 -87.33693 -155.79216 -87.14665 curveto
-155.6789 -86.95659 -155.50778 -86.66945 -155.45218 -86.57657 curveto
-155.40562 -86.49881 -155.22559 -86.19937 -155.11221 -86.01082 curveto
-154.99896 -85.82248 -154.8314 -85.54381 -154.77225 -85.44594 curveto
-154.43227 -84.88538 lineto
-154.0923 -84.32394 lineto
-153.9937 -84.16188 -153.86586 -83.95357 -153.75233 -83.76857 curveto
-153.40976 -83.20975 lineto
-153.29666 -83.02505 -153.17155 -82.82076 -153.0698 -82.6561 curveto
-152.72983 -82.1085 lineto
-152.38986 -81.56006 lineto
-152.35263 -81.5002 -152.16325 -81.19728 -152.04988 -81.01593 curveto
-151.93665 -80.8348 -151.76569 -80.56133 -151.70992 -80.47267 curveto
-151.36995 -79.9346 lineto
-151.02997 -79.39568 lineto
-151.02556 -79.38873 -150.80333 -79.04042 -150.69 -78.8628 curveto
-150.35004 -78.32904 lineto
-150.01006 -77.79875 lineto
-149.67009 -77.27107 lineto
-149.33012 -76.74597 lineto
-148.99014 -76.22261 lineto
-148.64758 -75.69838 lineto
-148.30762 -75.18108 lineto
-148.19437 -75.00859 -148.01643 -74.73763 -147.96764 -74.66376 curveto
-147.95692 -74.64754 -147.741 -74.32234 -147.62767 -74.15164 curveto
-147.2877 -73.63953 lineto
-147.28343 -73.63312 -147.06107 -73.301 -146.94774 -73.13173 curveto
-146.60776 -72.62393 lineto
-146.57108 -72.56938 -146.38115 -72.28827 -146.26779 -72.12047 curveto
-146.15456 -71.95288 -145.98721 -71.70517 -145.92783 -71.61787 curveto
-145.58784 -71.12045 lineto
-145.24788 -70.62218 lineto
-145.24504 -70.61804 -145.02124 -70.29288 -144.90791 -70.12822 curveto
-144.79459 -69.96358 -144.56909 -69.63597 -144.56793 -69.63428 curveto
-144.4571 -69.474 -144.3415 -69.30827 -144.22797 -69.14551 curveto
-143.8854 -68.65416 lineto
-143.77225 -68.4917 -143.64038 -68.30235 -143.54543 -68.16713 curveto
-143.5437 -68.16467 -143.31879 -67.8459 -143.20546 -67.68529 curveto
-142.8655 -67.20345 lineto
-142.52551 -66.72592 lineto
-142.41222 -66.56673 -142.20486 -66.27538 -142.18555 -66.24841 curveto
-141.84558 -65.77608 lineto
-141.5056 -65.30289 lineto
-141.16563 -64.8349 lineto
-140.82567 -64.36603 lineto
-140.4857 -63.90236 lineto
-140.14572 -63.43782 lineto
-140.0979 -63.37282 -139.91914 -63.13153 -139.80576 -62.97847 curveto
-139.46579 -62.51912 lineto
-139.12321 -62.05977 lineto
-138.78325 -61.60733 lineto
-138.44328 -61.15318 lineto
-138.37636 -61.06433 -138.21677 -60.85435 -138.1033 -60.70508 curveto
-137.98999 -60.55598 -137.76836 -60.2644 -137.76334 -60.25783 curveto
-137.72772 -60.21117 -137.53673 -59.96196 -137.42337 -59.81406 curveto
-137.08339 -59.37029 lineto
-136.74342 -58.9291 lineto
-136.40346 -58.49051 lineto
-136.06348 -58.05537 lineto
-135.9502 -57.91031 -135.75536 -57.6608 -135.72351 -57.62025 curveto
-135.71667 -57.61156 -135.49687 -57.33305 -135.38354 -57.18945 curveto
-135.04356 -56.75865 lineto
-134.95732 -56.64987 -134.81705 -56.47423 -134.7036 -56.33217 curveto
-134.36104 -55.90309 lineto
-134.02106 -55.47922 lineto
-133.93674 -55.37459 -133.7945 -55.19887 -133.68109 -55.05879 curveto
-133.56784 -54.91888 -133.42134 -54.73793 -133.34113 -54.63924 curveto
-133.24788 -54.5245 -133.11456 -54.36119 -133.00116 -54.22227 curveto
-132.88803 -54.0837 -132.766 -53.93422 -132.66118 -53.80704 curveto
-132.32121 -53.39613 lineto
-131.98125 -52.9835 lineto
-131.64127 -52.57692 lineto
-131.3013 -52.16948 lineto
-131.26347 -52.1243 -131.07469 -51.90012 -130.96133 -51.76549 curveto
-130.84811 -51.63103 -130.68495 -51.43727 -130.62135 -51.36237 curveto
-130.6001 -51.33733 -130.39473 -51.09706 -130.28139 -50.96445 curveto
-129.94142 -50.56564 lineto
-129.59885 -50.16599 lineto
-129.25888 -49.77411 lineto
-128.91891 -49.38051 lineto
-128.57893 -48.99295 lineto
-128.23897 -48.60368 lineto
-127.899 -48.21959 lineto
-127.55904 -47.83464 lineto
-127.21906 -47.45488 lineto
-126.87909 -47.07338 lineto
-126.53912 -46.69794 lineto
-126.19914 -46.32077 lineto
-126.19666 -46.31802 -125.9725 -46.07278 -125.85918 -45.94879 curveto
-125.51921 -45.57596 lineto
-125.17664 -45.20398 lineto
-124.83667 -44.83804 lineto
-124.4967 -44.47127 lineto
-124.42021 -44.38918 -124.27016 -44.2295 -124.15672 -44.1088 curveto
-124.04343 -43.98824 -123.85503 -43.78777 -123.81676 -43.74721 curveto
-123.78046 -43.70874 -123.59013 -43.50784 -123.47679 -43.3882 curveto
-123.36359 -43.2687 -123.21568 -43.11258 -123.13681 -43.03006 curveto
-122.79684 -42.67625 lineto
-122.45688 -42.32158 lineto
-122.1169 -41.97037 lineto
-121.77693 -41.62088 lineto
-121.43697 -41.27312 lineto
-121.097 -40.9271 lineto
-120.75702 -40.58366 lineto
-120.41446 -40.24023 lineto
-120.30118 -40.12659 -120.11478 -39.93956 -120.0745 -39.8994 curveto
-119.73451 -39.56201 lineto
-119.62122 -39.44952 -119.41512 -39.24492 -119.39455 -39.22464 curveto
-119.37297 -39.20337 -119.16792 -39.00258 -119.05458 -38.89159 curveto
-118.7146 -38.55855 lineto
-118.6547 -38.50014 -118.48802 -38.33876 -118.37463 -38.22896 curveto
-118.2614 -38.1193 -118.10037 -37.96338 -118.03467 -37.90022 curveto
-117.69469 -37.57497 lineto
-117.35472 -37.24884 lineto
-117.30586 -37.2022 -117.12813 -37.03366 -117.01476 -36.92616 curveto
-116.90152 -36.8188 -116.74005 -36.6657 -116.67477 -36.60435 curveto
-116.33481 -36.28688 lineto
-115.99484 -35.96854 lineto
-115.65227 -35.65106 lineto
-115.5966 -35.59972 -115.42564 -35.44228 -115.3123 -35.3379 curveto
-115.19911 -35.23367 -115.07481 -35.1192 -114.97234 -35.02562 curveto
-114.89734 -34.95712 -114.74576 -34.81966 -114.63235 -34.7168 curveto
-114.51909 -34.61407 -114.36058 -34.47032 -114.29239 -34.40883 curveto
-113.95242 -34.10345 lineto
-113.83913 -34.00165 -113.63481 -33.81807 -113.61246 -33.7981 curveto
-113.53229 -33.72647 -113.3859 -33.59671 -113.27248 -33.49619 curveto
-113.1592 -33.39578 -112.99553 -33.25072 -112.93251 -33.19514 curveto
-112.84885 -33.12137 -112.70593 -32.9961 -112.59254 -32.8967 curveto
-112.4793 -32.79742 -112.33554 -32.67142 -112.25256 -32.5991 curveto
-112.15837 -32.517 -112.026 -32.40236 -111.9126 -32.30412 curveto
-111.79933 -32.20601 -111.65991 -32.08525 -111.57263 -32.01 curveto
-111.23265 -31.71848 lineto
-110.89009 -31.42694 lineto
-110.7768 -31.3303 -110.57437 -31.15767 -110.55013 -31.13715 curveto
-110.47891 -31.07687 -110.32356 -30.94672 -110.21014 -30.85168 curveto
-110.09686 -30.75677 -109.9155 -30.60481 -109.87018 -30.56708 curveto
-109.53021 -30.28506 lineto
-109.19023 -30.00218 lineto
-109.11455 -29.93965 -108.9637 -29.81635 -108.85027 -29.72363 curveto
-108.73697 -29.63104 -108.55165 -29.47957 -108.5103 -29.44595 curveto
-108.17032 -29.17085 lineto
-108.05702 -29.07913 -107.85428 -28.91501 -107.83035 -28.89577 curveto
-107.79672 -28.86871 -107.60374 -28.71463 -107.49039 -28.62413 curveto
-107.15042 -28.35251 lineto
-106.81044 -28.08347 lineto
-106.47047 -27.81616 lineto
-106.12791 -27.54886 lineto
-105.78793 -27.28502 lineto
-105.44797 -27.0229 lineto
-105.35469 -26.95126 -105.22136 -26.84926 -105.108 -26.76251 curveto
-104.99478 -26.67587 -104.87238 -26.58221 -104.76802 -26.50299 curveto
-104.71692 -26.46419 -104.54141 -26.33167 -104.42805 -26.24608 curveto
-104.31483 -26.16058 -104.1695 -26.05084 -104.08809 -25.99002 curveto
-103.74811 -25.73741 lineto
-103.40814 -25.48395 lineto
-103.06818 -25.23482 lineto
-102.7282 -24.9848 lineto
-102.38823 -24.73914 lineto
-102.04826 -24.49171 lineto
-101.99437 -24.45279 -101.8217 -24.32956 -101.7083 -24.24864 curveto
-101.36572 -24.00383 lineto
-101.02576 -23.76334 lineto
-100.92009 -23.68896 -100.79915 -23.60411 -100.68579 -23.52458 curveto
-100.57257 -23.44514 -100.4564 -23.36363 -100.34581 -23.28668 curveto
-100.24219 -23.21457 -100.11925 -23.1297 -100.00584 -23.05139 curveto
-99.89256 -22.97318 -99.76233 -22.88326 -99.66588 -22.81696 curveto
-99.3259 -22.58426 lineto
-98.98593 -22.35329 lineto
-98.64597 -22.12404 lineto
-98.30598 -21.89566 lineto
-97.96602 -21.669 lineto
-97.62605 -21.44409 lineto
-97.5216 -21.3753 -97.39944 -21.29523 -97.28607 -21.22092 curveto
-97.17282 -21.14668 -97.05357 -21.06853 -96.9461 -20.99858 curveto
-96.60355 -20.77713 lineto
-96.26357 -20.55913 lineto
-96.1503 -20.48639 -95.97769 -20.37553 -95.9236 -20.34114 curveto
-95.89676 -20.32408 -95.69698 -20.19807 -95.58363 -20.1266 curveto
-95.24365 -19.91206 lineto
-95.14719 -19.8515 -95.01709 -19.77063 -94.90369 -19.70012 curveto
-94.7904 -19.6297 -94.6472 -19.54066 -94.56372 -19.48904 curveto
-94.47017 -19.4312 -94.33713 -19.34941 -94.22375 -19.27971 curveto
-94.1105 -19.21008 -93.98427 -19.13246 -93.88377 -19.07123 curveto
-93.78326 -19.00998 -93.65721 -18.93384 -93.54381 -18.86534 curveto
-93.43054 -18.79692 -93.29823 -18.717 -93.20384 -18.66032 curveto
-93.1122 -18.6053 -92.97723 -18.52472 -92.86386 -18.45703 curveto
-92.75061 -18.38942 -92.62357 -18.31358 -92.5239 -18.25461 curveto
-92.42128 -18.1939 -92.29733 -18.12125 -92.18393 -18.05478 curveto
-92.06975 -17.98785 -91.91505 -17.89717 -91.84135 -17.85408 curveto
-91.50139 -17.65598 lineto
-91.16142 -17.45961 lineto
-90.82144 -17.26584 lineto
-90.70811 -17.20154 -90.48274 -17.07364 -90.48148 -17.07292 curveto
-90.36823 -17.0085 -90.21074 -16.91893 -90.14151 -16.88002 curveto
-90.11922 -16.8675 -89.91487 -16.7537 -89.80153 -16.69057 curveto
-89.46156 -16.50111 lineto
-89.36931 -16.45 -89.235 -16.3764 -89.1216 -16.31425 curveto
-89.00832 -16.25218 -88.8638 -16.17297 -88.78162 -16.12827 curveto
-88.44165 -15.94402 lineto
-88.32835 -15.88254 -88.14305 -15.78197 -88.10168 -15.75975 curveto
-88.03513 -15.724 -87.8751 -15.6391 -87.76172 -15.57895 curveto
-87.42174 -15.39816 lineto
-87.07918 -15.21736 lineto
-86.73921 -15.04088 lineto
-86.39923 -14.86354 lineto
-86.37555 -14.8513 -86.1726 -14.74759 -86.05927 -14.68967 curveto
-85.7193 -14.5158 lineto
-85.71881 -14.51555 -85.49265 -14.40161 -85.37932 -14.34451 curveto
-85.03935 -14.17323 lineto
-85.03716 -14.17213 -84.81271 -14.06076 -84.69939 -14.00453 curveto
-84.58606 -13.9483 -84.36165 -13.83696 -84.3594 -13.83585 curveto
-84.34805 -13.83026 -84.13277 -13.72511 -84.01944 -13.66975 curveto
-83.67947 -13.50366 lineto
-83.56808 -13.4496 -83.45291 -13.39447 -83.3395 -13.34016 curveto
-83.22618 -13.28592 -83.10402 -13.22743 -82.99953 -13.17754 curveto
-82.65697 -13.01491 lineto
-82.31699 -12.85573 lineto
-82.20367 -12.80264 -82.0036 -12.70891 -81.97702 -12.69656 curveto
-81.94333 -12.68092 -81.7504 -12.59213 -81.63705 -12.53998 curveto
-81.29709 -12.3834 lineto
-81.21324 -12.34497 -81.07048 -12.28009 -80.9571 -12.22856 curveto
-80.84386 -12.17708 -80.71158 -12.11696 -80.61714 -12.07458 curveto
-80.27718 -11.92319 lineto
-80.16385 -11.87271 -79.94717 -11.77621 -79.9372 -11.7718 curveto
-79.89398 -11.75273 -79.71057 -11.67256 -79.59723 -11.62302 curveto
-79.25726 -11.47423 lineto
-78.91728 -11.32716 lineto
-78.57732 -11.18182 lineto
-78.23735 -11.03737 lineto
-77.89478 -10.8929 lineto
-77.55481 -10.75102 lineto
-77.21484 -10.61002 lineto
-76.87486 -10.47075 lineto
-76.5349 -10.33234 lineto
-76.19493 -10.1948 lineto
-76.1647 -10.1827 -75.96829 -10.1048 -75.85495 -10.05984 curveto
-75.51498 -9.9249 lineto
-75.17502 -9.79167 lineto
-74.83505 -9.65932 lineto
-74.80946 -9.6494 -74.6084 -9.57166 -74.49507 -9.52783 curveto
-74.38184 -9.48405 -74.2561 -9.43542 -74.1551 -9.3972 curveto
-73.81514 -9.27003 lineto
-73.7895 -9.26045 -73.58849 -9.18471 -73.47516 -9.14201 curveto
-73.1326 -9.01398 lineto
-72.79263 -8.8894 lineto
-72.45265 -8.7657 lineto
-72.11269 -8.64287 lineto
-71.77272 -8.52089 lineto
-71.66473 -8.48244 -71.54611 -8.44061 -71.43274 -8.40065 curveto
-71.31947 -8.36072 -71.20178 -8.31923 -71.09277 -8.28127 curveto
-70.7528 -8.16362 lineto
-70.63948 -8.1244 -70.41298 -8.04602 -70.41283 -8.04597 curveto
-70.30727 -8.00967 -70.18623 -7.96857 -70.07286 -7.93005 curveto
-69.95958 -7.89157 -69.83856 -7.85046 -69.7329 -7.815 curveto
-69.71268 -7.80821 -69.50624 -7.73944 -69.39291 -7.70168 curveto
-69.05295 -7.58835 lineto
-68.71298 -7.47676 lineto
-68.3704 -7.36603 lineto
-68.2571 -7.32939 -68.06046 -7.2658 -68.03044 -7.25616 curveto
-67.92271 -7.2216 -67.80383 -7.18394 -67.69048 -7.14803 curveto
-67.5772 -7.11214 -67.45851 -7.07454 -67.35051 -7.04077 curveto
-67.01053 -6.93523 lineto
-66.8972 -6.90004 -66.67317 -6.83049 -66.67056 -6.82968 curveto
-66.56506 -6.79716 -66.44395 -6.76035 -66.3306 -6.72588 curveto
-66.21732 -6.69144 -66.09625 -6.65462 -65.99062 -6.62294 curveto
-65.98743 -6.62198 -65.76398 -6.55547 -65.65065 -6.52173 curveto
-65.31068 -6.42052 lineto
-64.9707 -6.32103 lineto
-64.63074 -6.22241 lineto
-64.29077 -6.12466 lineto
-63.95079 -6.02777 lineto
-63.92535 -6.02058 -63.72243 -5.96375 -63.60823 -5.93175 curveto
-63.49492 -5.90001 -63.3047 -5.84671 -63.26826 -5.8366 curveto
-62.92828 -5.74316 lineto
-62.58832 -5.6506 lineto
-62.24835 -5.55891 lineto
-61.90839 -5.46895 lineto
-61.79506 -5.43895 -61.58322 -5.38284 -61.5684 -5.37897 curveto
-61.55681 -5.37593 -61.34177 -5.32014 -61.22844 -5.29074 curveto
-60.88847 -5.2025 lineto
-60.5485 -5.116 lineto
-60.20853 -5.03035 lineto
-59.86856 -4.94557 lineto
-59.52858 -4.86166 lineto
-59.18861 -4.77863 lineto
-59.14067 -4.76703 -58.96025 -4.7238 -58.84605 -4.69644 curveto
-58.73274 -4.6693 -58.56425 -4.62892 -58.50607 -4.61513 curveto
-58.1661 -4.53554 lineto
-57.82614 -4.45682 lineto
-57.71283 -4.43053 -57.54324 -4.39119 -57.48616 -4.3781 curveto
-57.1462 -4.3011 lineto
-56.80623 -4.22498 lineto
-56.46625 -4.14972 lineto
-56.35294 -4.1246 -56.16483 -4.08292 -56.12628 -4.07446 curveto
-55.78632 -4.00093 lineto
-55.44635 -3.92825 lineto
-55.10637 -3.85646 lineto
-54.7664 -3.78639 lineto
-54.42644 -3.71545 lineto
-54.32152 -3.69383 -54.19809 -3.66913 -54.08386 -3.64626 curveto
-53.7439 -3.57791 lineto
-53.6306 -3.555 -53.48294 -3.52515 -53.40393 -3.50957 curveto
-53.34738 -3.49843 -53.17729 -3.46565 -53.06395 -3.44382 curveto
-52.72398 -3.37808 lineto
-52.38402 -3.3132 lineto
-52.04404 -3.24919 lineto
-51.70407 -3.18604 lineto
-51.59076 -3.16495 -51.41049 -3.1314 -51.3641 -3.12288 curveto
-51.02412 -3.06146 lineto
-50.68416 -3.00092 lineto
-50.63092 -2.99152 -50.45752 -2.9611 -50.3442 -2.94122 curveto
-50.00421 -2.88153 lineto
-49.66425 -2.82271 lineto
-49.32169 -2.76561 lineto
-48.9817 -2.70851 lineto
-48.64174 -2.65228 lineto
-48.30177 -2.59692 lineto
-47.9618 -2.54329 lineto
-47.62183 -2.48878 lineto
-47.28186 -2.43602 lineto
-46.9419 -2.38412 lineto
-46.93103 -2.38248 -46.71524 -2.3501 -46.60191 -2.33308 curveto
-46.26195 -2.28204 lineto
-45.92198 -2.23187 lineto
-45.582 -2.18256 lineto
-45.24203 -2.13411 lineto
-45.17424 -2.12456 -45.0154 -2.10237 -44.90207 -2.08653 curveto
-44.78789 -2.07059 -44.65466 -2.05197 -44.5595 -2.03896 curveto
-44.51662 -2.0331 -44.33286 -2.00836 -44.21953 -1.9931 curveto
-43.87956 -1.94727 lineto
-43.53958 -1.90228 lineto
-43.19962 -1.85815 lineto
-42.85965 -1.81491 lineto
-42.51968 -1.77165 lineto
-42.1797 -1.72926 lineto
-41.83974 -1.68774 lineto
-41.49977 -1.64708 lineto
-41.48022 -1.64478 -41.27312 -1.62054 -41.15979 -1.60728 curveto
-40.81982 -1.5675 lineto
-40.47986 -1.52856 lineto
-40.13728 -1.49051 lineto
-40.02396 -1.47812 -39.8187 -1.45569 -39.79732 -1.45331 curveto
-39.45735 -1.41525 lineto
-39.3807 -1.40694 -39.23071 -1.39146 -39.11737 -1.37978 curveto
-38.7774 -1.34431 lineto
-38.6641 -1.33243 -38.54878 -1.32033 -38.43744 -1.30884 curveto
-38.09746 -1.27425 lineto
-37.75749 -1.24051 lineto
-37.74017 -1.23882 -37.53085 -1.21858 -37.41753 -1.20763 curveto
-37.07755 -1.17476 lineto
-36.73758 -1.14275 lineto
-36.39761 -1.1116 lineto
-36.28429 -1.10121 -36.085 -1.08293 -36.05765 -1.08046 curveto
-36.02673 -1.07767 -35.831 -1.06026 -35.71767 -1.05019 curveto
-35.60349 -1.04004 -35.4448 -1.02592 -35.3751 -1.01991 curveto
-35.28363 -1.01202 -35.14847 -1.0008 -35.03514 -0.99136 curveto
-34.69516 -0.96281 lineto
-34.58185 -0.95319 -34.43622 -0.94081 -34.3552 -0.93427 curveto
-34.01523 -0.90746 lineto
-33.67525 -0.87978 lineto
-33.6308 -0.87625 -33.44861 -0.86243 -33.33528 -0.85382 curveto
-32.99532 -0.82787 lineto
-32.65533 -0.80278 lineto
-32.31537 -0.7777 lineto
-31.9754 -0.75348 lineto
-31.86208 -0.74536 -31.67744 -0.73212 -31.63542 -0.72925 curveto
-31.29546 -0.70676 lineto
-30.95549 -0.6834 lineto
-30.61292 -0.6609 lineto
-30.27295 -0.63928 lineto
-29.93298 -0.61852 lineto
-29.593 -0.5969 lineto
-29.54657 -0.59404 -29.36636 -0.58357 -29.25304 -0.577 curveto
-28.91307 -0.5571 lineto
-28.83205 -0.55244 -28.68643 -0.54436 -28.5731 -0.53807 curveto
-28.23312 -0.51904 lineto
-28.1198 -0.51266 -27.9812 -0.50485 -27.89316 -0.5 curveto
-27.55319 -0.48184 lineto
-27.21321 -0.46454 lineto
-27.09988 -0.45876 -26.89316 -0.44823 -26.87325 -0.44724 curveto
-26.8006 -0.44362 -26.6466 -0.43623 -26.53328 -0.4308 curveto
-26.45056 -0.42683 -26.30663 -0.41986 -26.1933 -0.41437 curveto
-25.85074 -0.39793 lineto
-25.51077 -0.38235 lineto
-25.42365 -0.3785 -25.28412 -0.37251 -25.17079 -0.36765 curveto
-24.83083 -0.35295 lineto
-24.7175 -0.34802 -24.57301 -0.34174 -24.49086 -0.33824 curveto
-24.15088 -0.3244 lineto
-23.81091 -0.31142 lineto
-23.47095 -0.29758 lineto
-23.13097 -0.28548 lineto
-22.791 -0.27249 lineto
-22.45103 -0.26039 lineto
-22.35468 -0.25713 -22.2244 -0.25285 -22.11107 -0.24915 curveto
-21.77109 -0.2379 lineto
-21.65776 -0.2341 -21.50978 -0.22914 -21.43112 -0.22665 curveto
-21.08856 -0.21626 lineto
-20.97523 -0.2128 -20.75577 -0.2061 -20.74858 -0.20589 curveto
-20.40862 -0.19637 lineto
-20.06865 -0.18599 lineto
-19.72867 -0.17734 lineto
-19.3887 -0.16782 lineto
-19.35529 -0.1669 -19.16206 -0.16203 -19.04874 -0.15916 curveto
-18.70876 -0.15053 lineto
-18.62221 -0.14842 -18.48212 -0.14528 -18.36879 -0.14273 curveto
-18.02882 -0.13495 lineto
-17.9155 -0.13231 -17.77435 -0.12901 -17.68884 -0.12717 curveto
-17.59927 -0.12523 -17.4622 -0.1225 -17.34888 -0.12024 curveto
-17.00891 -0.11333 lineto
-16.89558 -0.11098 -16.74937 -0.10793 -16.66895 -0.1064 curveto
-16.5852 -0.10481 -16.44057 -0.10231 -16.32637 -0.10034 curveto
-15.9864 -0.0943 lineto
-15.87308 -0.09222 -15.72766 -0.08955 -15.64644 -0.08824 curveto
-15.30646 -0.08305 lineto
-14.96649 -0.077 lineto
-14.62653 -0.07181 lineto
-14.28654 -0.06747 lineto
-13.94658 -0.06229 lineto
-13.94348 -0.06224 -13.71994 -0.0594 -13.60661 -0.05795 curveto
-13.49329 -0.0565 -13.27315 -0.05371 -13.26663 -0.05363 curveto
-12.92667 -0.05017 lineto
-12.5867 -0.04585 lineto
-12.5031 -0.04486 -12.36005 -0.04347 -12.24672 -0.04239 curveto
-11.90675 -0.03893 lineto
-11.79257 -0.0377 -11.6543 -0.03621 -11.5642 -0.03546 curveto
-11.22421 -0.03287 lineto
-10.88425 -0.02942 lineto
-10.54428 -0.02681 lineto
-10.43095 -0.02594 -10.21373 -0.02428 -10.2043 -0.02422 curveto
-9.86433 -0.02249 lineto
-9.52437 -0.0199 lineto
-9.1844 -0.01817 lineto
-8.84442 -0.01556 lineto
-8.84114 -0.01555 -8.61778 -0.01442 -8.50446 -0.01384 curveto
-8.16449 -0.01212 lineto
-7.82451 -0.01125 lineto
-7.48454 -0.00952 lineto
-7.14458 -0.00865 lineto
-6.802 -0.00693 lineto
-6.73355 -0.00664 -6.57536 -0.0063 -6.46204 -0.00606 curveto
-6.45076 -0.00603 -6.2354 -0.00548 -6.12207 -0.00519 curveto
-5.78209 -0.00432 lineto
-5.66876 -0.00398 -5.5127 -0.00352 -5.44212 -0.00346 curveto
-5.10216 -0.00346 lineto
-4.76218 -0.0026 lineto
-4.64885 -0.0022 -4.53372 -0.0018 -4.42221 -0.00172 curveto
-4.08224 -0.00172 lineto
-3.74226 -0.00087 lineto
-3.68504 -0.00078 -3.51563 -0.00084 -3.4023 -0.00087 curveto
-3.06233 -0.00087 lineto
-2.949 -0.0009 -2.77841 -0.00096 -2.72237 -0.00087 curveto
-2.38239 0 lineto
-2.31021 0.00012 -2.154 0.00005 -2.03983 0 curveto
-1.968 -0.00003 -1.81319 -0.00002 -1.69986 0 curveto
-1.62805 0.00002 -1.4732 0 -1.35988 0 curveto
-1.28793 0 -1.13324 0 -1.01991 0 curveto
-0.94763 0 -0.79327 0 -0.67995 0 curveto
-0.59601 0 -0.4533 0 -0.33997 0 curveto
0 0 lineto stroke
 1 1 1 setrgbcolor 0.49814
 0 dtransform exch truncate exch idtransform pop setlinewidth [] 0 setdash
newpath -127.55904 0 moveto
-127.55904 -47.83464 lineto stroke
 0 0.49814 dtransform truncate idtransform setlinewidth pop
newpath -129.08974 -44.13928 moveto
-127.55904 -47.83464 lineto
-126.02834 -44.13928 lineto
 closepath
gsave fill grestore stroke
newpath -127.55904 -47.83464 moveto
0 -47.83464 lineto stroke
newpath -3.69536 -49.36534 moveto
0 -47.83464 lineto
-3.69536 -46.30394 lineto
 closepath
gsave fill grestore stroke
newpath 127.55904 47.83464 moveto
0 47.83464 lineto stroke
newpath 3.69536 49.36534 moveto
0 47.83464 lineto
3.69536 46.30394 lineto
 closepath
gsave fill grestore stroke
 0.49814 0 dtransform exch truncate exch idtransform pop setlinewidth
newpath 127.55904 0 moveto
127.55904 47.83464 lineto stroke
 0 0.49814 dtransform truncate idtransform setlinewidth pop
newpath 129.08974 44.13928 moveto
127.55904 47.83464 lineto
126.02834 44.13928 lineto
 closepath
gsave fill grestore stroke
newpath 127.55904 47.83464 moveto
-127.55904 -47.83464 lineto stroke
newpath -64.05951 -20.32266 moveto
-65.37216 -28.2142 lineto stroke
newpath -62.18686 -19.62042 moveto
-63.49951 -27.51196 lineto stroke
newpath 63.49953 27.51198 moveto
62.18687 19.62044 lineto stroke
newpath 65.37218 28.21422 moveto
64.05952 20.32268 lineto stroke
-133.94508 5.8269 moveto
(-) eufm10 9.96265 fshow
-126.41339 5.8269 moveto
(x) eurm10 9.96265 fshow
 0 3 dtransform truncate idtransform setlinewidth pop
newpath -127.55904 0 moveto 0 0 rlineto stroke
124.93889 -9.5728 moveto
(x) eurm10 9.96265 fshow
newpath 127.55904 0 moveto 0 0 rlineto stroke
3.49998 -58.80162 moveto
(f) eurm10 9.96265 fshow
7.68428 -58.80162 moveto
(\() eufm10 9.96265 fshow
11.55978 -58.80162 moveto
(-) eufm10 9.96265 fshow
19.09149 -58.80162 moveto
(x) eurm10 9.96265 fshow
24.33188 -58.80162 moveto
(\)) eufm10 9.96265 fshow
newpath 0 -47.83464 moveto 0 0 rlineto stroke
-20.67558 36.86766 moveto
(f) eurm10 9.96265 fshow
-16.49129 36.86766 moveto
(\() eufm10 9.96265 fshow
-12.61578 36.86766 moveto
(x) eurm10 9.96265 fshow
-7.37549 36.86766 moveto
(\)) eufm10 9.96265 fshow
newpath 0 47.83464 moveto 0 0 rlineto stroke
3.49998 -10.30779 moveto
(O) cmr10 9.96265 fshow
grestore
grestore
grestore
grestore
grestore
grestore
showpage
%%EOF
