<?xml version="1.0" encoding="UTF-8" standalone="no"?>
<svg
   xmlns:dc="http://purl.org/dc/elements/1.1/"
   xmlns:cc="http://creativecommons.org/ns#"
   xmlns:rdf="http://www.w3.org/1999/02/22-rdf-syntax-ns#"
   xmlns:svg="http://www.w3.org/2000/svg"
   xmlns="http://www.w3.org/2000/svg"
   xmlns:xlink="http://www.w3.org/1999/xlink"
   xmlns:sodipodi="http://sodipodi.sourceforge.net/DTD/sodipodi-0.dtd"
   xmlns:inkscape="http://www.inkscape.org/namespaces/inkscape"
   width="283.4645pt"
   height="283.4645pt"
   viewBox="0 0 283.4645 283.4645"
   version="1.1"
   id="svg4526"
   sodipodi:docname="trigo-19.pdf_b.svg"
   inkscape:version="1.0.1 (3bc2e813f5, 2020-09-07)">
  <metadata
     id="metadata4530">
    <rdf:RDF>
      <cc:Work
         rdf:about="">
        <dc:format>image/svg+xml</dc:format>
        <dc:type
           rdf:resource="http://purl.org/dc/dcmitype/StillImage" />
        <dc:title></dc:title>
      </cc:Work>
    </rdf:RDF>
  </metadata>
  <sodipodi:namedview
     pagecolor="#ffffff"
     bordercolor="#666666"
     borderopacity="1"
     objecttolerance="10"
     gridtolerance="10"
     guidetolerance="10"
     inkscape:pageopacity="0"
     inkscape:pageshadow="2"
     inkscape:window-width="1918"
     inkscape:window-height="1044"
     id="namedview4528"
     showgrid="false"
     inkscape:zoom="1.5240003"
     inkscape:cx="55.774267"
     inkscape:cy="188.97634"
     inkscape:window-x="0"
     inkscape:window-y="34"
     inkscape:window-maximized="0"
     inkscape:current-layer="svg4526"
     inkscape:document-rotation="0" />
  <defs
     id="defs4457">
    <g
       id="g4443">
      <symbol
         overflow="visible"
         id="glyph0-0">
        <path
           style="stroke:none"
           d=""
           id="path4425" />
      </symbol>
      <symbol
         overflow="visible"
         id="glyph0-1">
        <path
           style="stroke:none"
           d="M 5.046875 -5.515625 C 5.015625 -5.546875 5 -5.546875 4.96875 -5.546875 C 4.9375 -5.546875 4.90625 -5.546875 4.90625 -5.515625 C 4.375 -4.90625 3.671875 -4.078125 3.234375 -3.5 L 3.171875 -3.515625 C 2.828125 -4.1875 2.328125 -5.046875 2.078125 -5.3125 C 1.90625 -5.5 1.640625 -5.546875 1.4375 -5.546875 C 1.046875 -5.546875 0.4375 -5.109375 0.03125 -4.78125 L 0.1875 -4.5625 C 0.40625 -4.703125 0.703125 -4.859375 0.953125 -4.859375 C 1.546875 -4.859375 2.109375 -3.578125 2.5625 -2.671875 C 1.984375 -1.90625 1.390625 -1.078125 0.875 -0.25 L 0.875 -0.15625 L 1.203125 0.140625 L 1.40625 0.09375 C 1.75 -0.828125 2.234375 -1.5625 2.703125 -2.28125 L 2.78125 -2.28125 C 3.578125 -0.734375 3.984375 0.140625 4.59375 0.140625 C 5.09375 0.140625 5.703125 -0.53125 6.125 -0.984375 L 6.03125 -1.203125 L 5.921875 -1.203125 C 5.6875 -1 5.359375 -0.75 5.078125 -0.75 C 4.546875 -0.75 3.84375 -2.015625 3.359375 -3.09375 C 3.984375 -3.828125 4.75 -4.609375 5.421875 -5.0625 C 5.4375 -5.078125 5.453125 -5.09375 5.453125 -5.125 C 5.453125 -5.140625 5.421875 -5.15625 5.421875 -5.171875 Z M 5.046875 -5.515625 "
           id="path4428" />
      </symbol>
      <symbol
         overflow="visible"
         id="glyph0-2">
        <path
           style="stroke:none"
           d="M 2.21875 -5.5 C 1.53125 -5.5 0.796875 -5.484375 0.578125 -4.796875 L 0.25 -3.4375 L 0.5 -3.328125 L 0.71875 -3.890625 C 0.984375 -4.59375 1.296875 -4.703125 1.890625 -4.703125 L 2.765625 -4.703125 C 2.46875 -3.375 1.828125 -1.65625 1.03125 -0.28125 L 1.046875 -0.125 L 1.703125 0.0625 L 1.828125 -0.0625 C 2.359375 -1.59375 2.890625 -3.15625 3.21875 -4.703125 L 4.921875 -4.703125 L 5 -4.640625 C 4.875 -3.6875 4.8125 -2.71875 4.8125 -1.75 C 4.8125 -1.21875 4.828125 -0.46875 5.171875 -0.140625 C 5.3125 0 5.578125 0 5.8125 0 C 6.296875 0 6.796875 -0.375 7.15625 -0.71875 L 7.046875 -0.921875 L 6.96875 -0.9375 C 6.796875 -0.828125 6.59375 -0.75 6.390625 -0.75 C 5.609375 -0.75 5.625 -2.296875 5.625 -3.375 C 5.625 -3.78125 5.671875 -4.203125 5.703125 -4.625 L 5.78125 -4.703125 C 6.234375 -4.71875 6.6875 -4.859375 7.09375 -5.046875 L 7.5 -5.75 L 7.40625 -5.828125 C 7 -5.625 6.546875 -5.5 6.078125 -5.5 Z M 2.21875 -5.5 "
           id="path4431" />
      </symbol>
      <symbol
         overflow="visible"
         id="glyph1-0">
        <path
           style="stroke:none"
           d=""
           id="path4434" />
      </symbol>
      <symbol
         overflow="visible"
         id="glyph1-1">
        <path
           style="stroke:none"
           d="M 8.421875 -2.828125 L 8.484375 -3.296875 L 0.640625 -3.296875 L 0.546875 -2.828125 Z M 8.421875 -2.828125 "
           id="path4437" />
      </symbol>
      <symbol
         overflow="visible"
         id="glyph1-2">
        <path
           style="stroke:none"
           d="M 4.734375 -3.296875 L 4.734375 -7 L 4.25 -6.9375 L 4.25 -3.296875 L 0.640625 -3.296875 L 0.546875 -2.828125 L 4.25 -2.828125 L 4.25 0.890625 L 4.734375 0.796875 L 4.734375 -2.828125 L 8.421875 -2.828125 L 8.46875 -3.296875 Z M 4.734375 -3.296875 "
           id="path4440" />
      </symbol>
    </g>
    <clipPath
       id="clip1">
      <path
         d="M 141 0 L 142 0 L 142 283.464844 L 141 283.464844 Z M 141 0 "
         id="path4445" />
    </clipPath>
    <clipPath
       id="clip2">
      <path
         d="M 0 141 L 283.464844 141 L 283.464844 142 L 0 142 Z M 0 141 "
         id="path4448" />
    </clipPath>
    <clipPath
       id="clip3">
      <path
         d="M 279 140 L 283.464844 140 L 283.464844 144 L 279 144 Z M 279 140 "
         id="path4451" />
    </clipPath>
    <clipPath
       id="clip4">
      <path
         d="M 279 139 L 283.464844 139 L 283.464844 144 L 279 144 Z M 279 139 "
         id="path4454" />
    </clipPath>
  </defs>
  <g
     id="surface1">
    <g
       clip-path="url(#clip1)"
       clip-rule="nonzero"
       id="g4461">
      <path
         style="fill:none;stroke-width:0.5;stroke-linecap:round;stroke-linejoin:round;stroke:#000000;stroke-opacity:1;stroke-miterlimit:10"
         d="M 141.730469 -0.00034375 L 141.730469 283.4645 "
         transform="matrix(1,0,0,-1,0,283.4645)"
         id="path4459" />
    </g>
    <path
       style="fill-rule:nonzero;fill:#000000;fill-opacity:1;stroke-width:0.5;stroke-linecap:round;stroke-linejoin:round;stroke:#000000;stroke-opacity:1;stroke-miterlimit:10"
       d="M 143.261719 279.769187 L 141.730469 283.4645 L 140.199219 279.769187 Z M 143.261719 279.769187 "
       transform="matrix(1,0,0,-1,0,283.4645)"
       id="path4463" />
    <g
       clip-path="url(#clip2)"
       clip-rule="nonzero"
       id="g4467">
      <path
         style="fill:none;stroke-width:0.5;stroke-linecap:round;stroke-linejoin:round;stroke:#000000;stroke-opacity:1;stroke-miterlimit:10"
         d="M 0 141.734031 L 283.464844 141.734031 "
         transform="matrix(1,0,0,-1,0,283.4645)"
         id="path4465" />
    </g>
    <g
       clip-path="url(#clip3)"
       clip-rule="nonzero"
       id="g4471">
      <path
         style="stroke:none;fill-rule:nonzero;fill:#000000;fill-opacity:1"
         d="M 279.769531 143.261719 L 283.464844 141.730469 L 279.769531 140.199219 Z M 279.769531 143.261719 "
         id="path4469" />
    </g>
    <g
       clip-path="url(#clip4)"
       clip-rule="nonzero"
       id="g4475">
      <path
         style="fill:none;stroke-width:0.5;stroke-linecap:round;stroke-linejoin:round;stroke:#000000;stroke-opacity:1;stroke-miterlimit:10"
         d="M 279.769531 140.202781 L 283.464844 141.734031 L 279.769531 143.265281 Z M 279.769531 140.202781 "
         transform="matrix(1,0,0,-1,0,283.4645)"
         id="path4473" />
    </g>
    <path
       style="fill:none;stroke-width:1.1;stroke-linecap:round;stroke-linejoin:round;stroke:#000000;stroke-opacity:1;stroke-miterlimit:10"
       d="M 255.117188 141.734031 C 255.117188 171.804344 243.171875 200.644187 221.90625 221.905906 C 200.644531 243.171531 171.804688 255.116844 141.730469 255.116844 C 111.660156 255.116844 82.820312 243.171531 61.558594 221.905906 C 40.292969 200.644187 28.347656 171.804344 28.347656 141.734031 C 28.347656 111.659812 40.292969 82.819969 61.558594 61.55825 C 82.820312 40.292625 111.660156 28.347312 141.730469 28.347312 C 171.804688 28.347312 200.644531 40.292625 221.90625 61.55825 C 243.171875 82.819969 255.117188 111.659812 255.117188 141.734031 Z M 255.117188 141.734031 "
       transform="matrix(1,0,0,-1,0,283.4645)"
       id="path4477" />
    <g
       style="fill:#000000;fill-opacity:1"
       id="g4481">
      <use
         xlink:href="#glyph0-1"
         x="243.4281"
         y="81.5428"
         id="use4479" />
    </g>
    <path
       style="fill:none;stroke-width:3;stroke-linecap:round;stroke-linejoin:round;stroke:#000000;stroke-opacity:1;stroke-miterlimit:10"
       d="M 239.929688 198.421531 L 239.929688 198.421531 "
       transform="matrix(1,0,0,-1,0,283.4645)"
       id="path4483" />
    <g
       style="fill:#000000;fill-opacity:1"
       id="g4487">
      <use
         xlink:href="#glyph0-2"
         x="12.1107"
         y="80.5495"
         id="use4485" />
    </g>
    <g
       style="fill:#000000;fill-opacity:1"
       id="g4491">
      <use
         xlink:href="#glyph1-1"
         x="22.0483"
         y="80.5495"
         id="use4489" />
    </g>
    <g
       style="fill:#000000;fill-opacity:1"
       id="g4495">
      <use
         xlink:href="#glyph0-1"
         x="33.7458"
         y="80.5495"
         id="use4493" />
    </g>
    <path
       style="fill:none;stroke-width:3;stroke-linecap:round;stroke-linejoin:round;stroke:#000000;stroke-opacity:1;stroke-miterlimit:10"
       d="M 43.535156 198.421531 L 43.535156 198.421531 "
       transform="matrix(1,0,0,-1,0,283.4645)"
       id="path4497" />
    <g
       style="fill:#000000;fill-opacity:1"
       id="g4501">
      <use
         xlink:href="#glyph0-2"
         x="12.1113"
         y="208.8896"
         id="use4499" />
    </g>
    <g
       style="fill:#000000;fill-opacity:1"
       id="g4505">
      <use
         xlink:href="#glyph1-2"
         x="22.049"
         y="208.8896"
         id="use4503" />
    </g>
    <g
       style="fill:#000000;fill-opacity:1"
       id="g4509">
      <use
         xlink:href="#glyph0-1"
         x="33.7465"
         y="208.8896"
         id="use4507" />
    </g>
    <path
       style="fill:none;stroke-width:3;stroke-linecap:round;stroke-linejoin:round;stroke:#000000;stroke-opacity:1;stroke-miterlimit:10"
       d="M 43.535156 85.042625 L 43.535156 85.042625 "
       transform="matrix(1,0,0,-1,0,283.4645)"
       id="path4511" />
    <g
       style="fill:#000000;fill-opacity:1"
       id="g4515">
      <use
         xlink:href="#glyph1-1"
         x="243.4281"
         y="208.8896"
         id="use4513" />
    </g>
    <g
       style="fill:#000000;fill-opacity:1"
       id="g4519">
      <use
         xlink:href="#glyph0-1"
         x="252.4689"
         y="208.8896"
         id="use4517" />
    </g>
    <path
       style="fill:none;stroke-width:3;stroke-linecap:round;stroke-linejoin:round;stroke:#000000;stroke-opacity:1;stroke-miterlimit:10"
       d="M 239.929688 85.042625 L 239.929688 85.042625 "
       transform="matrix(1,0,0,-1,0,283.4645)"
       id="path4521" />
    <path
       style="fill:none;stroke-width:1.2;stroke-linecap:round;stroke-linejoin:round;stroke:#004d4d;stroke-opacity:1;stroke-dasharray:3,3;stroke-miterlimit:10"
       d="M 239.929688 198.421531 L 43.535156 198.421531 L 43.535156 85.042625 L 239.929688 85.042625 Z M 239.929688 198.421531 "
       transform="matrix(1,0,0,-1,0,283.4645)"
       id="path4523" />
  </g>
</svg>
