%!PS
%%BoundingBox: -98 -99 107 109 
%%HiResBoundingBox: -97.53206 -98.78854 106.58266 108.04353 
%%Creator: MetaPost 2.02
%%CreationDate: 2024.01.06:1112
%%Pages: 1
%*Font: cmsy10 9.96265 9.96265 00:80000000400000000000000000008
%*Font: cmsy7 6.97385 6.97385 30:80000000000000008
%*Font: eufm10 9.96265 9.96265 28:d4
%*Font: eurm10 9.96265 9.96265 0b:8002000000000083284000130004
%%BeginProlog
%%EndProlog
%%Page: 1 1
gsave newpath -297.63774 -467.71645 moveto
-297.63774 297.63774 lineto
297.63774 297.63774 lineto
297.63774 -467.71645 lineto
 closepath clip
gsave newpath -297.63774 -467.71645 moveto
-297.63774 297.63774 lineto
297.63774 297.63774 lineto
297.63774 -467.71645 lineto
 closepath clip
gsave newpath -297.63774 -467.71645 moveto
-297.63774 297.63774 lineto
297.63774 297.63774 lineto
297.63774 -467.71645 lineto
 closepath clip
gsave newpath -297.63774 -467.71645 moveto
-297.63774 297.63774 lineto
297.63774 297.63774 lineto
297.63774 -467.71645 lineto
 closepath clip
gsave newpath -297.63774 -467.71645 moveto
-297.63774 297.63774 lineto
297.63774 297.63774 lineto
297.63774 -467.71645 lineto
 closepath clip
gsave newpath -297.63774 -467.71645 moveto
-297.63774 297.63774 lineto
297.63774 297.63774 lineto
297.63774 -467.71645 lineto
 closepath clip
gsave newpath -297.63774 -467.71645 moveto
-297.63774 297.63774 lineto
297.63774 297.63774 lineto
297.63774 -467.71645 lineto
 closepath clip
gsave newpath -297.63774 -467.71645 moveto
-297.63774 297.63774 lineto
297.63774 297.63774 lineto
297.63774 -467.71645 lineto
 closepath clip
gsave newpath -297.63774 -467.71645 moveto
-297.63774 297.63774 lineto
297.63774 297.63774 lineto
297.63774 -467.71645 lineto
 closepath clip
 1 1 1 setrgbcolor 0 0.56693 dtransform truncate idtransform setlinewidth pop
 [] 0 setdash 1 setlinecap 1 setlinejoin 10 setmiterlimit
newpath -85.03935 0 moveto
85.03935 0 lineto stroke
 0.56693 0 dtransform exch truncate exch idtransform pop setlinewidth
newpath 0 -85.03935 moveto
0 85.03935 lineto stroke
 0 1 dtransform truncate idtransform setlinewidth pop
newpath 0 0 moveto
82.48828 0 lineto stroke
newpath 78.79271 -1.53079 moveto
82.48828 0 lineto
78.79271 1.53079 lineto
 closepath
gsave fill grestore stroke
 1 0 dtransform exch truncate exch idtransform pop setlinewidth
newpath 0 0 moveto
0 82.48828 lineto stroke
 0 1 dtransform truncate idtransform setlinewidth pop
newpath 1.53079 78.79271 moveto
0 82.48828 lineto
-1.53079 78.79271 lineto
 closepath
gsave fill grestore stroke
 0 0.56693 dtransform truncate idtransform setlinewidth pop
newpath 85.03935 0 moveto
85.03935 22.55484 76.07814 44.1832 60.13068 60.13068 curveto
44.1832 76.07814 22.55484 85.03935 0 85.03935 curveto
-22.55484 85.03935 -44.1832 76.07814 -60.13068 60.13068 curveto
-76.07814 44.1832 -85.03935 22.55484 -85.03935 0 curveto
-85.03935 -22.55484 -76.07814 -44.1832 -60.13068 -60.13068 curveto
-44.1832 -76.07814 -22.55484 -85.03935 0 -85.03935 curveto
22.55484 -85.03935 44.1832 -76.07814 60.13068 -60.13068 curveto
76.07814 -44.1832 85.03935 -22.55484 85.03935 0 curveto closepath stroke
31.49165 -11.8842 moveto
(\000) cmsy10 9.96265 fshow
31.49405 -11.8842 moveto
(!) cmsy10 9.96265 fshow
41.45665 -11.8842 moveto
(i) eurm10 9.96265 fshow
-23.46945 45.07013 moveto
(\000) cmsy10 9.96265 fshow
-23.46706 45.07013 moveto
(!) cmsy10 9.96265 fshow
-20.14075 38.18593 moveto
(j) eurm10 9.96265 fshow
-11.49998 -10.38419 moveto
(O) eurm10 9.96265 fshow
 0 3 dtransform truncate idtransform setlinewidth pop
newpath 0 0 moveto 0 0 rlineto stroke
-71.65059 -71.47385 moveto
(C) eurm10 9.96265 fshow
90.03935 -3.44211 moveto
(I) eurm10 9.96265 fshow
-97.53206 -3.74695 moveto
(I) eurm10 9.96265 fshow
-92.83195 -0.13055 moveto
(0) cmsy7 6.97385 fshow
-2.0025 91.29466 moveto
(J) eurm10 9.96265 fshow
-3.78621 -97.53325 moveto
(J) eurm10 9.96265 fshow
0.9937 -93.91685 moveto
(0) cmsy7 6.97385 fshow
88.53934 63.85417 moveto
(+) eufm10 9.96265 fshow
 0.6 0.6 0.6 setrgbcolor 0 0.56693 dtransform truncate idtransform setlinewidth pop
newpath 106.2992 0 moveto
106.2992 28.19356 95.09769 55.229 75.16335 75.16335 curveto
55.229 95.09769 28.19356 106.2992 0 106.2992 curveto stroke
newpath 3.72325 107.76007 moveto
2.4754 107.29733 1.23409 106.81038 0 106.2992 curveto
1.23409 105.78801 2.45615 105.25458 3.6657 104.6994 curveto
 closepath
gsave fill grestore stroke
grestore
grestore
grestore
grestore
grestore
grestore
grestore
grestore
grestore
showpage
%%EOF
