%!PS
%%BoundingBox: -86 -74 86 74 
%%HiResBoundingBox: -85.58936 -73.70096 85.58936 73.70096 
%%Creator: MetaPost 2.02
%%CreationDate: 2024.01.06:1112
%%Pages: 1
%*Font: cmsy10 9.96265 9.96265 70:8
%*Font: cmr10 9.96265 9.96265 2c:8e4
%*Font: cmmi10 9.96265 9.96265 4f:80000000006
%*Font: eufm10 9.96265 9.96265 2d:8
%*Font: msbm10 9.96265 9.96265 52:8
%%BeginProlog
%%EndProlog
%%Page: 1 1
gsave newpath -87.87418 -73.70096 moveto
-87.87418 73.70096 lineto
87.87418 73.70096 lineto
87.87418 -73.70096 lineto
 closepath clip
 1 1 1 setrgbcolor 0 1.1 dtransform truncate idtransform setlinewidth pop
 [] 0 setdash 1 setlinecap 1 setlinejoin 10 setmiterlimit
newpath -85.03935 0 moveto
85.03935 0 lineto stroke
newpath 81.34459 -1.53046 moveto
85.03935 0 lineto
81.34459 1.53046 lineto
 closepath
gsave fill grestore stroke
 1.1 0 dtransform exch truncate exch idtransform pop setlinewidth
newpath 0 -70.86613 moveto
0 70.86613 lineto stroke
 0 1.1 dtransform truncate idtransform setlinewidth pop
newpath 1.53113 67.16977 moveto
0 70.86613 lineto
-1.53113 67.16977 lineto
 closepath
gsave fill grestore stroke
-12.876 -9.07318 moveto
(O) cmmi10 9.96265 fshow
 0 2.98878 dtransform truncate idtransform setlinewidth pop
newpath 0 0 moveto 0 0 rlineto stroke
79.35776 -9.2895 moveto
(x) cmmi10 9.96265 fshow
-10.2419 66.85533 moveto
(y) cmmi10 9.96265 fshow
 1 0.7 0.7 setrgbcolor 1.5
 0 dtransform exch truncate exch idtransform pop setlinewidth
newpath 58.1103 0 moveto
58.1103 113.3858 lineto stroke
 [3 3 ] 0 setdash
newpath 58.1103 113.3858 moveto
58.1103 141.73225 lineto stroke
 0 1.5 dtransform truncate idtransform setlinewidth pop [] 0 setdash
newpath 59.6411 138.03668 moveto
58.1103 141.73225 lineto
56.57951 138.03668 lineto
 closepath
gsave fill grestore stroke
 0 1 1 setrgbcolor 1.5 0 dtransform exch truncate exch idtransform pop setlinewidth
newpath 58.1103 0 moveto
58.1103 -106.2992 lineto stroke
 [3 3 ] 0 setdash
newpath 58.1103 -106.2992 moveto
58.1103 -141.73225 lineto stroke
 1 1 1 setrgbcolor 0 0.49814 dtransform truncate idtransform setlinewidth pop
 [] 0 setdash
newpath 29.05516 0 moveto
29.05516 7.70625 25.99341 15.09595 20.54468 20.54468 curveto
15.09595 25.99341 7.70625 29.05516 0 29.05516 curveto
-7.70625 29.05516 -15.09595 25.99341 -20.54468 20.54468 curveto
-25.99341 15.09595 -29.05516 7.70625 -29.05516 0 curveto
-29.05516 -7.70625 -25.99341 -15.09595 -20.54468 -20.54468 curveto
-15.09595 -25.99341 -7.70625 -29.05516 0 -29.05516 curveto
7.70625 -29.05516 15.09595 -25.99341 20.54468 -20.54468 curveto
25.99341 -15.09595 29.05516 -7.70625 29.05516 0 curveto closepath stroke
61.61029 3.49998 moveto
(0) cmr10 9.96265 fshow
63.1103 -60.90706 moveto
(-) eufm10 9.96265 fshow
70.642 -60.90706 moveto
(1) cmr10 9.96265 fshow
 0 3 dtransform truncate idtransform setlinewidth pop
newpath 58.1103 -58.1103 moveto 0 0 rlineto stroke
63.1103 54.9001 moveto
(1) cmr10 9.96265 fshow
newpath 58.1103 58.1103 moveto 0 0 rlineto stroke
63.1103 26.81332 moveto
(0,) cmr10 9.96265 fshow
72.51941 26.81332 moveto
(5) cmr10 9.96265 fshow
newpath 58.1103 29.05493 moveto 0 0 rlineto stroke
63.1103 86.58809 moveto
(p) cmsy10 9.96265 fshow
 0 0.3985 dtransform truncate idtransform setlinewidth pop 0 setlinecap
newpath 71.40921 86.78738 moveto
76.3905 86.78738 lineto stroke
71.40921 78.34679 moveto
(2) cmr10 9.96265 fshow
 0 3 dtransform truncate idtransform setlinewidth pop 1 setlinecap
newpath 58.1103 82.20453 moveto 0 0 rlineto stroke
 1 0.7 0.7 setrgbcolor
61.61029 124.28256 moveto
(R) msbm10 9.96265 fshow
grestore
showpage
%%EOF
