%!PS
%%BoundingBox: -137 -148 155 148 
%%HiResBoundingBox: -136.31262 -147.65189 154.9597 147.65189 
%%Creator: MetaPost 2.02
%%CreationDate: 2024.01.06:1112
%%Pages: 1
%*Font: cmr10 9.96265 9.96265 2c:ae40000000000504318
%*Font: eufm10 9.96265 9.96265 28:d4
%*Font: eurm10 9.96265 9.96265 0b:8002000000000083200000000004
%*Font: eurm7 7.97008 6.97385 19:800000000000000000000001
%*Font: cmr8 7.97011 7.97011 63:82188
%*Font: eufm7 7.97008 6.97385 28:c4
%%BeginProlog
%%EndProlog
%%Page: 1 1
gsave newpath -177.16531 -177.16531 moveto
-177.16531 177.16531 lineto
177.16531 177.16531 lineto
177.16531 -177.16531 lineto
 closepath clip
gsave newpath -177.16531 -177.16531 moveto
-177.16531 177.16531 lineto
177.16531 177.16531 lineto
177.16531 -177.16531 lineto
 closepath clip
gsave newpath -177.16531 -177.16531 moveto
-177.16531 177.16531 lineto
177.16531 177.16531 lineto
177.16531 -177.16531 lineto
 closepath clip
 1 1 1 setrgbcolor 0 0.5 dtransform truncate idtransform setlinewidth pop
 [] 0 setdash 1 setlinecap 1 setlinejoin 10 setmiterlimit
newpath -136.06262 0 moveto
136.06262 0 lineto stroke
newpath 132.36836 -1.53024 moveto
136.06262 0 lineto
132.36836 1.53024 lineto
 closepath
gsave fill grestore stroke
 0.5 0 dtransform exch truncate exch idtransform pop setlinewidth
newpath 0 -136.06262 moveto
0 136.06262 lineto stroke
 0 0.5 dtransform truncate idtransform setlinewidth pop
newpath 1.53024 132.36836 moveto
0 136.06262 lineto
-1.53024 132.36836 lineto
 closepath
gsave fill grestore stroke
 0 1 1 setrgbcolor
newpath 113.3858 0 moveto
113.3858 30.07312 101.43753 58.91093 80.17422 80.17422 curveto
58.91093 101.43753 30.07312 113.3858 0 113.3858 curveto
-30.07312 113.3858 -58.91093 101.43753 -80.17422 80.17422 curveto
-101.43753 58.91093 -113.3858 30.07312 -113.3858 0 curveto
-113.3858 -30.07312 -101.43753 -58.91093 -80.17422 -80.17422 curveto
-58.91093 -101.43753 -30.07312 -113.3858 0 -113.3858 curveto
30.07312 -113.3858 58.91093 -101.43753 80.17422 -80.17422 curveto
101.43753 -58.91093 113.3858 -30.07312 113.3858 0 curveto closepath stroke
 1 0.7 0.7 setrgbcolor
newpath 0 0 moveto
113.3858 113.3858 lineto stroke
 0 0.79001 0.34001 setrgbcolor
newpath 0 0 moveto
113.3858 -113.3858 lineto stroke
 1 1 1 setrgbcolor 0.5 0 dtransform exch truncate exch idtransform pop setlinewidth
 [3 3 ] 0 setdash
newpath 80.17596 -80.17596 moveto
80.17596 80.17596 lineto stroke
 0 0.5 dtransform truncate idtransform setlinewidth pop
newpath 0 -80.17596 moveto
80.17596 -80.17596 lineto stroke
newpath 0 80.17596 moveto
80.17596 80.17596 lineto stroke
 0.5 0 dtransform exch truncate exch idtransform pop setlinewidth [] 0 setdash
newpath 113.3858 -147.40189 moveto
113.3858 147.40189 lineto stroke
 0 0.5 dtransform truncate idtransform setlinewidth pop
newpath 22.67682 0 moveto
22.67682 6.01427 20.28763 11.78218 16.03485 16.03485 curveto stroke
newpath 19.58096 14.18436 moveto
18.4633 14.89966 17.27763 15.5201 16.03485 16.03485 curveto
16.54964 14.79207 16.94926 13.51495 17.23376 12.21884 curveto
 closepath
gsave fill grestore stroke
newpath 22.67682 0 moveto
22.67682 -6.01427 20.28763 -11.78218 16.03485 -16.03485 curveto stroke
newpath 17.23376 -12.21884 moveto
16.94926 -13.51495 16.54964 -14.79207 16.03485 -16.03485 curveto
17.27763 -15.5201 18.4633 -14.89966 19.58096 -14.18436 curveto
 closepath
gsave fill grestore stroke
-8.48128 3.49998 moveto
(0) cmr10 9.96265 fshow
 0 3 dtransform truncate idtransform setlinewidth pop
newpath 0 0 moveto 0 0 rlineto stroke
116.88579 -10.38419 moveto
(I) eurm10 9.96265 fshow
newpath 113.3858 0 moveto 0 0 rlineto stroke
-7.50499 118.14108 moveto
(J) eurm10 9.96265 fshow
newpath 0 113.3858 moveto 0 0 rlineto stroke
-28.261 78.18341 moveto
(sin) cmr8 7.97011 fshow
-17.86371 78.18341 moveto
(\() eufm7 7.97008 fshow
-14.046 78.18341 moveto
(x) eurm7 7.97008 fshow
-8.8176 78.18341 moveto
(\)) eufm7 7.97008 fshow
newpath 0 80.17596 moveto 0 0 rlineto stroke
-36.5712 -82.16852 moveto
(-) eufm7 7.97008 fshow
-28.261 -82.16852 moveto
(sin) cmr8 7.97011 fshow
-17.8638 -82.16852 moveto
(\() eufm7 7.97008 fshow
-14.0461 -82.16852 moveto
(x) eurm7 7.97008 fshow
-8.8177 -82.16852 moveto
(\)) eufm7 7.97008 fshow
newpath 0 -80.17596 moveto 0 0 rlineto stroke
83.67595 5.49248 moveto
(cos) cmr8 7.97011 fshow
95.01414 5.49248 moveto
(\() eufm7 7.97008 fshow
98.83185 5.49248 moveto
(x) eurm7 7.97008 fshow
104.06024 5.49248 moveto
(\)) eufm7 7.97008 fshow
newpath 80.17596 0 moveto 0 0 rlineto stroke
118.3858 110.89766 moveto
(tan) cmr10 9.96265 fshow
132.7763 110.89766 moveto
(\() eufm10 9.96265 fshow
136.65181 110.89766 moveto
(x) eurm10 9.96265 fshow
141.8921 110.89766 moveto
(\)) eufm10 9.96265 fshow
newpath 113.3858 113.3858 moveto 0 0 rlineto stroke
118.3858 -115.87395 moveto
(-) eufm10 9.96265 fshow
127.5779 -115.87395 moveto
(tan) cmr10 9.96265 fshow
141.9685 -115.87395 moveto
(\() eufm10 9.96265 fshow
145.8439 -115.87395 moveto
(x) eurm10 9.96265 fshow
151.0843 -115.87395 moveto
(\)) eufm10 9.96265 fshow
newpath 113.3858 -113.3858 moveto 0 0 rlineto stroke
77.55582 85.17596 moveto
(x) eurm10 9.96265 fshow
73.78992 -96.6538 moveto
(-) eufm10 9.96265 fshow
81.32161 -96.6538 moveto
(x) eurm10 9.96265 fshow
grestore
grestore
grestore
showpage
%%EOF
