<?xml version="1.0" encoding="UTF-8" standalone="no"?>
<svg
   xmlns:dc="http://purl.org/dc/elements/1.1/"
   xmlns:cc="http://creativecommons.org/ns#"
   xmlns:rdf="http://www.w3.org/1999/02/22-rdf-syntax-ns#"
   xmlns:svg="http://www.w3.org/2000/svg"
   xmlns="http://www.w3.org/2000/svg"
   xmlns:xlink="http://www.w3.org/1999/xlink"
   xmlns:sodipodi="http://sodipodi.sourceforge.net/DTD/sodipodi-0.dtd"
   xmlns:inkscape="http://www.inkscape.org/namespaces/inkscape"
   width="374.6722pt"
   height="374.6722pt"
   viewBox="0 0 374.6722 374.6722"
   version="1.1"
   id="svg607"
   sodipodi:docname="trigo-1.pdf_b.svg"
   inkscape:version="1.0.1 (3bc2e813f5, 2020-09-07)">
  <metadata
     id="metadata611">
    <rdf:RDF>
      <cc:Work
         rdf:about="">
        <dc:format>image/svg+xml</dc:format>
        <dc:type
           rdf:resource="http://purl.org/dc/dcmitype/StillImage" />
        <dc:title></dc:title>
      </cc:Work>
    </rdf:RDF>
  </metadata>
  <sodipodi:namedview
     pagecolor="#ffffff"
     bordercolor="#666666"
     borderopacity="1"
     objecttolerance="10"
     gridtolerance="10"
     guidetolerance="10"
     inkscape:pageopacity="0"
     inkscape:pageshadow="2"
     inkscape:window-width="1918"
     inkscape:window-height="1044"
     id="namedview609"
     showgrid="false"
     inkscape:zoom="1.1530078"
     inkscape:cx="73.720227"
     inkscape:cy="249.78147"
     inkscape:window-x="0"
     inkscape:window-y="34"
     inkscape:window-maximized="0"
     inkscape:current-layer="svg607"
     inkscape:document-rotation="0" />
  <defs
     id="defs440">
    <g
       id="g426">
      <symbol
         overflow="visible"
         id="glyph0-0">
        <path
           style="stroke:none"
           d=""
           id="path384" />
      </symbol>
      <symbol
         overflow="visible"
         id="glyph0-1">
        <path
           style="stroke:none"
           d="M 6.265625 -4.0625 C 6.265625 -5.5 5.734375 -8.28125 3.390625 -8.28125 C 1.0625 -8.28125 0.515625 -5.5 0.515625 -4.0625 C 0.515625 -2.5625 1.0625 0.171875 3.390625 0.171875 C 5.734375 0.171875 6.265625 -2.5625 6.265625 -4.0625 Z M 5.046875 -4.0625 C 5.046875 -3.078125 5.015625 -0.140625 3.390625 -0.140625 C 1.765625 -0.140625 1.75 -3.0625 1.75 -4.0625 C 1.75 -4.890625 1.765625 -7.953125 3.390625 -7.953125 C 5.015625 -7.953125 5.046875 -4.890625 5.046875 -4.0625 Z M 5.046875 -4.0625 "
           id="path387" />
      </symbol>
      <symbol
         overflow="visible"
         id="glyph1-0">
        <path
           style="stroke:none"
           d=""
           id="path390" />
      </symbol>
      <symbol
         overflow="visible"
         id="glyph1-1">
        <path
           style="stroke:none"
           d="M 2.890625 0.015625 L 2.890625 -0.234375 C 2.59375 -0.234375 2.328125 -0.3125 2.15625 -0.53125 C 1.984375 -0.71875 2.03125 -2.046875 2.046875 -3.0625 C 2.046875 -4.0625 2.09375 -5.625 2.09375 -5.625 C 1.796875 -5.421875 0.734375 -4.828125 0.4375 -4.703125 L 0.4375 -4.46875 L 1.296875 -4.734375 C 1.296875 -4.734375 1.3125 -3.453125 1.3125 -2.640625 C 1.3125 -1.8125 1.34375 -0.71875 1.1875 -0.53125 C 1 -0.3125 0.75 -0.234375 0.453125 -0.234375 L 0.453125 -0.015625 C 0.5625 -0.046875 1.53125 -0.078125 1.625 -0.078125 C 1.75 -0.078125 2.78125 -0.046875 2.890625 0.015625 Z M 2.890625 0.015625 "
           id="path393" />
      </symbol>
      <symbol
         overflow="visible"
         id="glyph1-2">
        <path
           style="stroke:none"
           d="M 3.765625 -4.0625 C 3.796875 -5.359375 2.6875 -5.53125 1.96875 -5.53125 C 0.90625 -5.5 0.375 -5.125 0.3125 -4.484375 C 0.21875 -3.53125 1.15625 -3.609375 1.359375 -3.796875 C 0.9375 -4.09375 0.984375 -5.1875 1.9375 -5.28125 C 2.765625 -5.34375 3.015625 -4.640625 2.9375 -4.140625 C 2.84375 -3.53125 2.390625 -2.625 1.65625 -1.859375 L 0.390625 -0.53125 L 0.390625 0 L 3.546875 0 C 3.515625 -0.3125 3.75 -1.4375 3.75 -1.4375 L 3.5 -1.4375 C 3.4375 -1.1875 3.3125 -0.71875 2.875 -0.671875 C 2.34375 -0.640625 0.8125 -0.625 0.8125 -0.625 L 2.5 -2.078125 C 2.828125 -2.375 3.734375 -3.28125 3.765625 -4.0625 Z M 3.765625 -4.0625 "
           id="path396" />
      </symbol>
      <symbol
         overflow="visible"
         id="glyph1-3">
        <path
           style="stroke:none"
           d="M 4.03125 -1.359375 C 4.109375 -2.640625 2.796875 -2.890625 2.171875 -2.90625 C 2.8125 -2.953125 3.828125 -3.4375 3.828125 -4.140625 C 3.828125 -5.171875 2.828125 -5.53125 2.09375 -5.53125 C 1.203125 -5.515625 0.546875 -5.125 0.5 -4.546875 C 0.4375 -3.75 1.1875 -3.921875 1.40625 -4.0625 C 1.03125 -4.53125 1.28125 -5.296875 2.109375 -5.265625 C 2.859375 -5.234375 3.046875 -4.59375 3.046875 -4.1875 C 3.046875 -3.4375 2.46875 -3.015625 1.46875 -3.09375 C 1.484375 -2.96875 1.5 -2.78125 1.4375 -2.65625 C 1.96875 -2.75 2.46875 -2.6875 2.75 -2.515625 C 3.09375 -2.28125 3.234375 -1.71875 3.1875 -1.3125 C 3.15625 -0.921875 2.9375 -0.140625 2.109375 -0.140625 C 1.328125 -0.140625 0.96875 -0.953125 1.3125 -1.390625 C 1.046875 -1.6875 0.34375 -1.625 0.390625 -0.90625 C 0.40625 -0.34375 1.046875 0.109375 2.09375 0.109375 C 2.90625 0.109375 3.984375 -0.375 4.03125 -1.359375 Z M 4.03125 -1.359375 "
           id="path399" />
      </symbol>
      <symbol
         overflow="visible"
         id="glyph2-0">
        <path
           style="stroke:none"
           d=""
           id="path402" />
      </symbol>
      <symbol
         overflow="visible"
         id="glyph2-1">
        <path
           style="stroke:none"
           d="M 8.421875 -2.828125 L 8.484375 -3.296875 L 0.640625 -3.296875 L 0.546875 -2.828125 Z M 8.421875 -2.828125 "
           id="path405" />
      </symbol>
      <symbol
         overflow="visible"
         id="glyph3-0">
        <path
           style="stroke:none"
           d=""
           id="path408" />
      </symbol>
      <symbol
         overflow="visible"
         id="glyph3-1">
        <path
           style="stroke:none"
           d="M 2.21875 -5.5 C 1.53125 -5.5 0.796875 -5.484375 0.578125 -4.796875 L 0.25 -3.4375 L 0.5 -3.328125 L 0.71875 -3.890625 C 0.984375 -4.59375 1.296875 -4.703125 1.890625 -4.703125 L 2.765625 -4.703125 C 2.46875 -3.375 1.828125 -1.65625 1.03125 -0.28125 L 1.046875 -0.125 L 1.703125 0.0625 L 1.828125 -0.0625 C 2.359375 -1.59375 2.890625 -3.15625 3.21875 -4.703125 L 4.921875 -4.703125 L 5 -4.640625 C 4.875 -3.6875 4.8125 -2.71875 4.8125 -1.75 C 4.8125 -1.21875 4.828125 -0.46875 5.171875 -0.140625 C 5.3125 0 5.578125 0 5.8125 0 C 6.296875 0 6.796875 -0.375 7.15625 -0.71875 L 7.046875 -0.921875 L 6.96875 -0.9375 C 6.796875 -0.828125 6.59375 -0.75 6.390625 -0.75 C 5.609375 -0.75 5.625 -2.296875 5.625 -3.375 C 5.625 -3.78125 5.671875 -4.203125 5.703125 -4.625 L 5.78125 -4.703125 C 6.234375 -4.71875 6.6875 -4.859375 7.09375 -5.046875 L 7.5 -5.75 L 7.40625 -5.828125 C 7 -5.625 6.546875 -5.5 6.078125 -5.5 Z M 2.21875 -5.5 "
           id="path411" />
      </symbol>
      <symbol
         overflow="visible"
         id="glyph4-0">
        <path
           style="stroke:none"
           d=""
           id="path414" />
      </symbol>
      <symbol
         overflow="visible"
         id="glyph4-1">
        <path
           style="stroke:none"
           d="M 1.484375 -3.671875 C 1.015625 -3.671875 0.53125 -3.65625 0.390625 -3.203125 L 0.171875 -2.296875 L 0.328125 -2.21875 L 0.484375 -2.59375 C 0.65625 -3.0625 0.875 -3.140625 1.265625 -3.140625 L 1.84375 -3.140625 C 1.65625 -2.25 1.21875 -1.109375 0.6875 -0.1875 L 0.6875 -0.078125 L 1.125 0.046875 L 1.21875 -0.046875 C 1.5625 -1.0625 1.921875 -2.109375 2.140625 -3.140625 L 3.28125 -3.140625 L 3.328125 -3.09375 C 3.25 -2.453125 3.203125 -1.8125 3.203125 -1.171875 C 3.203125 -0.8125 3.21875 -0.3125 3.453125 -0.09375 C 3.546875 0 3.71875 0 3.875 0 C 4.203125 0 4.53125 -0.25 4.765625 -0.484375 L 4.6875 -0.609375 L 4.640625 -0.625 C 4.53125 -0.546875 4.40625 -0.5 4.25 -0.5 C 3.734375 -0.5 3.75 -1.53125 3.75 -2.25 C 3.75 -2.515625 3.78125 -2.8125 3.796875 -3.078125 L 3.859375 -3.140625 C 4.15625 -3.140625 4.453125 -3.234375 4.71875 -3.359375 L 5 -3.828125 L 4.9375 -3.890625 C 4.671875 -3.75 4.359375 -3.671875 4.0625 -3.671875 Z M 1.484375 -3.671875 "
           id="path417" />
      </symbol>
      <symbol
         overflow="visible"
         id="glyph5-0">
        <path
           style="stroke:none"
           d=""
           id="path420" />
      </symbol>
      <symbol
         overflow="visible"
         id="glyph5-1">
        <path
           style="stroke:none"
           d="M 3.28125 6.734375 L 1.78125 3.640625 C 1.734375 3.546875 1.703125 3.515625 1.640625 3.515625 C 1.609375 3.515625 1.59375 3.515625 1.515625 3.578125 L 0.703125 4.140625 C 0.59375 4.21875 0.59375 4.25 0.59375 4.28125 C 0.59375 4.328125 0.625 4.390625 0.703125 4.390625 C 0.734375 4.390625 0.75 4.390625 0.84375 4.3125 C 0.953125 4.25 1.109375 4.125 1.25 4.03125 L 2.921875 7.46875 C 2.984375 7.609375 3.015625 7.609375 3.09375 7.609375 C 3.234375 7.609375 3.265625 7.5625 3.328125 7.4375 L 7.171875 -0.03125 C 7.234375 -0.140625 7.234375 -0.15625 7.234375 -0.1875 C 7.234375 -0.28125 7.15625 -0.359375 7.046875 -0.359375 C 6.953125 -0.359375 6.921875 -0.296875 6.859375 -0.203125 Z M 3.28125 6.734375 "
           id="path423" />
      </symbol>
    </g>
    <clipPath
       id="clip1">
      <path
         d="M 0 187 L 374.671875 187 L 374.671875 188 L 0 188 Z M 0 187 "
         id="path428" />
    </clipPath>
    <clipPath
       id="clip2">
      <path
         d="M 370 185 L 374.671875 185 L 374.671875 189 L 370 189 Z M 370 185 "
         id="path431" />
    </clipPath>
    <clipPath
       id="clip3">
      <path
         d="M 370 185 L 374.671875 185 L 374.671875 190 L 370 190 Z M 370 185 "
         id="path434" />
    </clipPath>
    <clipPath
       id="clip4">
      <path
         d="M 187 0 L 188 0 L 188 374.671875 L 187 374.671875 Z M 187 0 "
         id="path437" />
    </clipPath>
  </defs>
  <g
     id="surface1">
    <g
       clip-path="url(#clip1)"
       clip-rule="nonzero"
       id="g444">
      <path
         style="fill:none;stroke-width:0.5;stroke-linecap:round;stroke-linejoin:round;stroke:#000000;stroke-opacity:1;stroke-miterlimit:10"
         d="M -187.0861 0.0001625 L 187.085775 0.0001625 "
         transform="matrix(1,0,0,-1,187.3361,187.3361)"
         id="path442" />
    </g>
    <g
       clip-path="url(#clip2)"
       clip-rule="nonzero"
       id="g448">
      <path
         style="stroke:none;fill-rule:nonzero;fill:#000000;fill-opacity:1"
         d="M 370.722656 188.867188 L 374.421875 187.335938 L 370.722656 185.804688 Z M 370.722656 188.867188 "
         id="path446" />
    </g>
    <g
       clip-path="url(#clip3)"
       clip-rule="nonzero"
       id="g452">
      <path
         style="fill:none;stroke-width:0.5;stroke-linecap:round;stroke-linejoin:round;stroke:#000000;stroke-opacity:1;stroke-miterlimit:10"
         d="M 183.386556 -1.531087 L 187.085775 0.0001625 L 183.386556 1.531413 Z M 183.386556 -1.531087 "
         transform="matrix(1,0,0,-1,187.3361,187.3361)"
         id="path450" />
    </g>
    <g
       clip-path="url(#clip4)"
       clip-rule="nonzero"
       id="g456">
      <path
         style="fill:none;stroke-width:0.5;stroke-linecap:round;stroke-linejoin:round;stroke:#000000;stroke-opacity:1;stroke-miterlimit:10"
         d="M -0.0001625 -187.085775 L -0.0001625 187.0861 "
         transform="matrix(1,0,0,-1,187.3361,187.3361)"
         id="path454" />
    </g>
    <path
       style="fill-rule:nonzero;fill:#000000;fill-opacity:1;stroke-width:0.5;stroke-linecap:round;stroke-linejoin:round;stroke:#000000;stroke-opacity:1;stroke-miterlimit:10"
       d="M 1.531087 183.386881 L -0.0001625 187.0861 L -1.531413 183.386881 Z M 1.531087 183.386881 "
       transform="matrix(1,0,0,-1,187.3361,187.3361)"
       id="path458" />
    <path
       style="fill:none;stroke-width:1.3;stroke-linecap:round;stroke-linejoin:round;stroke:#004d4d;stroke-opacity:1;stroke-miterlimit:10"
       d="M 127.558431 0.0001625 C 127.558431 33.832194 114.117025 66.2736 90.19515 90.195475 C 66.273275 114.11735 33.831869 127.558756 -0.0001625 127.558756 C -33.832194 127.558756 -66.2736 114.11735 -90.195475 90.195475 C -114.11735 66.2736 -127.558756 33.832194 -127.558756 0.0001625 C -127.558756 -33.831869 -114.11735 -66.273275 -90.195475 -90.19515 C -66.2736 -114.117025 -33.832194 -127.558431 -0.0001625 -127.558431 C 33.831869 -127.558431 66.273275 -114.117025 90.19515 -90.19515 C 114.117025 -66.273275 127.558431 -33.831869 127.558431 0.0001625 Z M 127.558431 0.0001625 "
       transform="matrix(1,0,0,-1,187.3361,187.3361)"
       id="path460" />
    <path
       style="fill:none;stroke-width:0.5;stroke-linecap:round;stroke-linejoin:round;stroke:#004d4d;stroke-opacity:1;stroke-dasharray:3,3;stroke-miterlimit:10"
       d="M 155.906087 0.0001625 L 77.952962 135.019694 L -0.0001625 0.0001625 "
       transform="matrix(1,0,0,-1,187.3361,187.3361)"
       id="path462" />
    <path
       style="fill:none;stroke-width:0.5;stroke-linecap:round;stroke-linejoin:round;stroke:#004d4d;stroke-opacity:1;stroke-dasharray:3,3;stroke-miterlimit:10"
       d="M 77.952962 135.019694 L -77.953288 135.019694 L -0.0001625 0.0001625 "
       transform="matrix(1,0,0,-1,187.3361,187.3361)"
       id="path464" />
    <path
       style="fill:none;stroke-width:0.5;stroke-linecap:round;stroke-linejoin:round;stroke:#004d4d;stroke-opacity:1;stroke-dasharray:3,3;stroke-miterlimit:10"
       d="M -77.953288 135.019694 L -155.906413 0.0001625 L -0.0001625 0.0001625 "
       transform="matrix(1,0,0,-1,187.3361,187.3361)"
       id="path466" />
    <path
       style="fill:none;stroke-width:0.5;stroke-linecap:round;stroke-linejoin:round;stroke:#004d4d;stroke-opacity:1;stroke-dasharray:3,3;stroke-miterlimit:10"
       d="M -155.906413 0.0001625 L -77.953288 -135.019369 L -0.0001625 0.0001625 "
       transform="matrix(1,0,0,-1,187.3361,187.3361)"
       id="path468" />
    <path
       style="fill:none;stroke-width:0.5;stroke-linecap:round;stroke-linejoin:round;stroke:#004d4d;stroke-opacity:1;stroke-dasharray:3,3;stroke-miterlimit:10"
       d="M -77.953288 -135.019369 L 77.952962 -135.019369 L -0.0001625 0.0001625 "
       transform="matrix(1,0,0,-1,187.3361,187.3361)"
       id="path470" />
    <path
       style="fill:none;stroke-width:0.5;stroke-linecap:round;stroke-linejoin:round;stroke:#004d4d;stroke-opacity:1;stroke-dasharray:3,3;stroke-miterlimit:10"
       d="M 77.952962 -135.019369 L 155.906087 0.0001625 L -0.0001625 0.0001625 "
       transform="matrix(1,0,0,-1,187.3361,187.3361)"
       id="path472" />
    <path
       style="fill:none;stroke-width:0.5;stroke-linecap:round;stroke-linejoin:round;stroke:#004d4d;stroke-opacity:1;stroke-dasharray:3,3;stroke-miterlimit:10"
       d="M 77.952962 -135.019369 L 77.952962 135.019694 "
       transform="matrix(1,0,0,-1,187.3361,187.3361)"
       id="path474" />
    <path
       style="fill:none;stroke-width:0.5;stroke-linecap:round;stroke-linejoin:round;stroke:#004d4d;stroke-opacity:1;stroke-dasharray:3,3;stroke-miterlimit:10"
       d="M -77.953288 -135.019369 L -77.953288 135.019694 "
       transform="matrix(1,0,0,-1,187.3361,187.3361)"
       id="path476" />
    <g
       style="fill:#000000;fill-opacity:1"
       id="g480">
      <use
         xlink:href="#glyph0-1"
         x="346.7416"
         y="199.1193"
         id="use478" />
    </g>
    <path
       style="fill:none;stroke-width:3;stroke-linecap:round;stroke-linejoin:round;stroke:#000000;stroke-opacity:1;stroke-miterlimit:10"
       d="M 155.906087 0.0001625 L 155.906087 0.0001625 "
       transform="matrix(1,0,0,-1,187.3361,187.3361)"
       id="path482" />
    <g
       style="fill:#004d4d;fill-opacity:1"
       id="g486">
      <use
         xlink:href="#glyph1-1"
         x="270.4803"
         y="196.3583"
         id="use484" />
    </g>
    <path
       style="fill:none;stroke-width:0.4782;stroke-linecap:butt;stroke-linejoin:round;stroke:#004d4d;stroke-opacity:1;stroke-miterlimit:10"
       d="M 82.648275 -10.742025 L 86.75765 -10.742025 "
       transform="matrix(1,0,0,-1,187.3361,187.3361)"
       id="path488" />
    <g
       style="fill:#004d4d;fill-opacity:1"
       id="g492">
      <use
         xlink:href="#glyph1-2"
         x="269.9843"
         y="205.188"
         id="use490" />
    </g>
    <g
       style="fill:#004d4d;fill-opacity:1"
       id="g496">
      <use
         xlink:href="#glyph2-1"
         x="112.8833"
         y="201.0654"
         id="use494" />
    </g>
    <g
       style="fill:#004d4d;fill-opacity:1"
       id="g500">
      <use
         xlink:href="#glyph1-1"
         x="123.6156"
         y="196.3583"
         id="use498" />
    </g>
    <path
       style="fill:none;stroke-width:0.4782;stroke-linecap:butt;stroke-linejoin:round;stroke:#004d4d;stroke-opacity:1;stroke-miterlimit:10"
       d="M -64.215006 -10.742025 L -60.109538 -10.742025 "
       transform="matrix(1,0,0,-1,187.3361,187.3361)"
       id="path502" />
    <g
       style="fill:#004d4d;fill-opacity:1"
       id="g506">
      <use
         xlink:href="#glyph1-2"
         x="123.1197"
         y="205.188"
         id="use504" />
    </g>
    <g
       style="fill:#000000;fill-opacity:1"
       id="g510">
      <use
         xlink:href="#glyph3-1"
         x="20.6495"
         y="196.3252"
         id="use508" />
    </g>
    <path
       style="fill:none;stroke-width:3;stroke-linecap:round;stroke-linejoin:round;stroke:#000000;stroke-opacity:1;stroke-miterlimit:10"
       d="M -155.906413 0.0001625 L -155.906413 0.0001625 "
       transform="matrix(1,0,0,-1,187.3361,187.3361)"
       id="path512" />
    <g
       style="fill:#004d4d;fill-opacity:1"
       id="g516">
      <use
         xlink:href="#glyph4-1"
         x="269.9843"
         y="39.8785"
         id="use514" />
    </g>
    <path
       style="fill:none;stroke-width:0.4782;stroke-linecap:butt;stroke-linejoin:round;stroke:#004d4d;stroke-opacity:1;stroke-miterlimit:10"
       d="M 82.648275 145.738444 L 87.503744 145.738444 "
       transform="matrix(1,0,0,-1,187.3361,187.3361)"
       id="path518" />
    <g
       style="fill:#004d4d;fill-opacity:1"
       id="g522">
      <use
         xlink:href="#glyph1-3"
         x="270.2361"
         y="48.7082"
         id="use520" />
    </g>
    <g
       style="fill:#004d4d;fill-opacity:1"
       id="g526">
      <use
         xlink:href="#glyph1-2"
         x="95.7254"
         y="39.8785"
         id="use524" />
    </g>
    <g
       style="fill:#004d4d;fill-opacity:1"
       id="g530">
      <use
         xlink:href="#glyph4-1"
         x="99.8338"
         y="39.8785"
         id="use528" />
    </g>
    <path
       style="fill:none;stroke-width:0.4782;stroke-linecap:butt;stroke-linejoin:round;stroke:#004d4d;stroke-opacity:1;stroke-miterlimit:10"
       d="M -91.609538 145.738444 L -82.6486 145.738444 "
       transform="matrix(1,0,0,-1,187.3361,187.3361)"
       id="path532" />
    <g
       style="fill:#004d4d;fill-opacity:1"
       id="g536">
      <use
         xlink:href="#glyph1-3"
         x="98.0314"
         y="48.7082"
         id="use534" />
    </g>
    <g
       style="fill:#004d4d;fill-opacity:1"
       id="g540">
      <use
         xlink:href="#glyph2-1"
         x="85.4891"
         y="336.0838"
         id="use538" />
    </g>
    <g
       style="fill:#004d4d;fill-opacity:1"
       id="g544">
      <use
         xlink:href="#glyph1-2"
         x="95.7254"
         y="331.3767"
         id="use542" />
    </g>
    <g
       style="fill:#004d4d;fill-opacity:1"
       id="g548">
      <use
         xlink:href="#glyph4-1"
         x="99.8338"
         y="331.3767"
         id="use546" />
    </g>
    <path
       style="fill:none;stroke-width:0.4782;stroke-linecap:butt;stroke-linejoin:round;stroke:#004d4d;stroke-opacity:1;stroke-miterlimit:10"
       d="M -91.609538 -145.75765 L -82.6486 -145.75765 "
       transform="matrix(1,0,0,-1,187.3361,187.3361)"
       id="path550" />
    <g
       style="fill:#004d4d;fill-opacity:1"
       id="g554">
      <use
         xlink:href="#glyph1-3"
         x="98.0314"
         y="340.2065"
         id="use552" />
    </g>
    <g
       style="fill:#004d4d;fill-opacity:1"
       id="g558">
      <use
         xlink:href="#glyph2-1"
         x="268.7888"
         y="334.2211"
         id="use556" />
    </g>
    <g
       style="fill:#004d4d;fill-opacity:1"
       id="g562">
      <use
         xlink:href="#glyph4-1"
         x="279.0251"
         y="329.514"
         id="use560" />
    </g>
    <path
       style="fill:none;stroke-width:0.4782;stroke-linecap:butt;stroke-linejoin:round;stroke:#004d4d;stroke-opacity:1;stroke-miterlimit:10"
       d="M 91.687337 -143.894369 L 96.542806 -143.894369 "
       transform="matrix(1,0,0,-1,187.3361,187.3361)"
       id="path564" />
    <g
       style="fill:#004d4d;fill-opacity:1"
       id="g568">
      <use
         xlink:href="#glyph1-3"
         x="279.2769"
         y="338.3437"
         id="use566" />
    </g>
    <g
       style="fill:#004d4d;fill-opacity:1"
       id="g572">
      <use
         xlink:href="#glyph5-1"
         x="171.2331"
         y="56.5349"
         id="use570" />
    </g>
    <path
       style="fill:none;stroke-width:0.3587;stroke-linecap:butt;stroke-linejoin:round;stroke:#004d4d;stroke-opacity:1;stroke-miterlimit:10"
       d="M -9.047038 130.980631 L -4.695475 130.980631 "
       transform="matrix(1,0,0,-1,187.3361,187.3361)"
       id="path574" />
    <g
       style="fill:#004d4d;fill-opacity:1"
       id="g578">
      <use
         xlink:href="#glyph1-3"
         x="178.2901"
         y="63.2712"
         id="use576" />
    </g>
    <path
       style="fill:none;stroke-width:0.4782;stroke-linecap:butt;stroke-linejoin:round;stroke:#004d4d;stroke-opacity:1;stroke-miterlimit:10"
       d="M -16.101725 122.347819 L -4.695475 122.347819 "
       transform="matrix(1,0,0,-1,187.3361,187.3361)"
       id="path580" />
    <g
       style="fill:#004d4d;fill-opacity:1"
       id="g584">
      <use
         xlink:href="#glyph1-2"
         x="174.8827"
         y="72.1009"
         id="use582" />
    </g>
    <g
       style="fill:#004d4d;fill-opacity:1"
       id="g588">
      <use
         xlink:href="#glyph2-1"
         x="160.9968"
         y="314.732"
         id="use586" />
    </g>
    <g
       style="fill:#004d4d;fill-opacity:1"
       id="g592">
      <use
         xlink:href="#glyph5-1"
         x="171.2331"
         y="303.2886"
         id="use590" />
    </g>
    <path
       style="fill:none;stroke-width:0.3587;stroke-linecap:butt;stroke-linejoin:round;stroke:#004d4d;stroke-opacity:1;stroke-miterlimit:10"
       d="M -9.047038 -115.773275 L -4.695475 -115.773275 "
       transform="matrix(1,0,0,-1,187.3361,187.3361)"
       id="path594" />
    <g
       style="fill:#004d4d;fill-opacity:1"
       id="g598">
      <use
         xlink:href="#glyph1-3"
         x="178.2901"
         y="310.0249"
         id="use596" />
    </g>
    <path
       style="fill:none;stroke-width:0.4782;stroke-linecap:butt;stroke-linejoin:round;stroke:#004d4d;stroke-opacity:1;stroke-miterlimit:10"
       d="M -16.101725 -124.406087 L -4.695475 -124.406087 "
       transform="matrix(1,0,0,-1,187.3361,187.3361)"
       id="path600" />
    <g
       style="fill:#004d4d;fill-opacity:1"
       id="g604">
      <use
         xlink:href="#glyph1-2"
         x="174.8827"
         y="318.8546"
         id="use602" />
    </g>
  </g>
</svg>
