NOM,Prénom
ALLAIN,Baptiste
ANDRE_CABROL,Leïla
BATTAIS,Alicia
CASTET,Doryan
CHARBONNIER,Vincent
DE_TAUZIA,Lila
DIMOYAT,Coraline
DROUGARD,Emma
DROZDZ,Charlotte
DUCHATELLE,Emilie
ELBAZ,Simon
FLAMME,Léa
GUINARD,Maxime
GUISE,Lou-Anne
HASCOET,Elodie
HERVO,Léa
JEAN-PIERRE,Maïlyss	
JUDIC,Nathan
LALANNE,Clémence
LAMOUR,Jade
LE_DEVEHAT,Maïwenn
LE_DUFF,Anna
LE_FUR_DAUMALIN,Louis
LE_MOING,Jeanne
LUCAS,Sarah
LUSTEAU,Taylan
MANCEAU,Loéva
NGO_THE,Camille
NIBEL,Kilian
PAYSSERAND,Ar-Men
PERON,Baptiste
PODEVIN,Anna
RAPIN,Océane
RENEL,Alice
RIMBAUD,Zoé
ROLLAND,Antoine
ROZEAU,Jade
SCHOTT,Camille
SELLIN,Johann
THEZE,Alban
TIZOMBA,Eva
VUILLERET,Louise
