<?xml version="1.0" encoding="UTF-8"?>
<svg xmlns="http://www.w3.org/2000/svg" xmlns:xlink="http://www.w3.org/1999/xlink" width="225.09pt" height="282.323pt" viewBox="0 0 225.09 282.323" version="1.1">
<defs>
<g>
<symbol overflow="visible" id="glyph0-0">
<path style="stroke:none;" d=""/>
</symbol>
<symbol overflow="visible" id="glyph0-1">
<path style="stroke:none;" d="M 2.25 -6.03125 C 2.25 -6.390625 2.265625 -6.5 3.0625 -6.5 L 3.3125 -6.5 L 3.3125 -6.8125 C 2.96875 -6.78125 2.1875 -6.78125 1.796875 -6.78125 C 1.421875 -6.78125 0.625 -6.78125 0.28125 -6.8125 L 0.28125 -6.5 L 0.53125 -6.5 C 1.328125 -6.5 1.359375 -6.390625 1.359375 -6.03125 L 1.359375 -0.78125 C 1.359375 -0.421875 1.328125 -0.3125 0.53125 -0.3125 L 0.28125 -0.3125 L 0.28125 0 C 0.625 -0.03125 1.421875 -0.03125 1.796875 -0.03125 C 2.1875 -0.03125 2.96875 -0.03125 3.3125 0 L 3.3125 -0.3125 L 3.0625 -0.3125 C 2.265625 -0.3125 2.25 -0.421875 2.25 -0.78125 Z M 2.25 -6.03125 "/>
</symbol>
<symbol overflow="visible" id="glyph0-2">
<path style="stroke:none;" d="M 1.09375 -3.421875 L 1.09375 -0.75 C 1.09375 -0.3125 0.984375 -0.3125 0.3125 -0.3125 L 0.3125 0 C 0.671875 -0.015625 1.171875 -0.03125 1.453125 -0.03125 C 1.703125 -0.03125 2.21875 -0.015625 2.5625 0 L 2.5625 -0.3125 C 1.890625 -0.3125 1.78125 -0.3125 1.78125 -0.75 L 1.78125 -2.59375 C 1.78125 -3.625 2.5 -4.1875 3.125 -4.1875 C 3.765625 -4.1875 3.875 -3.65625 3.875 -3.078125 L 3.875 -0.75 C 3.875 -0.3125 3.765625 -0.3125 3.09375 -0.3125 L 3.09375 0 C 3.4375 -0.015625 3.953125 -0.03125 4.21875 -0.03125 C 4.46875 -0.03125 5 -0.015625 5.328125 0 L 5.328125 -0.3125 C 4.8125 -0.3125 4.5625 -0.3125 4.5625 -0.609375 L 4.5625 -2.515625 C 4.5625 -3.375 4.5625 -3.671875 4.25 -4.03125 C 4.109375 -4.203125 3.78125 -4.40625 3.203125 -4.40625 C 2.46875 -4.40625 2 -3.984375 1.71875 -3.359375 L 1.71875 -4.40625 L 0.3125 -4.296875 L 0.3125 -3.984375 C 1.015625 -3.984375 1.09375 -3.921875 1.09375 -3.421875 Z M 1.09375 -3.421875 "/>
</symbol>
<symbol overflow="visible" id="glyph0-3">
<path style="stroke:none;" d="M 1.71875 -3.984375 L 3.15625 -3.984375 L 3.15625 -4.296875 L 1.71875 -4.296875 L 1.71875 -6.125 L 1.46875 -6.125 C 1.46875 -5.3125 1.171875 -4.25 0.1875 -4.203125 L 0.1875 -3.984375 L 1.03125 -3.984375 L 1.03125 -1.234375 C 1.03125 -0.015625 1.96875 0.109375 2.328125 0.109375 C 3.03125 0.109375 3.3125 -0.59375 3.3125 -1.234375 L 3.3125 -1.796875 L 3.0625 -1.796875 L 3.0625 -1.25 C 3.0625 -0.515625 2.765625 -0.140625 2.390625 -0.140625 C 1.71875 -0.140625 1.71875 -1.046875 1.71875 -1.21875 Z M 1.71875 -3.984375 "/>
</symbol>
<symbol overflow="visible" id="glyph0-4">
<path style="stroke:none;" d="M 1.109375 -2.515625 C 1.171875 -4 2.015625 -4.25 2.359375 -4.25 C 3.375 -4.25 3.484375 -2.90625 3.484375 -2.515625 Z M 1.109375 -2.296875 L 3.890625 -2.296875 C 4.109375 -2.296875 4.140625 -2.296875 4.140625 -2.515625 C 4.140625 -3.5 3.59375 -4.46875 2.359375 -4.46875 C 1.203125 -4.46875 0.28125 -3.4375 0.28125 -2.1875 C 0.28125 -0.859375 1.328125 0.109375 2.46875 0.109375 C 3.6875 0.109375 4.140625 -1 4.140625 -1.1875 C 4.140625 -1.28125 4.0625 -1.3125 4 -1.3125 C 3.921875 -1.3125 3.890625 -1.25 3.875 -1.171875 C 3.53125 -0.140625 2.625 -0.140625 2.53125 -0.140625 C 2.03125 -0.140625 1.640625 -0.4375 1.40625 -0.8125 C 1.109375 -1.28125 1.109375 -1.9375 1.109375 -2.296875 Z M 1.109375 -2.296875 "/>
</symbol>
<symbol overflow="visible" id="glyph0-5">
<path style="stroke:none;" d="M 1.671875 -3.3125 L 1.671875 -4.40625 L 0.28125 -4.296875 L 0.28125 -3.984375 C 0.984375 -3.984375 1.0625 -3.921875 1.0625 -3.421875 L 1.0625 -0.75 C 1.0625 -0.3125 0.953125 -0.3125 0.28125 -0.3125 L 0.28125 0 C 0.671875 -0.015625 1.140625 -0.03125 1.421875 -0.03125 C 1.8125 -0.03125 2.28125 -0.03125 2.6875 0 L 2.6875 -0.3125 L 2.46875 -0.3125 C 1.734375 -0.3125 1.71875 -0.421875 1.71875 -0.78125 L 1.71875 -2.3125 C 1.71875 -3.296875 2.140625 -4.1875 2.890625 -4.1875 C 2.953125 -4.1875 2.984375 -4.1875 3 -4.171875 C 2.96875 -4.171875 2.765625 -4.046875 2.765625 -3.78125 C 2.765625 -3.515625 2.984375 -3.359375 3.203125 -3.359375 C 3.375 -3.359375 3.625 -3.484375 3.625 -3.796875 C 3.625 -4.109375 3.3125 -4.40625 2.890625 -4.40625 C 2.15625 -4.40625 1.796875 -3.734375 1.671875 -3.3125 Z M 1.671875 -3.3125 "/>
</symbol>
<symbol overflow="visible" id="glyph0-6">
<path style="stroke:none;" d="M 2.234375 -3.515625 L 2.234375 -6.09375 C 2.234375 -6.328125 2.234375 -6.453125 2.453125 -6.484375 C 2.546875 -6.5 2.84375 -6.5 3.046875 -6.5 C 3.9375 -6.5 5.046875 -6.453125 5.046875 -5.015625 C 5.046875 -4.328125 4.8125 -3.515625 3.34375 -3.515625 Z M 4.34375 -3.390625 C 5.296875 -3.625 6.078125 -4.234375 6.078125 -5.015625 C 6.078125 -5.96875 4.9375 -6.8125 3.484375 -6.8125 L 0.34375 -6.8125 L 0.34375 -6.5 L 0.59375 -6.5 C 1.359375 -6.5 1.375 -6.390625 1.375 -6.03125 L 1.375 -0.78125 C 1.375 -0.421875 1.359375 -0.3125 0.59375 -0.3125 L 0.34375 -0.3125 L 0.34375 0 C 0.703125 -0.03125 1.421875 -0.03125 1.796875 -0.03125 C 2.1875 -0.03125 2.90625 -0.03125 3.265625 0 L 3.265625 -0.3125 L 3.015625 -0.3125 C 2.25 -0.3125 2.234375 -0.421875 2.234375 -0.78125 L 2.234375 -3.296875 L 3.375 -3.296875 C 3.53125 -3.296875 3.953125 -3.296875 4.3125 -2.953125 C 4.6875 -2.609375 4.6875 -2.296875 4.6875 -1.625 C 4.6875 -0.984375 4.6875 -0.578125 5.09375 -0.203125 C 5.5 0.15625 6.046875 0.21875 6.34375 0.21875 C 7.125 0.21875 7.296875 -0.59375 7.296875 -0.875 C 7.296875 -0.9375 7.296875 -1.046875 7.171875 -1.046875 C 7.0625 -1.046875 7.0625 -0.953125 7.046875 -0.890625 C 6.984375 -0.171875 6.640625 0 6.390625 0 C 5.90625 0 5.828125 -0.515625 5.6875 -1.4375 L 5.546875 -2.234375 C 5.375 -2.875 4.890625 -3.203125 4.34375 -3.390625 Z M 4.34375 -3.390625 "/>
</symbol>
<symbol overflow="visible" id="glyph0-7">
<path style="stroke:none;" d="M 4.6875 -2.140625 C 4.6875 -3.40625 3.703125 -4.46875 2.5 -4.46875 C 1.25 -4.46875 0.28125 -3.375 0.28125 -2.140625 C 0.28125 -0.84375 1.3125 0.109375 2.484375 0.109375 C 3.6875 0.109375 4.6875 -0.875 4.6875 -2.140625 Z M 2.5 -0.140625 C 2.0625 -0.140625 1.625 -0.34375 1.359375 -0.8125 C 1.109375 -1.25 1.109375 -1.859375 1.109375 -2.21875 C 1.109375 -2.609375 1.109375 -3.140625 1.34375 -3.578125 C 1.609375 -4.03125 2.078125 -4.25 2.484375 -4.25 C 2.921875 -4.25 3.34375 -4.03125 3.609375 -3.59375 C 3.875 -3.171875 3.875 -2.59375 3.875 -2.21875 C 3.875 -1.859375 3.875 -1.3125 3.65625 -0.875 C 3.421875 -0.421875 2.984375 -0.140625 2.5 -0.140625 Z M 2.5 -0.140625 "/>
</symbol>
<symbol overflow="visible" id="glyph0-8">
<path style="stroke:none;" d="M 3.890625 -0.78125 L 3.890625 0.109375 L 5.328125 0 L 5.328125 -0.3125 C 4.640625 -0.3125 4.5625 -0.375 4.5625 -0.875 L 4.5625 -4.40625 L 3.09375 -4.296875 L 3.09375 -3.984375 C 3.78125 -3.984375 3.875 -3.921875 3.875 -3.421875 L 3.875 -1.65625 C 3.875 -0.78125 3.390625 -0.109375 2.65625 -0.109375 C 1.828125 -0.109375 1.78125 -0.578125 1.78125 -1.09375 L 1.78125 -4.40625 L 0.3125 -4.296875 L 0.3125 -3.984375 C 1.09375 -3.984375 1.09375 -3.953125 1.09375 -3.078125 L 1.09375 -1.578125 C 1.09375 -0.796875 1.09375 0.109375 2.609375 0.109375 C 3.171875 0.109375 3.609375 -0.171875 3.890625 -0.78125 Z M 3.890625 -0.78125 "/>
</symbol>
<symbol overflow="visible" id="glyph0-9">
<path style="stroke:none;" d="M 0.5625 -3.40625 C 0.5625 -1.34375 2.171875 0.21875 4.03125 0.21875 C 5.65625 0.21875 6.625 -1.171875 6.625 -2.328125 C 6.625 -2.421875 6.625 -2.5 6.5 -2.5 C 6.390625 -2.5 6.390625 -2.4375 6.375 -2.328125 C 6.296875 -0.90625 5.234375 -0.09375 4.140625 -0.09375 C 3.53125 -0.09375 1.578125 -0.421875 1.578125 -3.40625 C 1.578125 -6.375 3.53125 -6.71875 4.140625 -6.71875 C 5.21875 -6.71875 6.109375 -5.8125 6.3125 -4.359375 C 6.328125 -4.21875 6.328125 -4.1875 6.46875 -4.1875 C 6.625 -4.1875 6.625 -4.21875 6.625 -4.421875 L 6.625 -6.78125 C 6.625 -6.953125 6.625 -7.03125 6.515625 -7.03125 C 6.484375 -7.03125 6.4375 -7.03125 6.359375 -6.90625 L 5.859375 -6.171875 C 5.5 -6.53125 4.984375 -7.03125 4.03125 -7.03125 C 2.15625 -7.03125 0.5625 -5.4375 0.5625 -3.40625 Z M 0.5625 -3.40625 "/>
</symbol>
<symbol overflow="visible" id="glyph0-10">
<path style="stroke:none;" d="M 1.09375 -3.421875 L 1.09375 -0.75 C 1.09375 -0.3125 0.984375 -0.3125 0.3125 -0.3125 L 0.3125 0 C 0.671875 -0.015625 1.171875 -0.03125 1.453125 -0.03125 C 1.703125 -0.03125 2.21875 -0.015625 2.5625 0 L 2.5625 -0.3125 C 1.890625 -0.3125 1.78125 -0.3125 1.78125 -0.75 L 1.78125 -2.59375 C 1.78125 -3.625 2.5 -4.1875 3.125 -4.1875 C 3.765625 -4.1875 3.875 -3.65625 3.875 -3.078125 L 3.875 -0.75 C 3.875 -0.3125 3.765625 -0.3125 3.09375 -0.3125 L 3.09375 0 C 3.4375 -0.015625 3.953125 -0.03125 4.21875 -0.03125 C 4.46875 -0.03125 5 -0.015625 5.328125 0 L 5.328125 -0.3125 C 4.671875 -0.3125 4.5625 -0.3125 4.5625 -0.75 L 4.5625 -2.59375 C 4.5625 -3.625 5.265625 -4.1875 5.90625 -4.1875 C 6.53125 -4.1875 6.640625 -3.65625 6.640625 -3.078125 L 6.640625 -0.75 C 6.640625 -0.3125 6.53125 -0.3125 5.859375 -0.3125 L 5.859375 0 C 6.203125 -0.015625 6.71875 -0.03125 6.984375 -0.03125 C 7.25 -0.03125 7.765625 -0.015625 8.109375 0 L 8.109375 -0.3125 C 7.59375 -0.3125 7.34375 -0.3125 7.328125 -0.609375 L 7.328125 -2.515625 C 7.328125 -3.375 7.328125 -3.671875 7.015625 -4.03125 C 6.875 -4.203125 6.546875 -4.40625 5.96875 -4.40625 C 5.140625 -4.40625 4.6875 -3.8125 4.53125 -3.421875 C 4.390625 -4.296875 3.65625 -4.40625 3.203125 -4.40625 C 2.46875 -4.40625 2 -3.984375 1.71875 -3.359375 L 1.71875 -4.40625 L 0.3125 -4.296875 L 0.3125 -3.984375 C 1.015625 -3.984375 1.09375 -3.921875 1.09375 -3.421875 Z M 1.09375 -3.421875 "/>
</symbol>
<symbol overflow="visible" id="glyph0-11">
<path style="stroke:none;" d="M 3.3125 -0.75 C 3.359375 -0.359375 3.625 0.0625 4.09375 0.0625 C 4.3125 0.0625 4.921875 -0.078125 4.921875 -0.890625 L 4.921875 -1.453125 L 4.671875 -1.453125 L 4.671875 -0.890625 C 4.671875 -0.3125 4.421875 -0.25 4.3125 -0.25 C 3.984375 -0.25 3.9375 -0.703125 3.9375 -0.75 L 3.9375 -2.734375 C 3.9375 -3.15625 3.9375 -3.546875 3.578125 -3.921875 C 3.1875 -4.3125 2.6875 -4.46875 2.21875 -4.46875 C 1.390625 -4.46875 0.703125 -4 0.703125 -3.34375 C 0.703125 -3.046875 0.90625 -2.875 1.171875 -2.875 C 1.453125 -2.875 1.625 -3.078125 1.625 -3.328125 C 1.625 -3.453125 1.578125 -3.78125 1.109375 -3.78125 C 1.390625 -4.140625 1.875 -4.25 2.1875 -4.25 C 2.6875 -4.25 3.25 -3.859375 3.25 -2.96875 L 3.25 -2.609375 C 2.734375 -2.578125 2.046875 -2.546875 1.421875 -2.25 C 0.671875 -1.90625 0.421875 -1.390625 0.421875 -0.953125 C 0.421875 -0.140625 1.390625 0.109375 2.015625 0.109375 C 2.671875 0.109375 3.125 -0.296875 3.3125 -0.75 Z M 3.25 -2.390625 L 3.25 -1.390625 C 3.25 -0.453125 2.53125 -0.109375 2.078125 -0.109375 C 1.59375 -0.109375 1.1875 -0.453125 1.1875 -0.953125 C 1.1875 -1.5 1.609375 -2.328125 3.25 -2.390625 Z M 3.25 -2.390625 "/>
</symbol>
<symbol overflow="visible" id="glyph0-12">
<path style="stroke:none;" d="M 2.265625 -3.15625 L 3.953125 -3.15625 C 5.140625 -3.15625 6.21875 -3.953125 6.21875 -4.953125 C 6.21875 -5.9375 5.234375 -6.8125 3.875 -6.8125 L 0.34375 -6.8125 L 0.34375 -6.5 L 0.59375 -6.5 C 1.359375 -6.5 1.375 -6.390625 1.375 -6.03125 L 1.375 -0.78125 C 1.375 -0.421875 1.359375 -0.3125 0.59375 -0.3125 L 0.34375 -0.3125 L 0.34375 0 C 0.703125 -0.03125 1.4375 -0.03125 1.8125 -0.03125 C 2.1875 -0.03125 2.9375 -0.03125 3.296875 0 L 3.296875 -0.3125 L 3.046875 -0.3125 C 2.28125 -0.3125 2.265625 -0.421875 2.265625 -0.78125 Z M 2.234375 -3.40625 L 2.234375 -6.09375 C 2.234375 -6.4375 2.25 -6.5 2.71875 -6.5 L 3.609375 -6.5 C 5.1875 -6.5 5.1875 -5.4375 5.1875 -4.953125 C 5.1875 -4.484375 5.1875 -3.40625 3.609375 -3.40625 Z M 2.234375 -3.40625 "/>
</symbol>
<symbol overflow="visible" id="glyph0-13">
<path style="stroke:none;" d="M 1.265625 -0.765625 L 2.328125 -1.796875 C 3.875 -3.171875 4.46875 -3.703125 4.46875 -4.703125 C 4.46875 -5.84375 3.578125 -6.640625 2.359375 -6.640625 C 1.234375 -6.640625 0.5 -5.71875 0.5 -4.828125 C 0.5 -4.28125 1 -4.28125 1.03125 -4.28125 C 1.203125 -4.28125 1.546875 -4.390625 1.546875 -4.8125 C 1.546875 -5.0625 1.359375 -5.328125 1.015625 -5.328125 C 0.9375 -5.328125 0.921875 -5.328125 0.890625 -5.3125 C 1.109375 -5.96875 1.65625 -6.328125 2.234375 -6.328125 C 3.140625 -6.328125 3.5625 -5.515625 3.5625 -4.703125 C 3.5625 -3.90625 3.078125 -3.125 2.515625 -2.5 L 0.609375 -0.375 C 0.5 -0.265625 0.5 -0.234375 0.5 0 L 4.203125 0 L 4.46875 -1.734375 L 4.234375 -1.734375 C 4.171875 -1.4375 4.109375 -1 4 -0.84375 C 3.9375 -0.765625 3.28125 -0.765625 3.0625 -0.765625 Z M 1.265625 -0.765625 "/>
</symbol>
<symbol overflow="visible" id="glyph0-14">
<path style="stroke:none;" d="M 2.9375 -6.375 C 2.9375 -6.625 2.9375 -6.640625 2.703125 -6.640625 C 2.078125 -6 1.203125 -6 0.890625 -6 L 0.890625 -5.6875 C 1.09375 -5.6875 1.671875 -5.6875 2.1875 -5.953125 L 2.1875 -0.78125 C 2.1875 -0.421875 2.15625 -0.3125 1.265625 -0.3125 L 0.953125 -0.3125 L 0.953125 0 C 1.296875 -0.03125 2.15625 -0.03125 2.5625 -0.03125 C 2.953125 -0.03125 3.828125 -0.03125 4.171875 0 L 4.171875 -0.3125 L 3.859375 -0.3125 C 2.953125 -0.3125 2.9375 -0.421875 2.9375 -0.78125 Z M 2.9375 -6.375 "/>
</symbol>
</g>
<clipPath id="clip1">
  <path d="M 71.046875 14.757812 L 153.046875 14.757812 L 153.046875 62.660156 L 71.046875 62.660156 Z M 71.046875 14.757812 "/>
</clipPath>
<clipPath id="clip2">
  <path d="M 93.546875 106 L 130.546875 106 L 130.546875 123.867188 L 93.546875 123.867188 Z M 93.546875 106 "/>
</clipPath>
<clipPath id="clip3">
  <path d="M 93.546875 103 L 130.546875 103 L 130.546875 123.867188 L 93.546875 123.867188 Z M 93.546875 103 "/>
</clipPath>
<clipPath id="clip4">
  <path d="M 93.546875 99 L 130.546875 99 L 130.546875 114 L 93.546875 114 Z M 93.546875 99 "/>
</clipPath>
<clipPath id="clip5">
  <path d="M 93.546875 98.867188 L 130.546875 98.867188 L 130.546875 116 L 93.546875 116 Z M 93.546875 98.867188 "/>
</clipPath>
<clipPath id="clip6">
  <path d="M 88.046875 171 L 125 171 L 125 184 L 88.046875 184 Z M 88.046875 171 "/>
</clipPath>
<clipPath id="clip7">
  <path d="M 88.046875 160 L 136.945312 160 L 136.945312 173 L 88.046875 173 Z M 88.046875 160 "/>
</clipPath>
<clipPath id="clip8">
  <path d="M 88.046875 159.832031 L 136.945312 159.832031 L 136.945312 175 L 88.046875 175 Z M 88.046875 159.832031 "/>
</clipPath>
<clipPath id="clip9">
  <path d="M 124 160 L 136.945312 160 L 136.945312 184 L 124 184 Z M 124 160 "/>
</clipPath>
<clipPath id="clip10">
  <path d="M 122 159.832031 L 136.945312 159.832031 L 136.945312 184.429688 L 122 184.429688 Z M 122 159.832031 "/>
</clipPath>
<clipPath id="clip11">
  <path d="M 172.429688 242 L 205 242 L 205 249 L 172.429688 249 Z M 172.429688 242 "/>
</clipPath>
<clipPath id="clip12">
  <path d="M 202 235 L 210.230469 235 L 210.230469 251 L 202 251 Z M 202 235 "/>
</clipPath>
<clipPath id="clip13">
  <path d="M 198 248 L 202 248 L 202 253.816406 L 198 253.816406 Z M 198 248 "/>
</clipPath>
<clipPath id="clip14">
  <path d="M 196 245 L 204 245 L 204 253.816406 L 196 253.816406 Z M 196 245 "/>
</clipPath>
<clipPath id="clip15">
  <path d="M 173 252 L 199 252 L 199 253.816406 L 173 253.816406 Z M 173 252 "/>
</clipPath>
<clipPath id="clip16">
  <path d="M 173 251 L 200 251 L 200 253.816406 L 173 253.816406 Z M 173 251 "/>
</clipPath>
<clipPath id="clip17">
  <path d="M 172.429688 245 L 204 245 L 204 253.816406 L 172.429688 253.816406 Z M 172.429688 245 "/>
</clipPath>
<clipPath id="clip18">
  <path d="M 172.429688 237 L 210 237 L 210 243 L 172.429688 243 Z M 172.429688 237 "/>
</clipPath>
<clipPath id="clip19">
  <path d="M 172.429688 235 L 210.230469 235 L 210.230469 245 L 172.429688 245 Z M 172.429688 235 "/>
</clipPath>
<clipPath id="clip20">
  <path d="M 176 219.816406 L 207 219.816406 L 207 227 L 176 227 Z M 176 219.816406 "/>
</clipPath>
<clipPath id="clip21">
  <path d="M 198 219.816406 L 207 219.816406 L 207 242 L 198 242 Z M 198 219.816406 "/>
</clipPath>
<clipPath id="clip22">
  <path d="M 14.660156 242 L 47 242 L 47 249 L 14.660156 249 Z M 14.660156 242 "/>
</clipPath>
<clipPath id="clip23">
  <path d="M 44 235 L 52.460938 235 L 52.460938 251 L 44 251 Z M 44 235 "/>
</clipPath>
<clipPath id="clip24">
  <path d="M 41 248 L 44 248 L 44 253.816406 L 41 253.816406 Z M 41 248 "/>
</clipPath>
<clipPath id="clip25">
  <path d="M 38 245 L 47 245 L 47 253.816406 L 38 253.816406 Z M 38 245 "/>
</clipPath>
<clipPath id="clip26">
  <path d="M 15 252 L 42 252 L 42 253.816406 L 15 253.816406 Z M 15 252 "/>
</clipPath>
<clipPath id="clip27">
  <path d="M 15 251 L 42 251 L 42 253.816406 L 15 253.816406 Z M 15 251 "/>
</clipPath>
<clipPath id="clip28">
  <path d="M 14.660156 245 L 47 245 L 47 253.816406 L 14.660156 253.816406 Z M 14.660156 245 "/>
</clipPath>
<clipPath id="clip29">
  <path d="M 14.660156 235 L 52.460938 235 L 52.460938 245 L 14.660156 245 Z M 14.660156 235 "/>
</clipPath>
<clipPath id="clip30">
  <path d="M 18 219.816406 L 49 219.816406 L 49 227 L 18 227 Z M 18 219.816406 "/>
</clipPath>
<clipPath id="clip31">
  <path d="M 40 219.816406 L 49 219.816406 L 49 242 L 40 242 Z M 40 219.816406 "/>
</clipPath>
</defs>
<g id="surface1">
<g clip-path="url(#clip1)" clip-rule="nonzero">
<path style=" stroke:none;fill-rule:nonzero;fill:rgb(100%,100%,100%);fill-opacity:1;" d="M 99.621094 20.460938 C 85.222656 17.585938 77.621094 24.960938 78.820312 31.335938 L 78.917969 31.683594 C 67.695312 33.59375 70.636719 46.835938 76.019531 46.835938 L 76.550781 46.820312 C 75.195312 53.042969 88.308594 59.375 95.621094 56.210938 L 96.089844 55.695312 C 98.699219 61.292969 107.960938 62.226562 117.121094 62.460938 C 125.058594 62.664062 129.691406 62.035156 133.097656 58.554688 L 133.621094 58.710938 C 146.328125 59.730469 152.117188 50.953125 149.335938 44.652344 L 150.019531 44.460938 C 154.351562 43.316406 154.851562 33.316406 147.421875 31.835938 L 147.5625 31.449219 C 150.789062 24.941406 143.179688 18.808594 132.621094 19.960938 L 131.890625 19.578125 C 124.332031 12.734375 102.574219 13.851562 100.054688 20.621094 L 99.621094 20.460938 "/>
<path style="fill:none;stroke-width:3.99994;stroke-linecap:butt;stroke-linejoin:miter;stroke:rgb(0.784302%,43.920898%,62.350464%);stroke-opacity:1;stroke-miterlimit:4;" d="M 285.760937 421.980625 C 141.776562 450.730625 65.760937 376.980625 77.753125 313.230625 L 78.729687 309.754062 C -33.496875 290.6525 -4.082813 158.230625 49.745312 158.230625 L 55.057812 158.386875 C 41.503125 96.160312 172.635937 32.84 245.760937 64.480625 L 250.448437 69.636875 C 276.542187 13.660312 369.159375 4.324375 460.760937 1.980625 C 540.135937 -0.050625 586.464062 6.238437 620.526562 41.043125 L 625.760937 39.480625 C 752.83125 29.285312 810.721875 117.05875 782.909375 180.066562 L 789.745312 181.980625 C 833.065625 193.425937 838.065625 293.425937 763.76875 308.230625 L 765.175 312.097812 C 797.440625 377.175937 721.346875 438.504062 615.760937 426.980625 L 608.45625 430.80875 C 532.870312 499.24625 315.292187 488.074375 290.096875 420.379062 Z M 285.760937 421.980625 " transform="matrix(0.1,0,0,-0.1,71.045,62.659)"/>
</g>
<g style="fill:rgb(0%,0%,0%);fill-opacity:1;">
  <use xlink:href="#glyph0-1" x="95.096" y="42.063"/>
  <use xlink:href="#glyph0-2" x="98.693495" y="42.063"/>
</g>
<g style="fill:rgb(0%,0%,0%);fill-opacity:1;">
  <use xlink:href="#glyph0-3" x="103.949763" y="42.063"/>
  <use xlink:href="#glyph0-4" x="107.824218" y="42.063"/>
  <use xlink:href="#glyph0-5" x="112.251597" y="42.063"/>
  <use xlink:href="#glyph0-2" x="116.153948" y="42.063"/>
  <use xlink:href="#glyph0-4" x="121.689168" y="42.063"/>
  <use xlink:href="#glyph0-3" x="126.116548" y="42.063"/>
</g>
<g clip-path="url(#clip2)" clip-rule="nonzero">
<path style=" stroke:none;fill-rule:nonzero;fill:rgb(0.784302%,42.352295%,60.78186%);fill-opacity:1;" d="M 130.53125 106.21875 C 130.53125 110.167969 122.296875 113.371094 112.136719 113.371094 C 101.980469 113.371094 93.746094 110.167969 93.746094 106.21875 L 93.746094 116.695312 C 93.746094 120.644531 101.980469 123.847656 112.136719 123.847656 C 122.296875 123.847656 130.53125 120.644531 130.53125 116.695312 L 130.53125 106.21875 "/>
</g>
<g clip-path="url(#clip3)" clip-rule="nonzero">
<path style="fill:none;stroke-width:4;stroke-linecap:butt;stroke-linejoin:miter;stroke:rgb(100%,100%,100%);stroke-opacity:1;stroke-miterlimit:4;" d="M 369.8625 178.2625 C 369.8625 138.770312 287.51875 106.739062 185.917187 106.739062 C 84.354687 106.739062 2.010937 138.770312 2.010937 178.2625 L 2.010937 73.496875 C 2.010937 34.004687 84.354687 1.973437 185.917187 1.973437 C 287.51875 1.973437 369.8625 34.004687 369.8625 73.496875 Z M 369.8625 178.2625 " transform="matrix(0.1,0,0,-0.1,93.545,124.045)"/>
</g>
<g clip-path="url(#clip4)" clip-rule="nonzero">
<path style=" stroke:none;fill-rule:nonzero;fill:rgb(0.784302%,42.352295%,60.78186%);fill-opacity:1;" d="M 112.136719 113.371094 C 122.296875 113.371094 130.53125 110.167969 130.53125 106.21875 C 130.53125 102.265625 122.296875 99.066406 112.136719 99.066406 C 101.980469 99.066406 93.746094 102.265625 93.746094 106.21875 C 93.746094 110.167969 101.980469 113.371094 112.136719 113.371094 "/>
</g>
<g clip-path="url(#clip5)" clip-rule="nonzero">
<path style="fill:none;stroke-width:4;stroke-linecap:butt;stroke-linejoin:miter;stroke:rgb(100%,100%,100%);stroke-opacity:1;stroke-miterlimit:4;" d="M 185.917187 106.739062 C 287.51875 106.739062 369.8625 138.770312 369.8625 178.2625 C 369.8625 217.79375 287.51875 249.785937 185.917187 249.785937 C 84.354687 249.785937 2.010937 217.79375 2.010937 178.2625 C 2.010937 138.770312 84.354687 106.739062 185.917187 106.739062 Z M 185.917187 106.739062 " transform="matrix(0.1,0,0,-0.1,93.545,124.045)"/>
</g>
<path style=" stroke:none;fill-rule:nonzero;fill:rgb(100%,100%,100%);fill-opacity:1;" d="M 107.9375 103.421875 L 109.457031 105.699219 L 103.714844 107.027344 L 104.96875 105.980469 L 96.09375 104.464844 L 98.320312 102.796875 L 106.882812 104.246094 L 107.9375 103.421875 "/>
<path style=" stroke:none;fill-rule:nonzero;fill:rgb(100%,100%,100%);fill-opacity:1;" d="M 116.019531 108.945312 L 114.980469 106.597656 L 120.160156 105.5625 L 119.261719 106.367188 L 127.894531 107.839844 L 125.824219 109.496094 L 117.242188 107.886719 L 116.019531 108.945312 "/>
<path style=" stroke:none;fill-rule:nonzero;fill:rgb(100%,100%,100%);fill-opacity:1;" d="M 113.1875 102.175781 L 118.988281 100.589844 L 119.054688 103.074219 L 117.605469 102.796875 L 114.773438 105.148438 L 112.074219 104.753906 L 114.996094 102.457031 L 113.1875 102.175781 "/>
<path style=" stroke:none;fill-rule:nonzero;fill:rgb(100%,100%,100%);fill-opacity:1;" d="M 110.699219 111.085938 L 105.175781 112.121094 L 104.96875 109.566406 L 106.554688 109.910156 L 109.597656 107.316406 L 112.289062 107.769531 L 109.042969 110.601562 L 110.699219 111.085938 "/>
<path style="fill:none;stroke-width:0.3985;stroke-linecap:butt;stroke-linejoin:miter;stroke:rgb(0%,0%,0%);stroke-opacity:1;stroke-miterlimit:10;" d="M 0.001875 -27.520688 L 0.001875 -55.868344 " transform="matrix(1,0,0,-1,112.545,38.659)"/>
<g style="fill:rgb(0%,0%,0%);fill-opacity:1;">
  <use xlink:href="#glyph0-6" x="138.584" y="114.449"/>
  <use xlink:href="#glyph0-7" x="145.91747" y="114.449"/>
  <use xlink:href="#glyph0-8" x="150.89877" y="114.449"/>
  <use xlink:href="#glyph0-3" x="156.43399" y="114.449"/>
  <use xlink:href="#glyph0-4" x="160.308446" y="114.449"/>
  <use xlink:href="#glyph0-8" x="164.735825" y="114.449"/>
  <use xlink:href="#glyph0-5" x="170.271046" y="114.449"/>
</g>
<g clip-path="url(#clip6)" clip-rule="nonzero">
<path style=" stroke:none;fill-rule:nonzero;fill:rgb(1.176453%,41.175842%,59.605408%);fill-opacity:1;" d="M 88.703125 183.554688 L 124.421875 183.554688 L 124.421875 171.960938 L 88.703125 171.960938 Z M 88.703125 183.554688 "/>
<path style="fill:none;stroke-width:3.99994;stroke-linecap:butt;stroke-linejoin:miter;stroke:rgb(100%,100%,100%);stroke-opacity:1;stroke-miterlimit:4;" d="M 363.76875 8.763125 L 363.76875 124.700625 L 6.58125 124.700625 L 6.58125 8.763125 Z M 363.76875 8.763125 " transform="matrix(0.1,0,0,-0.1,88.045,184.431)"/>
</g>
<g clip-path="url(#clip7)" clip-rule="nonzero">
<path style=" stroke:none;fill-rule:nonzero;fill:rgb(1.176453%,41.175842%,59.605408%);fill-opacity:1;" d="M 88.609375 172.019531 L 103.039062 160.324219 L 136.367188 160.324219 L 124.386719 172.019531 L 88.609375 172.019531 "/>
</g>
<g clip-path="url(#clip8)" clip-rule="nonzero">
<path style="fill:none;stroke-width:3.99994;stroke-linecap:butt;stroke-linejoin:miter;stroke:rgb(100%,100%,100%);stroke-opacity:1;stroke-miterlimit:4;" d="M 5.64375 124.114687 L 149.940625 241.067812 L 483.221875 241.067812 L 363.417187 124.114687 Z M 5.64375 124.114687 " transform="matrix(0.1,0,0,-0.1,88.045,184.431)"/>
</g>
<g clip-path="url(#clip9)" clip-rule="nonzero">
<path style=" stroke:none;fill-rule:nonzero;fill:rgb(1.176453%,41.175842%,59.605408%);fill-opacity:1;" d="M 124.402344 183.921875 L 136.332031 171.027344 L 136.339844 160.34375 L 124.402344 172 L 124.402344 183.921875 "/>
</g>
<g clip-path="url(#clip10)" clip-rule="nonzero">
<path style="fill:none;stroke-width:3.99994;stroke-linecap:butt;stroke-linejoin:miter;stroke:rgb(100%,100%,100%);stroke-opacity:1;stroke-miterlimit:4;" d="M 363.573437 5.09125 L 482.870312 134.036562 L 482.948437 240.8725 L 363.573437 124.31 Z M 363.573437 5.09125 " transform="matrix(0.1,0,0,-0.1,88.045,184.431)"/>
</g>
<path style=" stroke:none;fill-rule:nonzero;fill:rgb(100%,100%,100%);fill-opacity:1;" d="M 109.546875 168.976562 L 108.851562 169.542969 L 99.945312 169.542969 L 99.058594 170.433594 L 96.644531 169.378906 L 101.5 167.992188 L 100.640625 168.976562 L 109.546875 168.976562 "/>
<path style=" stroke:none;fill-rule:nonzero;fill:rgb(100%,100%,100%);fill-opacity:1;" d="M 116.546875 164.601562 L 115.851562 165.167969 L 106.945312 165.167969 L 106.058594 166.058594 L 103.644531 165.003906 L 108.5 163.617188 L 107.640625 164.601562 L 116.546875 164.601562 "/>
<path style=" stroke:none;fill-rule:nonzero;fill:rgb(100%,100%,100%);fill-opacity:1;" d="M 111.117188 167.429688 L 111.808594 166.863281 L 120.71875 166.863281 L 121.609375 165.972656 L 124.023438 167.027344 L 119.167969 168.414062 L 120.027344 167.429688 L 111.117188 167.429688 "/>
<path style=" stroke:none;fill-rule:nonzero;fill:rgb(100%,100%,100%);fill-opacity:1;" d="M 115.742188 163.054688 L 116.433594 162.488281 L 125.34375 162.488281 L 126.234375 161.597656 L 128.648438 162.652344 L 123.792969 164.039062 L 124.652344 163.054688 L 115.742188 163.054688 "/>
<path style="fill:none;stroke-width:0.3985;stroke-linecap:butt;stroke-linejoin:miter;stroke:rgb(0%,0%,0%);stroke-opacity:1;stroke-miterlimit:10;" d="M 0.001875 -88.907406 L 0.001875 -117.255063 " transform="matrix(1,0,0,-1,112.545,38.659)"/>
<g style="fill:rgb(0%,0%,0%);fill-opacity:1;">
  <use xlink:href="#glyph0-9" x="144.084" y="175.335"/>
  <use xlink:href="#glyph0-7" x="151.27899" y="175.335"/>
  <use xlink:href="#glyph0-10" x="156.26029" y="175.335"/>
  <use xlink:href="#glyph0-10" x="164.562124" y="175.335"/>
</g>
<g style="fill:rgb(0%,0%,0%);fill-opacity:1;">
  <use xlink:href="#glyph0-8" x="172.585006" y="175.335"/>
  <use xlink:href="#glyph0-3" x="178.120227" y="175.335"/>
  <use xlink:href="#glyph0-11" x="181.994682" y="175.335"/>
  <use xlink:href="#glyph0-3" x="186.975982" y="175.335"/>
  <use xlink:href="#glyph0-4" x="190.850437" y="175.335"/>
  <use xlink:href="#glyph0-8" x="195.277816" y="175.335"/>
  <use xlink:href="#glyph0-5" x="200.813037" y="175.335"/>
</g>
<g clip-path="url(#clip11)" clip-rule="nonzero">
<path style=" stroke:none;fill-rule:nonzero;fill:rgb(0.784302%,43.920898%,62.350464%);fill-opacity:1;" d="M 172.933594 248.523438 L 204.40625 248.523438 L 204.40625 242.617188 L 172.933594 242.617188 Z M 172.933594 248.523438 "/>
<path style="fill:none;stroke-width:3.99994;stroke-linecap:butt;stroke-linejoin:miter;stroke:rgb(100%,100%,100%);stroke-opacity:1;stroke-miterlimit:4;" d="M 319.7525 52.935625 L 319.7525 111.998125 L 5.025938 111.998125 L 5.025938 52.935625 Z M 319.7525 52.935625 " transform="matrix(0.1,0,0,-0.1,172.431,253.817)"/>
</g>
<path style="fill:none;stroke-width:3.99994;stroke-linecap:butt;stroke-linejoin:miter;stroke:rgb(100%,100%,100%);stroke-opacity:1;stroke-miterlimit:4;" d="M 223.385313 78.560625 L 302.760313 78.560625 " transform="matrix(0.1,0,0,-0.1,172.431,253.817)"/>
<path style="fill:none;stroke-width:3.99994;stroke-linecap:butt;stroke-linejoin:miter;stroke:rgb(100%,100%,100%);stroke-opacity:1;stroke-miterlimit:4;" d="M 223.385313 81.412188 L 302.760313 81.412188 " transform="matrix(0.1,0,0,-0.1,172.431,253.817)"/>
<path style=" stroke:none;fill-rule:nonzero;fill:rgb(0.784302%,43.920898%,62.350464%);fill-opacity:1;" d="M 209.691406 242.921875 L 209.691406 237.636719 L 204.402344 242.640625 L 204.402344 248.523438 L 209.691406 242.921875 "/>
<g clip-path="url(#clip12)" clip-rule="nonzero">
<path style="fill:none;stroke-width:3.99994;stroke-linecap:butt;stroke-linejoin:miter;stroke:rgb(100%,100%,100%);stroke-opacity:1;stroke-miterlimit:4;" d="M 372.604063 108.95125 L 372.604063 161.802813 L 319.713438 111.76375 L 319.713438 52.935625 Z M 372.604063 108.95125 " transform="matrix(0.1,0,0,-0.1,172.431,253.817)"/>
</g>
<g clip-path="url(#clip13)" clip-rule="nonzero">
<path style=" stroke:none;fill-rule:nonzero;fill:rgb(0.784302%,43.920898%,62.350464%);fill-opacity:1;" d="M 198.816406 253.335938 L 198.816406 252.027344 L 201.675781 248.054688 L 201.675781 250.476562 L 198.816406 253.335938 "/>
</g>
<g clip-path="url(#clip14)" clip-rule="nonzero">
<path style="fill:none;stroke-width:3.99994;stroke-linecap:butt;stroke-linejoin:miter;stroke:rgb(100%,100%,100%);stroke-opacity:1;stroke-miterlimit:4;" d="M 263.854063 4.810625 L 263.854063 17.896563 L 292.447813 57.623125 L 292.447813 33.404375 Z M 263.854063 4.810625 " transform="matrix(0.1,0,0,-0.1,172.431,253.817)"/>
</g>
<g clip-path="url(#clip15)" clip-rule="nonzero">
<path style=" stroke:none;fill-rule:nonzero;fill:rgb(0.784302%,43.920898%,62.350464%);fill-opacity:1;" d="M 173.632812 253.335938 L 198.816406 253.335938 L 198.816406 252.027344 L 173.632812 252.027344 Z M 173.632812 253.335938 "/>
</g>
<g clip-path="url(#clip16)" clip-rule="nonzero">
<path style="fill:none;stroke-width:3.99994;stroke-linecap:butt;stroke-linejoin:miter;stroke:rgb(100%,100%,100%);stroke-opacity:1;stroke-miterlimit:4;" d="M 263.854063 17.896563 L 263.854063 4.810625 L 12.018125 4.810625 L 12.018125 17.896563 Z M 263.854063 17.896563 " transform="matrix(0.1,0,0,-0.1,172.431,253.817)"/>
</g>
<path style=" stroke:none;fill-rule:nonzero;fill:rgb(0.784302%,43.920898%,62.350464%);fill-opacity:1;" d="M 198.816406 252.027344 L 173.632812 252.027344 L 176.546875 248.054688 L 201.675781 248.054688 L 198.816406 252.027344 "/>
<g clip-path="url(#clip17)" clip-rule="nonzero">
<path style="fill:none;stroke-width:3.99994;stroke-linecap:butt;stroke-linejoin:miter;stroke:rgb(100%,100%,100%);stroke-opacity:1;stroke-miterlimit:4;" d="M 263.854063 17.896563 L 12.018125 17.896563 L 41.15875 57.623125 L 292.447813 57.623125 Z M 263.854063 17.896563 " transform="matrix(0.1,0,0,-0.1,172.431,253.817)"/>
</g>
<g clip-path="url(#clip18)" clip-rule="nonzero">
<path style=" stroke:none;fill-rule:nonzero;fill:rgb(0.784302%,43.920898%,62.350464%);fill-opacity:1;" d="M 209.691406 237.636719 L 178.207031 237.636719 L 172.933594 242.617188 L 204.40625 242.617188 L 209.691406 237.636719 "/>
</g>
<g clip-path="url(#clip19)" clip-rule="nonzero">
<path style="fill:none;stroke-width:3.99994;stroke-linecap:butt;stroke-linejoin:miter;stroke:rgb(100%,100%,100%);stroke-opacity:1;stroke-miterlimit:4;" d="M 372.604063 161.802813 L 57.760313 161.802813 L 5.025938 111.998125 L 319.7525 111.998125 Z M 372.604063 161.802813 " transform="matrix(0.1,0,0,-0.1,172.431,253.817)"/>
</g>
<path style=" stroke:none;fill-rule:nonzero;fill:rgb(0.784302%,43.920898%,62.350464%);fill-opacity:1;" d="M 178.5625 239.699219 L 200.265625 239.699219 L 200.265625 223.777344 L 178.5625 223.777344 Z M 178.5625 239.699219 "/>
<path style="fill:none;stroke-width:3.99994;stroke-linecap:butt;stroke-linejoin:miter;stroke:rgb(100%,100%,100%);stroke-opacity:1;stroke-miterlimit:4;" d="M 278.34625 141.177813 L 278.34625 300.396563 L 61.315 300.396563 L 61.315 141.177813 Z M 278.34625 141.177813 " transform="matrix(0.1,0,0,-0.1,172.431,253.817)"/>
<path style=" stroke:none;fill-rule:nonzero;fill:rgb(0.784302%,43.920898%,62.350464%);fill-opacity:1;" d="M 180.398438 227.273438 C 180.398438 225.675781 182.050781 225.4375 182.050781 225.4375 C 182.050781 225.4375 194.824219 225.4375 196.363281 225.4375 C 198.371094 225.4375 198.3125 227.332031 198.3125 227.332031 C 198.3125 227.332031 198.3125 235.136719 198.3125 236.261719 C 198.3125 237.382812 196.777344 237.855469 196.777344 237.855469 C 196.777344 237.855469 183.707031 237.855469 182.289062 237.855469 C 180.871094 237.855469 180.398438 236.378906 180.398438 236.378906 L 180.398438 227.273438 "/>
<path style="fill:none;stroke-width:3.99994;stroke-linecap:butt;stroke-linejoin:miter;stroke:rgb(100%,100%,100%);stroke-opacity:1;stroke-miterlimit:4;" d="M 79.674375 265.435625 C 79.674375 281.412188 96.197813 283.795 96.197813 283.795 C 96.197813 283.795 223.932188 283.795 239.322813 283.795 C 259.400938 283.795 258.815 264.849688 258.815 264.849688 C 258.815 264.849688 258.815 186.802813 258.815 175.552813 C 258.815 164.341875 243.463438 159.615313 243.463438 159.615313 C 243.463438 159.615313 112.760313 159.615313 98.580625 159.615313 C 84.400938 159.615313 79.674375 174.380938 79.674375 174.380938 Z M 79.674375 265.435625 " transform="matrix(0.1,0,0,-0.1,172.431,253.817)"/>
<path style=" stroke:none;fill-rule:nonzero;fill:rgb(0.784302%,43.920898%,62.350464%);fill-opacity:1;" d="M 203.902344 220.355469 L 182.199219 220.355469 L 178.5625 223.777344 L 200.265625 223.777344 L 203.902344 220.355469 "/>
<g clip-path="url(#clip20)" clip-rule="nonzero">
<path style="fill:none;stroke-width:3.99994;stroke-linecap:butt;stroke-linejoin:miter;stroke:rgb(100%,100%,100%);stroke-opacity:1;stroke-miterlimit:4;" d="M 314.713438 334.615313 L 97.682188 334.615313 L 61.315 300.396563 L 278.34625 300.396563 Z M 314.713438 334.615313 " transform="matrix(0.1,0,0,-0.1,172.431,253.817)"/>
</g>
<path style=" stroke:none;fill-rule:nonzero;fill:rgb(0.784302%,43.920898%,62.350464%);fill-opacity:1;" d="M 203.902344 236.308594 L 203.902344 220.347656 L 200.300781 223.777344 L 200.300781 239.699219 L 203.902344 236.308594 "/>
<g clip-path="url(#clip21)" clip-rule="nonzero">
<path style="fill:none;stroke-width:3.99994;stroke-linecap:butt;stroke-linejoin:miter;stroke:rgb(100%,100%,100%);stroke-opacity:1;stroke-miterlimit:4;" d="M 314.713438 175.084063 L 314.713438 334.693438 L 278.697813 300.396563 L 278.697813 141.177813 Z M 314.713438 175.084063 " transform="matrix(0.1,0,0,-0.1,172.431,253.817)"/>
</g>
<path style="fill:none;stroke-width:0.3985;stroke-linecap:butt;stroke-linejoin:miter;stroke:rgb(0%,0%,0%);stroke-opacity:1;stroke-miterlimit:10;" d="M 19.458906 -149.294125 L 56.365156 -179.6535 " transform="matrix(1,0,0,-1,112.545,38.659)"/>
<g style="fill:rgb(0%,0%,0%);fill-opacity:1;">
  <use xlink:href="#glyph0-12" x="181.952" y="267.664"/>
  <use xlink:href="#glyph0-9" x="188.732546" y="267.664"/>
  <use xlink:href="#glyph0-13" x="195.927535" y="267.664"/>
</g>
<path style=" stroke:none;fill-rule:nonzero;fill:rgb(0.784302%,43.920898%,62.350464%);fill-opacity:1;" d="M 15.164062 248.523438 L 46.636719 248.523438 L 46.636719 242.617188 L 15.164062 242.617188 Z M 15.164062 248.523438 "/>
<g clip-path="url(#clip22)" clip-rule="nonzero">
<path style="fill:none;stroke-width:3.99994;stroke-linecap:butt;stroke-linejoin:miter;stroke:rgb(100%,100%,100%);stroke-opacity:1;stroke-miterlimit:4;" d="M 319.777187 52.935625 L 319.777187 111.998125 L 5.050625 111.998125 L 5.050625 52.935625 Z M 319.777187 52.935625 " transform="matrix(0.1,0,0,-0.1,14.659,253.817)"/>
</g>
<path style="fill:none;stroke-width:3.99994;stroke-linecap:butt;stroke-linejoin:miter;stroke:rgb(100%,100%,100%);stroke-opacity:1;stroke-miterlimit:4;" d="M 223.370937 78.560625 L 302.745937 78.560625 " transform="matrix(0.1,0,0,-0.1,14.659,253.817)"/>
<path style="fill:none;stroke-width:3.99994;stroke-linecap:butt;stroke-linejoin:miter;stroke:rgb(100%,100%,100%);stroke-opacity:1;stroke-miterlimit:4;" d="M 223.370937 81.412188 L 302.745937 81.412188 " transform="matrix(0.1,0,0,-0.1,14.659,253.817)"/>
<path style=" stroke:none;fill-rule:nonzero;fill:rgb(0.784302%,43.920898%,62.350464%);fill-opacity:1;" d="M 51.921875 242.921875 L 51.921875 237.636719 L 46.632812 242.640625 L 46.632812 248.523438 L 51.921875 242.921875 "/>
<g clip-path="url(#clip23)" clip-rule="nonzero">
<path style="fill:none;stroke-width:3.99994;stroke-linecap:butt;stroke-linejoin:miter;stroke:rgb(100%,100%,100%);stroke-opacity:1;stroke-miterlimit:4;" d="M 372.62875 108.95125 L 372.62875 161.802813 L 319.738125 111.76375 L 319.738125 52.935625 Z M 372.62875 108.95125 " transform="matrix(0.1,0,0,-0.1,14.659,253.817)"/>
</g>
<g clip-path="url(#clip24)" clip-rule="nonzero">
<path style=" stroke:none;fill-rule:nonzero;fill:rgb(0.784302%,43.920898%,62.350464%);fill-opacity:1;" d="M 41.046875 253.335938 L 41.046875 252.027344 L 43.90625 248.054688 L 43.90625 250.476562 L 41.046875 253.335938 "/>
</g>
<g clip-path="url(#clip25)" clip-rule="nonzero">
<path style="fill:none;stroke-width:3.99994;stroke-linecap:butt;stroke-linejoin:miter;stroke:rgb(100%,100%,100%);stroke-opacity:1;stroke-miterlimit:4;" d="M 263.87875 4.810625 L 263.87875 17.896563 L 292.4725 57.623125 L 292.4725 33.404375 Z M 263.87875 4.810625 " transform="matrix(0.1,0,0,-0.1,14.659,253.817)"/>
</g>
<g clip-path="url(#clip26)" clip-rule="nonzero">
<path style=" stroke:none;fill-rule:nonzero;fill:rgb(0.784302%,43.920898%,62.350464%);fill-opacity:1;" d="M 15.859375 253.335938 L 41.046875 253.335938 L 41.046875 252.027344 L 15.859375 252.027344 Z M 15.859375 253.335938 "/>
</g>
<g clip-path="url(#clip27)" clip-rule="nonzero">
<path style="fill:none;stroke-width:3.99994;stroke-linecap:butt;stroke-linejoin:miter;stroke:rgb(100%,100%,100%);stroke-opacity:1;stroke-miterlimit:4;" d="M 263.87875 17.896563 L 263.87875 4.810625 L 12.00375 4.810625 L 12.00375 17.896563 Z M 263.87875 17.896563 " transform="matrix(0.1,0,0,-0.1,14.659,253.817)"/>
</g>
<path style=" stroke:none;fill-rule:nonzero;fill:rgb(0.784302%,43.920898%,62.350464%);fill-opacity:1;" d="M 41.046875 252.027344 L 15.859375 252.027344 L 18.773438 248.054688 L 43.90625 248.054688 L 41.046875 252.027344 "/>
<g clip-path="url(#clip28)" clip-rule="nonzero">
<path style="fill:none;stroke-width:3.99994;stroke-linecap:butt;stroke-linejoin:miter;stroke:rgb(100%,100%,100%);stroke-opacity:1;stroke-miterlimit:4;" d="M 263.87875 17.896563 L 12.00375 17.896563 L 41.144375 57.623125 L 292.4725 57.623125 Z M 263.87875 17.896563 " transform="matrix(0.1,0,0,-0.1,14.659,253.817)"/>
</g>
<path style=" stroke:none;fill-rule:nonzero;fill:rgb(0.784302%,43.920898%,62.350464%);fill-opacity:1;" d="M 51.921875 237.636719 L 20.4375 237.636719 L 15.164062 242.617188 L 46.636719 242.617188 L 51.921875 237.636719 "/>
<g clip-path="url(#clip29)" clip-rule="nonzero">
<path style="fill:none;stroke-width:3.99994;stroke-linecap:butt;stroke-linejoin:miter;stroke:rgb(100%,100%,100%);stroke-opacity:1;stroke-miterlimit:4;" d="M 372.62875 161.802813 L 57.785 161.802813 L 5.050625 111.998125 L 319.777187 111.998125 Z M 372.62875 161.802813 " transform="matrix(0.1,0,0,-0.1,14.659,253.817)"/>
</g>
<path style=" stroke:none;fill-rule:nonzero;fill:rgb(0.784302%,43.920898%,62.350464%);fill-opacity:1;" d="M 20.792969 239.699219 L 42.492188 239.699219 L 42.492188 223.777344 L 20.792969 223.777344 Z M 20.792969 239.699219 "/>
<path style="fill:none;stroke-width:3.99994;stroke-linecap:butt;stroke-linejoin:miter;stroke:rgb(100%,100%,100%);stroke-opacity:1;stroke-miterlimit:4;" d="M 278.331875 141.177813 L 278.331875 300.396563 L 61.339687 300.396563 L 61.339687 141.177813 Z M 278.331875 141.177813 " transform="matrix(0.1,0,0,-0.1,14.659,253.817)"/>
<path style=" stroke:none;fill-rule:nonzero;fill:rgb(0.784302%,43.920898%,62.350464%);fill-opacity:1;" d="M 22.625 227.273438 C 22.625 225.675781 24.28125 225.4375 24.28125 225.4375 C 24.28125 225.4375 37.054688 225.4375 38.589844 225.4375 C 40.601562 225.4375 40.542969 227.332031 40.542969 227.332031 C 40.542969 227.332031 40.542969 235.136719 40.542969 236.261719 C 40.542969 237.382812 39.003906 237.855469 39.003906 237.855469 C 39.003906 237.855469 25.9375 237.855469 24.515625 237.855469 C 23.097656 237.855469 22.625 236.378906 22.625 236.378906 L 22.625 227.273438 "/>
<path style="fill:none;stroke-width:3.99994;stroke-linecap:butt;stroke-linejoin:miter;stroke:rgb(100%,100%,100%);stroke-opacity:1;stroke-miterlimit:4;" d="M 79.66 265.435625 C 79.66 281.412188 96.2225 283.795 96.2225 283.795 C 96.2225 283.795 223.956875 283.795 239.308437 283.795 C 259.425625 283.795 258.839687 264.849688 258.839687 264.849688 C 258.839687 264.849688 258.839687 186.802813 258.839687 175.552813 C 258.839687 164.341875 243.449062 159.615313 243.449062 159.615313 C 243.449062 159.615313 112.785 159.615313 98.56625 159.615313 C 84.386562 159.615313 79.66 174.380938 79.66 174.380938 Z M 79.66 265.435625 " transform="matrix(0.1,0,0,-0.1,14.659,253.817)"/>
<path style=" stroke:none;fill-rule:nonzero;fill:rgb(0.784302%,43.920898%,62.350464%);fill-opacity:1;" d="M 46.128906 220.355469 L 24.429688 220.355469 L 20.792969 223.777344 L 42.492188 223.777344 L 46.128906 220.355469 "/>
<g clip-path="url(#clip30)" clip-rule="nonzero">
<path style="fill:none;stroke-width:3.99994;stroke-linecap:butt;stroke-linejoin:miter;stroke:rgb(100%,100%,100%);stroke-opacity:1;stroke-miterlimit:4;" d="M 314.699062 334.615313 L 97.706875 334.615313 L 61.339687 300.396563 L 278.331875 300.396563 Z M 314.699062 334.615313 " transform="matrix(0.1,0,0,-0.1,14.659,253.817)"/>
</g>
<path style=" stroke:none;fill-rule:nonzero;fill:rgb(0.784302%,43.920898%,62.350464%);fill-opacity:1;" d="M 46.128906 236.308594 L 46.128906 220.347656 L 42.527344 223.777344 L 42.527344 239.699219 L 46.128906 236.308594 "/>
<g clip-path="url(#clip31)" clip-rule="nonzero">
<path style="fill:none;stroke-width:3.99994;stroke-linecap:butt;stroke-linejoin:miter;stroke:rgb(100%,100%,100%);stroke-opacity:1;stroke-miterlimit:4;" d="M 314.699062 175.084063 L 314.699062 334.693438 L 278.683437 300.396563 L 278.683437 141.177813 Z M 314.699062 175.084063 " transform="matrix(0.1,0,0,-0.1,14.659,253.817)"/>
</g>
<path style="fill:none;stroke-width:0.3985;stroke-linecap:butt;stroke-linejoin:miter;stroke:rgb(0%,0%,0%);stroke-opacity:1;stroke-miterlimit:10;" d="M -19.459063 -149.294125 L -56.365313 -179.6535 " transform="matrix(1,0,0,-1,112.545,38.659)"/>
<g style="fill:rgb(0%,0%,0%);fill-opacity:1;">
  <use xlink:href="#glyph0-12" x="24.181" y="267.664"/>
  <use xlink:href="#glyph0-9" x="30.961546" y="267.664"/>
  <use xlink:href="#glyph0-14" x="38.156535" y="267.664"/>
</g>
</g>
</svg>
